File SSV Action;File SSV Status;File SSV Error;Area Type;Area FID;Area Version;Area Name;Zoning FID;Zoning Version;Zoning Name;Zoning Id;Zoning Tech;BG Id;BG Version;BG Name;BG SSV Action;BG SSV Status;BG SSV Error;BG Building SSV Action;BG Building SSV Status;BG Building SSV Error;Building FID;Building Version;LAM MK;LAM City Code;LAM Street Code;Street;Nr;Suffix;Zip;Municipality;Suburb;xPos;yPos;Name;Wall Mount;SS Reason;Number Floors;Height Cable;Orig VC Type;New VC Type;VC Method;Intro Tube;Prov Status;Prov Reason;Prov Planned;Prov Mod By;Prov Mod Date;Comments;SSV Flag;SSV Action;SSV Status;SSV Error;SSV Date;Seq;LU Key;LAM SK;Nature;Nr TPs;PBox;App;Block;Floor;OtherRef;CAD;CAD Details;CAD Type;CAD Type Descr;CAD SubType;Prov Status LU;Prov Reason LU;Prov Planned LU;Prov Mod By LU;Prov Mod Date LU;Comments LU;SSV Flag LU;SSV Action LU;SSV Status LU;SSV Error LU;SSV Date LU;LU;BU;SU;TOTAAL;LANGUAGE;BT;CONTACT;EMAIL;TELNR;adres
;;;Zoning;6804453;20200127094727;W03-C-Antwerpen-West-FH06;6804453;20200127094727;W03-C-Antwerpen-West-FH06;19083;FTTH-Cu;;;;;;;;;;29348964;20200219133718;6629696;1630000;8848;Everdijstraat;14;A;2000;Antwerpen;;152344,273;211837,76;;Y;NA;;;Unknown;Unknown;;None;;;;;;;;;;;;1;11299798;;BU;1;;;;;;N;;;;;;;;;;;;;;;;0;1;0;1;NL;SDU;Aschwin van Beers;glasvezel.antwerpen-west@proximus.com;80093884;Everdijstraat14A
;;;Zoning;6804453;20200127094727;W03-C-Antwerpen-West-FH06;6804453;20200127094727;W03-C-Antwerpen-West-FH06;19083;FTTH-Cu;;;;;;;;;;29350321;20200219135003;6629697;1630000;32774;Vleminckveld;58;;2000;Antwerpen;;152460,743;211569,574;;Y;NA;;;Unknown;Unknown;;None;;;;;;;;;;;;1;11299799;;LU;1;;;;;;N;;;;;;;;;;;;;;;;1;0;0;1;NL;SDU;Aschwin van Beers;glasvezel.antwerpen-west@proximus.com;80093884;Vleminckveld58
;;;Zoning;6804453;20200127094727;W03-C-Antwerpen-West-FH06;6804453;20200127094727;W03-C-Antwerpen-West-FH06;19083;FTTH-Cu;;;;;;;;;;29350414;20200219135228;6629698;1630000;32774;Vleminckveld;9;;2000;Antwerpen;;152377,084;211680,397;;N;NA;;;Unknown;Unknown;;None;;;;;;;;;;;;1;11299800;;BU;1;;;;;;N;;;;;;;;;;;;;;;;0;1;0;1;NL;SDU;Aschwin van Beers;glasvezel.antwerpen-west@proximus.com;80093884;Vleminckveld9
;;;Zoning;6804453;20200127094727;W03-C-Antwerpen-West-FH06;6804453;20200127094727;W03-C-Antwerpen-West-FH06;19083;FTTH-Cu;;;;;;;;;;29350589;20200219135631;6629699;1630000;42530;Lombardenvest;61;;2000;Antwerpen;;152438,016;211963,186;;Y;NA;;;Unknown;Unknown;;None;;;;;;;;;;;;1;11299801;;BU;1;;;;;;N;;;;;;;;;;;;;;;;0;1;0;1;NL;SDU;Aschwin van Beers;glasvezel.antwerpen-west@proximus.com;80093884;Lombardenvest61
