LAM_MK;SSV_Action;LU_Key;SSV_Action_LU;Opdrachtnummer;LAM MK
NB-200062e0517;DELETE;NB-200032695193---1;DELETE;;
NB-20003501542;DELETE;NB-200032695193---0;DELETE;;
NB-20006701541;DELETE;NB-200062e0517---0;DELETE;;
NB-20002701540;DELETE;;;;
NB-200032695193;DELETE;;;;
