File SSV Action;File SSV Status;File SSV Error;Area Type;Area FID;Area Version;Area Name;Zoning FID;Zoning Version;Zoning Name;Zoning Id;Zoning Tech;BG Id;BG Version;BG Name;BG SSV Action;BG SSV Status;BG SSV Error;BG Building SSV Action;BG Building SSV Status;BG Building SSV Error;Building FID;Building Version;LAM MK;LAM City Code;LAM Street Code;Street;Nr;Suffix;Zip;Municipality;Suburb;xPos;yPos;Name;Wall Mount;SS Reason;Number Floors;Height Cable;Orig VC Type;New VC Type;VC Method;Intro Tube;Prov Status;Prov Reason;Prov Planned;Prov Mod By;Prov Mod Date;Comments;SSV Flag;SSV Action;SSV Status;SSV Error;SSV Date;Seq;LU Key;LAM SK;Nature;Nr TPs;PBox;App;Block;Floor;OtherRef;CAD;CAD Details;CAD Type;CAD Type Descr;CAD SubType;Prov Status LU;Prov Reason LU;Prov Planned LU;Prov Mod By LU;Prov Mod Date LU;Comments LU;SSV Flag LU;SSV Action LU;SSV Status LU;SSV Error LU;SSV Date LU;LU;BU;SU;TOTAAL;LANGUAGE;BT;CONTACT;EMAIL;TELNR;adres
;;;Zoning;6802831;20200224073408;W03-C-Antwerpen-West-FH04;6802831;20200224073408;W03-C-Antwerpen-West-FH04;19081;FTTH-Cu;;;;;;;;;;33418605;20200421133834;148659;1630000;8287;Eikenstraat;2;;2000;Antwerpen;;152898,557;212140,352;;Y;NA;;;Unknown;Unknown;;None;;;;;;;;;;;;1;11367581;;BU;1;;;;;;N;;;;;;;;;;;;;;;;0;1;0;1;NL;SDU;Aschwin van Beers;glasvezel.antwerpen-west@proximus.com;80093884;Eikenstraat2
;;;Zoning;6802831;20200224073408;W03-C-Antwerpen-West-FH04;6802831;20200224073408;W03-C-Antwerpen-West-FH04;19081;FTTH-Cu;;;;;;;;;;33417297;20200421123805;1953275;1630000;13947;Sint-Jacobsmarkt;17;;2000;Antwerpen;;152969,539;212292,339;;N;MON;;;Unknown;Unknown;;None;;;;;;;;;;;;1;11367551;;LU;1;;;;;;N;;;;;;;;;;;;;;;;1;0;0;1;NL;SDU;Aschwin van Beers;glasvezel.antwerpen-west@proximus.com;80093884;Sint-Jacobsmarkt17
;;;Zoning;6802831;20200224073408;W03-C-Antwerpen-West-FH04;6802831;20200224073408;W03-C-Antwerpen-West-FH04;19081;FTTH-Cu;;;;;;;;;;33417387;20200421125554;4505306;1630000;13947;Sint-Jacobsmarkt;30;;2000;Antwerpen;;152958,617;212268,194;;Y;NA;;;Unknown;Unknown;;None;;;;;;;;;;;;1;11367561;;LU;1;;;;;;N;;;;;;;;;;;;;;;;5;1;0;6;NL;MDU;Aschwin van Beers;glasvezel.antwerpen-west@proximus.com;80093884;Sint-Jacobsmarkt30
;;;Zoning;6802831;20200224073408;W03-C-Antwerpen-West-FH04;6802831;20200224073408;W03-C-Antwerpen-West-FH04;19081;FTTH-Cu;;;;;;;;;;33417387;20200421125554;4505306;1630000;13947;Sint-Jacobsmarkt;30;;2000;Antwerpen;;152958,617;212268,194;;Y;NA;;;Unknown;Unknown;;None;;;;;;;;;;;;2;11367562;;LU;1;;;;;;N;;;;;;;;;;;;;;;;5;1;0;6;NL;MDU;Aschwin van Beers;glasvezel.antwerpen-west@proximus.com;80093884;Sint-Jacobsmarkt30
;;;Zoning;6802831;20200224073408;W03-C-Antwerpen-West-FH04;6802831;20200224073408;W03-C-Antwerpen-West-FH04;19081;FTTH-Cu;;;;;;;;;;33417387;20200421125554;4505306;1630000;13947;Sint-Jacobsmarkt;30;;2000;Antwerpen;;152958,617;212268,194;;Y;NA;;;Unknown;Unknown;;None;;;;;;;;;;;;3;11367563;;LU;1;;;;;;N;;;;;;;;;;;;;;;;5;1;0;6;NL;MDU;Aschwin van Beers;glasvezel.antwerpen-west@proximus.com;80093884;Sint-Jacobsmarkt30
;;;Zoning;6802831;20200224073408;W03-C-Antwerpen-West-FH04;6802831;20200224073408;W03-C-Antwerpen-West-FH04;19081;FTTH-Cu;;;;;;;;;;33417387;20200421125554;4505306;1630000;13947;Sint-Jacobsmarkt;30;;2000;Antwerpen;;152958,617;212268,194;;Y;NA;;;Unknown;Unknown;;None;;;;;;;;;;;;4;11367564;;LU;1;;;;;;N;;;;;;;;;;;;;;;;5;1;0;6;NL;MDU;Aschwin van Beers;glasvezel.antwerpen-west@proximus.com;80093884;Sint-Jacobsmarkt30
;;;Zoning;6802831;20200224073408;W03-C-Antwerpen-West-FH04;6802831;20200224073408;W03-C-Antwerpen-West-FH04;19081;FTTH-Cu;;;;;;;;;;33417387;20200421125554;4505306;1630000;13947;Sint-Jacobsmarkt;30;;2000;Antwerpen;;152958,617;212268,194;;Y;NA;;;Unknown;Unknown;;None;;;;;;;;;;;;5;11367565;;LU;1;;;;;;N;;;;;;;;;;;;;;;;5;1;0;6;NL;MDU;Aschwin van Beers;glasvezel.antwerpen-west@proximus.com;80093884;Sint-Jacobsmarkt30
;;;Zoning;6802831;20200224073408;W03-C-Antwerpen-West-FH04;6802831;20200224073408;W03-C-Antwerpen-West-FH04;19081;FTTH-Cu;;;;;;;;;;33417387;20200421125554;4505306;1630000;13947;Sint-Jacobsmarkt;30;;2000;Antwerpen;;152958,617;212268,194;;Y;NA;;;Unknown;Unknown;;None;;;;;;;;;;;;6;11367566;;BU;1;;;;;;N;;;;;;;;;;;;;;;;5;1;0;6;NL;MDU;Aschwin van Beers;glasvezel.antwerpen-west@proximus.com;80093884;Sint-Jacobsmarkt30
