Opdrachtnummer;LAM MK;SSV_Action
NB-8300108be948;2759120;
NB-8300664da5455;2761478;
NB-830011A1466;2762277;
NB-8300219b2f099;2762485;
NB-83002695d0c44;2762516;
NB-8300299837516;2762536;
NB-8300729705092;2767972;
NB-83007342d6850;2767984;
NB-8300798fb1c52;2768063;
NB-830021ed6f19;320865;
NB-83007586fb030;320873;
NB-830080680eb62;321353;
NB-83001773a739;321982;
NB-8300347222263;321990;
NB-830065996b686;334956;
NB-83002148a433;334972;
NB-830082b4749;335117;
NB-830013B4667;5493303;
NB-83002358e2701;5579441;
NB-8300297cb8d17;5579445;
NB-8300349a07547;5579447;
NB-8300759c00d90;5579589;
NB-8300147A5747;6089753;
