File SSV Action;File SSV Status;File SSV Error;Area Type;Area FID;Area Version;Area Name;Zoning FID;Zoning Version;Zoning Name;Zoning Id;Zoning Tech;BG Id;BG Version;BG Name;BG SSV Action;BG SSV Status;BG SSV Error;BG Building SSV Action;BG Building SSV Status;BG Building SSV Error;Building FID;Building Version;LAM MK;LAM City Code;LAM Street Code;Street;Nr;Suffix;Zip;Municipality;Suburb;xPos;yPos;Name;Wall Mount;SS Reason;Number Floors;Height Cable;Orig VC Type;New VC Type;VC Method;Intro Tube;Prov Status;Prov Reason;Prov Planned;Prov Mod By;Prov Mod Date;Comments;SSV Flag;SSV Action;SSV Status;SSV Error;SSV Date;Seq;LU Key;LAM SK;Nature;Nr TPs;PBox;App;Block;Floor;OtherRef;CAD;CAD Details;CAD Type;CAD Type Descr;CAD SubType;Prov Status LU;Prov Reason LU;Prov Planned LU;Prov Mod By LU;Prov Mod Date LU;Comments LU;SSV Flag LU;SSV Action LU;SSV Status LU;SSV Error LU;SSV Date LU;LU;BU;SU;TOTAAL;LANGUAGE;BT;CONTACT;EMAIL;TELNR;adres
;;;Zoning;31372691;20200326171604;W04-C-Evere-FH05;31372691;20200326171604;W04-C-Evere-FH05;32939;FTTH-Cu;;;;;;;;;;33545971;20200504102714;1623301;890600;16888;A. Vermeylenlaan - Avenue Auguste Vermeylen;60;;1140;Evere;;153630;172550;;Y;NA;2;4;Unknown;Unknown;;None;;;;;;;;;;;;1;11388950;;LU;1;;;;;;;;;;;;;;;;;;;;;;1;0;0;1;NL;SDU;Emmanuelle Massart;fibreoptique.evere@proximus.com;80016855;A. Vermeylenlaan - Avenue Auguste Vermeylen60
;;;Zoning;31372691;20200326171604;W04-C-Evere-FH05;31372691;20200326171604;W04-C-Evere-FH05;32939;FTTH-Cu;;;;;;;;;;33545972;20200504102714;4117835;890600;2306;Cicerolaan;40;;1140;Evere;;153535;172561;;Y;NA;2;4;Unknown;Unknown;;None;;;;;;;;;;;;1;11388951;;LU;1;;;;;;;;;;;;;;;;;;;;;;1;0;0;1;NL;SDU;Emmanuelle Massart;fibreoptique.evere@proximus.com;80016855;Cicerolaan40
;;;Zoning;31372691;20200326171604;W04-C-Evere-FH05;31372691;20200326171604;W04-C-Evere-FH05;32939;FTTH-Cu;;;;;;;;;;33545970;20200504102714;6524488;890600;16716;Clos des Lauriers Roses - Oleandergaard;104;;1140;Evere;;153775;172630;;Y;NA;2;4;Unknown;Unknown;;None;;;;;;;;;;;;1;11388949;;LU;1;;;;;;;;;;;;;;;;;;;;;;1;0;0;1;NL;SDU;Emmanuelle Massart;fibreoptique.evere@proximus.com;80016855;Clos des Lauriers Roses - Oleandergaard104
