LAM MK;Area Type;Area FID;Area Version;Area Name;Zoning FID;Zoning Version;Zoning Name;Zoning Id;Zoning Tech;BG Version;Building FID;Building Version;BG Id;LAM City Code;LAM Street Code
319836;Zoning;8315392;20191109094845;W03-C-Knokke-Heist-FH08;8315392;20191109094845;W03-C-Knokke-Heist-FH08;21137;FTTH-Cu;;31668099;20200506174437;;33860000;200
319827;Zoning;8315392;20191109094845;W03-C-Knokke-Heist-FH08;8315392;20191109094845;W03-C-Knokke-Heist-FH08;21137;FTTH-Cu;;31668090;20200506174437;;33860000;200
2757511;Zoning;8315392;20191109094845;W03-C-Knokke-Heist-FH08;8315392;20191109094845;W03-C-Knokke-Heist-FH08;21137;FTTH-Cu;;33593048;20200506174439;;33860000;200
2757512;Zoning;8315392;20191109094845;W03-C-Knokke-Heist-FH08;8315392;20191109094845;W03-C-Knokke-Heist-FH08;21137;FTTH-Cu;;31667819;20200506174428;;33860000;200
319829;Zoning;8315392;20191109094845;W03-C-Knokke-Heist-FH08;8315392;20191109094845;W03-C-Knokke-Heist-FH08;21137;FTTH-Cu;;31668092;20200506174437;;33860000;200
2757513;Zoning;8315392;20191109094845;W03-C-Knokke-Heist-FH08;8315392;20191109094845;W03-C-Knokke-Heist-FH08;21137;FTTH-Cu;;31667820;20200506174428;;33860000;200
319828;Zoning;8315392;20191109094845;W03-C-Knokke-Heist-FH08;8315392;20191109094845;W03-C-Knokke-Heist-FH08;21137;FTTH-Cu;;31668091;20200506174437;;33860000;200
2757514;Zoning;8315392;20191109094845;W03-C-Knokke-Heist-FH08;8315392;20191109094845;W03-C-Knokke-Heist-FH08;21137;FTTH-Cu;;31667821;20200506174428;;33860000;200
2757515;Zoning;8315392;20191109094845;W03-C-Knokke-Heist-FH08;8315392;20191109094845;W03-C-Knokke-Heist-FH08;21137;FTTH-Cu;;31667822;20200506174428;;33860000;200
2757516;Zoning;8315392;20191109094845;W03-C-Knokke-Heist-FH08;8315392;20191109094845;W03-C-Knokke-Heist-FH08;21137;FTTH-Cu;;31667823;20200506174428;;33860000;200
2757517;Zoning;8315392;20191109094845;W03-C-Knokke-Heist-FH08;8315392;20191109094845;W03-C-Knokke-Heist-FH08;21137;FTTH-Cu;;31667824;20200506174428;;33860000;200
2757518;Zoning;8315392;20191109094845;W03-C-Knokke-Heist-FH08;8315392;20191109094845;W03-C-Knokke-Heist-FH08;21137;FTTH-Cu;;31667825;20200506174429;;33860000;200
4348134;Zoning;8315392;20191109094845;W03-C-Knokke-Heist-FH08;8315392;20191109094845;W03-C-Knokke-Heist-FH08;21137;FTTH-Cu;;31668191;20200506174433;;33860000;200
2757519;Zoning;8315392;20191109094845;W03-C-Knokke-Heist-FH08;8315392;20191109094845;W03-C-Knokke-Heist-FH08;21137;FTTH-Cu;;31667826;20200506174429;;33860000;200
2757521;Zoning;8315392;20191109094845;W03-C-Knokke-Heist-FH08;8315392;20191109094845;W03-C-Knokke-Heist-FH08;21137;FTTH-Cu;;31667827;20200506174429;;33860000;200
2757522;Zoning;8315392;20191109094845;W03-C-Knokke-Heist-FH08;8315392;20191109094845;W03-C-Knokke-Heist-FH08;21137;FTTH-Cu;;31667828;20200506174429;;33860000;200
2757523;Zoning;8315392;20191109094845;W03-C-Knokke-Heist-FH08;8315392;20191109094845;W03-C-Knokke-Heist-FH08;21137;FTTH-Cu;;31667829;20200506174429;;33860000;200
2757524;Zoning;8315392;20191109094845;W03-C-Knokke-Heist-FH08;8315392;20191109094845;W03-C-Knokke-Heist-FH08;21137;FTTH-Cu;;31667830;20200506174429;;33860000;200
2757525;Zoning;8315392;20191109094845;W03-C-Knokke-Heist-FH08;8315392;20191109094845;W03-C-Knokke-Heist-FH08;21137;FTTH-Cu;;31667831;20200506174429;;33860000;200
2757527;Zoning;8315392;20191109094845;W03-C-Knokke-Heist-FH08;8315392;20191109094845;W03-C-Knokke-Heist-FH08;21137;FTTH-Cu;;31667832;20200506174429;;33860000;200
2757528;Zoning;8315392;20191109094845;W03-C-Knokke-Heist-FH08;8315392;20191109094845;W03-C-Knokke-Heist-FH08;21137;FTTH-Cu;;31667833;20200506174429;;33860000;200
319830;Zoning;8315392;20191109094845;W03-C-Knokke-Heist-FH08;8315392;20191109094845;W03-C-Knokke-Heist-FH08;21137;FTTH-Cu;;31668093;20200506174437;;33860000;200
319834;Zoning;8315392;20191109094845;W03-C-Knokke-Heist-FH08;8315392;20191109094845;W03-C-Knokke-Heist-FH08;21137;FTTH-Cu;;31668097;20200506174437;;33860000;200
319831;Zoning;8315392;20191109094845;W03-C-Knokke-Heist-FH08;8315392;20191109094845;W03-C-Knokke-Heist-FH08;21137;FTTH-Cu;;31668094;20200506174437;;33860000;200
319833;Zoning;8315392;20191109094845;W03-C-Knokke-Heist-FH08;8315392;20191109094845;W03-C-Knokke-Heist-FH08;21137;FTTH-Cu;;31668096;20200506174437;;33860000;200
2757529;Zoning;8315392;20191109094845;W03-C-Knokke-Heist-FH08;8315392;20191109094845;W03-C-Knokke-Heist-FH08;21137;FTTH-Cu;;31667834;20200506174429;;33860000;200
320258;Zoning;8315392;20191109094845;W03-C-Knokke-Heist-FH08;8315392;20191109094845;W03-C-Knokke-Heist-FH08;21137;FTTH-Cu;;31668144;20200506174437;;33860000;200
2757530;Zoning;8315392;20191109094845;W03-C-Knokke-Heist-FH08;8315392;20191109094845;W03-C-Knokke-Heist-FH08;21137;FTTH-Cu;;31667835;20200506174429;;33860000;200
2757531;Zoning;8315392;20191109094845;W03-C-Knokke-Heist-FH08;8315392;20191109094845;W03-C-Knokke-Heist-FH08;21137;FTTH-Cu;;31667836;20200506174429;;33860000;200
2757532;Zoning;8315392;20191109094845;W03-C-Knokke-Heist-FH08;8315392;20191109094845;W03-C-Knokke-Heist-FH08;21137;FTTH-Cu;;31667837;20200506174429;;33860000;200
2757534;Zoning;8315392;20191109094845;W03-C-Knokke-Heist-FH08;8315392;20191109094845;W03-C-Knokke-Heist-FH08;21137;FTTH-Cu;;31667838;20200506174429;;33860000;200
2757535;Zoning;8315392;20191109094845;W03-C-Knokke-Heist-FH08;8315392;20191109094845;W03-C-Knokke-Heist-FH08;21137;FTTH-Cu;;31667839;20200506174429;;33860000;200
2757536;Zoning;8315392;20191109094845;W03-C-Knokke-Heist-FH08;8315392;20191109094845;W03-C-Knokke-Heist-FH08;21137;FTTH-Cu;;31667840;20200506174429;;33860000;200
2757537;Zoning;8315392;20191109094845;W03-C-Knokke-Heist-FH08;8315392;20191109094845;W03-C-Knokke-Heist-FH08;21137;FTTH-Cu;;31667841;20200506174429;;33860000;200
2757538;Zoning;8315392;20191109094845;W03-C-Knokke-Heist-FH08;8315392;20191109094845;W03-C-Knokke-Heist-FH08;21137;FTTH-Cu;;31667842;20200506174429;;33860000;200
2757539;Zoning;8315392;20191109094845;W03-C-Knokke-Heist-FH08;8315392;20191109094845;W03-C-Knokke-Heist-FH08;21137;FTTH-Cu;;31667843;20200506174429;;33860000;200
2757541;Zoning;8315392;20191109094845;W03-C-Knokke-Heist-FH08;8315392;20191109094845;W03-C-Knokke-Heist-FH08;21137;FTTH-Cu;;31667844;20200506174429;;33860000;200
320260;Zoning;8315392;20191109094845;W03-C-Knokke-Heist-FH08;8315392;20191109094845;W03-C-Knokke-Heist-FH08;21137;FTTH-Cu;;31668145;20200506174437;;33860000;200
6598438;Zoning;8315392;20191109094845;W03-C-Knokke-Heist-FH08;8315392;20191109094845;W03-C-Knokke-Heist-FH08;21137;FTTH-Cu;;33593049;20200506174439;;33860000;200
2757542;Zoning;8315392;20191109094845;W03-C-Knokke-Heist-FH08;8315392;20191109094845;W03-C-Knokke-Heist-FH08;21137;FTTH-Cu;;31667845;20200506174429;;33860000;200
319835;Zoning;8315392;20191109094845;W03-C-Knokke-Heist-FH08;8315392;20191109094845;W03-C-Knokke-Heist-FH08;21137;FTTH-Cu;;31668098;20200506174437;;33860000;200
319832;Zoning;8315392;20191109094845;W03-C-Knokke-Heist-FH08;8315392;20191109094845;W03-C-Knokke-Heist-FH08;21137;FTTH-Cu;;31668095;20200506174437;;33860000;200
4346170;Zoning;8315392;20191109094845;W03-C-Knokke-Heist-FH08;8315392;20191109094845;W03-C-Knokke-Heist-FH08;21137;FTTH-Cu;;31668183;20200506174433;;33860000;200
2757543;Zoning;8315392;20191109094845;W03-C-Knokke-Heist-FH08;8315392;20191109094845;W03-C-Knokke-Heist-FH08;21137;FTTH-Cu;;31667846;20200506174429;;33860000;200
2757544;Zoning;8315392;20191109094845;W03-C-Knokke-Heist-FH08;8315392;20191109094845;W03-C-Knokke-Heist-FH08;21137;FTTH-Cu;;31667847;20200506174429;;33860000;200
2757545;Zoning;8315392;20191109094845;W03-C-Knokke-Heist-FH08;8315392;20191109094845;W03-C-Knokke-Heist-FH08;21137;FTTH-Cu;;31667848;20200506174429;;33860000;200
2757546;Zoning;8315392;20191109094845;W03-C-Knokke-Heist-FH08;8315392;20191109094845;W03-C-Knokke-Heist-FH08;21137;FTTH-Cu;;31667849;20200506174429;;33860000;200
2757547;Zoning;8315392;20191109094845;W03-C-Knokke-Heist-FH08;8315392;20191109094845;W03-C-Knokke-Heist-FH08;21137;FTTH-Cu;;31667850;20200506174429;;33860000;200
2757548;Zoning;8315392;20191109094845;W03-C-Knokke-Heist-FH08;8315392;20191109094845;W03-C-Knokke-Heist-FH08;21137;FTTH-Cu;;31667851;20200506174429;;33860000;200
2757549;Zoning;8315392;20191109094845;W03-C-Knokke-Heist-FH08;8315392;20191109094845;W03-C-Knokke-Heist-FH08;21137;FTTH-Cu;;31667852;20200506174429;;33860000;200
4040163;Zoning;8315392;20191109094845;W03-C-Knokke-Heist-FH08;8315392;20191109094845;W03-C-Knokke-Heist-FH08;21137;FTTH-Cu;;31668159;20200506174428;;33860000;200
2757550;Zoning;8315392;20191109094845;W03-C-Knokke-Heist-FH08;8315392;20191109094845;W03-C-Knokke-Heist-FH08;21137;FTTH-Cu;;31667853;20200506174429;;33860000;200
2757551;Zoning;8315392;20191109094845;W03-C-Knokke-Heist-FH08;8315392;20191109094845;W03-C-Knokke-Heist-FH08;21137;FTTH-Cu;;31667854;20200506174429;;33860000;200
2757552;Zoning;8315392;20191109094845;W03-C-Knokke-Heist-FH08;8315392;20191109094845;W03-C-Knokke-Heist-FH08;21137;FTTH-Cu;;31667855;20200506174429;;33860000;200
4346177;Zoning;8315392;20191109094845;W03-C-Knokke-Heist-FH08;8315392;20191109094845;W03-C-Knokke-Heist-FH08;21137;FTTH-Cu;;31668184;20200506174433;;33860000;200
2757553;Zoning;8315392;20191109094845;W03-C-Knokke-Heist-FH08;8315392;20191109094845;W03-C-Knokke-Heist-FH08;21137;FTTH-Cu;;31667856;20200506174429;;33860000;200
2757554;Zoning;8315392;20191109094845;W03-C-Knokke-Heist-FH08;8315392;20191109094845;W03-C-Knokke-Heist-FH08;21137;FTTH-Cu;;31667857;20200506174429;;33860000;200
320262;Zoning;8315392;20191109094845;W03-C-Knokke-Heist-FH08;8315392;20191109094845;W03-C-Knokke-Heist-FH08;21137;FTTH-Cu;;31668146;20200506174437;;33860000;200
294683;Zoning;8315392;20191109094845;W03-C-Knokke-Heist-FH08;8315392;20191109094845;W03-C-Knokke-Heist-FH08;21137;FTTH-Cu;;31668007;20200506174434;;33860000;792
294685;Zoning;8315392;20191109094845;W03-C-Knokke-Heist-FH08;8315392;20191109094845;W03-C-Knokke-Heist-FH08;21137;FTTH-Cu;;31668009;20200506174434;;33860000;792
319826;Zoning;8315392;20191109094845;W03-C-Knokke-Heist-FH08;8315392;20191109094845;W03-C-Knokke-Heist-FH08;21137;FTTH-Cu;;31668089;20200506174437;;33860000;792
4348167;Zoning;8315392;20191109094845;W03-C-Knokke-Heist-FH08;8315392;20191109094845;W03-C-Knokke-Heist-FH08;21137;FTTH-Cu;;31668194;20200506174433;;33860000;792
2757891;Zoning;8315392;20191109094845;W03-C-Knokke-Heist-FH08;8315392;20191109094845;W03-C-Knokke-Heist-FH08;21137;FTTH-Cu;;31667858;20200506174429;;33860000;792
2757893;Zoning;8315392;20191109094845;W03-C-Knokke-Heist-FH08;8315392;20191109094845;W03-C-Knokke-Heist-FH08;21137;FTTH-Cu;;31667859;20200506174429;;33860000;792
2757896;Zoning;8315392;20191109094845;W03-C-Knokke-Heist-FH08;8315392;20191109094845;W03-C-Knokke-Heist-FH08;21137;FTTH-Cu;;31667860;20200506174429;;33860000;792
2757899;Zoning;8315392;20191109094845;W03-C-Knokke-Heist-FH08;8315392;20191109094845;W03-C-Knokke-Heist-FH08;21137;FTTH-Cu;;31667861;20200506174429;;33860000;792
1320658;Zoning;8315392;20191109094845;W03-C-Knokke-Heist-FH08;8315392;20191109094845;W03-C-Knokke-Heist-FH08;21137;FTTH-Cu;;31667804;20200506174439;;33860000;792
2757902;Zoning;8315392;20191109094845;W03-C-Knokke-Heist-FH08;8315392;20191109094845;W03-C-Knokke-Heist-FH08;21137;FTTH-Cu;;31667862;20200506174429;;33860000;792
2757903;Zoning;8315392;20191109094845;W03-C-Knokke-Heist-FH08;8315392;20191109094845;W03-C-Knokke-Heist-FH08;21137;FTTH-Cu;;31667863;20200506174430;;33860000;792
4213503;Zoning;8315392;20191109094845;W03-C-Knokke-Heist-FH08;8315392;20191109094845;W03-C-Knokke-Heist-FH08;21137;FTTH-Cu;;31668162;20200506174428;;33860000;792
2757906;Zoning;8315392;20191109094845;W03-C-Knokke-Heist-FH08;8315392;20191109094845;W03-C-Knokke-Heist-FH08;21137;FTTH-Cu;;31667864;20200506174430;;33860000;792
2757908;Zoning;8315392;20191109094845;W03-C-Knokke-Heist-FH08;8315392;20191109094845;W03-C-Knokke-Heist-FH08;21137;FTTH-Cu;;31667865;20200506174430;;33860000;792
319823;Zoning;8315392;20191109094845;W03-C-Knokke-Heist-FH08;8315392;20191109094845;W03-C-Knokke-Heist-FH08;21137;FTTH-Cu;;31668086;20200506174437;;33860000;792
294684;Zoning;8315392;20191109094845;W03-C-Knokke-Heist-FH08;8315392;20191109094845;W03-C-Knokke-Heist-FH08;21137;FTTH-Cu;;31668008;20200506174434;;33860000;792
319821;Zoning;8315392;20191109094845;W03-C-Knokke-Heist-FH08;8315392;20191109094845;W03-C-Knokke-Heist-FH08;21137;FTTH-Cu;;31668084;20200506174437;;33860000;792
319822;Zoning;8315392;20191109094845;W03-C-Knokke-Heist-FH08;8315392;20191109094845;W03-C-Knokke-Heist-FH08;21137;FTTH-Cu;;31668085;20200506174437;;33860000;792
2757914;Zoning;8315392;20191109094845;W03-C-Knokke-Heist-FH08;8315392;20191109094845;W03-C-Knokke-Heist-FH08;21137;FTTH-Cu;;31667866;20200506174430;;33860000;792
319824;Zoning;8315392;20191109094845;W03-C-Knokke-Heist-FH08;8315392;20191109094845;W03-C-Knokke-Heist-FH08;21137;FTTH-Cu;;31668087;20200506174437;;33860000;792
319825;Zoning;8315392;20191109094845;W03-C-Knokke-Heist-FH08;8315392;20191109094845;W03-C-Knokke-Heist-FH08;21137;FTTH-Cu;;31668088;20200506174437;;33860000;792
2757915;Zoning;8315392;20191109094845;W03-C-Knokke-Heist-FH08;8315392;20191109094845;W03-C-Knokke-Heist-FH08;21137;FTTH-Cu;;31667867;20200506174430;;33860000;792
317282;Zoning;8315392;20191109094845;W03-C-Knokke-Heist-FH08;8315392;20191109094845;W03-C-Knokke-Heist-FH08;21137;FTTH-Cu;;31668024;20200506174435;;33860000;1030
317284;Zoning;8315392;20191109094845;W03-C-Knokke-Heist-FH08;8315392;20191109094845;W03-C-Knokke-Heist-FH08;21137;FTTH-Cu;;31668026;20200506174435;;33860000;1030
2757924;Zoning;8315392;20191109094845;W03-C-Knokke-Heist-FH08;8315392;20191109094845;W03-C-Knokke-Heist-FH08;21137;FTTH-Cu;;31667868;20200506174430;;33860000;1030
4346058;Zoning;8315392;20191109094845;W03-C-Knokke-Heist-FH08;8315392;20191109094845;W03-C-Knokke-Heist-FH08;21137;FTTH-Cu;;31668176;20200506174431;;33860000;1030
317281;Zoning;8315392;20191109094845;W03-C-Knokke-Heist-FH08;8315392;20191109094845;W03-C-Knokke-Heist-FH08;21137;FTTH-Cu;;31668023;20200506174435;;33860000;1030
2757925;Zoning;8315392;20191109094845;W03-C-Knokke-Heist-FH08;8315392;20191109094845;W03-C-Knokke-Heist-FH08;21137;FTTH-Cu;;31667869;20200506174430;;33860000;1030
317283;Zoning;8315392;20191109094845;W03-C-Knokke-Heist-FH08;8315392;20191109094845;W03-C-Knokke-Heist-FH08;21137;FTTH-Cu;;31668025;20200506174435;;33860000;1030
320242;Zoning;8315392;20191109094845;W03-C-Knokke-Heist-FH08;8315392;20191109094845;W03-C-Knokke-Heist-FH08;21137;FTTH-Cu;;31668134;20200506174427;;33860000;1666
320245;Zoning;8315392;20191109094845;W03-C-Knokke-Heist-FH08;8315392;20191109094845;W03-C-Knokke-Heist-FH08;21137;FTTH-Cu;;31668138;20200506174427;;33860000;1666
2758021;Zoning;8315392;20191109094845;W03-C-Knokke-Heist-FH08;8315392;20191109094845;W03-C-Knokke-Heist-FH08;21137;FTTH-Cu;;31667870;20200506174430;;33860000;1666
2758022;Zoning;8315392;20191109094845;W03-C-Knokke-Heist-FH08;8315392;20191109094845;W03-C-Knokke-Heist-FH08;21137;FTTH-Cu;;31667871;20200506174430;;33860000;1666
2758023;Zoning;8315392;20191109094845;W03-C-Knokke-Heist-FH08;8315392;20191109094845;W03-C-Knokke-Heist-FH08;21137;FTTH-Cu;;31667872;20200506174430;;33860000;1666
2758024;Zoning;8315392;20191109094845;W03-C-Knokke-Heist-FH08;8315392;20191109094845;W03-C-Knokke-Heist-FH08;21137;FTTH-Cu;;31667873;20200506174430;;33860000;1666
2758025;Zoning;8315392;20191109094845;W03-C-Knokke-Heist-FH08;8315392;20191109094845;W03-C-Knokke-Heist-FH08;21137;FTTH-Cu;;31667874;20200506174430;;33860000;1666
2758026;Zoning;8315392;20191109094845;W03-C-Knokke-Heist-FH08;8315392;20191109094845;W03-C-Knokke-Heist-FH08;21137;FTTH-Cu;;31667875;20200506174430;;33860000;1666
320243;Zoning;8315392;20191109094845;W03-C-Knokke-Heist-FH08;8315392;20191109094845;W03-C-Knokke-Heist-FH08;21137;FTTH-Cu;;31668136;20200506174427;;33860000;1666
2758027;Zoning;8315392;20191109094845;W03-C-Knokke-Heist-FH08;8315392;20191109094845;W03-C-Knokke-Heist-FH08;21137;FTTH-Cu;;31667876;20200506174430;;33860000;1666
320244;Zoning;8315392;20191109094845;W03-C-Knokke-Heist-FH08;8315392;20191109094845;W03-C-Knokke-Heist-FH08;21137;FTTH-Cu;;31668137;20200506174427;;33860000;1666
319683;Zoning;8315392;20191109094845;W03-C-Knokke-Heist-FH08;8315392;20191109094845;W03-C-Knokke-Heist-FH08;21137;FTTH-Cu;;31668080;20200506174436;;33860000;1678
319682;Zoning;8315392;20191109094845;W03-C-Knokke-Heist-FH08;8315392;20191109094845;W03-C-Knokke-Heist-FH08;21137;FTTH-Cu;;31668079;20200506174436;;33860000;1678
319848;Zoning;8315392;20191109094845;W03-C-Knokke-Heist-FH08;8315392;20191109094845;W03-C-Knokke-Heist-FH08;21137;FTTH-Cu;;31668109;20200506174427;;33860000;1678
2758028;Zoning;8315392;20191109094845;W03-C-Knokke-Heist-FH08;8315392;20191109094845;W03-C-Knokke-Heist-FH08;21137;FTTH-Cu;;31667877;20200506174430;;33860000;1678
2758029;Zoning;8315392;20191109094845;W03-C-Knokke-Heist-FH08;8315392;20191109094845;W03-C-Knokke-Heist-FH08;21137;FTTH-Cu;;31667878;20200506174430;;33860000;1678
319843;Zoning;8315392;20191109094845;W03-C-Knokke-Heist-FH08;8315392;20191109094845;W03-C-Knokke-Heist-FH08;21137;FTTH-Cu;;31668106;20200506174427;;33860000;1678
2758030;Zoning;8315392;20191109094845;W03-C-Knokke-Heist-FH08;8315392;20191109094845;W03-C-Knokke-Heist-FH08;21137;FTTH-Cu;;31667879;20200506174430;;33860000;1678
319845;Zoning;8315392;20191109094845;W03-C-Knokke-Heist-FH08;8315392;20191109094845;W03-C-Knokke-Heist-FH08;21137;FTTH-Cu;;31668107;20200506174427;;33860000;1678
4348129;Zoning;8315392;20191109094845;W03-C-Knokke-Heist-FH08;8315392;20191109094845;W03-C-Knokke-Heist-FH08;21137;FTTH-Cu;;31668190;20200506174433;;33860000;1678
319847;Zoning;8315392;20191109094845;W03-C-Knokke-Heist-FH08;8315392;20191109094845;W03-C-Knokke-Heist-FH08;21137;FTTH-Cu;;31668108;20200506174427;;33860000;1678
4348130;Zoning;8315392;20191109094845;W03-C-Knokke-Heist-FH08;8315392;20191109094845;W03-C-Knokke-Heist-FH08;21137;FTTH-Cu;;33593043;20200506174439;;33860000;1678
2758031;Zoning;8315392;20191109094845;W03-C-Knokke-Heist-FH08;8315392;20191109094845;W03-C-Knokke-Heist-FH08;21137;FTTH-Cu;;31667880;20200506174430;;33860000;1678
2758032;Zoning;8315392;20191109094845;W03-C-Knokke-Heist-FH08;8315392;20191109094845;W03-C-Knokke-Heist-FH08;21137;FTTH-Cu;;31667881;20200506174430;;33860000;1678
2758033;Zoning;8315392;20191109094845;W03-C-Knokke-Heist-FH08;8315392;20191109094845;W03-C-Knokke-Heist-FH08;21137;FTTH-Cu;;31667882;20200506174430;;33860000;1678
2758034;Zoning;8315392;20191109094845;W03-C-Knokke-Heist-FH08;8315392;20191109094845;W03-C-Knokke-Heist-FH08;21137;FTTH-Cu;;31667884;20200506174430;;33860000;1678
319841;Zoning;8315392;20191109094845;W03-C-Knokke-Heist-FH08;8315392;20191109094845;W03-C-Knokke-Heist-FH08;21137;FTTH-Cu;;31668104;20200506174426;;33860000;1678
319842;Zoning;8315392;20191109094845;W03-C-Knokke-Heist-FH08;8315392;20191109094845;W03-C-Knokke-Heist-FH08;21137;FTTH-Cu;;31668105;20200506174427;;33860000;1678
2758035;Zoning;8315392;20191109094845;W03-C-Knokke-Heist-FH08;8315392;20191109094845;W03-C-Knokke-Heist-FH08;21137;FTTH-Cu;;31667885;20200506174430;;33860000;1678
245275;Zoning;8315392;20191109094845;W03-C-Knokke-Heist-FH08;8315392;20191109094845;W03-C-Knokke-Heist-FH08;21137;FTTH-Cu;;31667818;20200506174428;;33860000;8159
317384;Zoning;8315392;20191109094845;W03-C-Knokke-Heist-FH08;8315392;20191109094845;W03-C-Knokke-Heist-FH08;21137;FTTH-Cu;;31668044;20200506174435;;33860000;8159
317382;Zoning;8315392;20191109094845;W03-C-Knokke-Heist-FH08;8315392;20191109094845;W03-C-Knokke-Heist-FH08;21137;FTTH-Cu;;31668043;20200506174435;;33860000;8159
317380;Zoning;8315392;20191109094845;W03-C-Knokke-Heist-FH08;8315392;20191109094845;W03-C-Knokke-Heist-FH08;21137;FTTH-Cu;;31668042;20200506174435;;33860000;8159
2759470;Zoning;8315392;20191109094845;W03-C-Knokke-Heist-FH08;8315392;20191109094845;W03-C-Knokke-Heist-FH08;21137;FTTH-Cu;;31667886;20200506174430;;33860000;8159
4151487;Zoning;8315392;20191109094845;W03-C-Knokke-Heist-FH08;8315392;20191109094845;W03-C-Knokke-Heist-FH08;21137;FTTH-Cu;;31668161;20200506174428;;33860000;8159
2759471;Zoning;8315392;20191109094845;W03-C-Knokke-Heist-FH08;8315392;20191109094845;W03-C-Knokke-Heist-FH08;21137;FTTH-Cu;;31667887;20200506174430;;33860000;8159
2759472;Zoning;8315392;20191109094845;W03-C-Knokke-Heist-FH08;8315392;20191109094845;W03-C-Knokke-Heist-FH08;21137;FTTH-Cu;;31667888;20200506174430;;33860000;8159
2759473;Zoning;8315392;20191109094845;W03-C-Knokke-Heist-FH08;8315392;20191109094845;W03-C-Knokke-Heist-FH08;21137;FTTH-Cu;;31667889;20200506174430;;33860000;8159
2759474;Zoning;8315392;20191109094845;W03-C-Knokke-Heist-FH08;8315392;20191109094845;W03-C-Knokke-Heist-FH08;21137;FTTH-Cu;;31667890;20200506174430;;33860000;8159
2759476;Zoning;8315392;20191109094845;W03-C-Knokke-Heist-FH08;8315392;20191109094845;W03-C-Knokke-Heist-FH08;21137;FTTH-Cu;;31667891;20200506174430;;33860000;8159
2759477;Zoning;8315392;20191109094845;W03-C-Knokke-Heist-FH08;8315392;20191109094845;W03-C-Knokke-Heist-FH08;21137;FTTH-Cu;;31667892;20200506174430;;33860000;8159
2759478;Zoning;8315392;20191109094845;W03-C-Knokke-Heist-FH08;8315392;20191109094845;W03-C-Knokke-Heist-FH08;21137;FTTH-Cu;;31667893;20200506174430;;33860000;8159
2759479;Zoning;8315392;20191109094845;W03-C-Knokke-Heist-FH08;8315392;20191109094845;W03-C-Knokke-Heist-FH08;21137;FTTH-Cu;;31667894;20200506174430;;33860000;8159
2759481;Zoning;8315392;20191109094845;W03-C-Knokke-Heist-FH08;8315392;20191109094845;W03-C-Knokke-Heist-FH08;21137;FTTH-Cu;;31667895;20200506174430;;33860000;8159
2759482;Zoning;8315392;20191109094845;W03-C-Knokke-Heist-FH08;8315392;20191109094845;W03-C-Knokke-Heist-FH08;21137;FTTH-Cu;;31667896;20200506174430;;33860000;8159
2759483;Zoning;8315392;20191109094845;W03-C-Knokke-Heist-FH08;8315392;20191109094845;W03-C-Knokke-Heist-FH08;21137;FTTH-Cu;;31667897;20200506174430;;33860000;8159
2759484;Zoning;8315392;20191109094845;W03-C-Knokke-Heist-FH08;8315392;20191109094845;W03-C-Knokke-Heist-FH08;21137;FTTH-Cu;;31667898;20200506174430;;33860000;8159
2759485;Zoning;8315392;20191109094845;W03-C-Knokke-Heist-FH08;8315392;20191109094845;W03-C-Knokke-Heist-FH08;21137;FTTH-Cu;;31667899;20200506174430;;33860000;8159
317376;Zoning;8315392;20191109094845;W03-C-Knokke-Heist-FH08;8315392;20191109094845;W03-C-Knokke-Heist-FH08;21137;FTTH-Cu;;31668040;20200506174435;;33860000;8159
2759486;Zoning;8315392;20191109094845;W03-C-Knokke-Heist-FH08;8315392;20191109094845;W03-C-Knokke-Heist-FH08;21137;FTTH-Cu;;31667900;20200506174430;;33860000;8159
5465074;Zoning;8315392;20191109094845;W03-C-Knokke-Heist-FH08;8315392;20191109094845;W03-C-Knokke-Heist-FH08;21137;FTTH-Cu;;31668196;20200506174433;;33860000;8159
2759488;Zoning;8315392;20191109094845;W03-C-Knokke-Heist-FH08;8315392;20191109094845;W03-C-Knokke-Heist-FH08;21137;FTTH-Cu;;31667901;20200506174430;;33860000;8159
5430777;Zoning;8315392;20191109094845;W03-C-Knokke-Heist-FH08;8315392;20191109094845;W03-C-Knokke-Heist-FH08;21137;FTTH-Cu;;31668195;20200506174433;;33860000;8159
4346039;Zoning;8315392;20191109094845;W03-C-Knokke-Heist-FH08;8315392;20191109094845;W03-C-Knokke-Heist-FH08;21137;FTTH-Cu;;31668174;20200506174431;;33860000;8159
2759489;Zoning;8315392;20191109094845;W03-C-Knokke-Heist-FH08;8315392;20191109094845;W03-C-Knokke-Heist-FH08;21137;FTTH-Cu;;31667902;20200506174431;;33860000;8159
317378;Zoning;8315392;20191109094845;W03-C-Knokke-Heist-FH08;8315392;20191109094845;W03-C-Knokke-Heist-FH08;21137;FTTH-Cu;;31668041;20200506174435;;33860000;8159
320234;Zoning;8315392;20191109094845;W03-C-Knokke-Heist-FH08;8315392;20191109094845;W03-C-Knokke-Heist-FH08;21137;FTTH-Cu;;31668126;20200506174427;;33860000;8159
320233;Zoning;8315392;20191109094845;W03-C-Knokke-Heist-FH08;8315392;20191109094845;W03-C-Knokke-Heist-FH08;21137;FTTH-Cu;;31668125;20200506174427;;33860000;8159
2759491;Zoning;8315392;20191109094845;W03-C-Knokke-Heist-FH08;8315392;20191109094845;W03-C-Knokke-Heist-FH08;21137;FTTH-Cu;;31667903;20200506174431;;33860000;8159
320235;Zoning;8315392;20191109094845;W03-C-Knokke-Heist-FH08;8315392;20191109094845;W03-C-Knokke-Heist-FH08;21137;FTTH-Cu;;31668127;20200506174427;;33860000;8159
2759492;Zoning;8315392;20191109094845;W03-C-Knokke-Heist-FH08;8315392;20191109094845;W03-C-Knokke-Heist-FH08;21137;FTTH-Cu;;31667904;20200506174431;;33860000;8159
2759493;Zoning;8315392;20191109094845;W03-C-Knokke-Heist-FH08;8315392;20191109094845;W03-C-Knokke-Heist-FH08;21137;FTTH-Cu;;31667905;20200506174431;;33860000;8159
2759494;Zoning;8315392;20191109094845;W03-C-Knokke-Heist-FH08;8315392;20191109094845;W03-C-Knokke-Heist-FH08;21137;FTTH-Cu;;31667906;20200506174431;;33860000;8159
320232;Zoning;8315392;20191109094845;W03-C-Knokke-Heist-FH08;8315392;20191109094845;W03-C-Knokke-Heist-FH08;21137;FTTH-Cu;;31668124;20200506174427;;33860000;8159
2759495;Zoning;8315392;20191109094845;W03-C-Knokke-Heist-FH08;8315392;20191109094845;W03-C-Knokke-Heist-FH08;21137;FTTH-Cu;;31667907;20200506174431;;33860000;8159
320230;Zoning;8315392;20191109094845;W03-C-Knokke-Heist-FH08;8315392;20191109094845;W03-C-Knokke-Heist-FH08;21137;FTTH-Cu;;31668123;20200506174427;;33860000;8159
2759496;Zoning;8315392;20191109094845;W03-C-Knokke-Heist-FH08;8315392;20191109094845;W03-C-Knokke-Heist-FH08;21137;FTTH-Cu;;31667908;20200506174431;;33860000;8159
2759497;Zoning;8315392;20191109094845;W03-C-Knokke-Heist-FH08;8315392;20191109094845;W03-C-Knokke-Heist-FH08;21137;FTTH-Cu;;31667909;20200506174431;;33860000;8159
2759498;Zoning;8315392;20191109094845;W03-C-Knokke-Heist-FH08;8315392;20191109094845;W03-C-Knokke-Heist-FH08;21137;FTTH-Cu;;33593097;20200506174438;;33860000;8159
2759499;Zoning;8315392;20191109094845;W03-C-Knokke-Heist-FH08;8315392;20191109094845;W03-C-Knokke-Heist-FH08;21137;FTTH-Cu;;31667910;20200506174431;;33860000;8159
320231;Zoning;8315392;20191109094845;W03-C-Knokke-Heist-FH08;8315392;20191109094845;W03-C-Knokke-Heist-FH08;21137;FTTH-Cu;;33593098;20200506174438;;33860000;8159
320236;Zoning;8315392;20191109094845;W03-C-Knokke-Heist-FH08;8315392;20191109094845;W03-C-Knokke-Heist-FH08;21137;FTTH-Cu;;31668128;20200506174427;;33860000;8159
5829598;Zoning;8315392;20191109094845;W03-C-Knokke-Heist-FH08;8315392;20191109094845;W03-C-Knokke-Heist-FH08;21137;FTTH-Cu;;33593099;20200506174438;;33860000;8159
320237;Zoning;8315392;20191109094845;W03-C-Knokke-Heist-FH08;8315392;20191109094845;W03-C-Knokke-Heist-FH08;21137;FTTH-Cu;;31668129;20200506174427;;33860000;8159
1465789;Zoning;8315392;20191109094845;W03-C-Knokke-Heist-FH08;8315392;20191109094845;W03-C-Knokke-Heist-FH08;21137;FTTH-Cu;;31667806;20200506174428;;33860000;8159
4346204;Zoning;8315392;20191109094845;W03-C-Knokke-Heist-FH08;8315392;20191109094845;W03-C-Knokke-Heist-FH08;21137;FTTH-Cu;;31668188;20200506174433;;33860000;8159
2759500;Zoning;8315392;20191109094845;W03-C-Knokke-Heist-FH08;8315392;20191109094845;W03-C-Knokke-Heist-FH08;21137;FTTH-Cu;;31667911;20200506174431;;33860000;8159
320266;Zoning;8315392;20191109094845;W03-C-Knokke-Heist-FH08;8315392;20191109094845;W03-C-Knokke-Heist-FH08;21137;FTTH-Cu;;31668148;20200506174427;;33860000;8159
2759501;Zoning;8315392;20191109094845;W03-C-Knokke-Heist-FH08;8315392;20191109094845;W03-C-Knokke-Heist-FH08;21137;FTTH-Cu;;31667912;20200506174431;;33860000;8159
2759502;Zoning;8315392;20191109094845;W03-C-Knokke-Heist-FH08;8315392;20191109094845;W03-C-Knokke-Heist-FH08;21137;FTTH-Cu;;31667914;20200506174431;;33860000;8159
3939552;Zoning;8315392;20191109094845;W03-C-Knokke-Heist-FH08;8315392;20191109094845;W03-C-Knokke-Heist-FH08;21137;FTTH-Cu;;31668151;20200506174427;;33860000;8159
4023919;Zoning;8315392;20191109094845;W03-C-Knokke-Heist-FH08;8315392;20191109094845;W03-C-Knokke-Heist-FH08;21137;FTTH-Cu;;31668157;20200506174428;;33860000;8159
2759503;Zoning;8315392;20191109094845;W03-C-Knokke-Heist-FH08;8315392;20191109094845;W03-C-Knokke-Heist-FH08;21137;FTTH-Cu;;31667915;20200506174431;;33860000;8159
2759505;Zoning;8315392;20191109094845;W03-C-Knokke-Heist-FH08;8315392;20191109094845;W03-C-Knokke-Heist-FH08;21137;FTTH-Cu;;31667916;20200506174431;;33860000;8159
320264;Zoning;8315392;20191109094845;W03-C-Knokke-Heist-FH08;8315392;20191109094845;W03-C-Knokke-Heist-FH08;21137;FTTH-Cu;;31668147;20200506174437;;33860000;8159
317332;Zoning;8315392;20191109094845;W03-C-Knokke-Heist-FH08;8315392;20191109094845;W03-C-Knokke-Heist-FH08;21137;FTTH-Cu;;31668031;20200506174435;;33860000;8485
2759674;Zoning;8315392;20191109094845;W03-C-Knokke-Heist-FH08;8315392;20191109094845;W03-C-Knokke-Heist-FH08;21137;FTTH-Cu;;31667917;20200506174431;;33860000;8485
4346049;Zoning;8315392;20191109094845;W03-C-Knokke-Heist-FH08;8315392;20191109094845;W03-C-Knokke-Heist-FH08;21137;FTTH-Cu;;33593100;20200506174438;;33860000;8485
317330;Zoning;8315392;20191109094845;W03-C-Knokke-Heist-FH08;8315392;20191109094845;W03-C-Knokke-Heist-FH08;21137;FTTH-Cu;;31668030;20200506174435;;33860000;8485
245251;Zoning;8315392;20191109094845;W03-C-Knokke-Heist-FH08;8315392;20191109094845;W03-C-Knokke-Heist-FH08;21137;FTTH-Cu;;31667810;20200506174428;;33860000;8485
4344983;Zoning;8315392;20191109094845;W03-C-Knokke-Heist-FH08;8315392;20191109094845;W03-C-Knokke-Heist-FH08;21137;FTTH-Cu;;31668169;20200506174431;;33860000;8485
2759675;Zoning;8315392;20191109094845;W03-C-Knokke-Heist-FH08;8315392;20191109094845;W03-C-Knokke-Heist-FH08;21137;FTTH-Cu;;31667918;20200506174431;;33860000;8485
4344987;Zoning;8315392;20191109094845;W03-C-Knokke-Heist-FH08;8315392;20191109094845;W03-C-Knokke-Heist-FH08;21137;FTTH-Cu;;33593101;20200506174438;;33860000;8485
2759676;Zoning;8315392;20191109094845;W03-C-Knokke-Heist-FH08;8315392;20191109094845;W03-C-Knokke-Heist-FH08;21137;FTTH-Cu;;31667919;20200506174431;;33860000;8485
2759677;Zoning;8315392;20191109094845;W03-C-Knokke-Heist-FH08;8315392;20191109094845;W03-C-Knokke-Heist-FH08;21137;FTTH-Cu;;31667920;20200506174431;;33860000;8485
2759678;Zoning;8315392;20191109094845;W03-C-Knokke-Heist-FH08;8315392;20191109094845;W03-C-Knokke-Heist-FH08;21137;FTTH-Cu;;31667921;20200506174431;;33860000;8485
4344992;Zoning;8315392;20191109094845;W03-C-Knokke-Heist-FH08;8315392;20191109094845;W03-C-Knokke-Heist-FH08;21137;FTTH-Cu;;31668170;20200506174431;;33860000;8485
245250;Zoning;8315392;20191109094845;W03-C-Knokke-Heist-FH08;8315392;20191109094845;W03-C-Knokke-Heist-FH08;21137;FTTH-Cu;;31667809;20200506174428;;33860000;8485
317514;Zoning;8315392;20191109094845;W03-C-Knokke-Heist-FH08;8315392;20191109094845;W03-C-Knokke-Heist-FH08;21137;FTTH-Cu;;31668055;20200506174436;;33860000;8485
245252;Zoning;8315392;20191109094845;W03-C-Knokke-Heist-FH08;8315392;20191109094845;W03-C-Knokke-Heist-FH08;21137;FTTH-Cu;;31667811;20200506174428;;33860000;8485
5579359;Zoning;8315392;20191109094845;W03-C-Knokke-Heist-FH08;8315392;20191109094845;W03-C-Knokke-Heist-FH08;21137;FTTH-Cu;;31668197;20200506174433;;33860000;8485
5579360;Zoning;8315392;20191109094845;W03-C-Knokke-Heist-FH08;8315392;20191109094845;W03-C-Knokke-Heist-FH08;21137;FTTH-Cu;;31668198;20200506174433;;33860000;8485
317513;Zoning;8315392;20191109094845;W03-C-Knokke-Heist-FH08;8315392;20191109094845;W03-C-Knokke-Heist-FH08;21137;FTTH-Cu;;33593102;20200506174438;;33860000;8485
245254;Zoning;8315392;20191109094845;W03-C-Knokke-Heist-FH08;8315392;20191109094845;W03-C-Knokke-Heist-FH08;21137;FTTH-Cu;;33593103;20200506174438;;33860000;8485
317247;Zoning;8315392;20191109094845;W03-C-Knokke-Heist-FH08;8315392;20191109094845;W03-C-Knokke-Heist-FH08;21137;FTTH-Cu;;31668015;20200506174435;;33860000;8485
319469;Zoning;8315392;20191109094845;W03-C-Knokke-Heist-FH08;8315392;20191109094845;W03-C-Knokke-Heist-FH08;21137;FTTH-Cu;;31668066;20200506174436;;33860000;8485
2759684;Zoning;8315392;20191109094845;W03-C-Knokke-Heist-FH08;8315392;20191109094845;W03-C-Knokke-Heist-FH08;21137;FTTH-Cu;;31667922;20200506174431;;33860000;8485
2759685;Zoning;8315392;20191109094845;W03-C-Knokke-Heist-FH08;8315392;20191109094845;W03-C-Knokke-Heist-FH08;21137;FTTH-Cu;;31667923;20200506174431;;33860000;8485
319471;Zoning;8315392;20191109094845;W03-C-Knokke-Heist-FH08;8315392;20191109094845;W03-C-Knokke-Heist-FH08;21137;FTTH-Cu;;31668067;20200506174436;;33860000;8485
2759687;Zoning;8315392;20191109094845;W03-C-Knokke-Heist-FH08;8315392;20191109094845;W03-C-Knokke-Heist-FH08;21137;FTTH-Cu;;31667924;20200506174431;;33860000;8485
2759688;Zoning;8315392;20191109094845;W03-C-Knokke-Heist-FH08;8315392;20191109094845;W03-C-Knokke-Heist-FH08;21137;FTTH-Cu;;31667925;20200506174431;;33860000;8485
319472;Zoning;8315392;20191109094845;W03-C-Knokke-Heist-FH08;8315392;20191109094845;W03-C-Knokke-Heist-FH08;21137;FTTH-Cu;;31668068;20200506174436;;33860000;8485
2759689;Zoning;8315392;20191109094845;W03-C-Knokke-Heist-FH08;8315392;20191109094845;W03-C-Knokke-Heist-FH08;21137;FTTH-Cu;;31667926;20200506174431;;33860000;8485
319474;Zoning;8315392;20191109094845;W03-C-Knokke-Heist-FH08;8315392;20191109094845;W03-C-Knokke-Heist-FH08;21137;FTTH-Cu;;33593104;20200506174439;;33860000;8485
245249;Zoning;8315392;20191109094845;W03-C-Knokke-Heist-FH08;8315392;20191109094845;W03-C-Knokke-Heist-FH08;21137;FTTH-Cu;;31667808;20200506174428;;33860000;8485
319470;Zoning;8315392;20191109094845;W03-C-Knokke-Heist-FH08;8315392;20191109094845;W03-C-Knokke-Heist-FH08;21137;FTTH-Cu;;33593105;20200506174439;;33860000;8485
12938;Zoning;8315392;20191109094845;W03-C-Knokke-Heist-FH08;8315392;20191109094845;W03-C-Knokke-Heist-FH08;21137;FTTH-Cu;;31667801;20200506174439;;33860000;8485
319473;Zoning;8315392;20191109094845;W03-C-Knokke-Heist-FH08;8315392;20191109094845;W03-C-Knokke-Heist-FH08;21137;FTTH-Cu;;31668069;20200506174436;;33860000;8485
245253;Zoning;8315392;20191109094845;W03-C-Knokke-Heist-FH08;8315392;20191109094845;W03-C-Knokke-Heist-FH08;21137;FTTH-Cu;;31667812;20200506174428;;33860000;8485
4346161;Zoning;8315392;20191109094845;W03-C-Knokke-Heist-FH08;8315392;20191109094845;W03-C-Knokke-Heist-FH08;21137;FTTH-Cu;;31668182;20200506174432;;33860000;8485
319466;Zoning;8315392;20191109094845;W03-C-Knokke-Heist-FH08;8315392;20191109094845;W03-C-Knokke-Heist-FH08;21137;FTTH-Cu;;31668064;20200506174436;;33860000;8485
2759692;Zoning;8315392;20191109094845;W03-C-Knokke-Heist-FH08;8315392;20191109094845;W03-C-Knokke-Heist-FH08;21137;FTTH-Cu;;31667927;20200506174431;;33860000;8485
2759694;Zoning;8315392;20191109094845;W03-C-Knokke-Heist-FH08;8315392;20191109094845;W03-C-Knokke-Heist-FH08;21137;FTTH-Cu;;31667928;20200506174431;;33860000;8485
2759696;Zoning;8315392;20191109094845;W03-C-Knokke-Heist-FH08;8315392;20191109094845;W03-C-Knokke-Heist-FH08;21137;FTTH-Cu;;31667929;20200506174431;;33860000;8485
4346148;Zoning;8315392;20191109094845;W03-C-Knokke-Heist-FH08;8315392;20191109094845;W03-C-Knokke-Heist-FH08;21137;FTTH-Cu;;31668181;20200506174432;;33860000;8485
2759699;Zoning;8315392;20191109094845;W03-C-Knokke-Heist-FH08;8315392;20191109094845;W03-C-Knokke-Heist-FH08;21137;FTTH-Cu;;31667930;20200506174431;;33860000;8485
319468;Zoning;8315392;20191109094845;W03-C-Knokke-Heist-FH08;8315392;20191109094845;W03-C-Knokke-Heist-FH08;21137;FTTH-Cu;;31668065;20200506174436;;33860000;8485
319480;Zoning;8315392;20191109094845;W03-C-Knokke-Heist-FH08;8315392;20191109094845;W03-C-Knokke-Heist-FH08;21137;FTTH-Cu;;31668073;20200506174436;;33860000;22183
4346136;Zoning;8315392;20191109094845;W03-C-Knokke-Heist-FH08;8315392;20191109094845;W03-C-Knokke-Heist-FH08;21137;FTTH-Cu;;31668179;20200506174432;;33860000;22183
4346137;Zoning;8315392;20191109094845;W03-C-Knokke-Heist-FH08;8315392;20191109094845;W03-C-Knokke-Heist-FH08;21137;FTTH-Cu;;31668180;20200506174432;;33860000;22183
2764256;Zoning;8315392;20191109094845;W03-C-Knokke-Heist-FH08;8315392;20191109094845;W03-C-Knokke-Heist-FH08;21137;FTTH-Cu;;31667966;20200506174433;;33860000;22183
319482;Zoning;8315392;20191109094845;W03-C-Knokke-Heist-FH08;8315392;20191109094845;W03-C-Knokke-Heist-FH08;21137;FTTH-Cu;;31668074;20200506174436;;33860000;22183
319479;Zoning;8315392;20191109094845;W03-C-Knokke-Heist-FH08;8315392;20191109094845;W03-C-Knokke-Heist-FH08;21137;FTTH-Cu;;1804896;20200506174439;;33860000;22183
319483;Zoning;8315392;20191109094845;W03-C-Knokke-Heist-FH08;8315392;20191109094845;W03-C-Knokke-Heist-FH08;21137;FTTH-Cu;;33593053;20200506174439;;33860000;22183
6524227;Zoning;8315392;20191109094845;W03-C-Knokke-Heist-FH08;8315392;20191109094845;W03-C-Knokke-Heist-FH08;21137;FTTH-Cu;;33593054;20200506174439;;33860000;22183
2764263;Zoning;8315392;20191109094845;W03-C-Knokke-Heist-FH08;8315392;20191109094845;W03-C-Knokke-Heist-FH08;21137;FTTH-Cu;;31667967;20200506174433;;33860000;22183
2764264;Zoning;8315392;20191109094845;W03-C-Knokke-Heist-FH08;8315392;20191109094845;W03-C-Knokke-Heist-FH08;21137;FTTH-Cu;;31667968;20200506174433;;33860000;22183
2764266;Zoning;8315392;20191109094845;W03-C-Knokke-Heist-FH08;8315392;20191109094845;W03-C-Knokke-Heist-FH08;21137;FTTH-Cu;;31667969;20200506174433;;33860000;22183
1320587;Zoning;8315392;20191109094845;W03-C-Knokke-Heist-FH08;8315392;20191109094845;W03-C-Knokke-Heist-FH08;21137;FTTH-Cu;;31667802;20200506174439;;33860000;22183
245272;Zoning;8315392;20191109094845;W03-C-Knokke-Heist-FH08;8315392;20191109094845;W03-C-Knokke-Heist-FH08;21137;FTTH-Cu;;31667816;20200506174428;;33860000;22183
2764267;Zoning;8315392;20191109094845;W03-C-Knokke-Heist-FH08;8315392;20191109094845;W03-C-Knokke-Heist-FH08;21137;FTTH-Cu;;31667970;20200506174433;;33860000;22183
2764268;Zoning;8315392;20191109094845;W03-C-Knokke-Heist-FH08;8315392;20191109094845;W03-C-Knokke-Heist-FH08;21137;FTTH-Cu;;31667971;20200506174433;;33860000;22183
2764269;Zoning;8315392;20191109094845;W03-C-Knokke-Heist-FH08;8315392;20191109094845;W03-C-Knokke-Heist-FH08;21137;FTTH-Cu;;31667972;20200506174433;;33860000;22183
4344979;Zoning;8315392;20191109094845;W03-C-Knokke-Heist-FH08;8315392;20191109094845;W03-C-Knokke-Heist-FH08;21137;FTTH-Cu;;31668168;20200506174428;;33860000;22183
2764270;Zoning;8315392;20191109094845;W03-C-Knokke-Heist-FH08;8315392;20191109094845;W03-C-Knokke-Heist-FH08;21137;FTTH-Cu;;31667973;20200506174433;;33860000;22183
2764271;Zoning;8315392;20191109094845;W03-C-Knokke-Heist-FH08;8315392;20191109094845;W03-C-Knokke-Heist-FH08;21137;FTTH-Cu;;31667974;20200506174433;;33860000;22183
2764272;Zoning;8315392;20191109094845;W03-C-Knokke-Heist-FH08;8315392;20191109094845;W03-C-Knokke-Heist-FH08;21137;FTTH-Cu;;31667975;20200506174433;;33860000;22183
2764274;Zoning;8315392;20191109094845;W03-C-Knokke-Heist-FH08;8315392;20191109094845;W03-C-Knokke-Heist-FH08;21137;FTTH-Cu;;31667976;20200506174433;;33860000;22183
245274;Zoning;8315392;20191109094845;W03-C-Knokke-Heist-FH08;8315392;20191109094845;W03-C-Knokke-Heist-FH08;21137;FTTH-Cu;;31667817;20200506174428;;33860000;22183
319465;Zoning;8315392;20191109094845;W03-C-Knokke-Heist-FH08;8315392;20191109094845;W03-C-Knokke-Heist-FH08;21137;FTTH-Cu;;31668063;20200506174436;;33860000;22183
2764277;Zoning;8315392;20191109094845;W03-C-Knokke-Heist-FH08;8315392;20191109094845;W03-C-Knokke-Heist-FH08;21137;FTTH-Cu;;31667977;20200506174433;;33860000;22183
317250;Zoning;8315392;20191109094845;W03-C-Knokke-Heist-FH08;8315392;20191109094845;W03-C-Knokke-Heist-FH08;21137;FTTH-Cu;;31668017;20200506174435;;33860000;22183
2764278;Zoning;8315392;20191109094845;W03-C-Knokke-Heist-FH08;8315392;20191109094845;W03-C-Knokke-Heist-FH08;21137;FTTH-Cu;;31667978;20200506174433;;33860000;22183
317254;Zoning;8315392;20191109094845;W03-C-Knokke-Heist-FH08;8315392;20191109094845;W03-C-Knokke-Heist-FH08;21137;FTTH-Cu;;31668021;20200506174435;;33860000;22183
317255;Zoning;8315392;20191109094845;W03-C-Knokke-Heist-FH08;8315392;20191109094845;W03-C-Knokke-Heist-FH08;21137;FTTH-Cu;;31668022;20200506174435;;33860000;22183
4344998;Zoning;8315392;20191109094845;W03-C-Knokke-Heist-FH08;8315392;20191109094845;W03-C-Knokke-Heist-FH08;21137;FTTH-Cu;;31668171;20200506174431;;33860000;22183
2764283;Zoning;8315392;20191109094845;W03-C-Knokke-Heist-FH08;8315392;20191109094845;W03-C-Knokke-Heist-FH08;21137;FTTH-Cu;;31667979;20200506174433;;33860000;22183
2764284;Zoning;8315392;20191109094845;W03-C-Knokke-Heist-FH08;8315392;20191109094845;W03-C-Knokke-Heist-FH08;21137;FTTH-Cu;;33593055;20200506174439;;33860000;22183
4344608;Zoning;8315392;20191109094845;W03-C-Knokke-Heist-FH08;8315392;20191109094845;W03-C-Knokke-Heist-FH08;21137;FTTH-Cu;;31668167;20200506174428;;33860000;22183
2764285;Zoning;8315392;20191109094845;W03-C-Knokke-Heist-FH08;8315392;20191109094845;W03-C-Knokke-Heist-FH08;21137;FTTH-Cu;;31667980;20200506174434;;33860000;22183
317249;Zoning;8315392;20191109094845;W03-C-Knokke-Heist-FH08;8315392;20191109094845;W03-C-Knokke-Heist-FH08;21137;FTTH-Cu;;31668016;20200506174435;;33860000;22183
2764288;Zoning;8315392;20191109094845;W03-C-Knokke-Heist-FH08;8315392;20191109094845;W03-C-Knokke-Heist-FH08;21137;FTTH-Cu;;33593056;20200506174439;;33860000;22183
317509;Zoning;8315392;20191109094845;W03-C-Knokke-Heist-FH08;8315392;20191109094845;W03-C-Knokke-Heist-FH08;21137;FTTH-Cu;;33593057;20200506174439;;33860000;22183
245273;Zoning;8315392;20191109094845;W03-C-Knokke-Heist-FH08;8315392;20191109094845;W03-C-Knokke-Heist-FH08;21137;FTTH-Cu;;33593058;20200506174439;;33860000;22183
4343553;Zoning;8315392;20191109094845;W03-C-Knokke-Heist-FH08;8315392;20191109094845;W03-C-Knokke-Heist-FH08;21137;FTTH-Cu;;31668164;20200506174428;;33860000;22183
317251;Zoning;8315392;20191109094845;W03-C-Knokke-Heist-FH08;8315392;20191109094845;W03-C-Knokke-Heist-FH08;21137;FTTH-Cu;;31668018;20200506174435;;33860000;22183
317253;Zoning;8315392;20191109094845;W03-C-Knokke-Heist-FH08;8315392;20191109094845;W03-C-Knokke-Heist-FH08;21137;FTTH-Cu;;31668020;20200506174435;;33860000;22183
4343554;Zoning;8315392;20191109094845;W03-C-Knokke-Heist-FH08;8315392;20191109094845;W03-C-Knokke-Heist-FH08;21137;FTTH-Cu;;31668165;20200506174428;;33860000;22183
2764290;Zoning;8315392;20191109094845;W03-C-Knokke-Heist-FH08;8315392;20191109094845;W03-C-Knokke-Heist-FH08;21137;FTTH-Cu;;31667981;20200506174434;;33860000;22183
2764291;Zoning;8315392;20191109094845;W03-C-Knokke-Heist-FH08;8315392;20191109094845;W03-C-Knokke-Heist-FH08;21137;FTTH-Cu;;31667982;20200506174434;;33860000;22183
4344602;Zoning;8315392;20191109094845;W03-C-Knokke-Heist-FH08;8315392;20191109094845;W03-C-Knokke-Heist-FH08;21137;FTTH-Cu;;31668166;20200506174428;;33860000;22183
2764292;Zoning;8315392;20191109094845;W03-C-Knokke-Heist-FH08;8315392;20191109094845;W03-C-Knokke-Heist-FH08;21137;FTTH-Cu;;31667983;20200506174434;;33860000;22183
317252;Zoning;8315392;20191109094845;W03-C-Knokke-Heist-FH08;8315392;20191109094845;W03-C-Knokke-Heist-FH08;21137;FTTH-Cu;;31668019;20200506174435;;33860000;22183
317512;Zoning;8315392;20191109094845;W03-C-Knokke-Heist-FH08;8315392;20191109094845;W03-C-Knokke-Heist-FH08;21137;FTTH-Cu;;31668054;20200506174436;;33860000;22183
317511;Zoning;8315392;20191109094845;W03-C-Knokke-Heist-FH08;8315392;20191109094845;W03-C-Knokke-Heist-FH08;21137;FTTH-Cu;;31668053;20200506174436;;33860000;22183
317510;Zoning;8315392;20191109094845;W03-C-Knokke-Heist-FH08;8315392;20191109094845;W03-C-Knokke-Heist-FH08;21137;FTTH-Cu;;31668052;20200506174436;;33860000;22183
2764295;Zoning;8315392;20191109094845;W03-C-Knokke-Heist-FH08;8315392;20191109094845;W03-C-Knokke-Heist-FH08;21137;FTTH-Cu;;31667984;20200506174434;;33860000;22183
2764298;Zoning;8315392;20191109094845;W03-C-Knokke-Heist-FH08;8315392;20191109094845;W03-C-Knokke-Heist-FH08;21137;FTTH-Cu;;31667985;20200506174434;;33860000;22183
12836;Zoning;8315392;20191109094845;W03-C-Knokke-Heist-FH08;8315392;20191109094845;W03-C-Knokke-Heist-FH08;21137;FTTH-Cu;;31667780;20200506174439;;33860000;22183
317372;Zoning;8315392;20191109094845;W03-C-Knokke-Heist-FH08;8315392;20191109094845;W03-C-Knokke-Heist-FH08;21137;FTTH-Cu;;31668038;20200506174435;;33860000;14634
4346017;Zoning;8315392;20191109094845;W03-C-Knokke-Heist-FH08;8315392;20191109094845;W03-C-Knokke-Heist-FH08;21137;FTTH-Cu;;33593041;20200506174439;;33860000;14634
317303;Zoning;8315392;20191109094845;W03-C-Knokke-Heist-FH08;8315392;20191109094845;W03-C-Knokke-Heist-FH08;21137;FTTH-Cu;;31668029;20200506174435;;33860000;14634
6526794;Zoning;8315392;20191109094845;W03-C-Knokke-Heist-FH08;8315392;20191109094845;W03-C-Knokke-Heist-FH08;21137;FTTH-Cu;;33593040;20200506174439;;33860000;14634
4346063;Zoning;8315392;20191109094845;W03-C-Knokke-Heist-FH08;8315392;20191109094845;W03-C-Knokke-Heist-FH08;21137;FTTH-Cu;;31668177;20200506174432;;33860000;14634
2761074;Zoning;8315392;20191109094845;W03-C-Knokke-Heist-FH08;8315392;20191109094845;W03-C-Knokke-Heist-FH08;21137;FTTH-Cu;;31667931;20200506174431;;33860000;14634
4346064;Zoning;8315392;20191109094845;W03-C-Knokke-Heist-FH08;8315392;20191109094845;W03-C-Knokke-Heist-FH08;21137;FTTH-Cu;;31668178;20200506174432;;33860000;14634
4346020;Zoning;8315392;20191109094845;W03-C-Knokke-Heist-FH08;8315392;20191109094845;W03-C-Knokke-Heist-FH08;21137;FTTH-Cu;;31668173;20200506174431;;33860000;14634
2761075;Zoning;8315392;20191109094845;W03-C-Knokke-Heist-FH08;8315392;20191109094845;W03-C-Knokke-Heist-FH08;21137;FTTH-Cu;;31667932;20200506174431;;33860000;14634
2761077;Zoning;8315392;20191109094845;W03-C-Knokke-Heist-FH08;8315392;20191109094845;W03-C-Knokke-Heist-FH08;21137;FTTH-Cu;;31667933;20200506174432;;33860000;14634
2761078;Zoning;8315392;20191109094845;W03-C-Knokke-Heist-FH08;8315392;20191109094845;W03-C-Knokke-Heist-FH08;21137;FTTH-Cu;;31667934;20200506174432;;33860000;14634
2761079;Zoning;8315392;20191109094845;W03-C-Knokke-Heist-FH08;8315392;20191109094845;W03-C-Knokke-Heist-FH08;21137;FTTH-Cu;;31667935;20200506174432;;33860000;14634
2761081;Zoning;8315392;20191109094845;W03-C-Knokke-Heist-FH08;8315392;20191109094845;W03-C-Knokke-Heist-FH08;21137;FTTH-Cu;;31667936;20200506174432;;33860000;14634
2761082;Zoning;8315392;20191109094845;W03-C-Knokke-Heist-FH08;8315392;20191109094845;W03-C-Knokke-Heist-FH08;21137;FTTH-Cu;;31667937;20200506174432;;33860000;14634
2761083;Zoning;8315392;20191109094845;W03-C-Knokke-Heist-FH08;8315392;20191109094845;W03-C-Knokke-Heist-FH08;21137;FTTH-Cu;;31667938;20200506174432;;33860000;14634
2761084;Zoning;8315392;20191109094845;W03-C-Knokke-Heist-FH08;8315392;20191109094845;W03-C-Knokke-Heist-FH08;21137;FTTH-Cu;;31667939;20200506174432;;33860000;14634
2761085;Zoning;8315392;20191109094845;W03-C-Knokke-Heist-FH08;8315392;20191109094845;W03-C-Knokke-Heist-FH08;21137;FTTH-Cu;;31667940;20200506174432;;33860000;14634
2761086;Zoning;8315392;20191109094845;W03-C-Knokke-Heist-FH08;8315392;20191109094845;W03-C-Knokke-Heist-FH08;21137;FTTH-Cu;;31667941;20200506174432;;33860000;14634
2761087;Zoning;8315392;20191109094845;W03-C-Knokke-Heist-FH08;8315392;20191109094845;W03-C-Knokke-Heist-FH08;21137;FTTH-Cu;;31667942;20200506174432;;33860000;14634
2761088;Zoning;8315392;20191109094845;W03-C-Knokke-Heist-FH08;8315392;20191109094845;W03-C-Knokke-Heist-FH08;21137;FTTH-Cu;;31667943;20200506174432;;33860000;14634
2761089;Zoning;8315392;20191109094845;W03-C-Knokke-Heist-FH08;8315392;20191109094845;W03-C-Knokke-Heist-FH08;21137;FTTH-Cu;;31667944;20200506174432;;33860000;14634
317368;Zoning;8315392;20191109094845;W03-C-Knokke-Heist-FH08;8315392;20191109094845;W03-C-Knokke-Heist-FH08;21137;FTTH-Cu;;31668036;20200506174435;;33860000;14634
2761090;Zoning;8315392;20191109094845;W03-C-Knokke-Heist-FH08;8315392;20191109094845;W03-C-Knokke-Heist-FH08;21137;FTTH-Cu;;31667945;20200506174432;;33860000;14634
317286;Zoning;8315392;20191109094845;W03-C-Knokke-Heist-FH08;8315392;20191109094845;W03-C-Knokke-Heist-FH08;21137;FTTH-Cu;;31668028;20200506174435;;33860000;14634
317370;Zoning;8315392;20191109094845;W03-C-Knokke-Heist-FH08;8315392;20191109094845;W03-C-Knokke-Heist-FH08;21137;FTTH-Cu;;31668037;20200506174435;;33860000;14634
319815;Zoning;8315392;20191109094845;W03-C-Knokke-Heist-FH08;8315392;20191109094845;W03-C-Knokke-Heist-FH08;21137;FTTH-Cu;;31668082;20200506174437;;33860000;14634
317285;Zoning;8315392;20191109094845;W03-C-Knokke-Heist-FH08;8315392;20191109094845;W03-C-Knokke-Heist-FH08;21137;FTTH-Cu;;31668027;20200506174435;;33860000;14634
12850;Zoning;8315392;20191109094845;W03-C-Knokke-Heist-FH08;8315392;20191109094845;W03-C-Knokke-Heist-FH08;21137;FTTH-Cu;;31667782;20200506174439;;33860000;14634
319696;Zoning;8315392;20191109094845;W03-C-Knokke-Heist-FH08;8315392;20191109094845;W03-C-Knokke-Heist-FH08;21137;FTTH-Cu;;31668081;20200506174436;;33860000;14634
2761091;Zoning;8315392;20191109094845;W03-C-Knokke-Heist-FH08;8315392;20191109094845;W03-C-Knokke-Heist-FH08;21137;FTTH-Cu;;31667946;20200506174432;;33860000;14634
320221;Zoning;8315392;20191109094845;W03-C-Knokke-Heist-FH08;8315392;20191109094845;W03-C-Knokke-Heist-FH08;21137;FTTH-Cu;;31668117;20200506174427;;33860000;14634
4346186;Zoning;8315392;20191109094845;W03-C-Knokke-Heist-FH08;8315392;20191109094845;W03-C-Knokke-Heist-FH08;21137;FTTH-Cu;;31668185;20200506174433;;33860000;14634
4346187;Zoning;8315392;20191109094845;W03-C-Knokke-Heist-FH08;8315392;20191109094845;W03-C-Knokke-Heist-FH08;21137;FTTH-Cu;;31668186;20200506174433;;33860000;14634
2761093;Zoning;8315392;20191109094845;W03-C-Knokke-Heist-FH08;8315392;20191109094845;W03-C-Knokke-Heist-FH08;21137;FTTH-Cu;;31667947;20200506174432;;33860000;14634
2761095;Zoning;8315392;20191109094845;W03-C-Knokke-Heist-FH08;8315392;20191109094845;W03-C-Knokke-Heist-FH08;21137;FTTH-Cu;;33593042;20200506174439;;33860000;14634
2761096;Zoning;8315392;20191109094845;W03-C-Knokke-Heist-FH08;8315392;20191109094845;W03-C-Knokke-Heist-FH08;21137;FTTH-Cu;;31667948;20200506174432;;33860000;14634
320222;Zoning;8315392;20191109094845;W03-C-Knokke-Heist-FH08;8315392;20191109094845;W03-C-Knokke-Heist-FH08;21137;FTTH-Cu;;31668118;20200506174427;;33860000;14634
2761097;Zoning;8315392;20191109094845;W03-C-Knokke-Heist-FH08;8315392;20191109094845;W03-C-Knokke-Heist-FH08;21137;FTTH-Cu;;31667949;20200506174432;;33860000;14634
2761098;Zoning;8315392;20191109094845;W03-C-Knokke-Heist-FH08;8315392;20191109094845;W03-C-Knokke-Heist-FH08;21137;FTTH-Cu;;31667950;20200506174432;;33860000;14634
320220;Zoning;8315392;20191109094845;W03-C-Knokke-Heist-FH08;8315392;20191109094845;W03-C-Knokke-Heist-FH08;21137;FTTH-Cu;;31668116;20200506174427;;33860000;14634
2761099;Zoning;8315392;20191109094845;W03-C-Knokke-Heist-FH08;8315392;20191109094845;W03-C-Knokke-Heist-FH08;21137;FTTH-Cu;;31667951;20200506174432;;33860000;14634
320225;Zoning;8315392;20191109094845;W03-C-Knokke-Heist-FH08;8315392;20191109094845;W03-C-Knokke-Heist-FH08;21137;FTTH-Cu;;31668120;20200506174427;;33860000;14634
320223;Zoning;8315392;20191109094845;W03-C-Knokke-Heist-FH08;8315392;20191109094845;W03-C-Knokke-Heist-FH08;21137;FTTH-Cu;;31668119;20200506174427;;33860000;14634
320238;Zoning;8315392;20191109094845;W03-C-Knokke-Heist-FH08;8315392;20191109094845;W03-C-Knokke-Heist-FH08;21137;FTTH-Cu;;31668130;20200506174427;;33860000;14634
320239;Zoning;8315392;20191109094845;W03-C-Knokke-Heist-FH08;8315392;20191109094845;W03-C-Knokke-Heist-FH08;21137;FTTH-Cu;;31668131;20200506174427;;33860000;14634
4346201;Zoning;8315392;20191109094845;W03-C-Knokke-Heist-FH08;8315392;20191109094845;W03-C-Knokke-Heist-FH08;21137;FTTH-Cu;;31668187;20200506174433;;33860000;14634
320240;Zoning;8315392;20191109094845;W03-C-Knokke-Heist-FH08;8315392;20191109094845;W03-C-Knokke-Heist-FH08;21137;FTTH-Cu;;31668132;20200506174427;;33860000;14634
320241;Zoning;8315392;20191109094845;W03-C-Knokke-Heist-FH08;8315392;20191109094845;W03-C-Knokke-Heist-FH08;21137;FTTH-Cu;;31668133;20200506174427;;33860000;14634
317364;Zoning;8315392;20191109094845;W03-C-Knokke-Heist-FH08;8315392;20191109094845;W03-C-Knokke-Heist-FH08;21137;FTTH-Cu;;31668034;20200506174435;;33860000;17616
319858;Zoning;8315392;20191109094845;W03-C-Knokke-Heist-FH08;8315392;20191109094845;W03-C-Knokke-Heist-FH08;21137;FTTH-Cu;;33593044;20200506174439;;33860000;17616
317366;Zoning;8315392;20191109094845;W03-C-Knokke-Heist-FH08;8315392;20191109094845;W03-C-Knokke-Heist-FH08;21137;FTTH-Cu;;31668035;20200506174435;;33860000;17616
319478;Zoning;8315392;20191109094845;W03-C-Knokke-Heist-FH08;8315392;20191109094845;W03-C-Knokke-Heist-FH08;21137;FTTH-Cu;;31668071;20200506174436;;33860000;18511
5579457;Zoning;8315392;20191109094845;W03-C-Knokke-Heist-FH08;8315392;20191109094845;W03-C-Knokke-Heist-FH08;21137;FTTH-Cu;;31668199;20200506174433;;33860000;18511
319477;Zoning;8315392;20191109094845;W03-C-Knokke-Heist-FH08;8315392;20191109094845;W03-C-Knokke-Heist-FH08;21137;FTTH-Cu;;33593045;20200506174439;;33860000;18511
2762731;Zoning;8315392;20191109094845;W03-C-Knokke-Heist-FH08;8315392;20191109094845;W03-C-Knokke-Heist-FH08;21137;FTTH-Cu;;31667952;20200506174432;;33860000;18511
2762733;Zoning;8315392;20191109094845;W03-C-Knokke-Heist-FH08;8315392;20191109094845;W03-C-Knokke-Heist-FH08;21137;FTTH-Cu;;33593046;20200506174439;;33860000;18511
2762734;Zoning;8315392;20191109094845;W03-C-Knokke-Heist-FH08;8315392;20191109094845;W03-C-Knokke-Heist-FH08;21137;FTTH-Cu;;31667953;20200506174432;;33860000;18511
5579458;Zoning;8315392;20191109094845;W03-C-Knokke-Heist-FH08;8315392;20191109094845;W03-C-Knokke-Heist-FH08;21137;FTTH-Cu;;31668200;20200506174433;;33860000;18511
319476;Zoning;8315392;20191109094845;W03-C-Knokke-Heist-FH08;8315392;20191109094845;W03-C-Knokke-Heist-FH08;21137;FTTH-Cu;;33593047;20200506174439;;33860000;18511
319475;Zoning;8315392;20191109094845;W03-C-Knokke-Heist-FH08;8315392;20191109094845;W03-C-Knokke-Heist-FH08;21137;FTTH-Cu;;31668070;20200506174436;;33860000;18511
2763677;Zoning;8315392;20191109094845;W03-C-Knokke-Heist-FH08;8315392;20191109094845;W03-C-Knokke-Heist-FH08;21137;FTTH-Cu;;31667954;20200506174432;;33860000;20211
2763679;Zoning;8315392;20191109094845;W03-C-Knokke-Heist-FH08;8315392;20191109094845;W03-C-Knokke-Heist-FH08;21137;FTTH-Cu;;31667955;20200506174432;;33860000;20211
2763681;Zoning;8315392;20191109094845;W03-C-Knokke-Heist-FH08;8315392;20191109094845;W03-C-Knokke-Heist-FH08;21137;FTTH-Cu;;31667956;20200506174432;;33860000;20211
2763682;Zoning;8315392;20191109094845;W03-C-Knokke-Heist-FH08;8315392;20191109094845;W03-C-Knokke-Heist-FH08;21137;FTTH-Cu;;31667957;20200506174432;;33860000;20211
2763683;Zoning;8315392;20191109094845;W03-C-Knokke-Heist-FH08;8315392;20191109094845;W03-C-Knokke-Heist-FH08;21137;FTTH-Cu;;31667958;20200506174432;;33860000;20211
320091;Zoning;8315392;20191109094845;W03-C-Knokke-Heist-FH08;8315392;20191109094845;W03-C-Knokke-Heist-FH08;21137;FTTH-Cu;;31668115;20200506174427;;33860000;20211
320089;Zoning;8315392;20191109094845;W03-C-Knokke-Heist-FH08;8315392;20191109094845;W03-C-Knokke-Heist-FH08;21137;FTTH-Cu;;31668114;20200506174427;;33860000;20211
12852;Zoning;8315392;20191109094845;W03-C-Knokke-Heist-FH08;8315392;20191109094845;W03-C-Knokke-Heist-FH08;21137;FTTH-Cu;;31667783;20200506174439;;33860000;20211
320227;Zoning;8315392;20191109094845;W03-C-Knokke-Heist-FH08;8315392;20191109094845;W03-C-Knokke-Heist-FH08;21137;FTTH-Cu;;31668121;20200506174427;;33860000;20211
320228;Zoning;8315392;20191109094845;W03-C-Knokke-Heist-FH08;8315392;20191109094845;W03-C-Knokke-Heist-FH08;21137;FTTH-Cu;;31668122;20200506174427;;33860000;20211
317391;Zoning;8315392;20191109094845;W03-C-Knokke-Heist-FH08;8315392;20191109094845;W03-C-Knokke-Heist-FH08;21137;FTTH-Cu;;31668046;20200506174435;;33860000;20211
317389;Zoning;8315392;20191109094845;W03-C-Knokke-Heist-FH08;8315392;20191109094845;W03-C-Knokke-Heist-FH08;21137;FTTH-Cu;;31668045;20200506174435;;33860000;20211
2763686;Zoning;8315392;20191109094845;W03-C-Knokke-Heist-FH08;8315392;20191109094845;W03-C-Knokke-Heist-FH08;21137;FTTH-Cu;;31667959;20200506174432;;33860000;20211
4346051;Zoning;8315392;20191109094845;W03-C-Knokke-Heist-FH08;8315392;20191109094845;W03-C-Knokke-Heist-FH08;21137;FTTH-Cu;;31668175;20200506174431;;33860000;20211
4003215;Zoning;8315392;20191109094845;W03-C-Knokke-Heist-FH08;8315392;20191109094845;W03-C-Knokke-Heist-FH08;21137;FTTH-Cu;;31668155;20200506174428;;33860000;20211
2763687;Zoning;8315392;20191109094845;W03-C-Knokke-Heist-FH08;8315392;20191109094845;W03-C-Knokke-Heist-FH08;21137;FTTH-Cu;;31667960;20200506174432;;33860000;20211
2763688;Zoning;8315392;20191109094845;W03-C-Knokke-Heist-FH08;8315392;20191109094845;W03-C-Knokke-Heist-FH08;21137;FTTH-Cu;;31667961;20200506174432;;33860000;20211
2763689;Zoning;8315392;20191109094845;W03-C-Knokke-Heist-FH08;8315392;20191109094845;W03-C-Knokke-Heist-FH08;21137;FTTH-Cu;;31667962;20200506174432;;33860000;20211
3988549;Zoning;8315392;20191109094845;W03-C-Knokke-Heist-FH08;8315392;20191109094845;W03-C-Knokke-Heist-FH08;21137;FTTH-Cu;;31668154;20200506174428;;33860000;20211
2763691;Zoning;8315392;20191109094845;W03-C-Knokke-Heist-FH08;8315392;20191109094845;W03-C-Knokke-Heist-FH08;21137;FTTH-Cu;;31667963;20200506174433;;33860000;20211
2763692;Zoning;8315392;20191109094845;W03-C-Knokke-Heist-FH08;8315392;20191109094845;W03-C-Knokke-Heist-FH08;21137;FTTH-Cu;;31667964;20200506174433;;33860000;20211
317398;Zoning;8315392;20191109094845;W03-C-Knokke-Heist-FH08;8315392;20191109094845;W03-C-Knokke-Heist-FH08;21137;FTTH-Cu;;31668047;20200506174436;;33860000;20211
12834;Zoning;8315392;20191109094845;W03-C-Knokke-Heist-FH08;8315392;20191109094845;W03-C-Knokke-Heist-FH08;21137;FTTH-Cu;;31667779;20200506174439;;33860000;20211
317521;Zoning;8315392;20191109094845;W03-C-Knokke-Heist-FH08;8315392;20191109094845;W03-C-Knokke-Heist-FH08;21137;FTTH-Cu;;31668060;20200506174436;;33860000;20211
317522;Zoning;8315392;20191109094845;W03-C-Knokke-Heist-FH08;8315392;20191109094845;W03-C-Knokke-Heist-FH08;21137;FTTH-Cu;;31668061;20200506174436;;33860000;20211
33474;Zoning;8315392;20191109094845;W03-C-Knokke-Heist-FH08;8315392;20191109094845;W03-C-Knokke-Heist-FH08;21137;FTTH-Cu;;31668149;20200506174427;;33860000;20211
317523;Zoning;8315392;20191109094845;W03-C-Knokke-Heist-FH08;8315392;20191109094845;W03-C-Knokke-Heist-FH08;21137;FTTH-Cu;;31668062;20200506174436;;33860000;20211
6308939;Zoning;8315392;20191109094845;W03-C-Knokke-Heist-FH08;8315392;20191109094845;W03-C-Knokke-Heist-FH08;21137;FTTH-Cu;;33593050;20200506174439;;33860000;20211
319485;Zoning;8315392;20191109094845;W03-C-Knokke-Heist-FH08;8315392;20191109094845;W03-C-Knokke-Heist-FH08;21137;FTTH-Cu;;31668075;20200506174436;;33860000;20222
2763733;Zoning;8315392;20191109094845;W03-C-Knokke-Heist-FH08;8315392;20191109094845;W03-C-Knokke-Heist-FH08;21137;FTTH-Cu;;31667965;20200506174433;;33860000;20222
5579496;Zoning;8315392;20191109094845;W03-C-Knokke-Heist-FH08;8315392;20191109094845;W03-C-Knokke-Heist-FH08;21137;FTTH-Cu;;33593051;20200506174439;;33860000;20222
245258;Zoning;8315392;20191109094845;W03-C-Knokke-Heist-FH08;8315392;20191109094845;W03-C-Knokke-Heist-FH08;21137;FTTH-Cu;;31667814;20200506174428;;33860000;20222
319488;Zoning;8315392;20191109094845;W03-C-Knokke-Heist-FH08;8315392;20191109094845;W03-C-Knokke-Heist-FH08;21137;FTTH-Cu;;31668076;20200506174436;;33860000;20222
12848;Zoning;8315392;20191109094845;W03-C-Knokke-Heist-FH08;8315392;20191109094845;W03-C-Knokke-Heist-FH08;21137;FTTH-Cu;;31667781;20200506174439;;33860000;20222
3939617;Zoning;8315392;20191109094845;W03-C-Knokke-Heist-FH08;8315392;20191109094845;W03-C-Knokke-Heist-FH08;21137;FTTH-Cu;;31668152;20200506174428;;33860000;20222
245257;Zoning;8315392;20191109094845;W03-C-Knokke-Heist-FH08;8315392;20191109094845;W03-C-Knokke-Heist-FH08;21137;FTTH-Cu;;31667813;20200506174428;;33860000;20222
319487;Zoning;8315392;20191109094845;W03-C-Knokke-Heist-FH08;8315392;20191109094845;W03-C-Knokke-Heist-FH08;21137;FTTH-Cu;;33593052;20200506174439;;33860000;20222
317245;Zoning;8315392;20191109094845;W03-C-Knokke-Heist-FH08;8315392;20191109094845;W03-C-Knokke-Heist-FH08;21137;FTTH-Cu;;33593059;20200506174439;;33860000;26746
245261;Zoning;8315392;20191109094845;W03-C-Knokke-Heist-FH08;8315392;20191109094845;W03-C-Knokke-Heist-FH08;21137;FTTH-Cu;;33593060;20200506174439;;33860000;26746
317246;Zoning;8315392;20191109094845;W03-C-Knokke-Heist-FH08;8315392;20191109094845;W03-C-Knokke-Heist-FH08;21137;FTTH-Cu;;31668014;20200506174435;;33860000;26746
245262;Zoning;8315392;20191109094845;W03-C-Knokke-Heist-FH08;8315392;20191109094845;W03-C-Knokke-Heist-FH08;21137;FTTH-Cu;;31667815;20200506174428;;33860000;26746
1498401;Zoning;8315392;20191109094845;W03-C-Knokke-Heist-FH08;8315392;20191109094845;W03-C-Knokke-Heist-FH08;21137;FTTH-Cu;;31667807;20200506174428;;33860000;26746
2765843;Zoning;8315392;20191109094845;W03-C-Knokke-Heist-FH08;8315392;20191109094845;W03-C-Knokke-Heist-FH08;21137;FTTH-Cu;;31667986;20200506174434;;33860000;26746
317241;Zoning;8315392;20191109094845;W03-C-Knokke-Heist-FH08;8315392;20191109094845;W03-C-Knokke-Heist-FH08;21137;FTTH-Cu;;31668013;20200506174434;;33860000;26746
6399215;Zoning;8315392;20191109094845;W03-C-Knokke-Heist-FH08;8315392;20191109094845;W03-C-Knokke-Heist-FH08;21137;FTTH-Cu;;33593061;20200506174437;;33860000;26746
320246;Zoning;8315392;20191109094845;W03-C-Knokke-Heist-FH08;8315392;20191109094845;W03-C-Knokke-Heist-FH08;21137;FTTH-Cu;;31668139;20200506174427;;33860000;28428
320247;Zoning;8315392;20191109094845;W03-C-Knokke-Heist-FH08;8315392;20191109094845;W03-C-Knokke-Heist-FH08;21137;FTTH-Cu;;31668140;20200506174437;;33860000;28428
320248;Zoning;8315392;20191109094845;W03-C-Knokke-Heist-FH08;8315392;20191109094845;W03-C-Knokke-Heist-FH08;21137;FTTH-Cu;;31668141;20200506174437;;33860000;28428
320249;Zoning;8315392;20191109094845;W03-C-Knokke-Heist-FH08;8315392;20191109094845;W03-C-Knokke-Heist-FH08;21137;FTTH-Cu;;31668142;20200506174437;;33860000;28428
320250;Zoning;8315392;20191109094845;W03-C-Knokke-Heist-FH08;8315392;20191109094845;W03-C-Knokke-Heist-FH08;21137;FTTH-Cu;;31668143;20200506174437;;33860000;28428
319840;Zoning;8315392;20191109094845;W03-C-Knokke-Heist-FH08;8315392;20191109094845;W03-C-Knokke-Heist-FH08;21137;FTTH-Cu;;31668103;20200506174426;;33860000;29928
2766770;Zoning;8315392;20191109094845;W03-C-Knokke-Heist-FH08;8315392;20191109094845;W03-C-Knokke-Heist-FH08;21137;FTTH-Cu;;31667989;20200506174434;;33860000;29928
2766771;Zoning;8315392;20191109094845;W03-C-Knokke-Heist-FH08;8315392;20191109094845;W03-C-Knokke-Heist-FH08;21137;FTTH-Cu;;31667990;20200506174434;;33860000;29928
319839;Zoning;8315392;20191109094845;W03-C-Knokke-Heist-FH08;8315392;20191109094845;W03-C-Knokke-Heist-FH08;21137;FTTH-Cu;;31668102;20200506174437;;33860000;29928
319671;Zoning;8315392;20191109094845;W03-C-Knokke-Heist-FH08;8315392;20191109094845;W03-C-Knokke-Heist-FH08;21137;FTTH-Cu;;31668077;20200506174436;;33860000;30432
319672;Zoning;8315392;20191109094845;W03-C-Knokke-Heist-FH08;8315392;20191109094845;W03-C-Knokke-Heist-FH08;21137;FTTH-Cu;;31668078;20200506174436;;33860000;30432
2766827;Zoning;8315392;20191109094845;W03-C-Knokke-Heist-FH08;8315392;20191109094845;W03-C-Knokke-Heist-FH08;21137;FTTH-Cu;;31667991;20200506174434;;33860000;30432
4029122;Zoning;8315392;20191109094845;W03-C-Knokke-Heist-FH08;8315392;20191109094845;W03-C-Knokke-Heist-FH08;21137;FTTH-Cu;;31668158;20200506174428;;33860000;30432
2766828;Zoning;8315392;20191109094845;W03-C-Knokke-Heist-FH08;8315392;20191109094845;W03-C-Knokke-Heist-FH08;21137;FTTH-Cu;;31667992;20200506174434;;33860000;30432
4348156;Zoning;8315392;20191109094845;W03-C-Knokke-Heist-FH08;8315392;20191109094845;W03-C-Knokke-Heist-FH08;21137;FTTH-Cu;;31668192;20200506174433;;33860000;30432
4060375;Zoning;8315392;20191109094845;W03-C-Knokke-Heist-FH08;8315392;20191109094845;W03-C-Knokke-Heist-FH08;21137;FTTH-Cu;;31668160;20200506174428;;33860000;30432
319854;Zoning;8315392;20191109094845;W03-C-Knokke-Heist-FH08;8315392;20191109094845;W03-C-Knokke-Heist-FH08;21137;FTTH-Cu;;31668112;20200506174427;;33860000;30432
2766830;Zoning;8315392;20191109094845;W03-C-Knokke-Heist-FH08;8315392;20191109094845;W03-C-Knokke-Heist-FH08;21137;FTTH-Cu;;31667993;20200506174434;;33860000;30432
319856;Zoning;8315392;20191109094845;W03-C-Knokke-Heist-FH08;8315392;20191109094845;W03-C-Knokke-Heist-FH08;21137;FTTH-Cu;;31668113;20200506174427;;33860000;30432
2766832;Zoning;8315392;20191109094845;W03-C-Knokke-Heist-FH08;8315392;20191109094845;W03-C-Knokke-Heist-FH08;21137;FTTH-Cu;;31667994;20200506174434;;33860000;30432
2766834;Zoning;8315392;20191109094845;W03-C-Knokke-Heist-FH08;8315392;20191109094845;W03-C-Knokke-Heist-FH08;21137;FTTH-Cu;;31667995;20200506174434;;33860000;30432
2766835;Zoning;8315392;20191109094845;W03-C-Knokke-Heist-FH08;8315392;20191109094845;W03-C-Knokke-Heist-FH08;21137;FTTH-Cu;;31667996;20200506174434;;33860000;30432
2766836;Zoning;8315392;20191109094845;W03-C-Knokke-Heist-FH08;8315392;20191109094845;W03-C-Knokke-Heist-FH08;21137;FTTH-Cu;;31667997;20200506174434;;33860000;30432
2766837;Zoning;8315392;20191109094845;W03-C-Knokke-Heist-FH08;8315392;20191109094845;W03-C-Knokke-Heist-FH08;21137;FTTH-Cu;;31667998;20200506174434;;33860000;30432
2766839;Zoning;8315392;20191109094845;W03-C-Knokke-Heist-FH08;8315392;20191109094845;W03-C-Knokke-Heist-FH08;21137;FTTH-Cu;;31667999;20200506174434;;33860000;30432
2766840;Zoning;8315392;20191109094845;W03-C-Knokke-Heist-FH08;8315392;20191109094845;W03-C-Knokke-Heist-FH08;21137;FTTH-Cu;;31668000;20200506174434;;33860000;30432
2766841;Zoning;8315392;20191109094845;W03-C-Knokke-Heist-FH08;8315392;20191109094845;W03-C-Knokke-Heist-FH08;21137;FTTH-Cu;;31668001;20200506174434;;33860000;30432
2766843;Zoning;8315392;20191109094845;W03-C-Knokke-Heist-FH08;8315392;20191109094845;W03-C-Knokke-Heist-FH08;21137;FTTH-Cu;;31668002;20200506174434;;33860000;30432
2766844;Zoning;8315392;20191109094845;W03-C-Knokke-Heist-FH08;8315392;20191109094845;W03-C-Knokke-Heist-FH08;21137;FTTH-Cu;;31668003;20200506174434;;33860000;30432
319852;Zoning;8315392;20191109094845;W03-C-Knokke-Heist-FH08;8315392;20191109094845;W03-C-Knokke-Heist-FH08;21137;FTTH-Cu;;31668111;20200506174427;;33860000;30432
317374;Zoning;8315392;20191109094845;W03-C-Knokke-Heist-FH08;8315392;20191109094845;W03-C-Knokke-Heist-FH08;21137;FTTH-Cu;;31668039;20200506174435;;33860000;30432
317415;Zoning;8315392;20191109094845;W03-C-Knokke-Heist-FH08;8315392;20191109094845;W03-C-Knokke-Heist-FH08;21137;FTTH-Cu;;31668049;20200506174436;;33860000;33736
317414;Zoning;8315392;20191109094845;W03-C-Knokke-Heist-FH08;8315392;20191109094845;W03-C-Knokke-Heist-FH08;21137;FTTH-Cu;;31668048;20200506174436;;33860000;33736
317416;Zoning;8315392;20191109094845;W03-C-Knokke-Heist-FH08;8315392;20191109094845;W03-C-Knokke-Heist-FH08;21137;FTTH-Cu;;31668050;20200506174436;;33860000;33736
4269199;Zoning;8315392;20191109094845;W03-C-Knokke-Heist-FH08;8315392;20191109094845;W03-C-Knokke-Heist-FH08;21137;FTTH-Cu;;31668163;20200506174428;;33860000;33736
2767493;Zoning;8315392;20191109094845;W03-C-Knokke-Heist-FH08;8315392;20191109094845;W03-C-Knokke-Heist-FH08;21137;FTTH-Cu;;31668004;20200506174434;;33860000;33736
317417;Zoning;8315392;20191109094845;W03-C-Knokke-Heist-FH08;8315392;20191109094845;W03-C-Knokke-Heist-FH08;21137;FTTH-Cu;;31668051;20200506174436;;33860000;33736
319837;Zoning;8315392;20191109094845;W03-C-Knokke-Heist-FH08;8315392;20191109094845;W03-C-Knokke-Heist-FH08;21137;FTTH-Cu;;31668100;20200506174437;;33860000;26764
319818;Zoning;8315392;20191109094845;W03-C-Knokke-Heist-FH08;8315392;20191109094845;W03-C-Knokke-Heist-FH08;21137;FTTH-Cu;;33593062;20200506174437;;33860000;26764
319838;Zoning;8315392;20191109094845;W03-C-Knokke-Heist-FH08;8315392;20191109094845;W03-C-Knokke-Heist-FH08;21137;FTTH-Cu;;31668101;20200506174437;;33860000;26764
2765846;Zoning;8315392;20191109094845;W03-C-Knokke-Heist-FH08;8315392;20191109094845;W03-C-Knokke-Heist-FH08;21137;FTTH-Cu;;31667987;20200506174434;;33860000;26764
317362;Zoning;8315392;20191109094845;W03-C-Knokke-Heist-FH08;8315392;20191109094845;W03-C-Knokke-Heist-FH08;21137;FTTH-Cu;;31668033;20200506174435;;33860000;26764
4348165;Zoning;8315392;20191109094845;W03-C-Knokke-Heist-FH08;8315392;20191109094845;W03-C-Knokke-Heist-FH08;21137;FTTH-Cu;;31668193;20200506174433;;33860000;26764
2765851;Zoning;8315392;20191109094845;W03-C-Knokke-Heist-FH08;8315392;20191109094845;W03-C-Knokke-Heist-FH08;21137;FTTH-Cu;;31667988;20200506174434;;33860000;26764
319820;Zoning;8315392;20191109094845;W03-C-Knokke-Heist-FH08;8315392;20191109094845;W03-C-Knokke-Heist-FH08;21137;FTTH-Cu;;31668083;20200506174437;;33860000;26764
317361;Zoning;8315392;20191109094845;W03-C-Knokke-Heist-FH08;8315392;20191109094845;W03-C-Knokke-Heist-FH08;21137;FTTH-Cu;;31668032;20200506174435;;33860000;26764
5579547;Zoning;8315392;20191109094845;W03-C-Knokke-Heist-FH08;8315392;20191109094845;W03-C-Knokke-Heist-FH08;21137;FTTH-Cu;;31668201;20200506174433;;33860000;26764
319459;Zoning;8315392;20191109094845;W03-C-Knokke-Heist-FH08;8315392;20191109094845;W03-C-Knokke-Heist-FH08;21137;FTTH-Cu;;33593066;20200506174437;;33860000;453
319461;Zoning;8315392;20191109094845;W03-C-Knokke-Heist-FH08;8315392;20191109094845;W03-C-Knokke-Heist-FH08;21137;FTTH-Cu;;33593067;20200506174438;;33860000;453
319463;Zoning;8315392;20191109094845;W03-C-Knokke-Heist-FH08;8315392;20191109094845;W03-C-Knokke-Heist-FH08;21137;FTTH-Cu;;33593068;20200506174438;;33860000;453
245267;Zoning;8315392;20191109094845;W03-C-Knokke-Heist-FH08;8315392;20191109094845;W03-C-Knokke-Heist-FH08;21137;FTTH-Cu;;33593069;20200506174438;;33860000;453
245263;Zoning;8315392;20191109094845;W03-C-Knokke-Heist-FH08;8315392;20191109094845;W03-C-Knokke-Heist-FH08;21137;FTTH-Cu;;33593070;20200506174438;;33860000;453
245264;Zoning;8315392;20191109094845;W03-C-Knokke-Heist-FH08;8315392;20191109094845;W03-C-Knokke-Heist-FH08;21137;FTTH-Cu;;33593071;20200506174438;;33860000;453
245265;Zoning;8315392;20191109094845;W03-C-Knokke-Heist-FH08;8315392;20191109094845;W03-C-Knokke-Heist-FH08;21137;FTTH-Cu;;33593072;20200506174438;;33860000;453
5579243;Zoning;8315392;20191109094845;W03-C-Knokke-Heist-FH08;8315392;20191109094845;W03-C-Knokke-Heist-FH08;21137;FTTH-Cu;;33593073;20200506174438;;33860000;453
2757794;Zoning;8315392;20191109094845;W03-C-Knokke-Heist-FH08;8315392;20191109094845;W03-C-Knokke-Heist-FH08;21137;FTTH-Cu;;33593074;20200506174438;;33860000;453
1456221;Zoning;8315392;20191109094845;W03-C-Knokke-Heist-FH08;8315392;20191109094845;W03-C-Knokke-Heist-FH08;21137;FTTH-Cu;;33593075;20200506174438;;33860000;453
245266;Zoning;8315392;20191109094845;W03-C-Knokke-Heist-FH08;8315392;20191109094845;W03-C-Knokke-Heist-FH08;21137;FTTH-Cu;;33593076;20200506174438;;33860000;453
245268;Zoning;8315392;20191109094845;W03-C-Knokke-Heist-FH08;8315392;20191109094845;W03-C-Knokke-Heist-FH08;21137;FTTH-Cu;;33593077;20200506174438;;33860000;453
5579244;Zoning;8315392;20191109094845;W03-C-Knokke-Heist-FH08;8315392;20191109094845;W03-C-Knokke-Heist-FH08;21137;FTTH-Cu;;33593078;20200506174438;;33860000;453
245269;Zoning;8315392;20191109094845;W03-C-Knokke-Heist-FH08;8315392;20191109094845;W03-C-Knokke-Heist-FH08;21137;FTTH-Cu;;33593079;20200506174438;;33860000;453
5579245;Zoning;8315392;20191109094845;W03-C-Knokke-Heist-FH08;8315392;20191109094845;W03-C-Knokke-Heist-FH08;21137;FTTH-Cu;;33593080;20200506174438;;33860000;453
245270;Zoning;8315392;20191109094845;W03-C-Knokke-Heist-FH08;8315392;20191109094845;W03-C-Knokke-Heist-FH08;21137;FTTH-Cu;;33593081;20200506174438;;33860000;453
5579246;Zoning;8315392;20191109094845;W03-C-Knokke-Heist-FH08;8315392;20191109094845;W03-C-Knokke-Heist-FH08;21137;FTTH-Cu;;33593082;20200506174438;;33860000;453
2757808;Zoning;8315392;20191109094845;W03-C-Knokke-Heist-FH08;8315392;20191109094845;W03-C-Knokke-Heist-FH08;21137;FTTH-Cu;;33593083;20200506174438;;33860000;453
2757812;Zoning;8315392;20191109094845;W03-C-Knokke-Heist-FH08;8315392;20191109094845;W03-C-Knokke-Heist-FH08;21137;FTTH-Cu;;33593084;20200506174438;;33860000;453
317248;Zoning;8315392;20191109094845;W03-C-Knokke-Heist-FH08;8315392;20191109094845;W03-C-Knokke-Heist-FH08;21137;FTTH-Cu;;33593085;20200506174438;;33860000;453
317502;Zoning;8315392;20191109094845;W03-C-Knokke-Heist-FH08;8315392;20191109094845;W03-C-Knokke-Heist-FH08;21137;FTTH-Cu;;33593086;20200506174438;;33860000;453
317503;Zoning;8315392;20191109094845;W03-C-Knokke-Heist-FH08;8315392;20191109094845;W03-C-Knokke-Heist-FH08;21137;FTTH-Cu;;33593087;20200506174438;;33860000;453
2757815;Zoning;8315392;20191109094845;W03-C-Knokke-Heist-FH08;8315392;20191109094845;W03-C-Knokke-Heist-FH08;21137;FTTH-Cu;;33593088;20200506174438;;33860000;453
2757816;Zoning;8315392;20191109094845;W03-C-Knokke-Heist-FH08;8315392;20191109094845;W03-C-Knokke-Heist-FH08;21137;FTTH-Cu;;33593089;20200506174438;;33860000;453
317504;Zoning;8315392;20191109094845;W03-C-Knokke-Heist-FH08;8315392;20191109094845;W03-C-Knokke-Heist-FH08;21137;FTTH-Cu;;33593090;20200506174438;;33860000;453
317505;Zoning;8315392;20191109094845;W03-C-Knokke-Heist-FH08;8315392;20191109094845;W03-C-Knokke-Heist-FH08;21137;FTTH-Cu;;33593091;20200506174438;;33860000;453
2757819;Zoning;8315392;20191109094845;W03-C-Knokke-Heist-FH08;8315392;20191109094845;W03-C-Knokke-Heist-FH08;21137;FTTH-Cu;;33593092;20200506174438;;33860000;453
317507;Zoning;8315392;20191109094845;W03-C-Knokke-Heist-FH08;8315392;20191109094845;W03-C-Knokke-Heist-FH08;21137;FTTH-Cu;;33593093;20200506174438;;33860000;453
317506;Zoning;8315392;20191109094845;W03-C-Knokke-Heist-FH08;8315392;20191109094845;W03-C-Knokke-Heist-FH08;21137;FTTH-Cu;;33593094;20200506174438;;33860000;453
2757821;Zoning;8315392;20191109094845;W03-C-Knokke-Heist-FH08;8315392;20191109094845;W03-C-Knokke-Heist-FH08;21137;FTTH-Cu;;33593095;20200506174438;;33860000;453
317508;Zoning;8315392;20191109094845;W03-C-Knokke-Heist-FH08;8315392;20191109094845;W03-C-Knokke-Heist-FH08;21137;FTTH-Cu;;33593096;20200506174438;;33860000;453
317519;Zoning;8315392;20191109094845;W03-C-Knokke-Heist-FH08;8315392;20191109094845;W03-C-Knokke-Heist-FH08;21137;FTTH-Cu;;31668058;20200506174436;;33860000;35325
317237;Zoning;8315392;20191109094845;W03-C-Knokke-Heist-FH08;8315392;20191109094845;W03-C-Knokke-Heist-FH08;21137;FTTH-Cu;;33593063;20200506174437;;33860000;35325
2767869;Zoning;8315392;20191109094845;W03-C-Knokke-Heist-FH08;8315392;20191109094845;W03-C-Knokke-Heist-FH08;21137;FTTH-Cu;;31668005;20200506174434;;33860000;35325
5579579;Zoning;8315392;20191109094845;W03-C-Knokke-Heist-FH08;8315392;20191109094845;W03-C-Knokke-Heist-FH08;21137;FTTH-Cu;;33593064;20200506174437;;33860000;35325
317520;Zoning;8315392;20191109094845;W03-C-Knokke-Heist-FH08;8315392;20191109094845;W03-C-Knokke-Heist-FH08;21137;FTTH-Cu;;31668059;20200506174436;;33860000;35325
317238;Zoning;8315392;20191109094845;W03-C-Knokke-Heist-FH08;8315392;20191109094845;W03-C-Knokke-Heist-FH08;21137;FTTH-Cu;;31668011;20200506174434;;33860000;35325
317516;Zoning;8315392;20191109094845;W03-C-Knokke-Heist-FH08;8315392;20191109094845;W03-C-Knokke-Heist-FH08;21137;FTTH-Cu;;31668056;20200506174436;;33860000;35325
3939670;Zoning;8315392;20191109094845;W03-C-Knokke-Heist-FH08;8315392;20191109094845;W03-C-Knokke-Heist-FH08;21137;FTTH-Cu;;31668153;20200506174428;;33860000;35325
317239;Zoning;8315392;20191109094845;W03-C-Knokke-Heist-FH08;8315392;20191109094845;W03-C-Knokke-Heist-FH08;21137;FTTH-Cu;;33593065;20200506174437;;33860000;35325
317517;Zoning;8315392;20191109094845;W03-C-Knokke-Heist-FH08;8315392;20191109094845;W03-C-Knokke-Heist-FH08;21137;FTTH-Cu;;31668057;20200506174436;;33860000;35325
317240;Zoning;8315392;20191109094845;W03-C-Knokke-Heist-FH08;8315392;20191109094845;W03-C-Knokke-Heist-FH08;21137;FTTH-Cu;;31668012;20200506174434;;33860000;35325
2767874;Zoning;8315392;20191109094845;W03-C-Knokke-Heist-FH08;8315392;20191109094845;W03-C-Knokke-Heist-FH08;21137;FTTH-Cu;;31668006;20200506174434;;33860000;35325
12832;Zoning;8315392;20191109094845;W03-C-Knokke-Heist-FH08;8315392;20191109094845;W03-C-Knokke-Heist-FH08;21137;FTTH-Cu;;31667778;20200506174439;;33860000;35325
317236;Zoning;8315392;20191109094845;W03-C-Knokke-Heist-FH08;8315392;20191109094845;W03-C-Knokke-Heist-FH08;21137;FTTH-Cu;;31668010;20200506174434;;33860000;35325
