Projectnummer;Opdrachtnummer;LAM MK;BG Id;BG Name;Straat;Huisnummer;Huisnummer Toevoeging;BG Version;Quadrant;SSV Date;Surveyor;Buildingtype;NR BU;NR LU;NR SU;UNITS TOTAL;Opdrachttemplate
ANTWERPEN-WEST - FH01;5978286;5978286;;Napelsstraat 71-73;Napelsstraat;71;;20191014095019;C;2019-09-27 09:40:15;olivier collignon;MDU;1;0;0;1;BUILDING template
ANTWERPEN-WEST - FH01;4128343;4128343;;Noorderplaats 5-7-9;Noorderplaats;9;;20191009113209;A;2019-06-18 16:55:13;Olivier Collignon;MDU;10;0;4;14;BUILDING template
ANTWERPEN-WEST - FH01;2047587;2047587;14068975;Rijnkaai 1-2-4_Braziliestraat 2C-2D-2E;Rijnkaai;1;;20190828121212;C;2018-11-19;Geert Stockman;MDU;1;0;0;1;BUILDING template
ANTWERPEN-WEST - FH01;186516;186516;;Oudeleeuwenrui 7-11;Oudeleeuwenrui;7;;;XC;2020-02-05;Senel Koksal;MDU;1;0;0;1;BUILDING template
ANTWERPEN-WEST - FH01;5802358;5802358;14068975;Rijnkaai 1-2-4_Braziliestraat 2C-2D-2E;Rijnkaai;4;;20190828121212;C;2018-11-19;Geert Stockman;MDU;1;0;0;1;BUILDING template
ANTWERPEN-WEST - FH01;186517;186517;;Oudeleeuwenrui 13-15;Oudeleeuwenrui;13;;;A;2020-02-05;Senel Koksal;MDU;1;0;0;1;BUILDING template
ANTWERPEN-WEST - FH01;1734637;1734637;11196793;Sint-Aldegondiskaai 56-58;Sint-Aldegondiskaai;58;;20190923150430;D;2018-11-19;Steffen Verhofste;MDU;1;0;0;1;BUILDING template
ANTWERPEN-WEST - FH01;1782029;1782029;;Sint-Aldegondiskaai 36-38-40-42_Adriaan Brouwersstraat 21-27;Adriaan Brouwerstraat;21;;;XA;2020-02-06;olivier collignon;MDU;1;0;0;1;BUILDING template
ANTWERPEN-WEST - FH01;1782040;1782040;;Sint-Aldegondiskaai 36-38-40-42_Adriaan Brouwersstraat 21-27;Adriaan Brouwerstraat;27;;;XA;2020-02-06;olivier collignon;MDU;0;4;1;5;BUILDING template
ANTWERPEN-WEST - FH01;4505458;4505458;11196795;Napelsstraat 32-34;Napelsstraat;34;;20190705082416;D;2018-11-17;Steffen Verhofste;MDU;1;0;0;1;BUILDING template
ANTWERPEN-WEST - FH01;1735094;1735094;14079336;Amsterdamstraat 14-16-18-20_Bataviastraat 1-5-7-11_Nassaustraat 30;Amsterdamstraat;16;;20191105091418;XA;2020-02-25;Peter Van Leeuwen;MDU;1;0;0;1;BUILDING template
ANTWERPEN-WEST - FH01;1735095;1735095;14079336;Amsterdamstraat 14-16-18-20_Bataviastraat 1-5-7-11_Nassaustraat 30;Amsterdamstraat;18;;20191105091418;XA;2020-02-25;Peter Van Leeuwen;MDU;5;0;1;6;BUILDING template
ANTWERPEN-WEST - FH01;62446;62446;;Ankerrui 11-13;Ankerrui;11;;;XA;2019-09-10 14:30:29;Steve De Weerdt;MDU;1;0;0;1;BUILDING template
ANTWERPEN-WEST - FH01;52537;52537;;Amsterdamstraat 21_Braziliestraat 43;Amsterdamstraat;21;;;D;2019-07-30 15:40:09;Steffen Verhofste;MDU;1;0;0;1;BUILDING template
ANTWERPEN-WEST - FH01;1734631;1734631;;Sint-Aldegondiskaai 36-38-40-42_Adriaan Brouwersstraat 21-27;Sint-Aldegondiskaai;44;;20191004142326;XA;2020-02-06;olivier collignon;MDU;1;0;0;1;BUILDING template
ANTWERPEN-WEST - FH01;108955;108955;11196797;Kempischdok-Westkaai 14-20;Kempischdok-Westkaai;20;;20190705082417;D;2019-09-13 10:50:12;Senel Koksal;MDU;0;4;0;4;BUILDING template
ANTWERPEN-WEST - FH01;59277;59277;;Sint-Aldegondiskaai 10_ Adriaan Brouwerstraat 9;Sint-Aldegondiskaai;10;;20191001141309;XA;2020-02-19 22:20:13;Senel Koksal;MDU;2;10;1;13;BUILDING template
ANTWERPEN-WEST - FH01;1734636;1734636;;Sint-Aldegondiskaai 56-58;Sint-Aldegondiskaai;56;;;D;2018-11-19;Steffen Verhofste;MDU;1;0;0;1;BUILDING template
ANTWERPEN-WEST - FH01;4510642;4510642;11196802;Ankerrui 15_Entrepotplaats 18;Ankerrui;15;;20191007115510;XA;2019-09-12 11:45:20;Steve De Weerdt;MDU;1;0;0;1;BUILDING template
ANTWERPEN-WEST - FH01;1775168;1775168;14079300;Brazieliestraat 2A_Montevideostraat 5;Braziliestraat;2;A;20191004142312;D;2019-09-06 10:20:15;Peter Van Leeuwen;MDU;2;0;0;2;BUILDING template
ANTWERPEN-WEST - FH01;1986469;1986469;11196799;Oudeleeuwenrui 13-15;Oudeleeuwenrui;15;;20190705082417;A;2020-02-05;Senel Koksal;MDU;6;0;2;8;BUILDING template
ANTWERPEN-WEST - FH01;6440424;6440424;14068975;Rijnkaai 1-2-4_Braziliestraat 2C-2D-2E;Braziliestraat;2;E;20190828121212;C;2018-11-19;Geert Stockman;MDU;1;0;0;1;BUILDING template
ANTWERPEN-WEST - FH01;5575022;5575022;;Ankerrui 11-13;Ankerrui;13;;;XA;2019-09-10 14:30:29;Steve De Weerdt;MDU;8;0;1;9;BUILDING template
ANTWERPEN-WEST - FH01;5802357;5802357;14068975;Rijnkaai 1-2-4_Braziliestraat 2C-2D-2E;Rijnkaai;2;;20190828121212;C;2018-11-19;Geert Stockman;MDU;1;0;0;1;BUILDING template
ANTWERPEN-WEST - FH01;6005416;6005416;11196800;Oudeleeuwenrui 7-11;Oudeleeuwenrui;11;;20190705082417;XC;2020-02-05;Senel Koksal;MDU;24;0;3;27;BUILDING template
ANTWERPEN-WEST - FH01;6395025;6395025;14069106;Montevideostraat 3_Rijnkaai 12-15;Rijnkaai;12;;20191004142315;XC;2019-09-06 11:35:13;Peter Van Leeuwen;MDU;1;0;0;1;BUILDING template
ANTWERPEN-WEST - FH01;1015486;1015486;14069106;Montevideostraat 3_Rijnkaai 12-15;Rijnkaai;15;;20191004142315;XC;2019-09-06 11:35:13;Peter Van Leeuwen;MDU;1;0;0;1;BUILDING template
ANTWERPEN-WEST - FH01;108068;108068;;Verbindingsdok-Westkaai 26-28-30;Verbindingsdok-Westkaai;30;;;A;2019-04-02 14:15:10;Geert Stockman;MDU;1;0;0;1;BUILDING template
ANTWERPEN-WEST - FH01;4021011;4021011;;Verbindingsdok-Westkaai 26-28-30;Verbindingsdok-Westkaai;28;;;A;2019-04-02 14:15:10;Geert Stockman;MDU;1;0;0;1;BUILDING template
ANTWERPEN-WEST - FH01;108075;108075;14079336;Amsterdamstraat 14-16-18-20_Bataviastraat 1-5-7-11_Nassaustraat 30;Bataviastraat;5;;20191105091418;XA;2020-02-25;Peter Van Leeuwen;MDU;1;0;0;1;BUILDING template
ANTWERPEN-WEST - FH01;108074;108074;14079336;Amsterdamstraat 14-16-18-20_Bataviastraat 1-5-7-11_Nassaustraat 30;Bataviastraat;7;;20191105091418;XA;2020-02-25;Peter Van Leeuwen;MDU;2;21;1;24;BUILDING template
ANTWERPEN-WEST - FH01;1735096;1735096;14079336;Amsterdamstraat 14-16-18-20_Bataviastraat 1-5-7-11_Nassaustraat 30;Amsterdamstraat;20;;20191105091418;XA;2020-02-25;Peter Van Leeuwen;MDU;1;0;0;1;BUILDING template
ANTWERPEN-WEST - FH01;108073;108073;14079336;Amsterdamstraat 14-16-18-20_Bataviastraat 1-5-7-11_Nassaustraat 30;Bataviastraat;11;;20191105091418;XA;2020-02-25;Peter Van Leeuwen;MDU;1;32;1;34;BUILDING template
ANTWERPEN-WEST - FH01;2024854;2024854;;Nassaustraat 1-3;Nassaustraat;3;;;A;2020-02-18 17:10:15;olivier collignon;MDU;0;5;1;6;BUILDING template
ANTWERPEN-WEST - FH01;1128029;1128029;20660534;Verbindingsdok-Westkaai 26-28-30;Verbindingsdok-Westkaai;26;;20191004142324;A;2019-04-02 14:15:10;Geert Stockman;MDU;1;12;0;13;BUILDING template
ANTWERPEN-WEST - FH01;5944507;5944507;20558663;Kattendijkdok Westkaai 91-92-93;Kattendijkdok-Westkaai;91;;20190927010630;E;2019-10-15 16:55:23;Nicholas De Mol;MDU;2;60;3;65;BUILDING template
ANTWERPEN-WEST - FH01;4511920;4511920;13342630;Kattendijkdok Westkaai 41-42-43;Kattendijkdok-Westkaai;42;;20190927010634;A;2019-10-15 16:49:32;Geert Stockman;MDU;1;0;0;1;BUILDING template
ANTWERPEN-WEST - FH01;1735088;1735088;14079336;Amsterdamstraat 14-16-18-20_Bataviastraat 1-5-7-11_Nassaustraat 30;Amsterdamstraat;14;;20191105091418;XA;2020-02-25;Peter Van Leeuwen;MDU;0;15;1;16;BUILDING template
ANTWERPEN-WEST - FH01;6525842;6525842;13342630;Kattendijkdok Westkaai 41-42-43;Kattendijkdok-Westkaai;43;;20190927010634;A;2019-10-15 16:49:32;Geert Stockman;MDU;1;0;0;1;BUILDING template
ANTWERPEN-WEST - FH01;5944504;5944504;20559006;Kattendijkdok Westkaai 81-82-83;Kattendijkdok-Westkaai;81;;20190927010630;E;2019-10-15 16:54:55;Nicholas De Mol;MDU;2;105;3;110;BUILDING template
ANTWERPEN-WEST - FH01;62428;62428;11196802;Ankerrui 15_Entrepotplaats 18;Entrepotplaats;18;;20191007115510;XA;2019-09-12 11:45:20;Steve De Weerdt;MDU;0;5;0;5;BUILDING template
ANTWERPEN-WEST - FH01;5891727;5891727;20558919;Kattendijkdok Westkaai 71-72-73;Kattendijkdok-Westkaai;71;;20190927010630;E;2019-10-15 16:54:45;Nicholas De Mol;MDU;2;60;3;65;BUILDING template
ANTWERPEN-WEST - FH01;5804916;5804916;20558752;Kattendijkdok Westkaai 61-63-65;Kattendijkdok-Westkaai;61;;20190927010636;A;2019-10-15 16:54:34;Nicholas De Mol;MDU;2;73;3;78;BUILDING template
ANTWERPEN-WEST - FH01;108076;108076;14079336;Amsterdamstraat 14-16-18-20_Bataviastraat 1-5-7-11_Nassaustraat 30;Bataviastraat;1;;20191105091418;XA;2020-02-25;Peter Van Leeuwen;MDU;1;0;0;1;BUILDING template
ANTWERPEN-WEST - FH01;1195065;1195065;20689391;Kattendijkdok Westkaai 51-54-56;Kattendijkdok-Westkaai;51;;20191011213223;A;2019-10-15 16:49:38;Geert Stockman;MDU;2;46;3;51;BUILDING template
ANTWERPEN-WEST - FH01;2069012;2069012;20726981;Entrepotkaai 3-4-5-6;Entrepotkaai;4;;20191009135015;A;2019-09-05 15:34:51;olivier collignon;MDU;0;9;2;11;BUILDING template
ANTWERPEN-WEST - FH01;2069024;2069024;20727201;Entrepotkaai 10A-11-12-13-14;Entrepotkaai;14;;20191009135152;A;2019-09-05 15:34:51;olivier collignon;MDU;0;13;2;15;BUILDING template
ANTWERPEN-WEST - FH01;1786975;1786975;14285997;Cadixstraat 45-47-47A-47C;Cadixstraat;47;;20190913125146;C;2020-01-17;Senel Koksal;MDU;0;16;1;17;BUILDING template
ANTWERPEN-WEST - FH01;5394016;5394016;14286007;Cadixstraat 49-49A-51-51A;Cadixstraat;51;;20190913125248;C;2020-01-17 14:20:18;Senel Koksal;MDU;0;13;1;14;BUILDING template
ANTWERPEN-WEST - FH01;2069014;2069014;20726981;Entrepotkaai 3-4-5-6;Entrepotkaai;5;;20191009135015;A;2019-09-05 15:34:51;olivier collignon;MDU;1;0;0;1;BUILDING template
ANTWERPEN-WEST - FH01;2069015;2069015;20726981;Entrepotkaai 3-4-5-6;Entrepotkaai;6;;20191009135015;A;2019-09-05 15:34:51;olivier collignon;MDU;0;11;2;13;BUILDING template
ANTWERPEN-WEST - FH01;4511909;4511909;;Braziliestraat 25-27-29;Braziliestraat;25;;;C;2020-02-18 16:55:20;olivier collignon;MDU;0;1;0;1;BUILDING template
ANTWERPEN-WEST - FH01;2069017;2069017;20727154;Entrepotkaai 7-8-9-10;Entrepotkaai;8;;20191009135041;A;2019-09-05 15:34:51;olivier collignon;MDU;0;9;2;11;BUILDING template
ANTWERPEN-WEST - FH01;1775218;1775218;;Braziliestraat 25-27-29;Braziliestraat;27;;;C;2020-02-18 16:55:20;olivier collignon;MDU;1;0;0;1;BUILDING template
ANTWERPEN-WEST - FH01;2069018;2069018;20727154;Entrepotkaai 7-8-9-10;Entrepotkaai;9;;20191009135041;A;2019-09-05 15:34:51;olivier collignon;MDU;1;0;0;1;BUILDING template
ANTWERPEN-WEST - FH01;2069019;2069019;20727154;Entrepotkaai 7-8-9-10;Entrepotkaai;10;;20191009135041;A;2019-09-05 15:34:51;olivier collignon;MDU;0;14;2;16;BUILDING template
ANTWERPEN-WEST - FH01;2069022;2069022;20727201;Entrepotkaai 10A-11-12-13-14;Entrepotkaai;12;;20191009135152;A;2019-09-05 15:34:51;olivier collignon;MDU;0;7;2;9;BUILDING template
ANTWERPEN-WEST - FH01;3928764;3928764;20727201;Entrepotkaai 10A-11-12-13-14;Entrepotkaai;13;;20191009135152;A;2019-09-05 15:34:51;olivier collignon;MDU;1;0;0;1;BUILDING template
ANTWERPEN-WEST - FH01;62439;62439;;Godefriduskaai 18-20-22;Godefriduskaai;18;;;XA;2019-08-27 12:50:11;olivier collignon;MDU;0;13;1;14;BUILDING template
ANTWERPEN-WEST - FH01;5576507;5576507;20727211;Entrepotkaai 15-16;Entrepotkaai;16;;20191009135215;A;2019-09-05 15:34:51;olivier collignon;MDU;0;10;2;12;BUILDING template
ANTWERPEN-WEST - FH01;62437;62437;;Godefriduskaai 26-28;Godefriduskaai;26;;;XA;2020-02-20 10:15:38;Senel Koksal;MDU;6;8;1;15;BUILDING template
ANTWERPEN-WEST - FH01;185911;185911;20726981;Entrepotkaai 3-4-5-6;Entrepotkaai;3;;20191009135015;A;2019-09-05 15:34:51;olivier collignon;MDU;1;0;0;1;BUILDING template
ANTWERPEN-WEST - FH01;2015971;2015971;14069106;Montevideostraat 3_Rijnkaai 12-15;Montevideostraat;3;;20191004142315;XC;2019-09-06 11:35:13;Peter Van Leeuwen;MDU;2;0;0;2;BUILDING template
ANTWERPEN-WEST - FH01;1905268;1905268;20680700;Godefriduskaai 8-10;Godefriduskaai;8;;20191007113645;D;2019-09-09 14:03:18;Mark van Gossum;MDU;0;2;0;2;BUILDING template
ANTWERPEN-WEST - FH01;2015972;2015972;14079300;Brazieliestraat 2A_Montevideostraat 5;Montevideostraat;5;;20191004142312;D;2019-09-06 10:20:15;Peter Van Leeuwen;MDU;2;0;0;2;BUILDING template
ANTWERPEN-WEST - FH01;1905273;1905273;20680700;Godefriduskaai 8-10;Godefriduskaai;10;;20191007113645;D;2019-09-09 14:03:18;Mark van Gossum;MDU;1;0;0;1;BUILDING template
ANTWERPEN-WEST - FH01;62444;62444;;Godefriduskaai 18-20-22;Godefriduskaai;22;;;XA;2019-08-27 12:50:11;olivier collignon;MDU;0;13;1;14;BUILDING template
ANTWERPEN-WEST - FH01;1090148;1090148;;Godefriduskaai 26-28;Godefriduskaai;28;;;XA;2020-02-20 10:15:38;Senel Koksal;MDU;7;17;1;25;BUILDING template
ANTWERPEN-WEST - FH01;108794;108794;;Kribbestraat 19_Napoleonkaai 45;Napoleonkaai;45;;;A;2020-02-19 17:55:13;Senel Koksal;MDU;1;0;0;1;BUILDING template
ANTWERPEN-WEST - FH01;1195063;1195063;13342630;Kattendijkdok Westkaai 41-42-43;Kattendijkdok-Westkaai;41;;20190927010634;A;2019-10-15 16:49:32;Geert Stockman;MDU;2;39;3;44;BUILDING template
ANTWERPEN-WEST - FH01;108067;108067;;Nassaustraat 1-3;Nassaustraat;1;;;A;2020-02-18 17:10:15;olivier collignon;MDU;1;0;0;1;BUILDING template
ANTWERPEN-WEST - FH01;3962177;3962177;20521214;Sint-Aldegondiskaai 36-38-40-42_Adriaan Brouwersstraat 21-27;Sint-Aldegondiskaai;40;;20191004142326;XA;2020-02-06;olivier collignon;MDU;1;0;0;1;BUILDING template
ANTWERPEN-WEST - FH01;1960586;1960586;;Kattendijkdok-Westkaai 31-32-32A;Kattendijkdok-Westkaai;31;;;A;2020-02-18 12:30:36;olivier collignon;MDU;1;0;0;1;BUILDING template
ANTWERPEN-WEST - FH01;1960587;1960587;;Kattendijkdok-Westkaai 31-32-32A;Kattendijkdok-Westkaai;32;;;A;2020-02-18 12:30:36;olivier collignon;MDU;0;10;1;11;BUILDING template
ANTWERPEN-WEST - FH01;4505465;4505465;;Kempischdok-Westkaai 14-20;Kempischdok-Westkaai;14;;;D;2019-09-13 10:50:12;Senel Koksal;MDU;0;4;0;4;BUILDING template
ANTWERPEN-WEST - FH01;108785;108785;;Kribbestraat 2-4;Kribbestraat;2;;;A;2019-12-16 17:10:13;Senel Koksal;MDU;0;3;0;3;BUILDING template
ANTWERPEN-WEST - FH01;3962176;3962176;;Sint-Aldegondiskaai 36-38-40-42_Adriaan Brouwersstraat 21-27;Sint-Aldegondiskaai;38;;20191004142326;XA;2020-02-06;olivier collignon;MDU;0;12;2;14;BUILDING template
ANTWERPEN-WEST - FH01;1970943;1970943;14286066;Kribbestraat 6-8;Kribbestraat;6;;20190913130011;XA;2019-09-23 18:30:21;Geert Stockman;MDU;0;11;2;14;BUILDING template
ANTWERPEN-WEST - FH01;6242346;6242346;20521214;Sint-Aldegondiskaai 36-38-40-42_Adriaan Brouwersstraat 21-27;Sint-Aldegondiskaai;42;;20191004142326;XA;2020-02-06;olivier collignon;MDU;1;0;0;1;BUILDING template
ANTWERPEN-WEST - FH01;1970933;1970933;11196785;Kribbestraat 2-4;Kribbestraat;4;;20190705082415;A;2019-12-16 17:10:13;Senel Koksal;MDU;0;3;0;2;BUILDING template
ANTWERPEN-WEST - FH01;1970946;1970946;14286066;Kribbestraat 6-8;Kribbestraat;8;;20190913130011;XA;2019-09-23 18:30:21;Geert Stockman;MDU;1;0;0;1;BUILDING template
ANTWERPEN-WEST - FH01;5804911;5804911;20689391;Kattendijkdok Westkaai 51-54-56;Kattendijkdok-Westkaai;56;;20191011213223;A;2019-10-15 16:49:38;Geert Stockman;MDU;1;0;0;1;BUILDING template
ANTWERPEN-WEST - FH01;108273;108273;;August Michielsstraat 26_Londenstraat 39_Napelsstraat 63-65-67;August Michielsstraat;26;;20191009090339;XA;2019-09-16 15:00:24;Mark van Gossum;MDU;0;1;0;1;BUILDING template
ANTWERPEN-WEST - FH01;6419169;6419169;14068975;Rijnkaai 1-2-4_Braziliestraat 2C-2D-2E;Braziliestraat;2;D;20190828121212;C;2018-11-19;Geert Stockman;MDU;0;1;0;1;BUILDING template
ANTWERPEN-WEST - FH01;59296;59296;;Van Schoonbekeplein 11_Spanjaardsteeg 21;Van Schoonbekeplein;11;;;C;2019-12-11 10:25:15;Senel Koksal;MDU;1;0;0;1;BUILDING template
ANTWERPEN-WEST - FH01;52549;52549;11196789;Amsterdamstraat 21_Braziliestraat 43;Braziliestraat;43;;20190705082415;D;2019-07-30 15:40:09;Steffen Verhofste;MDU;0;1;1;1;BUILDING template
ANTWERPEN-WEST - FH01;6419634;6419634;14068975;Rijnkaai 1-2-4_Braziliestraat 2C-2D-2E;Braziliestraat;2;C;20190828121212;C;2018-11-19;Geert Stockman;MDU;0;1;0;1;BUILDING template
ANTWERPEN-WEST - FH01;2028886;2028886;;Noorderplaats 5-7-9;Noorderplaats;5;;20191009113209;A;2019-06-18 16:55:13;Olivier Collignon;MDU;14;0;4;18;BUILDING template
ANTWERPEN-WEST - FH01;4128344;4128344;;Noorderplaats 5-7-9;Noorderplaats;7;;20191009113209;A;2019-06-18 16:55:13;Olivier Collignon;MDU;14;0;4;18;BUILDING template
ANTWERPEN-WEST - FH01;3918458;3918458;11196806;Braziliestraat 25-27-29;Braziliestraat;29;;20190705082417;C;2020-02-18 16:55:20;olivier collignon;MDU;0;2;2;4;BUILDING template
ANTWERPEN-WEST - FH01;4511926;4511926;20689391;Kattendijkdok Westkaai 51-54-56;Kattendijkdok-Westkaai;54;;;A;2019-10-15 16:49:38;Geert Stockman;MDU;1;0;0;1;BUILDING template
ANTWERPEN-WEST - FH01;5537964;5537964;20558752;Kattendijkdok Westkaai 61-63-65;Kattendijkdok-Westkaai;65;;;A;2019-10-15 16:54:34;Nicholas De Mol;MDU;1;0;0;1;BUILDING template
ANTWERPEN-WEST - FH01;1992550;1992550;;August Michielsstraat 26_Londenstraat 39_Napelsstraat 63-65-67;Londenstraat;39;;20191009090339;XA;2019-09-16 15:00:24;Mark van Gossum;MDU;1;0;0;1;BUILDING template
ANTWERPEN-WEST - FH01;5899748;5899748;20558919;Kattendijkdok Westkaai 71-72-73;Kattendijkdok-Westkaai;73;;;E;2019-10-15 16:54:45;Nicholas De Mol;MDU;1;0;0;1;BUILDING template
ANTWERPEN-WEST - FH01;1992553;1992553;;Londenstraat 40-42;Londenstraat;40;;;A;2020-02-20;olivier collignon;MDU;0;10;1;11;BUILDING template
ANTWERPEN-WEST - FH01;6008100;6008100;20558919;Kattendijkdok Westkaai 71-72-73;Kattendijkdok-Westkaai;72;;;E;2019-10-15 16:54:45;Nicholas De Mol;MDU;1;0;0;1;BUILDING template
ANTWERPEN-WEST - FH01;6187119;6187119;20558752;Kattendijkdok Westkaai 61-63-65;Kattendijkdok-Westkaai;63;;;A;2019-10-15 16:54:34;Nicholas De Mol;MDU;1;0;0;1;BUILDING template
ANTWERPEN-WEST - FH01;1992555;1992555;;Londenstraat 40-42;Londenstraat;42;;;A;2020-02-20;olivier collignon;MDU;1;0;0;1;BUILDING template
ANTWERPEN-WEST - FH01;6521029;6521029;20559006;Kattendijkdok Westkaai 81-82-83;Kattendijkdok-Westkaai;82;;;E;2019-10-15 16:54:55;Nicholas De Mol;MDU;1;0;0;1;BUILDING template
ANTWERPEN-WEST - FH01;6521030;6521030;20558663;Kattendijkdok Westkaai 91-92-93;Kattendijkdok-Westkaai;93;;;E;2019-10-15 16:55:23;Nicholas De Mol;MDU;1;0;0;1;BUILDING template
ANTWERPEN-WEST - FH01;6605117;6605117;20559006;Kattendijkdok Westkaai 81-82-83;Kattendijkdok-Westkaai;83;;;E;2019-10-15 16:54:55;Nicholas De Mol;MDU;1;0;0;1;BUILDING template
ANTWERPEN-WEST - FH01;6605118;6605118;20558663;Kattendijkdok Westkaai 91-92-93;Kattendijkdok-Westkaai;92;;;E;2019-10-15 16:55:23;Nicholas De Mol;MDU;1;0;0;1;BUILDING template
ANTWERPEN-WEST - FH01;6027745;6027745;14286007;Cadixstraat 49-49A-51-51A;Cadixstraat;51;A;20190913125248;C;2020-01-17 14:20:18;Senel Koksal;MDU;1;0;0;1;BUILDING template
ANTWERPEN-WEST - FH01;6027282;6027282;14286007;Cadixstraat 49-49A-51-51A;Cadixstraat;49;A;20190913125248;C;2020-01-17 14:20:18;Senel Koksal;MDU;1;0;0;1;BUILDING template
ANTWERPEN-WEST - FH01;108297;108297;14286007;Cadixstraat 49-49A-51-51A;Cadixstraat;49;;20190913125248;C;2020-01-17 14:20:18;Senel Koksal;MDU;1;0;0;1;BUILDING template
ANTWERPEN-WEST - FH01;6427222;6427222;14285997;Cadixstraat 45-47-47A-47C;Cadixstraat;47;C;20190913125146;C;2020-01-17;Senel Koksal;MDU;1;0;0;1;BUILDING template
ANTWERPEN-WEST - FH01;2024639;2024639;;Napelsstraat 32-34;Napelsstraat;32;;;D;2018-11-17;Steffen Verhofste;MDU;1;0;0;1;BUILDING template
ANTWERPEN-WEST - FH01;6375622;6375622;14285997;Cadixstraat 45-47-47A-47C;Cadixstraat;47;A;20190913125146;C;2020-01-17;Senel Koksal;MDU;1;0;0;1;BUILDING template
ANTWERPEN-WEST - FH01;4506391;4506391;14285997;Cadixstraat 45-47-47A-47C;Cadixstraat;45;;20190913125146;C;2020-01-17;Senel Koksal;MDU;1;0;0;1;BUILDING template
ANTWERPEN-WEST - FH01;108294;108294;20714618;August Michielsstraat 26_Londenstraat 39_Napelsstraat 63-65-67;Napelsstraat;63;;20191009090339;XA;2019-09-16 15:00:24;Mark van Gossum;MDU;0;16;2;18;BUILDING template
ANTWERPEN-WEST - FH01;108293;108293;20714618;August Michielsstraat 26_Londenstraat 39_Napelsstraat 63-65-67;Napelsstraat;65;;20191009090339;XA;2019-09-16 15:00:24;Mark van Gossum;MDU;0;12;2;14;BUILDING template
ANTWERPEN-WEST - FH01;108292;108292;20714618;August Michielsstraat 26_Londenstraat 39_Napelsstraat 63-65-67;Napelsstraat;67;;20191009090339;XA;2019-09-16 15:00:24;Mark van Gossum;MDU;1;15;2;18;BUILDING template
ANTWERPEN-WEST - FH01;59274;59274;;Sint-Aldegondiskaai 10_ Adriaan Brouwerstraat 9;Adriaan Brouwerstraat;9;;20191001141309;XA;2020-02-19 22:20:13;Senel Koksal;MDU;1;5;1;7;BUILDING template
ANTWERPEN-WEST - FH01;59300;59300;;Van Schoonbekeplein 11_Spanjaardsteeg 21;Spanjaardsteeg;21;;;C;2019-12-11 10:25:15;Senel Koksal;MDU;0;7;2;9;BUILDING template
ANTWERPEN-WEST - FH01;1905398;1905398;;Godefriduskaai 18-20-22;Godefriduskaai;20;;;XA;2019-08-27 12:50:11;olivier collignon;MDU;1;0;0;1;BUILDING template
ANTWERPEN-WEST - FH01;6132277;6132277;;Kattendijkdok-Westkaai 31-32-32A;Kattendijkdok-Westkaai;32;A;;A;2020-02-18 12:30:36;olivier collignon;MDU;0;1;0;1;BUILDING template
ANTWERPEN-WEST - FH01;5963666;5963666;;Napelsstraat 71-73;Napelsstraat;73;;20191014095019;C;2019-09-27 09:40:15;olivier collignon;MDU;2;0;2;4;BUILDING template
ANTWERPEN-WEST - FH01;4066155;4066155;20727201;Entrepotkaai 10A-11-12-13-14;Entrepotkaai;10;A;20191009135152;A;2019-09-05 15:34:51;olivier collignon;MDU;1;0;0;1;BUILDING template
ANTWERPEN-WEST - FH01;4507060;4507060;20727154;Entrepotkaai 7-8-9-10;Entrepotkaai;7;;20191009135041;A;2019-09-05 15:34:51;olivier collignon;MDU;1;0;0;1;BUILDING template
ANTWERPEN-WEST - FH01;2069021;2069021;20727201;Entrepotkaai 10A-11-12-13-14;Entrepotkaai;11;;20191009135152;A;2019-09-05 15:34:51;olivier collignon;MDU;1;0;0;1;BUILDING template
ANTWERPEN-WEST - FH01;2069025;2069025;20727211;Entrepotkaai 15-16;Entrepotkaai;15;;20191009135215;A;2019-09-05 15:34:51;olivier collignon;MDU;1;0;0;1;BUILDING template
ANTWERPEN-WEST - FH01;186508;186508;;Kribbestraat 19_Napoleonkaai 45;Kribbestraat;19;;;A;2020-02-19 17:55:13;Senel Koksal;MDU;1;4;1;6;BUILDING template
ANTWERPEN-WEST - FH01;108078;108078;14079336;Amsterdamstraat 14-16-18-20_Bataviastraat 1-5-7-11_Nassaustraat 30;Nassaustraat;30;;20191105091418;XA;2020-02-25;Peter Van Leeuwen;MDU;0;11;1;12;BUILDING template
