LAM MK;xPos;yPos;Street;Nr;Suffix
1523310;75446,357;227736,389;Albertplein;2;
2757624;75445,539;227740,696;Albertplein;3;
5579236;75445,292;227744,853;Albertplein;4;
337141;75444,794;227749,15;Albertplein;5;
5579237;75444,049;227752,643;Albertplein;6;
2757627;75442,448;227758,322;Albertplein;7;
2757628;75442,688;227762,498;Albertplein;8;
4348202;75442,06;227766,374;Albertplein;9;
2757629;75441,376;227771,024;Albertplein;10;
5579238;75441,294;227775,788;Albertplein;11;
320854;75510,81;227778,6;Albertplein;15;
320857;75512,103;227771,305;Albertplein;16;
5579240;75512,831;227761,841;Albertplein;17;
320856;75516,65;227761,703;Albertplein;18;
320855;75516,798;227752,614;Albertplein;19;
335120;75325,326;227723,532;Antoine Bréartstraat;1;
2758353;75347,285;227731,579;Antoine Bréartstraat;2;
5579288;75328,491;227723,351;Antoine Bréartstraat;3;
5935147;75343,729;227735,03;Antoine Bréartstraat;4;
5579289;75323,824;227724,621;Antoine Bréartstraat;5;
335753;75339,626;227738,668;Antoine Bréartstraat;6;
2758359;75316,065;227727,403;Antoine Bréartstraat;7;
2758360;75336,486;227743,027;Antoine Bréartstraat;8;
2758361;75310,988;227728,063;Antoine Bréartstraat;9;
2758362;75331,625;227747,24;Antoine Bréartstraat;10;
4345067;75314,547;227730,565;Antoine Bréartstraat;11;
2758364;75327,168;227752,771;Antoine Bréartstraat;12;
335118;75305,299;227737,556;Antoine Bréartstraat;13;
2758368;75309,872;227733,209;Antoine Bréartstraat;13;A
2758369;75323,085;227757,168;Antoine Bréartstraat;14;
5579290;75304,408;227742,983;Antoine Bréartstraat;15;
6441864;75309,33;227739,839;Antoine Bréartstraat;15;A
3923027;75324,189;227761,203;Antoine Bréartstraat;16;
6455009;75320,69;227760,604;Antoine Bréartstraat;16;A
2758371;75302,875;227748,095;Antoine Bréartstraat;17;
6445966;75298,015;227745,9;Antoine Bréartstraat;17;A
335752;75314,509;227770,204;Antoine Bréartstraat;18;
335119;75300,344;227753,066;Antoine Bréartstraat;19;
322000;75965,119;227910,574;De Wielingen;1;
2767771;75962,124;227920,77;De Wielingen;3;
2767773;75960,612;227925,271;De Wielingen;5;
2767775;75959,245;227929,328;De Wielingen;7;
2767776;75959,151;227931,756;De Wielingen;9;
2767788;75935,204;227961,334;De Wielingen;19;
2767790;75936,91;227954,509;De Wielingen;21;
2767792;75938,979;227948,129;De Wielingen;23;
335115;75278,138;227746,755;Duindistelstraat;1;
335113;75254,583;227741,334;Duindistelstraat;2;
6326403;75251,11;227729,309;Duindistelstraat;2;A
6524252;75278,145;227742,237;Duindistelstraat;3;
335112;75246,427;227718,786;Duindistelstraat;4;
2759116;75276,424;227736,626;Duindistelstraat;5;
335116;75243,05;227712,258;Duindistelstraat;6;
2759118;75274,165;227729,376;Duindistelstraat;7;
2759119;75272,146;227722,01;Duindistelstraat;9;
2759121;75270,594;227717,123;Duindistelstraat;11;
2759123;75239,3;227703,597;Duindistelstraat;12;
4073573;75239,135;227694,885;Duindistelstraat;14;
2759125;75267,97;227712,401;Duindistelstraat;15;
5579334;75237,693;227689,843;Duindistelstraat;16;
335114;75265,918;227707,2;Duindistelstraat;17;
335111;75236,768;227685,413;Duindistelstraat;18;
321364;75860,541;227878,551;Ebbestraat;1;
321994;75885,752;227885,325;Ebbestraat;2;
2759447;75850,946;227892,983;Ebbestraat;3;
2759448;75884,421;227889,628;Ebbestraat;4;
2759449;75848,174;227900,537;Ebbestraat;5;
5579354;75882,364;227893,887;Ebbestraat;6;
4348190;75846,804;227904;Ebbestraat;7;
2759451;75878,971;227901,695;Ebbestraat;8;
321365;75836,388;227926,511;Ebbestraat;9;
321996;75873,467;227913,415;Ebbestraat;10;
4348192;75840,133;227919,12;Ebbestraat;11;
5830672;75841,588;227913,795;Ebbestraat;13;
321366;75844,272;227909,224;Ebbestraat;15;
322281;75598,052;227820,867;Golvenstraat;1;
320859;75579,19;227819,768;Golvenstraat;2;
322282;75602;227814;Golvenstraat;3;
2760023;75583,939;227796,435;Golvenstraat;4;
2760024;75609,045;227810,586;Golvenstraat;5;
320858;75586,287;227790,417;Golvenstraat;6;
6420952;75589,165;227784,211;Golvenstraat;6;A
2760025;75605,105;227809,441;Golvenstraat;7;
320860;75594,122;227773,909;Golvenstraat;8;
2760027;75610,754;227805,363;Golvenstraat;9;
2760029;75606,906;227804,337;Golvenstraat;11;
2760031;75606,863;227798,902;Golvenstraat;13;
2760032;75608,591;227793,647;Golvenstraat;15;
2760033;75610,425;227789,293;Golvenstraat;17;
12872;75611,85;227783,587;Golvenstraat;19;
323112;74861,404;227553,961;Kustlaan;1;
4346486;74870,158;227555,833;Kustlaan;3;
2762273;74873,786;227556,741;Kustlaan;5;
4346487;74886,606;227560,823;Kustlaan;7;
4346488;74890,822;227562,233;Kustlaan;9;
323113;74894,011;227563,681;Kustlaan;11;
334964;74985,428;227594,93;Kustlaan;13;
2762279;74992,649;227597,312;Kustlaan;13;A
2762280;74998,726;227599,347;Kustlaan;13;B
2762281;75005,112;227601,565;Kustlaan;15;
2762283;75012,512;227603,757;Kustlaan;17;
334965;75018,536;227606,146;Kustlaan;19;
337103;75067,755;227617,818;Kustlaan;23;
6524260;75074,226;227620,287;Kustlaan;25;
5579419;75082,002;227625,71;Kustlaan;27;
2762292;75090,292;227628,105;Kustlaan;29;
2762294;75095,583;227629,727;Kustlaan;31;
4347674;75100,994;227631,225;Kustlaan;33;
2762299;75105,849;227632,979;Kustlaan;35;
2762300;75111,558;227632,81;Kustlaan;37;
337102;75115,622;227633,672;Kustlaan;39;
5579420;75119,89;227634,637;Kustlaan;41;
335026;75142,601;227645,092;Kustlaan;43;
2762308;75151,601;227647,537;Kustlaan;45;
2762309;75162,25;227650,639;Kustlaan;47;
2762312;75172,271;227653,298;Kustlaan;49;
2762313;75179,727;227656,306;Kustlaan;51;
335025;75188,505;227658,525;Kustlaan;53;
335099;75220,225;227666,032;Kustlaan;55;
335100;75224,782;227674,303;Kustlaan;57;
2762318;75229,864;227677,39;Kustlaan;59;
335101;75233,691;227679,926;Kustlaan;61;
335104;75255,493;227683,569;Kustlaan;63;
5579422;75260,002;227686,073;Kustlaan;65;
2762329;75266,059;227690,558;Kustlaan;67;
4345021;75270,139;227691,114;Kustlaan;69;
2762333;75274,296;227694,941;Kustlaan;71;
2762335;75278,692;227695,476;Kustlaan;73;
2762336;75283,401;227699,647;Kustlaan;75;
2762339;75290,219;227703,174;Kustlaan;77;
2762341;75295,463;227703,026;Kustlaan;79;
2762343;75298,184;227706,449;Kustlaan;81;
2762344;75303,892;227708,935;Kustlaan;83;
335103;75309,926;227711,265;Kustlaan;85;
2762347;75314,128;227712,543;Kustlaan;87;
2762349;75317,893;227713,647;Kustlaan;89;
2762351;75322,057;227714,118;Kustlaan;91;
2762354;75326,212;227714,26;Kustlaan;93;
335102;75330,463;227714,504;Kustlaan;95;
335748;75330,904;227719,582;Kustlaan;97;
5579428;75353,536;227728,831;Kustlaan;101;
2762363;75360,285;227725,788;Kustlaan;103;
2762365;75365,824;227724,682;Kustlaan;105;
2762366;75372,317;227724,285;Kustlaan;107;
1338390;75379,468;227723,229;Kustlaan;111;
2762369;75384,451;227723,272;Kustlaan;113;
2762370;75392,326;227722,687;Kustlaan;115;
2762372;75392,2;227726,106;Kustlaan;117;
2762373;75400,446;227723,069;Kustlaan;119;
2762376;75408,201;227722,751;Kustlaan;121;
335751;75415,124;227722,637;Kustlaan;123;
6524254;75422,882;227722,501;Kustlaan;125;
335749;75431,131;227721,543;Kustlaan;127;
5579430;75430,581;227724,914;Kustlaan;129;
337147;75440,087;227722,535;Kustlaan;131;
2762391;75439,855;227725,992;Kustlaan;133;
2762395;75448,556;227723,723;Kustlaan;135;
5579432;75448,297;227730,254;Kustlaan;137;
320868;75520,455;227742,047;Kustlaan;139;
5579434;75529,177;227746,237;Kustlaan;145;
320870;75537,206;227750,059;Kustlaan;147;
5579435;75536,951;227752,236;Kustlaan;149;
2762409;75546,05;227750,447;Kustlaan;151;
2762410;75544,05;227753,515;Kustlaan;153;
2762413;75544,566;227755,683;Kustlaan;155;
2762416;75551,722;227756,215;Kustlaan;157;
2762421;75551,28;227758,452;Kustlaan;159;
2762425;75558,025;227758,116;Kustlaan;161;
2762426;75557,706;227760,373;Kustlaan;163;
2762427;75564,208;227758,964;Kustlaan;165;
2762429;75563,228;227762,453;Kustlaan;167;
320871;75569,461;227761,015;Kustlaan;169;
2762431;75568,536;227764,679;Kustlaan;171;
5579436;75575,301;227763,698;Kustlaan;173;
2762436;75579,822;227768,798;Kustlaan;175;
2762438;75581,364;227765,274;Kustlaan;177;
2762440;75586,183;227766,854;Kustlaan;179;
320866;75591,096;227767,797;Kustlaan;181;
5579437;75590,981;227769,978;Kustlaan;183;
320867;75613,844;227778,048;Kustlaan;185;
322289;75618,438;227783,236;Kustlaan;187;
5579438;75619,697;227779,741;Kustlaan;189;
4343877;75625,681;227783,768;Kustlaan;191;
2762459;75630,328;227788,929;Kustlaan;193;
2762464;75631,644;227785,408;Kustlaan;195;
2762470;75636,196;227790,608;Kustlaan;197;
2762473;75637,333;227786,997;Kustlaan;199;
2762474;75641,805;227792,206;Kustlaan;201;
2762476;75643,072;227788,629;Kustlaan;205;
2762477;75647,958;227793,875;Kustlaan;207;
2762479;75649,949;227790,371;Kustlaan;209;
2762480;75655,814;227796,234;Kustlaan;211;
3954195;75657,632;227792,457;Kustlaan;213;
2762481;75661,447;227797,334;Kustlaan;215;
2762482;75667,557;227799,224;Kustlaan;217;
2762487;75674,163;227801,514;Kustlaan;221;
4343880;75678,373;227802,902;Kustlaan;223;
6526795;75683,331;227803,11;Kustlaan;227;
2762489;75682,19;227806,551;Kustlaan;229;
322287;75689,121;227807,026;Kustlaan;231;
2762492;75695,079;227808,744;Kustlaan;233;
321345;75718,509;227817,981;Kustlaan;237;
2762496;75714,668;227815,678;Kustlaan;239;
5579442;75722,297;227818,335;Kustlaan;241;
2762498;75726,932;227820,871;Kustlaan;243;
2762500;75730,612;227822,267;Kustlaan;245;
4348174;75735,071;227823,358;Kustlaan;247;
1338057;75730,173;227825,534;Kustlaan;249;
2762501;75739,977;227825,085;Kustlaan;251;
4348177;75738,887;227828,42;Kustlaan;253;
2762503;75746,413;227827,122;Kustlaan;255;
2762504;75744,521;227830,535;Kustlaan;257;
2762505;75752,196;227829,115;Kustlaan;259;
2762508;75750,721;227832,488;Kustlaan;261;
2762510;75757,866;227831,823;Kustlaan;263;
2762513;75757,47;227834,104;Kustlaan;265;
2762515;75764,156;227834,868;Kustlaan;267;
321346;75774,63;227836,429;Kustlaan;271;
321347;75803,016;227848,807;Kustlaan;273;
2762518;75809,568;227852,373;Kustlaan;275;
2762519;75816,786;227855,457;Kustlaan;279;
2762521;75823,655;227857,194;Kustlaan;281;
2762524;75823,147;227859,402;Kustlaan;283;
2762525;75828,386;227859,494;Kustlaan;285;
2762527;75832,79;227861,656;Kustlaan;287;
2762529;75838,282;227863,541;Kustlaan;289;
2762530;75843,736;227864,953;Kustlaan;291;
2762538;75858,103;227869,433;Kustlaan;301;
321349;75864,578;227870,974;Kustlaan;303;
321989;75887,387;227881,278;Kustlaan;305;
2762540;75891,559;227882,639;Kustlaan;307;
6401164;75896,119;227884,207;Kustlaan;309;
5579446;75900,655;227885,396;Kustlaan;311;
2762541;75904,797;227887,375;Kustlaan;313;
2762543;75908,855;227889,107;Kustlaan;315;
2762544;75912,944;227889,512;Kustlaan;317;
2762547;75911,692;227892,834;Kustlaan;319;
2762548;75917,821;227891,535;Kustlaan;321;
2762549;75922,492;227892,348;Kustlaan;323;
2762551;75930,059;227897,058;Kustlaan;325;
2762552;75933,63;227898,291;Kustlaan;327;
4345256;75928,785;227900,604;Kustlaan;329;
2762554;75933,957;227900,552;Kustlaan;331;
4345257;75939,492;227899,819;Kustlaan;333;
2762555;75945,651;227899,655;Kustlaan;335;
321992;75944,051;227902,978;Kustlaan;337;
2762558;75950,179;227902,717;Kustlaan;339;
6089756;75956,464;227902,812;Kustlaan;341;
2762561;75955,519;227904,737;Kustlaan;343;
2762564;75954,04;227908,174;Kustlaan;345;
334977;74974,326;227591,071;Lichttorenplein;1;
2762907;74972,947;227596,728;Lichttorenplein;1;B
334966;74867,99;227554,977;Lichttorenplein;2;
6524250;74969,575;227603,9;Lichttorenplein;3;
2762909;74871,936;227556,26;Lichttorenplein;4;
334978;74965,942;227613,071;Lichttorenplein;5;
13044;74875,716;227557,586;Lichttorenplein;6;
5446596;74879,764;227558,821;Lichttorenplein;6;A
6425283;74883,771;227559,861;Lichttorenplein;6;B
2762913;74965,303;227619,993;Lichttorenplein;7;
334967;74888,721;227561,284;Lichttorenplein;8;
5831022;74963,154;227628,523;Lichttorenplein;9;
334968;74895,397;227599,182;Lichttorenplein;10;
334979;74960,883;227635,564;Lichttorenplein;11;
5579464;74892,893;227605,602;Lichttorenplein;12;
334980;74953,814;227653,192;Lichttorenplein;13;
2762922;74891,85;227610,352;Lichttorenplein;14;
334969;74891,729;227618,076;Lichttorenplein;16;
334970;74889,483;227625,935;Lichttorenplein;18;
5579466;74884,466;227638,871;Lichttorenplein;20;
5579489;75034,88;227685,67;Marie-Joséstraat;1;
334983;75017,897;227665,599;Marie-Joséstraat;2;
4347702;75036,57;227679,7;Marie-Joséstraat;3;
334982;75018,55;227659,701;Marie-Joséstraat;4;
4347703;75038,45;227674,86;Marie-Joséstraat;5;
2763519;75020,623;227647,553;Marie-Joséstraat;6;
337111;75042,848;227666,4;Marie-Joséstraat;7;
2763522;75024,181;227639,639;Marie-Joséstraat;8;
2763524;75046,722;227656,358;Marie-Joséstraat;9;
2763525;75025,191;227635,34;Marie-Joséstraat;10;
2763526;75051,26;227641,922;Marie-Joséstraat;11;
2763527;75026,86;227627,942;Marie-Joséstraat;12;
2763531;75055,344;227626,577;Marie-Joséstraat;13;
337115;75029,727;227619,095;Marie-Joséstraat;14;
2763533;75032,239;227609,522;Marie-Joséstraat;16;
5579490;75057,819;227615,123;Marie-Joséstraat;19;
337112;75063,273;227616,44;Marie-Joséstraat;21;
321362;75696,968;227859,438;Strandstraat;1;
2766752;75678,502;227851,613;Strandstraat;2;
2766753;75700,545;227853,213;Strandstraat;3;
2766756;75703,274;227844,247;Strandstraat;5;
322283;75683,187;227845,665;Strandstraat;6;
2766758;75706,787;227835,365;Strandstraat;7;
2766759;75682,791;227838,792;Strandstraat;8;
2766761;75708,137;227831,894;Strandstraat;9;
4070277;75677,94;227836,707;Strandstraat;10;
2766762;75710,09;227828,3;Strandstraat;11;
2766763;75685,392;227832,817;Strandstraat;12;
321363;75711,523;227822,455;Strandstraat;13;
2766766;75681,221;227831,043;Strandstraat;14;
6524235;75713;227819;Strandstraat;15;
4343871;75687,138;227827,39;Strandstraat;16;
2766768;75688,374;227823,529;Strandstraat;18;
2766769;75691,357;227819,91;Strandstraat;20;
322284;75691,7;227814,865;Strandstraat;22;
335027;75118,531;227708,369;Swolfsstraat;1;
337107;75098,471;227703,543;Swolfsstraat;2;
5579559;75122,936;227701,234;Swolfsstraat;3;
2766774;75098,519;227694,847;Swolfsstraat;4;
2766775;75122,831;227698,605;Swolfsstraat;5;
337108;75099,45;227690,391;Swolfsstraat;6;
2766776;75125,437;227694,006;Swolfsstraat;7;
5579560;75105,517;227670,358;Swolfsstraat;8;
2766782;75127,443;227687,468;Swolfsstraat;9;
337109;75101,211;227683,092;Swolfsstraat;10;
2766785;75131,577;227674,453;Swolfsstraat;11;
2766786;75108,226;227659,016;Swolfsstraat;12;
2766787;75135,469;227664,023;Swolfsstraat;13;
2766788;75112,041;227651,489;Swolfsstraat;14;
335028;75138,156;227657,203;Swolfsstraat;15;
5579561;75117,859;227638,072;Swolfsstraat;16;
2766791;75140,739;227649,608;Swolfsstraat;17;
337110;75117,172;227641,31;Swolfsstraat;18;
334976;74834,604;227621,902;Van Bunnenplein;12;
5579293;74838,539;227611,385;Van Bunnenplein;13;
2758565;74841,763;227604,292;Van Bunnenplein;14;
2758566;74844,953;227597,825;Van Bunnenplein;15;
2758568;74846,274;227593,396;Van Bunnenplein;16;
2758569;74848,665;227588,583;Van Bunnenplein;17;
2758570;74850,151;227583,778;Van Bunnenplein;18;
334974;74852,836;227578,051;Van Bunnenplein;19;
334973;74857,483;227567,53;Van Bunnenplein;20;
335105;75190,288;227731,132;Zandstraat;1;
335034;75168,819;227725,662;Zandstraat;2;
335107;75195,486;227721,914;Zandstraat;3;
335033;75170,901;227713,382;Zandstraat;4;
2767838;75199,411;227709,901;Zandstraat;5;
335032;75174,174;227704,945;Zandstraat;6;
335108;75204,423;227699,174;Zandstraat;7;
2767840;75176,325;227699,494;Zandstraat;8;
2767841;75205,392;227694,271;Zandstraat;9;
2767843;75178,403;227693,74;Zandstraat;10;
4091179;75207,434;227687,764;Zandstraat;11;
2767845;75180,908;227688,623;Zandstraat;12;
2767846;75209,619;227682,302;Zandstraat;13;
2767847;75182,17;227684,63;Zandstraat;14;
335109;75211,234;227677,126;Zandstraat;15;
3939667;75183,319;227681,096;Zandstraat;16;
335110;75212,81;227665,942;Zandstraat;17;
2767848;75184,585;227676,729;Zandstraat;18;
2767849;75186,337;227671,005;Zandstraat;20;
335031;75189,119;227663,777;Zandstraat;22;
335093;75187,972;227739,088;Zeedijk-Het Zoute;700;
2767938;75193,42;227740,559;Zeedijk-Het Zoute;701;
2767941;75201,208;227744,375;Zeedijk-Het Zoute;702;
2767944;75210,233;227746,108;Zeedijk-Het Zoute;703;
2767945;75217,909;227749,409;Zeedijk-Het Zoute;704;
335095;75227,014;227751,132;Zeedijk-Het Zoute;705;
2767948;75227,653;227747,731;Zeedijk-Het Zoute;706;
5579585;75233,757;227753,513;Zeedijk-Het Zoute;707;
335096;75234,251;227750,253;Zeedijk-Het Zoute;708;
2767951;75237,941;227754,788;Zeedijk-Het Zoute;709;
4345048;75242,335;227755,245;Zeedijk-Het Zoute;710;
2767953;75250,425;227759,406;Zeedijk-Het Zoute;711;
2767956;75246,375;227756,62;Zeedijk-Het Zoute;712;
335094;75255,095;227761,311;Zeedijk-Het Zoute;713;
335097;75270,861;227766,892;Zeedijk-Het Zoute;714;
1327494;75275,183;227768,602;Zeedijk-Het Zoute;715;
2767960;75281,309;227769,932;Zeedijk-Het Zoute;716;
4345065;75287,009;227771,641;Zeedijk-Het Zoute;717;
335098;75291,651;227773,639;Zeedijk-Het Zoute;718;
5579586;75313,196;227774,373;Zeedijk-Het Zoute;720;
2767964;75321,183;227776,264;Zeedijk-Het Zoute;721;
2767965;75321,309;227772,918;Zeedijk-Het Zoute;722;
4067471;75326,818;227776,888;Zeedijk-Het Zoute;723;
1327496;75327,694;227773,423;Zeedijk-Het Zoute;724;
4343060;75332,411;227777,524;Zeedijk-Het Zoute;725;
2767968;75337,694;227777,507;Zeedijk-Het Zoute;726;
2767969;75340,684;227777,792;Zeedijk-Het Zoute;727;
2767970;75345,99;227778,012;Zeedijk-Het Zoute;728;
2767974;75350,952;227778,246;Zeedijk-Het Zoute;730;
2767976;75351,718;227774,772;Zeedijk-Het Zoute;731;
2767977;75355,966;227778,562;Zeedijk-Het Zoute;732;
2767979;75360,703;227778,86;Zeedijk-Het Zoute;733;
335746;75366,6;227779,139;Zeedijk-Het Zoute;735;
2767987;75371,207;227779,757;Zeedijk-Het Zoute;736;
1327497;75375,705;227780,167;Zeedijk-Het Zoute;737;
5579587;75387,791;227780,955;Zeedijk-Het Zoute;738;
337142;75400,726;227782,908;Zeedijk-Het Zoute;739;
5579588;75401,124;227779,553;Zeedijk-Het Zoute;740;
4128652;75410,059;227783,905;Zeedijk-Het Zoute;741;
2767996;75410,325;227780,558;Zeedijk-Het Zoute;742;
337143;75417,239;227784,784;Zeedijk-Het Zoute;743;
2768001;75423,858;227786,478;Zeedijk-Het Zoute;744;
4348200;75429,427;227787,288;Zeedijk-Het Zoute;745;
2768002;75435,064;227787,632;Zeedijk-Het Zoute;746;
5777380;75440,367;227788,677;Zeedijk-Het Zoute;747;
6044454;75441,465;227783,87;Zeedijk-Het Zoute;749;
320876;75540,015;227808,904;Zeedijk-Het Zoute;754;
320877;75544,921;227810,203;Zeedijk-Het Zoute;755;
2768013;75553,117;227812,167;Zeedijk-Het Zoute;756;
2768015;75561,647;227814,852;Zeedijk-Het Zoute;757;A
5905413;75567,537;227816,153;Zeedijk-Het Zoute;757;B
320874;75597;227826;Zeedijk-Het Zoute;760;
2768018;75601,661;227827,758;Zeedijk-Het Zoute;761;
2768019;75605,632;227828,749;Zeedijk-Het Zoute;762;
2768020;75612,477;227830,889;Zeedijk-Het Zoute;763;
2768022;75621,02;227833,563;Zeedijk-Het Zoute;764;
2768023;75624,94;227835,532;Zeedijk-Het Zoute;765;
2768024;75630,58;227836,632;Zeedijk-Het Zoute;766;
1322806;75636,757;227838,926;Zeedijk-Het Zoute;767;
2768028;75644,791;227841,817;Zeedijk-Het Zoute;768;
2768031;75649,653;227844,052;Zeedijk-Het Zoute;769;
2768033;75654,338;227847,62;Zeedijk-Het Zoute;770;
2768035;75656,496;227845,302;Zeedijk-Het Zoute;771;
2768036;75660,886;227848,799;Zeedijk-Het Zoute;772;
2768037;75665,826;227849,656;Zeedijk-Het Zoute;773;
2768038;75666,785;227852,594;Zeedijk-Het Zoute;774;
2768039;75671,685;227850,894;Zeedijk-Het Zoute;775;
2768040;75671,024;227853,812;Zeedijk-Het Zoute;776;
322286;75676,492;227855,933;Zeedijk-Het Zoute;777;
321350;75694;227865;Zeedijk-Het Zoute;778;
5579590;75698,702;227866,425;Zeedijk-Het Zoute;779;
2768044;75703,426;227867,068;Zeedijk-Het Zoute;780;
2768045;75703,933;227864,926;Zeedijk-Het Zoute;781;
2768046;75709;227870;Zeedijk-Het Zoute;782;
4348169;75713,823;227871,498;Zeedijk-Het Zoute;783;
2768047;75719;227875;Zeedijk-Het Zoute;784;
2768048;75725;227877;Zeedijk-Het Zoute;785;
321351;75731,183;227878,767;Zeedijk-Het Zoute;786;
2768050;75736,04;227880,907;Zeedijk-Het Zoute;787;
2768051;75740,381;227882,907;Zeedijk-Het Zoute;788;
2768052;75744,998;227884,765;Zeedijk-Het Zoute;789;
2768053;75749,61;227887,034;Zeedijk-Het Zoute;790;
5579591;75754,851;227888,654;Zeedijk-Het Zoute;791;
321352;75786,71;227903,438;Zeedijk-Het Zoute;792;
5801592;75787,519;227901,481;Zeedijk-Het Zoute;793;
5911098;75788,114;227899,487;Zeedijk-Het Zoute;794;
321355;75790,928;227904,976;Zeedijk-Het Zoute;795;
2768059;75795,25;227905,822;Zeedijk-Het Zoute;796;
2768060;75801,888;227909,748;Zeedijk-Het Zoute;797;
2768064;75810,965;227913,999;Zeedijk-Het Zoute;799;
2768065;75815,603;227915,852;Zeedijk-Het Zoute;800;
4348188;75819,9;227917,082;Zeedijk-Het Zoute;801;
2768066;75824,993;227920,099;Zeedijk-Het Zoute;802;
2768068;75826,963;227916,65;Zeedijk-Het Zoute;803;
321354;75829,948;227922,827;Zeedijk-Het Zoute;804;
6524234;75831,343;227919,42;Zeedijk-Het Zoute;805;
321985;75862,535;227935,408;Zeedijk-Het Zoute;807;
5905414;75866,62;227937,308;Zeedijk-Het Zoute;808;
5905415;75871,797;227938,97;Zeedijk-Het Zoute;809;
2768072;75878,184;227942,065;Zeedijk-Het Zoute;810;
2768073;75883,467;227943,498;Zeedijk-Het Zoute;811;
2768074;75888,255;227947,236;Zeedijk-Het Zoute;812;
2768076;75893,097;227948,929;Zeedijk-Het Zoute;813;
321986;75903,639;227953,14;Zeedijk-Het Zoute;814;
2768078;75914,352;227957,426;Zeedijk-Het Zoute;815;
321987;75920,063;227960,28;Zeedijk-Het Zoute;816;
2768081;75923,605;227962,504;Zeedijk-Het Zoute;817;
2768082;75928,368;227964,504;Zeedijk-Het Zoute;818;
321988;75932,598;227966,042;Zeedijk-Het Zoute;819;
337592;74833,749;227627,886;Zeedijk-Knokke;648;
2761457;74837,053;227628,715;Zeedijk-Knokke;648;A
334954;74840,382;227629,724;Zeedijk-Knokke;649;
334955;74847,193;227627,548;Zeedijk-Knokke;650;
2761459;74851,905;227628,673;Zeedijk-Knokke;651;
5579394;74856,702;227630,003;Zeedijk-Knokke;652;
2761461;74861,92;227634,18;Zeedijk-Knokke;653;
2761464;74868,272;227636,38;Zeedijk-Knokke;654;
2761466;74874,768;227639,816;Zeedijk-Knokke;657;
2761468;74877,024;227640,609;Zeedijk-Knokke;658;
2761472;74922,484;227641,85;Zeedijk-Knokke;660;
334957;74950,033;227664,76;Zeedijk-Knokke;661;
2761475;74961,546;227665,172;Zeedijk-Knokke;662;
2761477;74970,408;227668,27;Zeedijk-Knokke;663;
4346484;74978,132;227669,828;Zeedijk-Knokke;665;
2761479;74984,999;227673,046;Zeedijk-Knokke;666;
2761482;74990,991;227674,538;Zeedijk-Knokke;667;
2761483;74997;227677;Zeedijk-Knokke;668;
2761485;75001,454;227678,574;Zeedijk-Knokke;669;
334958;75005,748;227680,559;Zeedijk-Knokke;670;
5579395;75008,994;227681;Zeedijk-Knokke;671;
2761490;75014,12;227682,249;Zeedijk-Knokke;672;
337097;75033,684;227690,582;Zeedijk-Knokke;673;
4347685;75039,538;227691,145;Zeedijk-Knokke;674;
2761492;75044,07;227692,714;Zeedijk-Knokke;675;
2761494;75050,45;227694,801;Zeedijk-Knokke;676;
5579396;75055,677;227695,343;Zeedijk-Knokke;677;
337100;75059,821;227697,533;Zeedijk-Knokke;678;
5579397;75066,137;227699,377;Zeedijk-Knokke;679;
337101;75072,879;227701,535;Zeedijk-Knokke;680;
5579398;75073,691;227698,035;Zeedijk-Knokke;681;
2761501;75078,413;227702,708;Zeedijk-Knokke;682;
4347699;75083,076;227704,582;Zeedijk-Knokke;683;
2761502;75084,095;227701,08;Zeedijk-Knokke;684;
337098;75087,464;227705,901;Zeedijk-Knokke;685;
2761504;75092,28;227707,457;Zeedijk-Knokke;686;
337099;75096,819;227709,397;Zeedijk-Knokke;687;
335029;75115,621;227715,452;Zeedijk-Knokke;688;
2761505;75119,69;227716,601;Zeedijk-Knokke;689;
2761506;75120,943;227713,05;Zeedijk-Knokke;690;
2761507;75124,88;227718,696;Zeedijk-Knokke;691;
2761510;75125,8;227714,924;Zeedijk-Knokke;692;
2761511;75130,212;227720,458;Zeedijk-Knokke;693;
2761513;75130,443;227716,451;Zeedijk-Knokke;694;
2761514;75135,117;227722,338;Zeedijk-Knokke;695;
2761516;75140,157;227724,041;Zeedijk-Knokke;696;
2761517;75145,182;227725,146;Zeedijk-Knokke;697;
6058392;75155,094;227727,841;Zeedijk-Knokke;697;A
6058388;75150,544;227726,325;Zeedijk-Knokke;697;B
6417469;75146,452;227721,468;Zeedijk-Knokke;697;C
335030;75160,734;227729,95;Zeedijk-Knokke;698;
2761519;75166,096;227732,198;Zeedijk-Knokke;699;
5579580;75781,5;227898,017;Zeewindstraat;1;
321356;75756,539;227883,335;Zeewindstraat;2;
321357;75786,354;227886,831;Zeewindstraat;3;
2767893;75762,365;227874,397;Zeewindstraat;4;
2767894;75789,249;227878,784;Zeewindstraat;5;
2767895;75792,257;227874,322;Zeewindstraat;7;
321358;75764,618;227863,81;Zeewindstraat;8;
5567537;75794,268;227869,198;Zeewindstraat;9;
4348172;75768,573;227857,142;Zeewindstraat;10;
2767896;75795,508;227866,319;Zeewindstraat;11;
5579581;75771,544;227851,871;Zeewindstraat;12;
2767898;75795,26;227863,984;Zeewindstraat;13;
321360;75772,482;227849,833;Zeewindstraat;14;
321359;75797,767;227860,212;Zeewindstraat;15;
12860;75774,658;227842,874;Zeewindstraat;16;
321361;75799,738;227855,53;Zeewindstraat;17;
