LAM MK;xPos;yPos;Street;Nr;Suffix
377818;173856,107;174290,971;Arendstraat;1;
4798620;173860,607;174284,564;Arendstraat;3;
4798622;173865,944;174280,093;Arendstraat;5;
4798623;173870,043;174275,955;Arendstraat;7;
4798625;173876,325;174270,039;Arendstraat;9;
4798627;173880,266;174267,608;Arendstraat;11;
377817;173886,691;174261,28;Arendstraat;13;
4786665;174117,229;174680,83;Blauwputgang;1;
4786667;174115,13;174686,691;Blauwputgang;3;
1521179;174113;174689;Blauwputgang;4;
1521182;174126,537;174691,676;Blauwputgang;5;
1521186;174125,149;174695,341;Blauwputgang;6;
1521183;174120,795;174692,639;Blauwputgang;7;
1521187;174122,381;174690,363;Blauwputgang;8;
1521180;174124,342;174685,719;Blauwputgang;9;
1521177;174125,775;174683,021;Blauwputgang;10;
4786663;174128,246;174677,853;Blauwputgang;11;
1186806;173805,221;174396,37;Bogaardenstraat;1;
379743;173798,738;174378,238;Bogaardenstraat;2;
3975713;173807,13;174368,135;Bogaardenstraat;4;
4792991;173825,255;174389,278;Bogaardenstraat;5;
3010612;173822;174363;Bogaardenstraat;6;
3941075;173846,968;174368,169;Bogaardenstraat;11;
3010616;173832,893;174354,619;Bogaardenstraat;12;
4068748;173858,09;174362,931;Bogaardenstraat;13;
3010618;173837,818;174350,449;Bogaardenstraat;14;
379741;173864,213;174358,191;Bogaardenstraat;15;
1186807;173843,909;174346,068;Bogaardenstraat;16;
379742;173849,141;174343,637;Bogaardenstraat;18;
379738;173918,858;174307,445;Bogaardenstraat;21;
379739;173894,771;174303,404;Bogaardenstraat;22;
4792987;173924,695;174306,013;Bogaardenstraat;23;
3010624;173898,549;174300,115;Bogaardenstraat;24;
379737;173929,012;174299,399;Bogaardenstraat;25;
3923566;173902,826;174295,834;Bogaardenstraat;26;
3010626;173934;174294;Bogaardenstraat;27;
3010628;173916,312;174283,475;Bogaardenstraat;28;
6386665;173952,182;174281,052;Bogaardenstraat;31;
5448;173958,65;174280,307;Bogaardenstraat;33;
4804070;173965,841;174275,554;Bogaardenstraat;35;
4127959;173969,375;174272,913;Bogaardenstraat;37;
3010640;173973,885;174269,541;Bogaardenstraat;39;
3010644;173978,11;174265,966;Bogaardenstraat;41;
4804074;173983,798;174261,335;Bogaardenstraat;43;
3010646;173987,698;174257,841;Bogaardenstraat;45;
235702;173990,705;174255,606;Bogaardenstraat;47;
3010652;173994,402;174249,959;Bogaardenstraat;49;
3010658;173999,521;174245,937;Bogaardenstraat;51;
4211931;174003,746;174243,621;Bogaardenstraat;53;
3010659;174008,499;174239,802;Bogaardenstraat;55;
3010663;174011,424;174237,365;Bogaardenstraat;57;
3010667;174015,812;174234,318;Bogaardenstraat;59;
4790711;174020,769;174230,824;Bogaardenstraat;61;
3010671;174027,269;174225,461;Bogaardenstraat;63;
3010674;174031,413;174222,211;Bogaardenstraat;65;
3010677;174036,41;174218,351;Bogaardenstraat;67;
3010684;174040,513;174211,729;Bogaardenstraat;69;
3010686;174045,389;174207,991;Bogaardenstraat;71;
3010688;174049,086;174205,147;Bogaardenstraat;73;
3010692;174053,27;174202,1;Bogaardenstraat;75;
3010694;174058,024;174199,175;Bogaardenstraat;77;
1190288;173724,04;174440,093;Bondgenotenlaan;33;
5400;173728,203;174442,261;Bondgenotenlaan;35;
3010779;173733,11;174444,067;Bondgenotenlaan;37;
1186991;173734,974;174411,038;Bondgenotenlaan;42;
3010783;173742,813;174410,842;Bondgenotenlaan;44;
3010786;173752,469;174413,462;Bondgenotenlaan;46;
1190289;173760,761;174457,401;Bondgenotenlaan;47;
1190291;173766,719;174459,966;Bondgenotenlaan;49;
6140274;173767;174460;Bondgenotenlaan;49;A
3010789;173761,948;174416,963;Bondgenotenlaan;50;
378445;173773,227;174460,051;Bondgenotenlaan;51;
1349620;173768,394;174418,604;Bondgenotenlaan;52;
3010791;173777,284;174461,432;Bondgenotenlaan;53;
1190290;173783,366;174421,431;Bondgenotenlaan;54;
378447;173783,572;174461,443;Bondgenotenlaan;55;
377953;173800,467;174430,768;Bondgenotenlaan;56;
3010793;173788,31;174464,459;Bondgenotenlaan;57;
377955;173864,375;174415,003;Bondgenotenlaan;58;
6140293;173837;174441;Bondgenotenlaan;58;A
3954468;173837;174441;Bondgenotenlaan;58;B
5536474;173861;174426;Bondgenotenlaan;58;C
377957;173871,162;174445,591;Bondgenotenlaan;60;
378448;173790,072;174469,508;Bondgenotenlaan;61;
5396;173827,616;174468,995;Bondgenotenlaan;63;
3010798;173889,656;174426,901;Bondgenotenlaan;64;
377958;173898,132;174454,298;Bondgenotenlaan;66;
377959;173905,113;174456,092;Bondgenotenlaan;68;
3010807;173922,47;174447,918;Bondgenotenlaan;70;
377960;173935,111;174463,845;Bondgenotenlaan;72;
5899109;173859;174475;Bondgenotenlaan;73;
378991;173945,158;174466,377;Bondgenotenlaan;74;
378450;173872,828;174479,339;Bondgenotenlaan;75;
3010810;173954,76;174468,112;Bondgenotenlaan;76;
3010812;173962,056;174469,653;Bondgenotenlaan;78;
3010815;173969,22;174471,605;Bondgenotenlaan;80;
3010817;173890,799;174484,536;Bondgenotenlaan;81;
3010820;173974;174473,441;Bondgenotenlaan;82;
3010822;173897,056;174489,275;Bondgenotenlaan;83;
378992;173980,75;174474,803;Bondgenotenlaan;84;
3010826;173906,121;174488,585;Bondgenotenlaan;85;
378993;173988,535;174477,495;Bondgenotenlaan;86;
3010829;174039,4;174492,191;Bondgenotenlaan;88;
3010831;173915,605;174494,065;Bondgenotenlaan;89;
3010833;174044,621;174492,889;Bondgenotenlaan;90;
3010834;173921,647;174494,961;Bondgenotenlaan;91;
3010838;174050,93;174493,996;Bondgenotenlaan;92;
3010840;173928,674;174498,616;Bondgenotenlaan;93;
3010841;174056,707;174495,468;Bondgenotenlaan;94;
3010843;173936,911;174500,128;Bondgenotenlaan;95;
3010844;174062,519;174497,42;Bondgenotenlaan;96;
3010845;173945,277;174500,26;Bondgenotenlaan;97;
3010846;174068,516;174499,156;Bondgenotenlaan;98;
3010848;173952,727;174502,695;Bondgenotenlaan;99;
4250926;174075,09;174501,375;Bondgenotenlaan;100;
3010850;173959,485;174504,11;Bondgenotenlaan;101;
3010852;174080,621;174502,587;Bondgenotenlaan;102;
3010856;174089,017;174504,597;Bondgenotenlaan;104;
5602414;173972,546;174506,922;Bondgenotenlaan;105;
379133;174097,524;174506,116;Bondgenotenlaan;106;
3010865;173999,809;174517,188;Bondgenotenlaan;107;
379137;174103,732;174508,829;Bondgenotenlaan;108;
3010868;174006,19;174519,49;Bondgenotenlaan;109;
3010871;174110,516;174507,667;Bondgenotenlaan;110;
3010873;174014,85;174520,92;Bondgenotenlaan;111;
4792366;174117,794;174508,433;Bondgenotenlaan;112;
5388;174023,664;174524,742;Bondgenotenlaan;113;
379138;174124,408;174511,274;Bondgenotenlaan;114;
3010879;174131,761;174517,62;Bondgenotenlaan;116;
3010881;174037,885;174527,448;Bondgenotenlaan;117;
3010883;174142,027;174521,479;Bondgenotenlaan;118;
3010885;174042,055;174540,009;Bondgenotenlaan;119;
379144;174149,965;174521,615;Bondgenotenlaan;120;
3010890;174050,805;174537,306;Bondgenotenlaan;121;
3010891;174158,52;174519,103;Bondgenotenlaan;122;
3010895;174059,035;174535,005;Bondgenotenlaan;123;
3010899;174065,636;174538,64;Bondgenotenlaan;125;
3010901;174173,768;174521,147;Bondgenotenlaan;126;
3010903;174071,311;174536,997;Bondgenotenlaan;127;
379211;174179,224;174525,128;Bondgenotenlaan;128;
3010904;174077,267;174538,978;Bondgenotenlaan;129;
3010906;174184,953;174526,813;Bondgenotenlaan;130;
3010907;174090,741;174544,189;Bondgenotenlaan;131;
6140294;174085;174556;Bondgenotenlaan;131;A
379184;174192,132;174530,344;Bondgenotenlaan;132;
3010908;174098,975;174547,05;Bondgenotenlaan;133;
379193;174202,232;174533,045;Bondgenotenlaan;134;
3010909;174107,024;174546,509;Bondgenotenlaan;135;
6140289;174104;174559;Bondgenotenlaan;135;A
379200;174215;174540;Bondgenotenlaan;136;
3010910;174117,378;174545,726;Bondgenotenlaan;137;
3010912;174228,057;174543,07;Bondgenotenlaan;138;
6140297;174121;174571;Bondgenotenlaan;139;A
3010915;174241,978;174544,967;Bondgenotenlaan;140;
3010916;174134,884;174554,804;Bondgenotenlaan;141;
379156;174141,364;174555,498;Bondgenotenlaan;143;
3010919;174257,011;174549,088;Bondgenotenlaan;144;
3010920;174154,668;174584,288;Bondgenotenlaan;145;
5376;174263,779;174550,643;Bondgenotenlaan;146;
5866886;174273;174547;Bondgenotenlaan;148;A
3010927;174178,948;174566,002;Bondgenotenlaan;151;
3010928;174282,979;174556,887;Bondgenotenlaan;152;
379155;174189,77;174567,73;Bondgenotenlaan;153;
3010934;174198,958;174570,615;Bondgenotenlaan;155;
3010936;174206,077;174572,555;Bondgenotenlaan;155;A
3010942;174211,013;174575,647;Bondgenotenlaan;157;
379152;174218,335;174577,755;Bondgenotenlaan;159;
3010949;174231,033;174580,945;Bondgenotenlaan;163;
3010951;174237,726;174581,618;Bondgenotenlaan;165;
3010953;174244,232;174580,73;Bondgenotenlaan;167;
4802578;174262,563;174584,003;Bondgenotenlaan;171;
3010959;174267,407;174583,474;Bondgenotenlaan;173;
5906700;174282,106;174587,76;Bondgenotenlaan;177;
1505075;174298,317;174760,225;Diestsepoort;1;
6608305;174302,344;174792,086;Diestsepoort;3;
5322224;174299,838;174815,445;Diestsepoort;5;
5846678;174295,363;174849,722;Diestsepoort;7;
3007933;174265;174898;Diestsepoort;15;
1097861;173696,238;174484,449;Diestsestraat;56;
3014881;173699,02;174489,173;Diestsestraat;58;
3014882;173703,873;174489,743;Diestsestraat;60;
4803999;173707,412;174493,221;Diestsestraat;62;
3014889;173720,249;174491,696;Diestsestraat;64;
3014891;173728,608;174495,13;Diestsestraat;66;
3014897;173734,478;174497,768;Diestsestraat;68;
3014899;173744,741;174501,203;Diestsestraat;70;
1097862;173753,018;174502,195;Diestsestraat;72;
1097865;173792,051;174511,324;Diestsestraat;76;
1097864;173798,233;174513,497;Diestsestraat;78;
1097867;173688,311;174513,444;Diestsestraat;79;
3014911;173803,918;174514,596;Diestsestraat;80;
3014913;173694,091;174513,75;Diestsestraat;81;
3014917;173699,825;174515,453;Diestsestraat;83;
3014922;173818,149;174519,854;Diestsestraat;86;
1097868;173710,246;174517,785;Diestsestraat;87;
3014925;173829,893;174523,276;Diestsestraat;90;
3014926;173721,786;174520,198;Diestsestraat;91;
3014930;173727,455;174524,635;Diestsestraat;93;
3014932;173840,619;174531,166;Diestsestraat;94;
3014934;173737,031;174521,389;Diestsestraat;95;
1357121;173739,225;174525,16;Diestsestraat;97;
3014936;173846,156;174537,804;Diestsestraat;98;
3014937;173748,958;174530,403;Diestsestraat;101;
1097871;173763,445;174528,488;Diestsestraat;103;
3014939;173878,499;174548,311;Diestsestraat;108;
3014941;173884,694;174550,882;Diestsestraat;110;
3014944;173888,263;174554,06;Diestsestraat;112;
3014945;173786,805;174539,002;Diestsestraat;113;
1321509;173891,148;174558,552;Diestsestraat;114;
3014946;173794,813;174540,892;Diestsestraat;115;
1503045;173896,143;174559,981;Diestsestraat;116;
1321510;173799,573;174541,94;Diestsestraat;117;
4802684;173897,973;174564,528;Diestsestraat;118;
6140689;173803,349;174543,458;Diestsestraat;119;
4085723;173905,517;174567,023;Diestsestraat;120;
3014948;173807,211;174555,089;Diestsestraat;121;
3014949;173905,862;174573,165;Diestsestraat;122;
3014950;173911,208;174573,071;Diestsestraat;124;
3014951;173822,411;174553,225;Diestsestraat;125;
3965049;173928,472;174584,418;Diestsestraat;126;
1494284;173935,339;174587,667;Diestsestraat;128;
3014956;173837,305;174563,485;Diestsestraat;129;
3014957;173941,695;174588,699;Diestsestraat;130;
3014958;173837,973;174575,318;Diestsestraat;131;
3014959;173946,033;174591,472;Diestsestraat;132;
3014960;173951,175;174591,832;Diestsestraat;134;
3014961;173863,559;174578,065;Diestsestraat;135;
3014962;173957,499;174598,153;Diestsestraat;136;
3014963;173852,674;174605,202;Diestsestraat;137;
3014964;173965,178;174599,974;Diestsestraat;138;
3014967;173876,456;174585,641;Diestsestraat;139;
3014968;173880,635;174590,484;Diestsestraat;141;
3014969;173972,572;174603,089;Diestsestraat;142;
3014970;173888,479;174589,194;Diestsestraat;143;
3014971;173984,208;174604,732;Diestsestraat;144;
1100179;173894,285;174592,859;Diestsestraat;145;
4802620;173989,694;174608,838;Diestsestraat;146;
3014972;173915,052;174599,61;Diestsestraat;147;
3014973;173995,747;174599,906;Diestsestraat;148;
4003278;173920,823;174603,038;Diestsestraat;149;
3014975;173997,46;174606,042;Diestsestraat;150;
3014976;173924,641;174602,366;Diestsestraat;151;
3014978;174002,225;174608,025;Diestsestraat;152;
3014980;173927,524;174608,111;Diestsestraat;153;
3014981;174007,556;174608,874;Diestsestraat;154;
4213895;173931,751;174611,203;Diestsestraat;155;
3014983;174015,697;174607,136;Diestsestraat;156;
3014985;173937,674;174610,991;Diestsestraat;157;
4024148;173943,343;174611,347;Diestsestraat;159;
1083164;174024,504;174612,122;Diestsestraat;160;
3014991;173947,246;174611,969;Diestsestraat;161;
3014994;173966,617;174620,713;Diestsestraat;163;
3014996;174032,201;174613,42;Diestsestraat;164;
3014997;173986,903;174626,656;Diestsestraat;165;
4795387;174040,688;174610,354;Diestsestraat;166;
3014998;173992,866;174628,356;Diestsestraat;167;
3015000;174034;174621;Diestsestraat;168;
3015001;174043,706;174616,325;Diestsestraat;170;
4802655;173997,627;174629,607;Diestsestraat;171;
4698078;174002,931;174631,34;Diestsestraat;173;
1083165;174048,121;174629,382;Diestsestraat;174;
3015005;174006,808;174632,596;Diestsestraat;175;
3015010;174065,762;174631,018;Diestsestraat;178;
3941142;174061,423;174631,329;Diestsestraat;178;A
3015012;174067,849;174627,347;Diestsestraat;178;B
3015015;174081,073;174631,732;Diestsestraat;180;
1083162;174094,841;174625,277;Diestsestraat;182;
1083171;174109;174636;Diestsestraat;186;
3015024;174044,293;174644,788;Diestsestraat;189;
3015028;174131,169;174639,752;Diestsestraat;192;
3015029;174059,009;174653,155;Diestsestraat;193;
3015031;174145,144;174636,174;Diestsestraat;194;
4786656;174066,168;174652,118;Diestsestraat;195;
3015033;174142,546;174654,947;Diestsestraat;196;
3015035;174071,309;174653,466;Diestsestraat;197;
3015037;174149,716;174654,513;Diestsestraat;198;
3015039;174076,379;174653,272;Diestsestraat;199;
3015041;174155,971;174659,525;Diestsestraat;200;
3015042;174080,348;174655,824;Diestsestraat;201;
3015044;174163,156;174659,73;Diestsestraat;202;
6350476;174163;174661;Diestsestraat;202;C
1100180;174086,047;174658,09;Diestsestraat;203;
1521175;174169,663;174660,711;Diestsestraat;204;
3015048;174094,454;174660,141;Diestsestraat;205;
1521174;174174,412;174661,493;Diestsestraat;206;
3015053;174178,966;174661,319;Diestsestraat;208;
3015059;174108,497;174665,37;Diestsestraat;211;
3015061;174186,095;174664,143;Diestsestraat;212;
3015062;174115,525;174667,358;Diestsestraat;213;
3015064;174194,017;174656,657;Diestsestraat;214;
1521173;174120,993;174668,995;Diestsestraat;215;
3015067;174193,86;174668,236;Diestsestraat;216;
1521172;174131,046;174670,181;Diestsestraat;217;
4786669;174197,531;174663,922;Diestsestraat;218;
3015071;174202,433;174665,391;Diestsestraat;220;
3015072;174140,748;174674,407;Diestsestraat;221;
3015074;174210,395;174656,735;Diestsestraat;222;
1521176;174146,693;174676,113;Diestsestraat;223;
3015076;174215,064;174663,995;Diestsestraat;224;
3015078;174222,817;174668,46;Diestsestraat;226;
184140;174224;174663;Diestsestraat;228;
5380;174165,017;174683,35;Diestsestraat;229;
3015082;174169,879;174684,667;Diestsestraat;229;A
3015086;174174,962;174685,316;Diestsestraat;231;
3015089;174179,25;174691,735;Diestsestraat;233;
5801930;174179;174692;Diestsestraat;233;A
3015090;174243,905;174660,291;Diestsestraat;234;
3015093;174190,089;174689,683;Diestsestraat;235;
3015094;174243,715;174673,847;Diestsestraat;236;
3015096;174186,71;174713,246;Diestsestraat;237;
3015098;174186;174714;Diestsestraat;239;
3015100;174250,792;174680,12;Diestsestraat;240;
3015103;174256,924;174685,288;Diestsestraat;242;
4794342;174257;174684;Diestsestraat;244;
1522182;174202;174709;Diestsestraat;245;
3015108;174209,464;174718,872;Diestsestraat;249;
4786672;174227,667;174698,703;Diestsestraat;251;
184139;174275,551;174703,497;Diestsestraat;252;
3015111;174225,372;174714,381;Diestsestraat;253;
3015114;174279,243;174703,435;Diestsestraat;254;
3015118;174243,592;174709,454;Diestsestraat;257;
3015120;174249,753;174708,993;Diestsestraat;259;
3015122;174248,163;174716,068;Diestsestraat;261;
3015124;174253,536;174719,885;Diestsestraat;263;
3015936;174254,673;174736,007;Diestsevest;3;
3015938;174247,159;174740,899;Diestsevest;5;
4794328;174244,472;174745,893;Diestsevest;7;
3015939;174241,783;174750,062;Diestsevest;9;
3015941;174239,377;174755,64;Diestsevest;11;
3015943;174235,706;174762,071;Diestsevest;13;
3015945;174265,535;174803,268;Diestsevest;14;
3015948;174229,604;174763,646;Diestsevest;15;
3015950;174229,638;174767,641;Diestsevest;17;
3015952;174228,541;174771,833;Diestsevest;19;
3015954;174221,686;174776,52;Diestsevest;21;
184149;174219,75;174782,02;Diestsevest;23;
5555947;174198,629;174780,95;Diestsevest;25;
172805;174204;174802;Diestsevest;29;
172799;174199,245;174800,696;Diestsevest;31;
4034828;174242;174838;Diestsevest;32;
3015968;174160,942;174802,592;Diestsevest;39;
318722;174207,477;174878,182;Diestsevest;40;
3015977;174162,017;174808,354;Diestsevest;41;
172798;174174,602;174839,238;Diestsevest;45;
172797;174160,067;174840,77;Diestsevest;47;
3015989;174165,113;174854,834;Diestsevest;49;
3015990;174160,627;174861,726;Diestsevest;51;
3015993;174193,068;174897,334;Diestsevest;52;
3015995;174157,223;174866,616;Diestsevest;53;
3015999;174153,376;174871,858;Diestsevest;55;
3016000;174188,146;174904,315;Diestsevest;56;
3016002;174151,348;174876,533;Diestsevest;57;
1163727;174182,06;174914,518;Diestsevest;58;
3016005;174129;174884;Diestsevest;59;
172655;174176,862;174921,662;Diestsevest;60;
172654;174172,932;174926,421;Diestsevest;62;
3016008;174169,569;174931,211;Diestsevest;64;
4799320;174165,451;174937,698;Diestsevest;66;
172796;174129,639;174908,346;Diestsevest;67;
4799322;174161,452;174941,816;Diestsevest;68;
3016011;174124,729;174910,605;Diestsevest;69;
3016012;174157,538;174945,663;Diestsevest;70;
3016015;174123,129;174916,493;Diestsevest;71;
172653;174151,363;174953,539;Diestsevest;72;
4792813;174119,915;174920,911;Diestsevest;73;
172652;174146,709;174959,445;Diestsevest;74;
3016018;174116,712;174925,449;Diestsevest;75;
3016019;174139,566;174967,93;Diestsevest;76;
3016021;174110,016;174929,313;Diestsevest;77;
3016022;174135,164;174977,434;Diestsevest;78;
3016025;174109,136;174933,646;Diestsevest;79;
3016026;174126,123;174989,774;Diestsevest;80;
3016028;174106,715;174938,324;Diestsevest;81;
1100184;174117,958;175001,867;Diestsevest;82;
4792818;174103,003;174942,988;Diestsevest;83;
3016032;174111,872;175010,19;Diestsevest;84;
3016035;174099,258;174947,552;Diestsevest;85;
5360;174107,039;175018,066;Diestsevest;86;
1452836;174097,96;174951,425;Diestsevest;87;
172651;174099,343;175026,121;Diestsevest;88;
3016039;174092,004;175035,518;Diestsevest;90;
172794;174084,035;174972,478;Diestsevest;91;
1023639;174086,276;175042,767;Diestsevest;92;
172658;174078,758;175051,806;Diestsevest;94;
3016043;174077,391;174978,245;Diestsevest;95;
172802;174070,648;174989,631;Diestsevest;97;
3016047;174060,283;175076,94;Diestsevest;98;
3016048;174064,301;174997,983;Diestsevest;99;
3016051;174058,449;175002,879;Diestsevest;101;
3016053;174057,52;175004,945;Diestsevest;103;
3016056;174052,556;175010,034;Diestsevest;105;
172801;174050,646;175016,909;Diestsevest;107;
4792803;174044,679;175024,258;Diestsevest;109;
3016059;174041,325;175029,677;Diestsevest;111;
3016062;174038,463;175034,448;Diestsevest;113;
3016064;174034,012;175039,125;Diestsevest;115;
172800;173992,748;175026,713;Diestsevest;117;
172793;173994,846;175096,048;Diestsevest;119;
3941162;173984,852;175101,182;Diestsevest;121;
3016069;173983,923;175105,562;Diestsevest;123;
3016070;173981,53;175110,939;Diestsevest;125;
3016072;173976,886;175117,286;Diestsevest;127;
3016074;173976,226;175124,9;Diestsevest;129;
3045041;173753,124;174376,084;Jan Stasstraat;1;
5398;173786,699;174377,128;Jan Stasstraat;2;
3045044;173762,791;174388,855;Jan Stasstraat;3;
377961;173807,196;174400,798;Jan Stasstraat;4;
5602588;173777,093;174406,892;Jan Stasstraat;7;
3045052;173809,435;174405,155;Jan Stasstraat;8;
377962;173814,374;174408,604;Jan Stasstraat;10;
3045057;173818;174411;Jan Stasstraat;12;A
3045059;173824,23;174417,362;Jan Stasstraat;14;
1169137;173823;174424;Jan Stasstraat;16;
377964;173831,203;174424,273;Jan Stasstraat;18;
377967;173828,871;174433,537;Jan Stasstraat;20;
3032197;173884,55;174602,124;Jan-Pieter Minckelersstraat;3;
3032201;173883,481;174610,685;Jan-Pieter Minckelersstraat;5;
3032204;173880,762;174607,097;Jan-Pieter Minckelersstraat;7;
3032207;173878,836;174610,146;Jan-Pieter Minckelersstraat;9;
3032211;173877,847;174616,494;Jan-Pieter Minckelersstraat;11;
3032213;173875;174620;Jan-Pieter Minckelersstraat;13;
3032216;173868;174627;Jan-Pieter Minckelersstraat;17;
3941331;173879;174654;Jan-Pieter Minckelersstraat;18;
3923645;173860,704;174633,588;Jan-Pieter Minckelersstraat;19;
4789301;173876;174658;Jan-Pieter Minckelersstraat;20;
4789333;173865,45;174636,956;Jan-Pieter Minckelersstraat;21;
4230698;173871;174662;Jan-Pieter Minckelersstraat;22;
4789336;173861,392;174637,834;Jan-Pieter Minckelersstraat;23;
3032217;173870;174668;Jan-Pieter Minckelersstraat;24;
4789338;173856,878;174642,688;Jan-Pieter Minckelersstraat;25;
3032218;173866;174672;Jan-Pieter Minckelersstraat;26;
4789342;173857;174640;Jan-Pieter Minckelersstraat;27;
173274;173854;174685;Jan-Pieter Minckelersstraat;28;
3032222;173849,45;174647,623;Jan-Pieter Minckelersstraat;29;
3032226;173849;174688;Jan-Pieter Minckelersstraat;30;
1335739;173849;174646;Jan-Pieter Minckelersstraat;31;
3032230;173851;174695;Jan-Pieter Minckelersstraat;32;
3032233;173846,201;174656,799;Jan-Pieter Minckelersstraat;33;
3032250;173848;174699;Jan-Pieter Minckelersstraat;34;
3032251;173838;174675;Jan-Pieter Minckelersstraat;35;
1100185;173847;174704;Jan-Pieter Minckelersstraat;36;
173327;173841;174706;Jan-Pieter Minckelersstraat;38;
3032256;173838;174710;Jan-Pieter Minckelersstraat;40;
4796738;173836;174715;Jan-Pieter Minckelersstraat;42;
3032258;173834;174719;Jan-Pieter Minckelersstraat;44;
3032262;173832,829;174724,723;Jan-Pieter Minckelersstraat;46;
173273;173824;174728;Jan-Pieter Minckelersstraat;48;
173268;173810,059;174749,685;Jan-Pieter Minckelersstraat;50;
5372;173809;174753;Jan-Pieter Minckelersstraat;52;
3032281;173809;174758;Jan-Pieter Minckelersstraat;54;
3032287;173804;174761;Jan-Pieter Minckelersstraat;56;
3032289;173800,881;174765,829;Jan-Pieter Minckelersstraat;58;
3032294;173799;174769;Jan-Pieter Minckelersstraat;60;
3032297;173793,678;174775,007;Jan-Pieter Minckelersstraat;62;
4058030;173842;174801;Jan-Pieter Minckelersstraat;64;
3032303;173790,605;174779,23;Jan-Pieter Minckelersstraat;66;
3032306;173788;174782;Jan-Pieter Minckelersstraat;68;
3032312;173786;174787;Jan-Pieter Minckelersstraat;70;
3032324;173825;174831;Jan-Pieter Minckelersstraat;74;
4025438;173838;174860;Jan-Pieter Minckelersstraat;76;
3032330;173823;174852;Jan-Pieter Minckelersstraat;78;
3032340;173772;174815;Jan-Pieter Minckelersstraat;84;
3032343;173763;174815;Jan-Pieter Minckelersstraat;86;
3032345;173762;174819;Jan-Pieter Minckelersstraat;88;
3032350;173762;174823;Jan-Pieter Minckelersstraat;90;
173269;173756;174825;Jan-Pieter Minckelersstraat;92;
173272;173830;174896;Jan-Pieter Minckelersstraat;94;
3032363;173790;174865;Jan-Pieter Minckelersstraat;96;
3032368;173775;174855;Jan-Pieter Minckelersstraat;98;
4021650;173733,933;174865,253;Jan-Pieter Minckelersstraat;102;
3032375;173731,658;174869,803;Jan-Pieter Minckelersstraat;104;
4392273;173728,246;174873,215;Jan-Pieter Minckelersstraat;106;
3032382;173723,858;174877,44;Jan-Pieter Minckelersstraat;108;
3032388;173719,512;174880,924;Jan-Pieter Minckelersstraat;110;
3032391;173717,155;174883,32;Jan-Pieter Minckelersstraat;112;
3032394;173713,093;174887,871;Jan-Pieter Minckelersstraat;114;
3032398;173710,189;174890,452;Jan-Pieter Minckelersstraat;116;
4796775;173706,267;174895,061;Jan-Pieter Minckelersstraat;118;
4796777;173703,18;174898,312;Jan-Pieter Minckelersstraat;120;
3032408;173700,255;174903,715;Jan-Pieter Minckelersstraat;122;
3032412;173697,618;174909,988;Jan-Pieter Minckelersstraat;124;
3032418;173693,768;174914,521;Jan-Pieter Minckelersstraat;126;
173270;173686,782;174918,387;Jan-Pieter Minckelersstraat;128;
3032425;173684,225;174923,582;Jan-Pieter Minckelersstraat;130;
3032428;173674,478;174966,095;Jan-Pieter Minckelersstraat;132;
3032436;173681;174939;Jan-Pieter Minckelersstraat;134;
4796781;173675;174966;Jan-Pieter Minckelersstraat;136;
3032445;173688;174977;Jan-Pieter Minckelersstraat;138;
173154;173811,04;174743,774;Jean-Baptiste Van Monsstraat;1;
173153;173830,079;174734,038;Jean-Baptiste Van Monsstraat;2;
3049394;173822,263;174754,195;Jean-Baptiste Van Monsstraat;5;
3049396;173912,293;174803,65;Jean-Baptiste Van Monsstraat;6;
3049398;173827,582;174758,19;Jean-Baptiste Van Monsstraat;7;
3049401;173882;174769;Jean-Baptiste Van Monsstraat;8;
3049403;173832,317;174762,037;Jean-Baptiste Van Monsstraat;9;
173181;173924,007;174810,828;Jean-Baptiste Van Monsstraat;10;
3049406;173833,839;174770,653;Jean-Baptiste Van Monsstraat;11;
3049409;173927,814;174816,304;Jean-Baptiste Van Monsstraat;12;
3049411;173838,948;174772,304;Jean-Baptiste Van Monsstraat;13;
173156;173932,323;174820,026;Jean-Baptiste Van Monsstraat;14;
4275918;173843,484;174775,75;Jean-Baptiste Van Monsstraat;15;
173159;173950,832;174834,781;Jean-Baptiste Van Monsstraat;16;
4786530;173847,214;174779,029;Jean-Baptiste Van Monsstraat;17;
4275028;173955,21;174837,687;Jean-Baptiste Van Monsstraat;18;
3049417;173851,938;174782,241;Jean-Baptiste Van Monsstraat;19;
4221892;173959,922;174841,517;Jean-Baptiste Van Monsstraat;20;
4786532;173855,143;174786,24;Jean-Baptiste Van Monsstraat;21;
3049419;173964,655;174844,498;Jean-Baptiste Van Monsstraat;22;
3049421;173859,513;174789,546;Jean-Baptiste Van Monsstraat;23;
173162;173969,41;174847,439;Jean-Baptiste Van Monsstraat;24;
3049423;173864,225;174791,748;Jean-Baptiste Van Monsstraat;25;
1453426;173974,1;174849,408;Jean-Baptiste Van Monsstraat;26;
3941565;173867,398;174796,617;Jean-Baptiste Van Monsstraat;27;
173041;173985,085;174860,612;Jean-Baptiste Van Monsstraat;28;
4786535;173872,24;174798,641;Jean-Baptiste Van Monsstraat;29;
3049426;173990,099;174865,548;Jean-Baptiste Van Monsstraat;30;
3049429;173876,273;174802,075;Jean-Baptiste Van Monsstraat;31;
3049431;173995,372;174868,353;Jean-Baptiste Van Monsstraat;32;
3049433;173879,699;174806,036;Jean-Baptiste Van Monsstraat;33;
3941566;173998,213;174873,491;Jean-Baptiste Van Monsstraat;34;
4786538;173884,431;174809,023;Jean-Baptiste Van Monsstraat;35;
3049435;174003,79;174875,577;Jean-Baptiste Van Monsstraat;36;
3049437;173888,458;174812,141;Jean-Baptiste Van Monsstraat;37;
3049439;174007,291;174880,484;Jean-Baptiste Van Monsstraat;38;
3049440;173893,535;174814,224;Jean-Baptiste Van Monsstraat;39;
172788;174011,612;174884,639;Jean-Baptiste Van Monsstraat;40;
3049441;173897,561;174817,428;Jean-Baptiste Van Monsstraat;41;
4786543;173903,532;174820,949;Jean-Baptiste Van Monsstraat;43;
172791;174030,524;174900,265;Jean-Baptiste Van Monsstraat;44;
3049443;173909,379;174825,987;Jean-Baptiste Van Monsstraat;45;
3049446;174036,226;174900,463;Jean-Baptiste Van Monsstraat;46;
1100181;173913,908;174830,998;Jean-Baptiste Van Monsstraat;47;
1452832;174039,36;174904,949;Jean-Baptiste Van Monsstraat;48;
173155;173917,192;174835,011;Jean-Baptiste Van Monsstraat;49;
3049450;174043,124;174908,154;Jean-Baptiste Van Monsstraat;50;
173157;173920,338;174839,296;Jean-Baptiste Van Monsstraat;51;
3049453;174047,598;174909,42;Jean-Baptiste Van Monsstraat;52;
3049454;174049,989;174914,033;Jean-Baptiste Van Monsstraat;54;
173160;173932,429;174852,26;Jean-Baptiste Van Monsstraat;55;
3049456;174054,13;174916,873;Jean-Baptiste Van Monsstraat;56;
3049459;173939,32;174852,176;Jean-Baptiste Van Monsstraat;57;
4221583;174057,28;174920,908;Jean-Baptiste Van Monsstraat;58;
1498927;173943,112;174856,254;Jean-Baptiste Van Monsstraat;59;
172787;174062,73;174922,797;Jean-Baptiste Van Monsstraat;60;
4786520;173947,787;174859,147;Jean-Baptiste Van Monsstraat;61;
4792829;174066,144;174926,751;Jean-Baptiste Van Monsstraat;62;
3049463;173952,308;174862,574;Jean-Baptiste Van Monsstraat;63;
3049465;173953,55;174870,429;Jean-Baptiste Van Monsstraat;65;
3049467;174075,287;174940,437;Jean-Baptiste Van Monsstraat;66;
3049468;173959,156;174871,034;Jean-Baptiste Van Monsstraat;67;
3049470;173963,02;174874,375;Jean-Baptiste Van Monsstraat;69;
173161;173967,818;174877,863;Jean-Baptiste Van Monsstraat;71;
173163;173972,212;174882,458;Jean-Baptiste Van Monsstraat;73;
3049471;173975,98;174884,988;Jean-Baptiste Van Monsstraat;75;
3049472;173981,835;174887,14;Jean-Baptiste Van Monsstraat;77;
3049475;173984,713;174891,651;Jean-Baptiste Van Monsstraat;79;
3049476;173988,278;174895,604;Jean-Baptiste Van Monsstraat;81;
3049477;173993,935;174898,544;Jean-Baptiste Van Monsstraat;83;
3049478;173998,024;174902,566;Jean-Baptiste Van Monsstraat;85;
1453567;174000,121;174911,974;Jean-Baptiste Van Monsstraat;87;
1100186;174008,637;174912,949;Jean-Baptiste Van Monsstraat;89;
6525123;173980,245;174983,788;Jean-Baptiste Van Monsstraat;91;
173040;174029,781;174993,186;Jean-Baptiste Van Monsstraat;93;
3049484;174036,494;174983,52;Jean-Baptiste Van Monsstraat;95;
3049485;174032,108;174963,383;Jean-Baptiste Van Monsstraat;97;
4799846;174018,684;174956,134;Jean-Baptiste Van Monsstraat;99;
4799848;174003,917;174946,826;Jean-Baptiste Van Monsstraat;101;
3049487;174004,991;174934,834;Jean-Baptiste Van Monsstraat;103;
5364;174017,603;174924,119;Jean-Baptiste Van Monsstraat;105;
5778392;174022,666;174923,468;Jean-Baptiste Van Monsstraat;107;
1100182;174023,12;174927,484;Jean-Baptiste Van Monsstraat;109;
3049489;174026,886;174931,233;Jean-Baptiste Van Monsstraat;111;
3049494;174032,899;174933,453;Jean-Baptiste Van Monsstraat;113;
3049496;174037,226;174936,556;Jean-Baptiste Van Monsstraat;115;
3049497;174041,597;174940,527;Jean-Baptiste Van Monsstraat;117;
3049499;174044,982;174944,785;Jean-Baptiste Van Monsstraat;119;
3941567;174050,908;174946,886;Jean-Baptiste Van Monsstraat;121;
3049500;174055;174955,285;Jean-Baptiste Van Monsstraat;123;
172790;174064,275;174962,78;Jean-Baptiste Van Monsstraat;125;
5366;174079,378;174968,614;Jean-Baptiste Van Monsstraat;127;
379001;174075,115;174467,053;Justus Lipsiusstraat;1;
378995;174019,602;174472,281;Justus Lipsiusstraat;2;
3027870;174081,407;174464,336;Justus Lipsiusstraat;3;
3027871;174086,625;174460,959;Justus Lipsiusstraat;5;
379002;174065,759;174444,563;Justus Lipsiusstraat;6;
3027882;174092,298;174458,32;Justus Lipsiusstraat;7;
4169294;174070,092;174443,521;Justus Lipsiusstraat;8;
3027892;174097,151;174456,182;Justus Lipsiusstraat;9;
3027904;174074,807;174440,972;Justus Lipsiusstraat;10;
3027914;174102,579;174452,741;Justus Lipsiusstraat;11;
3941286;174105,841;174450,484;Justus Lipsiusstraat;13;
3027936;174083,748;174433,551;Justus Lipsiusstraat;14;
379003;174109,739;174446,892;Justus Lipsiusstraat;15;
379000;174088,92;174430,153;Justus Lipsiusstraat;16;
3027950;174115,129;174444,829;Justus Lipsiusstraat;17;
5362;174101,79;174412,609;Justus Lipsiusstraat;20;
3028010;174126,49;174438,359;Justus Lipsiusstraat;21;
3028019;174132,569;174432,526;Justus Lipsiusstraat;23;
3028050;174137,801;174428,475;Justus Lipsiusstraat;25;
3028066;174147,646;174428,806;Justus Lipsiusstraat;27;
3028069;174141,674;174389,502;Justus Lipsiusstraat;28;
3028070;174152,287;174426,742;Justus Lipsiusstraat;29;
4789903;174106,117;174356,858;Justus Lipsiusstraat;30;
1510405;174152,415;174419,043;Justus Lipsiusstraat;31;
378997;174147,402;174385,97;Justus Lipsiusstraat;32;
3028071;174156,231;174414,493;Justus Lipsiusstraat;33;
1186853;174154,387;174382,689;Justus Lipsiusstraat;34;
3028074;174162,839;174411,871;Justus Lipsiusstraat;35;
3028077;174155,376;174374,411;Justus Lipsiusstraat;36;
4785402;174167,337;174407,264;Justus Lipsiusstraat;37;
3028082;174165,589;174371,342;Justus Lipsiusstraat;38;
3028088;174171,625;174403,047;Justus Lipsiusstraat;39;
3941289;174172,934;174366,805;Justus Lipsiusstraat;40;
3028089;174179,597;174398,56;Justus Lipsiusstraat;41;
4182737;174182,53;174365,56;Justus Lipsiusstraat;42;
378999;174186,38;174393,679;Justus Lipsiusstraat;43;
3028097;174187,898;174362,07;Justus Lipsiusstraat;44;
378998;174191,893;174392,922;Justus Lipsiusstraat;45;
3028103;174197,796;174356,52;Justus Lipsiusstraat;46;
4041116;174196,808;174388,67;Justus Lipsiusstraat;47;
3028114;174201,638;174385,304;Justus Lipsiusstraat;49;
3028116;174205,176;174383,175;Justus Lipsiusstraat;51;
4785431;174208,004;174381,025;Justus Lipsiusstraat;53;
4785432;174212,195;174378,102;Justus Lipsiusstraat;55;
378996;174215,407;174373,057;Justus Lipsiusstraat;57;
1323917;174233,356;174358,676;Justus Lipsiusstraat;59;
3028138;174243,271;174351,536;Justus Lipsiusstraat;61;
1186852;174254,125;174344,788;Justus Lipsiusstraat;63;
3028152;174335,075;174289,199;Justus Lipsiusstraat;71;
4258009;174355,301;174274,322;Justus Lipsiusstraat;73;
5306753;174360,94;174271,016;Justus Lipsiusstraat;75;
5602689;173858,023;174328,632;Koning Leopold I-straat;3;
5602690;173863,23;174294,358;Koning Leopold I-straat;4;
379723;173875,843;174344,517;Koning Leopold I-straat;5;
3941665;173867,308;174300,16;Koning Leopold I-straat;6;
3062571;173882,664;174352,61;Koning Leopold I-straat;7;
3062574;173877,77;174300,357;Koning Leopold I-straat;8;
3062577;173886,214;174356,519;Koning Leopold I-straat;9;
1186735;173880,994;174307,587;Koning Leopold I-straat;10;
4792963;173890,872;174362,777;Koning Leopold I-straat;11;
377701;173886,271;174312,685;Koning Leopold I-straat;12;
3062582;173893,258;174368,482;Koning Leopold I-straat;13;
379722;173894,783;174327,486;Koning Leopold I-straat;14;
3062586;173896,818;174374,401;Koning Leopold I-straat;15;
5404;173902,165;174337,533;Koning Leopold I-straat;16;
1186734;173918,919;174356,45;Koning Leopold I-straat;18;
3062595;173907,547;174384,765;Koning Leopold I-straat;19;
3062598;173930,19;174368,915;Koning Leopold I-straat;20;
379724;173903,935;174401,137;Koning Leopold I-straat;21;
379725;173934,462;174376,199;Koning Leopold I-straat;22;
3062602;173919,077;174395,543;Koning Leopold I-straat;23;
379018;173942,032;174379,088;Koning Leopold I-straat;24;
1186731;173919,735;174402,737;Koning Leopold I-straat;25;
1186732;173946,477;174385,088;Koning Leopold I-straat;26;
3062610;173926,113;174405,227;Koning Leopold I-straat;27;
3062613;173948,123;174393,394;Koning Leopold I-straat;28;
3062617;173930,777;174409,133;Koning Leopold I-straat;29;
3062619;173955,985;174394,689;Koning Leopold I-straat;30;
3062622;173934,544;174413,674;Koning Leopold I-straat;31;
3062626;173958,502;174400,395;Koning Leopold I-straat;32;
3062636;173937,377;174418,242;Koning Leopold I-straat;33;
3062640;173977,423;174404,323;Koning Leopold I-straat;34;
4792971;173941,191;174422,635;Koning Leopold I-straat;35;
379726;173944,79;174426,593;Koning Leopold I-straat;37;
3062655;173980,369;174426,476;Koning Leopold I-straat;38;
379016;173948,664;174431,471;Koning Leopold I-straat;39;
3062669;173955,111;174438,941;Koning Leopold I-straat;41;
6213193;173991,271;174435,911;Koning Leopold I-straat;42;
3062686;173963,524;174446,282;Koning Leopold I-straat;43;
3062694;173967,864;174451,19;Koning Leopold I-straat;45;
3062698;173999,694;174447,929;Koning Leopold I-straat;46;
379025;173975,654;174459,565;Koning Leopold I-straat;47;
379027;174002,101;174453,596;Koning Leopold I-straat;48;
379029;174007,848;174459,115;Koning Leopold I-straat;50;
379024;174014,724;174464,087;Koning Leopold I-straat;52;
1083166;174065,077;174618,935;Lepelstraat;1;
1083170;174050,706;174623,59;Lepelstraat;2;
6456267;174063;174603;Lepelstraat;2;A
4197251;174068,208;174613,646;Lepelstraat;3;
4795358;174057,547;174604,097;Lepelstraat;4;
3025305;174070,277;174610,192;Lepelstraat;5;
4795360;174053;174605;Lepelstraat;6;
3025306;174072,314;174606,737;Lepelstraat;7;
1097879;174051;174602;Lepelstraat;8;
1083169;174076;174595;Lepelstraat;9;
4795361;174046,803;174602,463;Lepelstraat;10;
3025307;174065,767;174591,176;Lepelstraat;11;
4795362;174038,41;174602,544;Lepelstraat;12;
3025308;174063,219;174588,524;Lepelstraat;13;
3025309;174059,307;174588,023;Lepelstraat;15;
3025310;174054,685;174589,487;Lepelstraat;17;
3025311;174049,419;174589,75;Lepelstraat;19;
4795367;174030,144;174601,039;Lepelstraat;20;
4795374;174045;174589;Lepelstraat;21;
4254001;174025,471;174600,555;Lepelstraat;22;
1083167;174017,665;174599,536;Lepelstraat;22;A
3965050;174009,443;174595,586;Lepelstraat;24;
3025312;174041;174588;Lepelstraat;25;
3025313;174004,686;174593,27;Lepelstraat;26;
5551305;174001;174591;Lepelstraat;26;B
4795380;174035,064;174586,315;Lepelstraat;27;
4802624;173996,915;174590,092;Lepelstraat;28;
4255868;174031,897;174583,76;Lepelstraat;29;
4802626;173994,445;174586,915;Lepelstraat;30;
3025314;174027,92;174585,289;Lepelstraat;31;
3025315;173990,257;174586,86;Lepelstraat;32;
4795382;174024,095;174584,694;Lepelstraat;33;
3025316;173987,835;174583,693;Lepelstraat;34;
3025317;174020,225;174583,778;Lepelstraat;35;
4802629;173983,391;174583,419;Lepelstraat;36;
4795383;174015,811;174581,626;Lepelstraat;37;
4802633;173981;174580;Lepelstraat;38;
1083168;174011,527;174579,373;Lepelstraat;39;
3025318;173976,927;174578,346;Lepelstraat;40;
3965051;174009,454;174576,096;Lepelstraat;41;
3923630;173967,294;174580,872;Lepelstraat;42;
3025319;173997,663;174568,993;Lepelstraat;43;
3025320;173958,17;174575,355;Lepelstraat;44;
5762746;173922,859;174551,484;Lepelstraat;44;A
3025321;173988;174567;Lepelstraat;45;
3025322;173983,508;174565,84;Lepelstraat;47;
4802661;173981,157;174561,496;Lepelstraat;49;
3025324;173912,695;174544,339;Lepelstraat;50;
3025325;173977;174563;Lepelstraat;51;
3025326;173907,85;174539,225;Lepelstraat;52;
6140694;173902,255;174537,551;Lepelstraat;52;A
3025328;173973,042;174560,324;Lepelstraat;53;
3025329;173884,397;174525,882;Lepelstraat;54;
1291280;173968;174559;Lepelstraat;57;
6425138;173936,663;174543,447;Lepelstraat;57;C
4802977;173878,993;174523,102;Lepelstraat;58;
378461;173933,074;174537,68;Lepelstraat;59;
3025337;173876,396;174517,499;Lepelstraat;60;
4132546;173868,134;174516,303;Lepelstraat;60;A
3025339;173928,769;174533,888;Lepelstraat;61;
4211091;173920;174529;Lepelstraat;61;A
3941279;173860,189;174511,498;Lepelstraat;62;
4264200;173911;174519;Lepelstraat;63;
4029589;173856,732;174506,666;Lepelstraat;64;
6029735;173907;174516;Lepelstraat;65;
3025341;173853,239;174504,754;Lepelstraat;66;
4802987;173903,55;174512,957;Lepelstraat;67;
3025346;173849,062;174504,147;Lepelstraat;68;
4802990;173899,033;174510,98;Lepelstraat;69;
5493356;173892,067;174511,466;Lepelstraat;69;A
3025360;173845,07;174502,604;Lepelstraat;70;
4213146;173894,617;174507,953;Lepelstraat;71;
1317254;173840,431;174501,673;Lepelstraat;72;
3025367;173835,382;174499,222;Lepelstraat;72;A
1317775;173889,767;174506,284;Lepelstraat;73;
3025375;173830,476;174493,608;Lepelstraat;74;
4802992;173883,328;174504,627;Lepelstraat;75;
4802981;173826,127;174489,791;Lepelstraat;76;
6140695;173879;174502;Lepelstraat;77;
4802982;173822,477;174487,458;Lepelstraat;78;
4802983;173818,755;174485,102;Lepelstraat;80;
5721450;173827,733;174476,145;Lepelstraat;87;
3031372;173936,159;174577,394;Louis Melsensstraat;1;
6182647;173930,978;174580,956;Louis Melsensstraat;1;C
3941324;173914,188;174569,523;Louis Melsensstraat;2;
3031376;173939,586;174576,538;Louis Melsensstraat;3;
3031379;173917;174567;Louis Melsensstraat;4;
3031382;173943,822;174570,617;Louis Melsensstraat;5;
3031384;173949,815;174568,434;Louis Melsensstraat;7;
3031387;173926;174558;Louis Melsensstraat;8;
3031391;173956,124;174553,254;Louis Melsensstraat;9;
378469;173927,695;174553,971;Louis Melsensstraat;10;
3031395;173960;174549;Louis Melsensstraat;11;
378467;173938,936;174544,503;Louis Melsensstraat;12;
3031398;173967,949;174549,296;Louis Melsensstraat;13;
3031401;173940,42;174539,511;Louis Melsensstraat;14;
3031405;173947,407;174533,603;Louis Melsensstraat;16;
3031408;173970,041;174538,561;Louis Melsensstraat;17;
3031412;173976,907;174537,545;Louis Melsensstraat;19;
378465;173960,135;174518,35;Louis Melsensstraat;20;
3031416;173980,346;174534,976;Louis Melsensstraat;21;
3031420;173980,801;174530,146;Louis Melsensstraat;23;
3031423;173984;174525;Louis Melsensstraat;25;
3923636;174071,431;174201,003;Maria-Theresiastraat;25;
3967276;174080,639;174210,159;Maria-Theresiastraat;27;
3941300;174081,578;174216,539;Maria-Theresiastraat;29;
3029226;174084,481;174219,866;Maria-Theresiastraat;31;
3029238;174084,298;174226,61;Maria-Theresiastraat;33;
3029251;174088,333;174230,081;Maria-Theresiastraat;35;
4790689;174094,541;174231,015;Maria-Theresiastraat;37;
4085367;174105,494;174250,071;Maria-Theresiastraat;43;
3029265;174108,747;174253,823;Maria-Theresiastraat;45;
4790683;174112,226;174257,609;Maria-Theresiastraat;47;
3029273;174122,323;174262,587;Maria-Theresiastraat;51;
4790684;174125,535;174266,166;Maria-Theresiastraat;53;
3029285;174129,577;174272,258;Maria-Theresiastraat;55;
4790685;174133,748;174278,136;Maria-Theresiastraat;57;
3029291;174137,778;174281,407;Maria-Theresiastraat;59;
5602509;174143,544;174288,471;Maria-Theresiastraat;63;
3029297;174148,763;174300,996;Maria-Theresiastraat;63;A
3029314;174165,464;174317,758;Maria-Theresiastraat;65;
3029326;174183,858;174337,327;Maria-Theresiastraat;75;
3965089;174237,117;174366,776;Maria-Theresiastraat;76;
3941303;174189,875;174343,156;Maria-Theresiastraat;77;
5773315;174194,699;174351,821;Maria-Theresiastraat;77;A
4799626;174239,839;174370,676;Maria-Theresiastraat;78;
3965090;174218,4;174386,209;Maria-Theresiastraat;79;
3029329;174243,374;174372,465;Maria-Theresiastraat;80;
3029331;174222,542;174390,684;Maria-Theresiastraat;81;
4799632;174254,601;174382,471;Maria-Theresiastraat;84;
3029336;174232,499;174399,031;Maria-Theresiastraat;85;
3029341;174258,544;174386,129;Maria-Theresiastraat;86;
3029345;174239,358;174401,517;Maria-Theresiastraat;87;
3029346;174263,48;174392,916;Maria-Theresiastraat;88;
3029348;174239,161;174408,965;Maria-Theresiastraat;89;
3029351;174269,509;174399,628;Maria-Theresiastraat;90;
3029363;174275,021;174408,271;Maria-Theresiastraat;92;
3029365;174254,918;174427,884;Maria-Theresiastraat;93;
3029367;174282,62;174415,733;Maria-Theresiastraat;94;
3029368;174253,011;174437,231;Maria-Theresiastraat;95;
3029371;174287,641;174420,489;Maria-Theresiastraat;96;
3029381;174257,629;174439,775;Maria-Theresiastraat;97;
3029391;174291,885;174425,638;Maria-Theresiastraat;98;
3029396;174262,874;174444,192;Maria-Theresiastraat;99;
3029400;174295,518;174434,218;Maria-Theresiastraat;100;
3029404;174267,14;174448,04;Maria-Theresiastraat;101;
3029407;174303,098;174439,922;Maria-Theresiastraat;102;
4032985;174272,802;174450,6;Maria-Theresiastraat;103;
3029410;174306,209;174444,263;Maria-Theresiastraat;104;
3029413;174277,317;174454,874;Maria-Theresiastraat;105;
4799637;174310,423;174448,432;Maria-Theresiastraat;106;
3029415;174280,22;174460,302;Maria-Theresiastraat;107;
3029418;174313,945;174453,78;Maria-Theresiastraat;108;
3029421;174283,28;174464,924;Maria-Theresiastraat;109;
3029423;174318,262;174458,056;Maria-Theresiastraat;110;
3029424;174290,384;174468,534;Maria-Theresiastraat;111;
3029427;174319,79;174465,022;Maria-Theresiastraat;112;
3029430;174294,752;174475,078;Maria-Theresiastraat;113;
3029432;174323,274;174470,079;Maria-Theresiastraat;114;
3029433;174298,975;174480,983;Maria-Theresiastraat;115;
4799638;174326,689;174474,183;Maria-Theresiastraat;116;
1168982;174301,585;174486,344;Maria-Theresiastraat;117;
5394;174305,379;174492,394;Maria-Theresiastraat;119;
3029447;174313,53;174500,594;Maria-Theresiastraat;121;
3029449;174320,096;174507,394;Maria-Theresiastraat;123;
3029453;174326,553;174509,915;Maria-Theresiastraat;125;
3029457;174337,7;174489,998;Maria-Theresiastraat;126;
3030054;174333,625;174530,992;Martelarenplein;1;
3030056;174323,837;174527,154;Martelarenplein;2;
3030059;174305,671;174528,059;Martelarenplein;3;
3030061;174295,097;174538,718;Martelarenplein;5;
3030064;174298,96;174561,042;Martelarenplein;6;
1016761;174292,057;174591,369;Martelarenplein;7;
3030068;174288,995;174600,882;Martelarenplein;8;
4802593;174285,496;174609,739;Martelarenplein;9;
3030070;174281,997;174618,05;Martelarenplein;10;
3030074;174281,559;174624,829;Martelarenplein;11;
184144;174293,083;174637,249;Martelarenplein;13;
3030082;174302,624;174639,396;Martelarenplein;14;
184143;174313,854;174639,921;Martelarenplein;15;
3030094;174334,447;174699,542;Martelarenplein;18;
3030097;174371;174662;Martelarenplein;19;
3030100;174417,522;174605,226;Martelarenplein;20;
5979759;174415;174610;Martelarenplein;20;E
3030108;174383,883;174530,504;Martelarenplein;22;
1186990;173769,233;174363,475;Monseigneur Ladeuzeplein;9;
3024856;173775,307;174358,609;Monseigneur Ladeuzeplein;10;
3024858;173788,245;174361,875;Monseigneur Ladeuzeplein;11;
3024859;173788,902;174350,836;Monseigneur Ladeuzeplein;12;
3024861;173794,246;174347,21;Monseigneur Ladeuzeplein;13;
3024865;173816,958;174338,491;Monseigneur Ladeuzeplein;15;
5402;173827,408;174320,525;Monseigneur Ladeuzeplein;17;
235712;174051,799;174360,194;Mussenstraat;1;
235710;174040,875;174351,326;Mussenstraat;2;
3033009;174053,947;174357,554;Mussenstraat;3;
4804095;174043,601;174348,224;Mussenstraat;4;
3033011;174056,184;174354,556;Mussenstraat;5;
3033012;174041,633;174344,739;Mussenstraat;6;
4804104;174056,632;174351,111;Mussenstraat;7;
3033013;174047,502;174340,838;Mussenstraat;8;
3033015;174061,196;174349,097;Mussenstraat;9;
4804096;174049,414;174339,267;Mussenstraat;10;
3033017;174063,12;174346,279;Mussenstraat;11;
3033019;174053,533;174335,226;Mussenstraat;12;
4804106;174066,431;174343,102;Mussenstraat;13;
3033021;174071,89;174337,329;Mussenstraat;15;
3033022;174048,749;174327,247;Mussenstraat;16;
235714;174049,492;174322,358;Mussenstraat;18;
3033023;174045,521;174317,563;Mussenstraat;20;
3033024;174082,36;174323,457;Mussenstraat;21;
3033026;174041,726;174314,396;Mussenstraat;22;
3033028;174085,394;174320,423;Mussenstraat;23;
4804102;174037,928;174311,084;Mussenstraat;24;
4804109;174088,048;174319,001;Mussenstraat;25;
235715;174032,262;174310,95;Mussenstraat;26;
3033032;174092,173;174316,061;Mussenstraat;27;
3033035;174029,677;174308,411;Mussenstraat;28;
3033037;174094,685;174313,596;Mussenstraat;29;
4790669;174025,809;174307,355;Mussenstraat;30;
4804112;174097,345;174311,564;Mussenstraat;31;
3033039;174024,098;174304,289;Mussenstraat;32;
235713;174099,663;174308,998;Mussenstraat;33;
3033043;174022,038;174301,048;Mussenstraat;34;
3033045;174102,413;174283,493;Mussenstraat;35;
3033047;174019,311;174298,702;Mussenstraat;36;
4790716;174099,851;174285,534;Mussenstraat;37;
3033049;174097,795;174287,891;Mussenstraat;39;
1324010;174008,832;174283,422;Mussenstraat;40;
3033052;174095,586;174290,32;Mussenstraat;41;
3033054;174011,19;174280,1;Mussenstraat;42;
4790719;174092,882;174293,546;Mussenstraat;43;
4790665;174017;174276;Mussenstraat;44;
3967279;174027,036;174283,849;Mussenstraat;46;
3033056;174083,545;174282,924;Mussenstraat;47;
3967280;174031,335;174287,951;Mussenstraat;48;
3033058;174081,091;174279,846;Mussenstraat;49;
3033061;174042,253;174293,33;Mussenstraat;50;
4790662;174078,046;174277,709;Mussenstraat;51;
3033062;174044,468;174295,656;Mussenstraat;52;
3033065;174075,58;174275,529;Mussenstraat;53;
3033068;174046,899;174298,26;Mussenstraat;54;
3033071;174073,008;174273,43;Mussenstraat;55;
4267822;174049,696;174300,725;Mussenstraat;56;
3033073;174070,161;174270,97;Mussenstraat;57;
4790692;174052,446;174303,001;Mussenstraat;58;
3033076;174054,891;174305,22;Mussenstraat;60;
3967272;174083,165;174265,952;Mussenstraat;61;
3033079;174057,566;174307,647;Mussenstraat;62;
4790659;174086,294;174263,677;Mussenstraat;63;
3967281;174060,436;174310,234;Mussenstraat;64;
3033081;174089,423;174261,212;Mussenstraat;65;
3033084;174069,695;174317,269;Mussenstraat;66;
3033087;174092,931;174258,367;Mussenstraat;67;
3033090;174071,74;174314,9;Mussenstraat;68;
4790660;174101;174246;Mussenstraat;69;
3033093;174073,969;174312,719;Mussenstraat;70;
3941341;174101,91;174246,179;Mussenstraat;71;
3033096;174077,097;174309,164;Mussenstraat;72;
3033099;174079,657;174306,319;Mussenstraat;74;
3033102;174083,051;174303,456;Mussenstraat;76;
4237653;174085,915;174300,488;Mussenstraat;78;
3033104;174078,563;174298,311;Mussenstraat;80;
4100412;174075,77;174296,174;Mussenstraat;82;
4790675;174072,836;174293,537;Mussenstraat;84;
3033107;174070,49;174291,312;Mussenstraat;86;
3033110;174067,91;174288,983;Mussenstraat;88;
3033113;174065,483;174286,693;Mussenstraat;90;
3033115;174062,638;174284,939;Mussenstraat;92;
3967271;174059,415;174282,047;Mussenstraat;94;
3033116;174053,868;174287,451;Mussenstraat;96;
3033118;174050,787;174290,343;Mussenstraat;98;
3033120;174055,639;174272,284;Mussenstraat;100;
3033122;174053,12;174269,258;Mussenstraat;102;
3033124;174050,556;174266,173;Mussenstraat;104;
3033127;174047,797;174262,951;Mussenstraat;106;
3033130;174059,623;174261,637;Mussenstraat;108;
3033132;174063,563;174258,385;Mussenstraat;110;
3033133;174068,567;174255,32;Mussenstraat;112;
1324011;174073,196;174250,504;Mussenstraat;114;
3033138;174077,449;174246,813;Mussenstraat;116;
3033141;174080,483;174244,217;Mussenstraat;118;
4790725;174085,831;174240,871;Mussenstraat;120;
6140698;174095,526;174235,679;Mussenstraat;122;
4789227;173856,953;174689,453;Nerviërsstraat;1;
4789231;173860,596;174692,901;Nerviërsstraat;3;
3035072;173878;174680;Nerviërsstraat;4;
3035073;173863,628;174694,759;Nerviërsstraat;5;
3035075;173882;174681;Nerviërsstraat;6;
3035077;173866,904;174697,693;Nerviërsstraat;7;
3035080;173887;174685;Nerviërsstraat;8;
4230183;173869,74;174699,869;Nerviërsstraat;9;
3035083;173891;174686;Nerviërsstraat;10;
3035085;173873,017;174702,119;Nerviërsstraat;11;
4789303;173894;174689;Nerviërsstraat;12;
3035088;173876,244;174703,977;Nerviërsstraat;13;
3035091;173897;174691;Nerviërsstraat;14;
3035093;173879,57;174706,715;Nerviërsstraat;15;
3035096;173898;174696;Nerviërsstraat;16;
3035099;173882,113;174708,916;Nerviërsstraat;17;
3035102;173903;174693;Nerviërsstraat;18;
4789236;173885,878;174711,263;Nerviërsstraat;19;
4789305;173906;174699;Nerviërsstraat;20;
3035104;173888,812;174712,975;Nerviërsstraat;21;
3035105;173912;174703;Nerviërsstraat;22;
4789237;173892,382;174714,588;Nerviërsstraat;23;
3035108;173916;174706;Nerviërsstraat;24;
3035109;173894,289;174717,18;Nerviërsstraat;25;
3035110;173921;174709;Nerviërsstraat;26;
3035114;173926;174710;Nerviërsstraat;28;
3035119;173931;174713;Nerviërsstraat;30;
3035121;173899,424;174720,652;Nerviërsstraat;31;
3035122;173935;174716;Nerviërsstraat;32;
1507101;173903,52;174725,42;Nerviërsstraat;33;
3035125;173940;174719;Nerviërsstraat;34;
4789242;173908,337;174728,327;Nerviërsstraat;35;
3035126;173944;174722;Nerviërsstraat;36;
3035128;173913,79;174730,855;Nerviërsstraat;37;
3035129;173948;174725;Nerviërsstraat;38;
3035132;173920;174735;Nerviërsstraat;39;
3035135;173953;174728;Nerviërsstraat;40;
3035137;173924;174737;Nerviërsstraat;41;
3035140;173957;174730;Nerviërsstraat;42;
3035141;173929;174740;Nerviërsstraat;43;
3035144;173962;174732;Nerviërsstraat;44;
4789246;173933;174742;Nerviërsstraat;45;
3035147;173966;174736;Nerviërsstraat;46;
4789248;173937;174744;Nerviërsstraat;47;
4789308;173976,646;174743,063;Nerviërsstraat;48;
3035149;173941;174747;Nerviërsstraat;49;
3035151;173980,646;174746,063;Nerviërsstraat;50;
3035153;173945;174751;Nerviërsstraat;51;
3035155;173984,347;174748,066;Nerviërsstraat;52;
4789252;173950;174753;Nerviërsstraat;53;
3035156;173988,524;174751,126;Nerviërsstraat;54;
3965068;173964,419;174760,367;Nerviërsstraat;55;
3035157;173993,111;174753,48;Nerviërsstraat;56;
3035158;173997,107;174756,838;Nerviërsstraat;58;
3035159;173999;174784;Nerviërsstraat;59;
3035160;174001,107;174758,838;Nerviërsstraat;60;
3035161;174003;174786;Nerviërsstraat;61;
3035162;174005,638;174762,543;Nerviërsstraat;62;
3035163;174007;174789;Nerviërsstraat;63;
3035167;174009,638;174765,542;Nerviërsstraat;64;
3035169;174016,638;174769,664;Nerviërsstraat;66;
3035172;174023,638;174774,543;Nerviërsstraat;68;
173176;174028;174803;Nerviërsstraat;69;
3035175;174029,638;174777,543;Nerviërsstraat;70;
3035177;174032;174806;Nerviërsstraat;71;
4789316;174034,454;174780,498;Nerviërsstraat;72;
4216194;174035,934;174809,653;Nerviërsstraat;73;
3035179;174039,583;174784,066;Nerviërsstraat;74;
4786511;174041;174812;Nerviërsstraat;75;
3035181;174043,583;174787,066;Nerviërsstraat;76;
3035183;174046;174815;Nerviërsstraat;77;
3035185;174047,583;174789,066;Nerviërsstraat;78;
3035187;174051;174817;Nerviërsstraat;79;
3023916;174160,142;174653,524;Oppendorpgang;1;
5407181;174167,167;174650,46;Oppendorpgang;2;
4225527;174171;174643;Oppendorpgang;3;
4213050;174169,752;174644,488;Oppendorpgang;4;
3941256;174162,8;174632,009;Oppendorpgang;5;
3941257;174163;174628;Oppendorpgang;6;
1097882;173763,198;174497,308;P.J. Van Benedenstraat;2;
3049006;173784;174504;P.J. Van Benedenstraat;3;
1312901;173774,16;174486,813;P.J. Van Benedenstraat;4;
3049009;173790,147;174500,188;P.J. Van Benedenstraat;5;
1353155;173793,028;174496,734;P.J. Van Benedenstraat;7;
5602622;173789,523;174496,502;P.J. Van Benedenstraat;9;
378456;173805,299;174486,817;P.J. Van Benedenstraat;17;
254302;174437,753;174464,432;Professor Roger Van Overstraetenplein;1;
254303;174445,934;174422,447;Professor Roger Van Overstraetenplein;2;
254304;174465;174310;Professor Roger Van Overstraetenplein;3;
1016763;174470,314;174303,801;Professor Roger Van Overstraetenplein;4;
254305;174452;174366;Professor Roger Van Overstraetenplein;5;
6050173;173731,843;174461,626;Puttegang;3;
377814;173894,277;174253,41;Ravenstraat;15;
3040618;173900,725;174257,85;Ravenstraat;17;
3040621;173900;174259;Ravenstraat;19;
4223971;173903,806;174262,42;Ravenstraat;21;
377816;173914,406;174270,401;Ravenstraat;25;
4804079;173941;174298;Ravenstraat;37;
3040633;173944,818;174305,274;Ravenstraat;39;
4804080;173948,669;174308,365;Ravenstraat;41;
235703;173956,778;174286,443;Ravenstraat;42;
4202207;173953,87;174310,299;Ravenstraat;43;
4804038;173960,983;174292,923;Ravenstraat;44;
3040636;173957,953;174314,085;Ravenstraat;45;
4183223;173964,558;174291,501;Ravenstraat;46;
3040638;173962,059;174316,04;Ravenstraat;47;
4099436;173967,788;174296,072;Ravenstraat;48;
3040640;173965,6;174319,645;Ravenstraat;49;
4804043;173971,161;174297,453;Ravenstraat;50;
3040643;173969,424;174322,46;Ravenstraat;51;
3040645;173974,451;174300,784;Ravenstraat;52;
4804083;173972,527;174326,962;Ravenstraat;53;
4804045;173977,632;174302,867;Ravenstraat;54;
4250020;173976,873;174329,326;Ravenstraat;55;
3040646;173980,749;174305,538;Ravenstraat;56;
3040648;173980,515;174332,989;Ravenstraat;57;
3040650;173984,284;174308,628;Ravenstraat;58;
4804084;173983,311;174337,272;Ravenstraat;59;
3040652;173987,372;174312,564;Ravenstraat;60;
3040653;173987,677;174340,159;Ravenstraat;61;
3040655;173992,246;174314,964;Ravenstraat;62;
3040656;173990,201;174344,822;Ravenstraat;63;
3040659;173996,025;174318,254;Ravenstraat;64;
3040661;173994,014;174349,796;Ravenstraat;65;
3040662;174000,291;174320,773;Ravenstraat;66;
3040663;174000,49;174352,253;Ravenstraat;67;
4804050;174003,338;174324,714;Ravenstraat;68;
3040664;174005,077;174356,558;Ravenstraat;69;
3040665;174007,929;174326,258;Ravenstraat;70;
4804055;174010,773;174328,777;Ravenstraat;72;
3040670;174012,357;174332,393;Ravenstraat;74;
235706;174017,416;174366,959;Ravenstraat;75;
1331547;174015,499;174335,019;Ravenstraat;76;
1150466;174022,859;174371,617;Ravenstraat;77;
3040673;174018,208;174337,634;Ravenstraat;78;
4785434;174028,229;174380,874;Ravenstraat;79;
3040675;174021,133;174339,991;Ravenstraat;80;
3040678;174033,543;174379,032;Ravenstraat;81;
3040680;174023,66;174342,678;Ravenstraat;82;
3040682;174033,674;174385,003;Ravenstraat;83;
3040683;174028,284;174346,207;Ravenstraat;84;
4785436;174039,971;174388,494;Ravenstraat;85;
235704;174031,331;174352,301;Ravenstraat;86;
379006;174037,323;174397,969;Ravenstraat;87;
235705;174042,492;174364,669;Ravenstraat;88;
379005;174041,323;174401,072;Ravenstraat;89;
3040687;174046,206;174367,712;Ravenstraat;90;
4785462;174051,067;174397,377;Ravenstraat;91;
4254811;174049,83;174370,844;Ravenstraat;92;
4027202;174054,087;174399,766;Ravenstraat;93;
379007;174054,126;174373,573;Ravenstraat;94;
3040690;174056,509;174402,757;Ravenstraat;95;
379009;174057,637;174377,228;Ravenstraat;96;
3040692;174060,479;174404,107;Ravenstraat;97;
379008;174081,376;174375,476;Ravenstraat;98;
4785465;174061,704;174407,968;Ravenstraat;99;
6140673;174089,445;174393,262;Ravenstraat;100;
4785466;174064,707;174410,682;Ravenstraat;101;
3040697;174095,503;174400,629;Ravenstraat;102;
4785468;174067,732;174413,06;Ravenstraat;103;
3040698;174095;174393;Ravenstraat;104;
3040700;174070,388;174415,935;Ravenstraat;105;
4785469;174073,066;174417,601;Ravenstraat;107;
379010;174076,563;174420,032;Ravenstraat;109;
6361415;173614,174;174639,42;Rijschoolstraat;16;
6361416;173620,244;174643,998;Rijschoolstraat;18;
5293052;173628,107;174651,362;Rijschoolstraat;20;
263428;173652,446;174674,671;Rijschoolstraat;26;
3041391;173613,308;174673,834;Rijschoolstraat;33;
3041392;173618,461;174679,033;Rijschoolstraat;35;
3041394;173623,142;174681,534;Rijschoolstraat;37;
3041396;173626,333;174685,431;Rijschoolstraat;39;
3041398;173632,017;174686,83;Rijschoolstraat;41;
3041400;173634,654;174691,101;Rijschoolstraat;43;
263429;173639,48;174693,59;Rijschoolstraat;45;
3044753;173748,427;174699,715;Sint-Maartensdal;1;
3923687;173685;174782;Sint-Maartensdal;2;A
3923688;173685;174782;Sint-Maartensdal;2;B
3044775;173612,027;174825,016;Sint-Maartensdal;3;
5374;173749,977;174764,289;Sint-Maartensdal;5;
3044791;173706,868;174669,966;Sint-Maartensdal;6;
1522128;173647,776;174742,365;Sint-Maartensdal;7;
1519913;173733,257;174544,799;Sint-Maartenstraat;1;
3044833;173726,131;174555,485;Sint-Maartenstraat;1;A
3965027;173760,874;174539,99;Sint-Maartenstraat;2;
6146100;173762;174538;Sint-Maartenstraat;2;A
4800046;173708,281;174583,551;Sint-Maartenstraat;3;
3044836;173759,061;174544,111;Sint-Maartenstraat;4;
3044837;173690,19;174611,613;Sint-Maartenstraat;5;
3044840;173757,708;174549,018;Sint-Maartenstraat;6;
3044841;173754,544;174552,964;Sint-Maartenstraat;8;
1286577;173738,788;174572,005;Sint-Maartenstraat;10;
3044847;173743,34;174574,571;Sint-Maartenstraat;12;A
5814612;173747,777;174575,372;Sint-Maartenstraat;12;B
3044849;173745,627;174563,846;Sint-Maartenstraat;12;C
3044851;173749,805;174566,544;Sint-Maartenstraat;12;D
3044853;173753,875;174568,756;Sint-Maartenstraat;12;E
3044855;173742,405;174579,747;Sint-Maartenstraat;14;
3044857;173736,343;174584,876;Sint-Maartenstraat;16;
174297;173675,417;174633,772;Sint-Maartenstraat;17;
1100183;173734,069;174590,185;Sint-Maartenstraat;18;
174295;173676,223;174641,409;Sint-Maartenstraat;19;
4783076;173670,013;174644,362;Sint-Maartenstraat;21;
4783078;173668,807;174649,626;Sint-Maartenstraat;23;
3044868;173666,248;174654,468;Sint-Maartenstraat;25;
3044870;173652,043;174653,843;Sint-Maartenstraat;25;A
3044872;173661,037;174663,218;Sint-Maartenstraat;27;
4783079;173659,299;174666,629;Sint-Maartenstraat;29;
174299;173656,026;174671,102;Sint-Maartenstraat;31;
174301;173636,813;174700,055;Sint-Maartenstraat;33;
3044878;173634,358;174702,744;Sint-Maartenstraat;35;
3044880;173630,503;174707,512;Sint-Maartenstraat;37;
3044881;173622,262;174711,609;Sint-Maartenstraat;41;
174303;173611,875;174721,122;Sint-Maartenstraat;43;
173898;173606,194;174733,589;Sint-Maartenstraat;45;
3044885;173603,436;174737,036;Sint-Maartenstraat;47;
3044888;173599,851;174741,056;Sint-Maartenstraat;49;
4798981;173596,716;174744,885;Sint-Maartenstraat;51;
173897;173589,545;174751,69;Sint-Maartenstraat;53;
173896;173575,704;174768,028;Sint-Maartenstraat;55;
4333938;173970,797;174761,379;Strijdersstraat;1;
3045276;173983,746;174771,805;Strijdersstraat;2;
173170;173964,474;174765,093;Strijdersstraat;3;
173168;173982,702;174775,371;Strijdersstraat;4;
3045280;173963,221;174772,532;Strijdersstraat;5;
3045281;173978,538;174779,572;Strijdersstraat;6;
3045283;173959,518;174778,635;Strijdersstraat;7;
3045284;173978,82;174784,503;Strijdersstraat;8;
3045286;173955,364;174782,212;Strijdersstraat;9;
3045288;173976,219;174787,983;Strijdersstraat;10;
3045291;173954,855;174788,011;Strijdersstraat;11;
1471371;173973,65;174792,485;Strijdersstraat;12;
3045293;173952,286;174792,603;Strijdersstraat;13;
4786572;173968,116;174796,576;Strijdersstraat;14;
3045295;173948,979;174796,646;Strijdersstraat;15;
3045298;173965,665;174801,118;Strijdersstraat;16;
3045300;173947,182;174801,649;Strijdersstraat;17;
3045301;173963,237;174805,937;Strijdersstraat;18;
3045303;173942,809;174805,205;Strijdersstraat;19;
3045304;173960,084;174810,39;Strijdersstraat;20;
4786575;173956,891;174814,783;Strijdersstraat;22;
1455086;173938,959;174817,72;Strijdersstraat;23;
173169;173954,433;174820,56;Strijdersstraat;24;
3045310;173924,228;174842,395;Strijdersstraat;25;
3045312;173948,486;174827,533;Strijdersstraat;26;
173172;173911,112;174853,25;Strijdersstraat;29;
173167;173928,559;174863,585;Strijdersstraat;30;
1471370;173909,053;174857,806;Strijdersstraat;31;
3045316;173923,739;174866,472;Strijdersstraat;32;
4241835;173905,897;174862,371;Strijdersstraat;33;
4238116;173920,351;174870,603;Strijdersstraat;34;
4786558;173903,26;174867,147;Strijdersstraat;35;
4786569;173917,757;174874,966;Strijdersstraat;36;
173173;173896,311;174869,655;Strijdersstraat;37;
3045319;173914,949;174879,271;Strijdersstraat;38;
173174;173898,091;174876,832;Strijdersstraat;39;
3045321;173913,153;174884,732;Strijdersstraat;40;
4786560;173895,438;174881,593;Strijdersstraat;41;
173166;173910,906;174889,925;Strijdersstraat;42;
3045323;173891,868;174885,514;Strijdersstraat;43;
173165;173908,455;174894,581;Strijdersstraat;44;
3045326;173889,131;174890,06;Strijdersstraat;45;
3045327;173906,098;174898,87;Strijdersstraat;46;
3045329;173887,223;174894,833;Strijdersstraat;47;
3045330;173903,804;174903,071;Strijdersstraat;48;
3045332;173883,845;174899,333;Strijdersstraat;49;
3045333;173902,675;174907,884;Strijdersstraat;50;
1294662;173882,957;174904,471;Strijdersstraat;51;
3045335;173900,363;174912,13;Strijdersstraat;52;
3045337;173880,2;174909,155;Strijdersstraat;53;
3941485;173898,455;174918,507;Strijdersstraat;54;
3045339;173875,905;174912,724;Strijdersstraat;55;
3045341;173894,987;174920,018;Strijdersstraat;56;
3045343;173873,971;174917,717;Strijdersstraat;57;
173164;173892,357;174924,2;Strijdersstraat;58;
4786564;173872,662;174922,939;Strijdersstraat;59;
3045347;173890,002;174928,392;Strijdersstraat;60;
173175;173868,556;174926,691;Strijdersstraat;61;
1454028;173887,714;174932,739;Strijdersstraat;62;
3045351;173866,823;174931,653;Strijdersstraat;63;
3045352;173795,783;174962,777;Strijdersstraat;64;
3045358;173864,025;174936,137;Strijdersstraat;65;
3045360;173773,966;174953,961;Strijdersstraat;66;
1453719;173861,063;174940,381;Strijdersstraat;67;
184145;174280,073;174697,959;Tiensevest;2;
4794310;174280,051;174694,291;Tiensevest;4;
3047710;174257;174684;Tiensevest;6;
3047712;174277,742;174686,906;Tiensevest;8;
3047714;174289,393;174684,747;Tiensevest;10;
3047720;174289,55;174676,181;Tiensevest;12;
3047722;174292,842;174669,793;Tiensevest;14;
3047724;174296,211;174664,36;Tiensevest;16;
3047726;174303;174660;Tiensevest;18;
3047728;174307,956;174656,519;Tiensevest;20;
184146;174312,659;174649,541;Tiensevest;22;
3047730;174344,104;174483,58;Tiensevest;26;
4048871;174345,235;174475,458;Tiensevest;30;
3047731;174347,767;174469,262;Tiensevest;32;
3047732;174350,279;174462,731;Tiensevest;34;
3047733;174352,079;174456,995;Tiensevest;36;
3047734;174354,089;174450,171;Tiensevest;38;
3047736;174356,224;174443,599;Tiensevest;40;
3047738;174359,586;174436,142;Tiensevest;42;
3047739;174361,357;174430,606;Tiensevest;44;
3047741;174363,678;174425,648;Tiensevest;46;
3047742;174364,417;174421,042;Tiensevest;48;
3047743;174366,619;174415,871;Tiensevest;50;
3047744;174366,417;174409,158;Tiensevest;52;
3047746;174367,994;174404,225;Tiensevest;54;
3047748;174370,949;174397,945;Tiensevest;56;
5497563;174360,456;174381,718;Tiensevest;58;A
3047751;174374,579;174360,561;Tiensevest;60;
3047752;174356,396;174368,823;Tiensevest;62;
3047753;174398,542;174303,934;Tiensevest;66;
3047754;174397,599;174296,746;Tiensevest;68;
3047756;174400,569;174290,929;Tiensevest;70;
4172271;174402,842;174284,895;Tiensevest;72;
3047757;174400,881;174277,255;Tiensevest;74;
4800898;174401,146;174271,938;Tiensevest;76;
3047759;174399,269;174265,771;Tiensevest;78;
3047760;174402,6;174259,433;Tiensevest;80;
3047763;174401,625;174253,015;Tiensevest;82;
3047764;174403,535;174246,636;Tiensevest;84;
3047766;174408,249;174239,595;Tiensevest;86;
1521165;174140,889;174685,996;Vanden Tymplestraat;1;
6350458;174143,697;174681,72;Vanden Tymplestraat;1;C
4096626;174138,087;174689,905;Vanden Tymplestraat;3;
3049090;174135,38;174693,877;Vanden Tymplestraat;5;
1521167;174148;174723;Vanden Tymplestraat;6;
1313928;174132,71;174697,794;Vanden Tymplestraat;7;
6330588;174136;174727;Vanden Tymplestraat;8;
3049092;174130,115;174701,672;Vanden Tymplestraat;9;
3049094;174135,764;174737,784;Vanden Tymplestraat;10;
3049097;174127,543;174705,524;Vanden Tymplestraat;11;
3049099;174135,899;174750,08;Vanden Tymplestraat;12;
5572697;174123,764;174710,945;Vanden Tymplestraat;13;A
1521170;174117,247;174715,328;Vanden Tymplestraat;15;
173037;174123,492;174757,819;Vanden Tymplestraat;16;
4163330;174120,301;174765,264;Vanden Tymplestraat;18;
173048;174116,84;174769,171;Vanden Tymplestraat;20;
5510265;174103,355;174793,751;Vanden Tymplestraat;24;
3049104;174104,753;174738,368;Vanden Tymplestraat;25;
3049106;174101,378;174743,169;Vanden Tymplestraat;27;
173042;174097,708;174747,756;Vanden Tymplestraat;29;
173038;174092,271;174753,365;Vanden Tymplestraat;31;
173039;174089,07;174758,011;Vanden Tymplestraat;33;
173043;174055,851;174741,54;Vanden Tymplestraat;35;
4792400;174094,134;174804,331;Vanden Tymplestraat;36;
3049118;174091,479;174808,658;Vanden Tymplestraat;38;
5602627;174075,292;174778,797;Vanden Tymplestraat;39;
3049122;174088,937;174812,4;Vanden Tymplestraat;40;
173023;174114,014;174827,872;Vanden Tymplestraat;42;
3049126;174066,043;174795,269;Vanden Tymplestraat;43;
3049133;174118,542;174821,742;Vanden Tymplestraat;44;
173045;174055,369;174821,163;Vanden Tymplestraat;45;
4792410;174121,819;174817,72;Vanden Tymplestraat;46;
3049135;174046,984;174828,537;Vanden Tymplestraat;47;
3049137;174123;174816;Vanden Tymplestraat;48;
3049138;174044,634;174832,738;Vanden Tymplestraat;49;
4792413;174124,783;174813,091;Vanden Tymplestraat;50;
3049140;174041,862;174837,069;Vanden Tymplestraat;51;
4792415;174126,252;174810,78;Vanden Tymplestraat;52;
4792429;174038,909;174840,651;Vanden Tymplestraat;53;
173025;174127,178;174808,392;Vanden Tymplestraat;54;
3049141;174035,189;174846,019;Vanden Tymplestraat;55;
173024;174130,422;174804,303;Vanden Tymplestraat;56;
3049144;174033,927;174850,17;Vanden Tymplestraat;57;
3049146;174151;174822;Vanden Tymplestraat;58;
3049148;174031,577;174854,703;Vanden Tymplestraat;59;
173022;174141,92;174824,169;Vanden Tymplestraat;60;
3049152;174030,906;174858,164;Vanden Tymplestraat;61;
3049153;174139,755;174830,01;Vanden Tymplestraat;62;
3049155;174027,054;174861,568;Vanden Tymplestraat;63;
3049157;174135,294;174835,509;Vanden Tymplestraat;64;
1455342;174021,974;174871,323;Vanden Tymplestraat;65;
4792421;174129;174845;Vanden Tymplestraat;66;
1453546;174015,422;174885,542;Vanden Tymplestraat;67;
173049;174088,801;174831,656;Vanden Tymplestraat;72;
3049160;174073,256;174834,869;Vanden Tymplestraat;74;
4792379;174069,426;174838,056;Vanden Tymplestraat;76;
3049161;174066,9;174841,796;Vanden Tymplestraat;78;
3049163;174064,563;174845,748;Vanden Tymplestraat;80;
3049164;174061,951;174849,445;Vanden Tymplestraat;82;
4792384;174059,545;174853,142;Vanden Tymplestraat;84;
173047;174028,498;174896,464;Vanden Tymplestraat;100;
1186824;173752,694;174383,239;Vital Decosterstraat;2;
3014365;173744,167;174396,011;Vital Decosterstraat;6;
1186823;173739,005;174401,194;Vital Decosterstraat;8;
1186827;173720,268;174448,014;Vital Decosterstraat;10;
5700790;173719,394;174441,05;Vital Decosterstraat;10;A
1499850;173717,745;174452,279;Vital Decosterstraat;12;
1190285;173714,767;174456,626;Vital Decosterstraat;14;
1097875;173710,742;174461,815;Vital Decosterstraat;16;
3014376;173709,118;174467,767;Vital Decosterstraat;18;
3014380;173705,518;174472,153;Vital Decosterstraat;20;
1097876;173702,399;174475,968;Vital Decosterstraat;22;
1097877;173698,717;174479,79;Vital Decosterstraat;24;
182288;173686,998;174527,775;Vital Decosterstraat;26;
182287;173683,924;174532,807;Vital Decosterstraat;28;
1097878;173681,46;174535,971;Vital Decosterstraat;30;
1291109;173670,718;174568,201;Vital Decosterstraat;42;
3014401;173659,586;174588,611;Vital Decosterstraat;44;
1190401;173645,534;174609,893;Vital Decosterstraat;46;
3014408;173638,781;174620,499;Vital Decosterstraat;48;
174225;173627,03;174625,084;Vital Decosterstraat;50;
3014416;173622,508;174630,227;Vital Decosterstraat;50;A
3014418;173633,413;174631,025;Vital Decosterstraat;50;C
1023643;173592,118;174660,957;Vital Decosterstraat;56;
3014424;173589,172;174664,738;Vital Decosterstraat;58;
3014428;173585,155;174668,379;Vital Decosterstraat;60;
3014433;173576,824;174677,024;Vital Decosterstraat;64;
182282;173569,871;174683,108;Vital Decosterstraat;66;
3014434;173565,652;174687,283;Vital Decosterstraat;66;A
3014440;173558,756;174691,366;Vital Decosterstraat;68;
6455527;173567,518;174697,827;Vital Decosterstraat;68;A
182281;173549,944;174700,262;Vital Decosterstraat;70;
182280;173544,842;174705,453;Vital Decosterstraat;72;
3014445;173538,846;174711,449;Vital Decosterstraat;74;
182278;173533,803;174715,509;Vital Decosterstraat;76;
3014451;173524,885;174723,442;Vital Decosterstraat;78;
3941136;173518,262;174729,259;Vital Decosterstraat;80;
4037870;173511,102;174735,882;Vital Decosterstraat;82;
182261;173504,39;174741,61;Vital Decosterstraat;84;
3014458;173495,685;174750,135;Vital Decosterstraat;86;
5570000;173484,799;174759,481;Vital Decosterstraat;88;
3014466;173472,216;174767,743;Vital Decosterstraat;92;
4785551;173468,501;174770,875;Vital Decosterstraat;94;
3014468;173462,326;174775,932;Vital Decosterstraat;96;
380507;173456,944;174782,092;Vital Decosterstraat;100;
380573;173448,186;174792,892;Vital Decosterstraat;102;
172665;174022,879;175135,858;Vuurkruisenlaan;2;
3051282;174051,424;175108,273;Vuurkruisenlaan;4;
173177;174009,902;174793,203;Weidestraat;1;
173178;174023,087;174800,831;Weidestraat;2;
3052237;174001,115;174800,856;Weidestraat;3;
3052239;174020,524;174811,661;Weidestraat;4;
3052241;173998,252;174804,549;Weidestraat;5;
3052243;174017,585;174816,343;Weidestraat;6;
3052245;173995,539;174808,802;Weidestraat;7;
3052247;174014,997;174821,129;Weidestraat;8;
3052249;173994,376;174814,054;Weidestraat;9;
3052251;174008,87;174826,429;Weidestraat;10;
3052254;173990,634;174817,64;Weidestraat;11;
3052256;174007,024;174830,253;Weidestraat;12;
4069964;173988,139;174821,898;Weidestraat;13;
3052258;174004,892;174835,301;Weidestraat;14;
3052260;173985,524;174825,986;Weidestraat;15;
173180;174002,198;174839,872;Weidestraat;16;
3052263;173981,967;174830,94;Weidestraat;17;
4786514;173996,64;174845,874;Weidestraat;18;
173179;173979,56;174835,55;Weidestraat;19;
3052266;173976,767;174841,138;Weidestraat;21;
379729;173946,982;174354,715;Willemsstraat;1;
4203133;173918;174313;Willemsstraat;2;
379733;173953;174360;Willemsstraat;3;
379728;173921,738;174315,859;Willemsstraat;4;
3053052;173963,809;174370,39;Willemsstraat;5;
3053055;173926,105;174317,385;Willemsstraat;6;
3053057;173977;174404;Willemsstraat;7;
3053059;173928,583;174319,543;Willemsstraat;8;
4793013;173987,274;174397,46;Willemsstraat;9;
3053063;173930,994;174321,788;Willemsstraat;10;
3053065;173997,908;174409,61;Willemsstraat;11;
3053067;173935,913;174321,965;Willemsstraat;12;
4793014;174006,952;174414,145;Willemsstraat;13;
4792977;173939,571;174325,376;Willemsstraat;14;
379736;174012,407;174418,2;Willemsstraat;15;
379011;174015,823;174421,428;Willemsstraat;17;
4785407;174020,797;174425,447;Willemsstraat;19;
3053073;173951,967;174338,566;Willemsstraat;20;
4785408;174023,465;174430,12;Willemsstraat;21;
3053075;173955,877;174339,217;Willemsstraat;22;
379730;173956,321;174343,726;Willemsstraat;24;
3053078;174030,078;174438,097;Willemsstraat;25;
379731;173958,709;174345,947;Willemsstraat;26;
4785410;174038;174437;Willemsstraat;27;
4792999;173963,182;174345,815;Willemsstraat;28;
4216800;173966,067;174348,937;Willemsstraat;30;
379732;173969,15;174351,882;Willemsstraat;32;
4793001;173970,365;174357,436;Willemsstraat;34;
4793002;173973,388;174361,809;Willemsstraat;36;
4793003;173982,104;174365,451;Willemsstraat;38;
4793004;173985,662;174371,643;Willemsstraat;40;
4793005;173989;174373;Willemsstraat;42;
379734;173992,947;174377,523;Willemsstraat;44;
3053079;173995,764;174379,659;Willemsstraat;46;
3053080;173997,548;174382,722;Willemsstraat;48;
3923718;174000,051;174385,031;Willemsstraat;50;
1517774;174004,143;174385,706;Willemsstraat;52;
3053081;174006,022;174388,527;Willemsstraat;54;
3053083;174010,293;174388,902;Willemsstraat;56;
3053084;174012,78;174391,342;Willemsstraat;58;
4793018;174013,51;174395,727;Willemsstraat;60;
4237758;174015,155;174398,891;Willemsstraat;62;
4793021;174020,498;174398,214;Willemsstraat;64;
379735;174020,163;174403,531;Willemsstraat;66;
379012;174024,067;174404,283;Willemsstraat;68;
4242988;174026,707;174406,344;Willemsstraat;70;
3053088;174030,303;174407,3;Willemsstraat;72;
3053089;174030,913;174411,458;Willemsstraat;74;
4785444;174034,197;174412,78;Willemsstraat;76;
4069333;174035,42;174416,19;Willemsstraat;78;
4785446;174037,361;174419,118;Willemsstraat;80;
3053090;174041,802;174418,975;Willemsstraat;82;
4785448;174042,421;174423,789;Willemsstraat;84;
3053092;174045,564;174425,644;Willemsstraat;86;
4785451;174047,458;174428,427;Willemsstraat;88;
3053093;174050,689;174429,816;Willemsstraat;90;
3941614;174053,302;174432,661;Willemsstraat;92;
379014;174056,291;174435,477;Willemsstraat;94;
235955;173949,442;174284,093;Bogaardenstraat;29;
4791807;173738,324;174448,01;Bondgenotenlaan;41;
3010782;173744,202;174450,939;Bondgenotenlaan;43;
3010784;173752,199;174454,358;Bondgenotenlaan;45;
3010795;173795,379;174465,259;Bondgenotenlaan;59;
378506;173848,028;174472,213;Bondgenotenlaan;69;
3010827;173907,54;174497,725;Bondgenotenlaan;87;
378509;173966,592;174503,39;Bondgenotenlaan;103;
3010877;174031,31;174525,792;Bondgenotenlaan;115;
5390;174167,251;174520,671;Bondgenotenlaan;124;
3010918;174251,161;174547,516;Bondgenotenlaan;142;
1016762;174270,56;174551,152;Bondgenotenlaan;148;
3010926;174277,62;174553,074;Bondgenotenlaan;150;
3010929;174290,098;174557,463;Bondgenotenlaan;154;
379151;174225,063;174579,259;Bondgenotenlaan;161;
3010957;174252,71;174583,834;Bondgenotenlaan;169;
3964974;174272,876;174587,958;Bondgenotenlaan;175;
1097863;173781,764;174509,767;Diestsestraat;74;
3014920;173706,027;174517,133;Diestsestraat;85;
3014923;173822,389;174521,582;Diestsestraat;88;
1097869;173715,277;174520,078;Diestsestraat;89;
3014929;173836,236;174529,482;Diestsestraat;92;
3975880;173857,247;174539,785;Diestsestraat;100;
4005878;173867,769;174544,116;Diestsestraat;106;
1097873;173770,741;174539,896;Diestsestraat;107;
1097872;173772,777;174543,703;Diestsestraat;109;
3014942;173777,824;174540,87;Diestsestraat;111;
3014953;173827,808;174565,782;Diestsestraat;127;
1504807;173854,129;174570,566;Diestsestraat;133;
4795388;174047,938;174618,312;Diestsestraat;172;
1083163;174060,587;174625,942;Diestsestraat;176;
3015007;174012,8;174635,448;Diestsestraat;177;
3015013;174021,356;174636,864;Diestsestraat;179;
4786652;174027,318;174639,172;Diestsestraat;181;
4786653;174037,912;174642,472;Diestsestraat;183;
3015026;174054,009;174650,004;Diestsestraat;191;
3015051;174102,154;174663,028;Diestsestraat;207;
3015057;174183,172;174660,539;Diestsestraat;210;
3015070;174134,651;174672,452;Diestsestraat;219;
3015088;174231,499;174668,196;Diestsestraat;232;
4794339;174249,187;174674,115;Diestsestraat;238;
3015105;174260,368;174691,184;Diestsestraat;246;
3015106;174264,229;174695,619;Diestsestraat;248;
3941145;174268,234;174701,027;Diestsestraat;250;
3015116;174233,061;174722,691;Diestsestraat;255;
3015126;174263,839;174722,612;Diestsestraat;265;
184147;174257,693;174729,917;Diestsevest;1;
5558777;174169,417;174790,317;Diestsevest;33;
172803;174179,181;174833,406;Diestsevest;43;
172795;174093,094;174957,591;Diestsevest;89;
172662;174070,843;175062,034;Diestsevest;96;
378015;173767,579;174400,154;Jan Stasstraat;5;
377963;173816,666;174413,118;Jan Stasstraat;12;
3027924;174079,324;174437,614;Justus Lipsiusstraat;12;
379004;174120,361;174442,323;Justus Lipsiusstraat;19;
379036;174125,29;174387,704;Justus Lipsiusstraat;24;
5602508;174132,468;174392,644;Justus Lipsiusstraat;26;
5832317;174365,912;174268,512;Justus Lipsiusstraat;77;
5832318;174370,822;174265,755;Justus Lipsiusstraat;79;
377823;173843,621;174310,176;Koning Leopold I-straat;1;
1186733;173902,024;174377,701;Koning Leopold I-straat;17;
379037;173986,957;174434,095;Koning Leopold I-straat;40;
3062689;173994,517;174440,939;Koning Leopold I-straat;44;
378463;173918,166;174549,478;Lepelstraat;46;
3025327;173890,398;174531,232;Lepelstraat;52;B
4802668;173922,007;174562,621;Louis Melsensstraat;6;
3941301;174115,335;174261,721;Maria-Theresiastraat;49;
3967282;174140,629;174284,644;Maria-Theresiastraat;61;
3029300;174156,146;174309,05;Maria-Theresiastraat;63;B
3029318;174179,1;174333,974;Maria-Theresiastraat;73;
4799631;174247,767;174378,754;Maria-Theresiastraat;82;
3941304;174226,05;174395,547;Maria-Theresiastraat;83;
3029357;174247,125;174418,003;Maria-Theresiastraat;91;
3030079;174278,363;174630,905;Martelarenplein;12;
235711;174056,358;174333,815;Mussenstraat;14;
1098104;173796,422;174501,111;P.J. Van Benedenstraat;11;
377815;173909;174268;Ravenstraat;23;
3040666;174008,665;174360,992;Ravenstraat;71;
3040668;174013,564;174363,633;Ravenstraat;73;
173275;173664,483;174895,792;Rijdende-Artillerielaan;6;
1190407;173634,59;174656,578;Rijschoolstraat;22;
263427;173597,605;174660,159;Rijschoolstraat;31;
5738543;173606,382;174665,845;Rijschoolstraat;31;A
1188067;173777,748;174644,47;Sint-Maartensdal;4;
3047749;174351,417;174380,611;Tiensevest;58;
1521168;174157,026;174703,439;Vanden Tymplestraat;4;
3049101;174125,433;174708,737;Vanden Tymplestraat;13;
5510268;174109,753;174782,18;Vanden Tymplestraat;22;
5602626;174052,114;174747,034;Vanden Tymplestraat;37;
173044;174070,555;174786,411;Vanden Tymplestraat;41;
3014360;173748,893;174388,464;Vital Decosterstraat;4;
182283;173580,911;174672,507;Vital Decosterstraat;62;
380510;173477,004;174764,208;Vital Decosterstraat;90;
4792978;173944,095;174332,564;Willemsstraat;16;
3053071;173950,885;174334,665;Willemsstraat;18;
3053077;174027,216;174433,723;Willemsstraat;23;
