LAM MK;xPos;yPos;Street;Nr;Suffix
301631;71317,566;225680,146;Albrecht Rodenbachstraat;1;
301632;71327,57;225681,34;Albrecht Rodenbachstraat;3;
301630;71326,566;225661,146;Albrecht Rodenbachstraat;4;
301633;71332,566;225679,146;Albrecht Rodenbachstraat;5;
2765803;71334,566;225661,146;Albrecht Rodenbachstraat;6;
1359245;71338,566;225679,146;Albrecht Rodenbachstraat;7;
2765804;71341,566;225661,146;Albrecht Rodenbachstraat;8;
2765806;71345,96;225683,35;Albrecht Rodenbachstraat;9;
2765807;71350,566;225679,146;Albrecht Rodenbachstraat;11;
2765809;71347,566;225660,146;Albrecht Rodenbachstraat;12;
2765810;71357,49;225685,01;Albrecht Rodenbachstraat;13;
2765811;71357,73;225660,04;Albrecht Rodenbachstraat;14;
2765812;71363,566;225679,146;Albrecht Rodenbachstraat;15;
301634;71364,566;225660,146;Albrecht Rodenbachstraat;16;
301635;71369,566;225679,146;Albrecht Rodenbachstraat;17;
2765814;71370,566;225660,146;Albrecht Rodenbachstraat;18;
4336871;71375,566;225679,146;Albrecht Rodenbachstraat;19;
2765815;71376,566;225660,146;Albrecht Rodenbachstraat;20;
4177137;71381,49;225680,81;Albrecht Rodenbachstraat;21;
2765817;71382,566;225660,146;Albrecht Rodenbachstraat;22;
4160433;71386,566;225678,146;Albrecht Rodenbachstraat;23;
4336885;71389,14;225656,97;Albrecht Rodenbachstraat;24;
2765818;71392,566;225679,146;Albrecht Rodenbachstraat;25;
2765819;71394,566;225660,146;Albrecht Rodenbachstraat;26;
301636;71399,566;225678,146;Albrecht Rodenbachstraat;27;
2765820;71400,566;225659,146;Albrecht Rodenbachstraat;28;
2765821;71406,566;225678,146;Albrecht Rodenbachstraat;29;
2765823;71407,34;225659,36;Albrecht Rodenbachstraat;30;
302637;71570,15;226060,72;Badersstraat;1;
302639;71578,74;226036,31;Badersstraat;2;
2757926;71580,02;226056,07;Badersstraat;3;
302640;71580,5;226029,07;Badersstraat;4;
4337269;71584,563;226051,147;Badersstraat;5;
4337363;71589,61;226032,07;Badersstraat;6;
2757927;71588,563;226049,147;Badersstraat;7;
2757928;71593,48;226028,41;Badersstraat;8;
2757929;71594,563;226046,147;Badersstraat;9;
2757930;71598,77;226025,64;Badersstraat;10;
2757931;71599,563;226043,147;Badersstraat;11;
2757932;71604,563;226040,148;Badersstraat;13;
2757933;71605,12;226021,11;Badersstraat;14;
302644;71609,563;226037,148;Badersstraat;15;
302646;71607,78;226014,36;Badersstraat;16;
302645;71615,26;226036,87;Badersstraat;17;
302647;71613,67;226014,94;Badersstraat;18;
4190337;71619,563;226032,148;Badersstraat;19;
2757934;71619,382;226014,113;Badersstraat;20;
2757935;71624,62;226031,58;Badersstraat;21;
2757937;71617,92;226003,51;Badersstraat;22;
2757938;71629,12;226028,63;Badersstraat;23;
2757939;71627,27;226006,87;Badersstraat;24;
2757940;71633,563;226024,148;Badersstraat;25;
2757941;71632,69;226005,68;Badersstraat;26;
2757942;71638,563;226021,148;Badersstraat;27;
2757943;71636,56;226000,33;Badersstraat;28;
302641;71644,38;226019,91;Badersstraat;29;
4337368;71641,86;225998,85;Badersstraat;30;
302642;71651,2;226016,52;Badersstraat;31;
4337369;71648,7;225998,29;Badersstraat;32;
302643;71654,563;226012,148;Badersstraat;33;
302638;71656,79;225992,7;Badersstraat;34;
71697;71419,553;226052,106;Bakkersstraat;1;
71696;71431,52;226050,37;Bakkersstraat;2;
71692;71421,563;226060,146;Bakkersstraat;3;
4178599;71433,43;226055,6;Bakkersstraat;4;
2757945;71423,563;226064,146;Bakkersstraat;5;
2757946;71433,563;226060,146;Bakkersstraat;6;
2757947;71425,563;226070,146;Bakkersstraat;7;
2757948;71436,563;226066,146;Bakkersstraat;8;
2757949;71427,563;226075,146;Bakkersstraat;9;
4247401;71438,21;226072,19;Bakkersstraat;10;
71693;71431,65;226082,87;Bakkersstraat;11;
71694;71443,62;226075,41;Bakkersstraat;12;
71695;71435,38;226093,09;Bakkersstraat;13;
301625;71330,435;225822,776;Bondgenotenlaan;1;
5579284;71287;225827;Bondgenotenlaan;2;
2758208;71321,72;225818,89;Bondgenotenlaan;3;
301133;71281,725;225828,015;Bondgenotenlaan;4;
2758210;71320,565;225810,146;Bondgenotenlaan;5;
2758211;71286,71;225821,33;Bondgenotenlaan;6;
2758212;71320,565;225802,146;Bondgenotenlaan;7;
2758213;71286,565;225814,145;Bondgenotenlaan;8;
2758214;71322,38;225796,79;Bondgenotenlaan;9;
2758215;71286,95;225808,47;Bondgenotenlaan;10;
2758217;71286,565;225800,145;Bondgenotenlaan;12;
2758218;71320,565;225790,146;Bondgenotenlaan;13;
4336289;71284,885;225793,31;Bondgenotenlaan;14;
2758219;71319,565;225783,146;Bondgenotenlaan;15;
2758220;71287,565;225787,145;Bondgenotenlaan;16;
2758221;71319,565;225777,146;Bondgenotenlaan;17;
3939526;71286,565;225780,145;Bondgenotenlaan;18;
2758222;71320,79;225772,4;Bondgenotenlaan;19;
2758223;71286,565;225773,145;Bondgenotenlaan;20;
2758225;71319,061;225765,975;Bondgenotenlaan;21;
2758226;71318,565;225759,146;Bondgenotenlaan;23;
2758227;71286,565;225765,145;Bondgenotenlaan;24;
4336836;71318,565;225753,146;Bondgenotenlaan;25;
2758228;71283,98;225759,22;Bondgenotenlaan;26;
2758229;71322,81;225748,38;Bondgenotenlaan;27;
2758231;71286,566;225752,145;Bondgenotenlaan;28;
2758232;71318,566;225742,146;Bondgenotenlaan;29;
301132;71284,566;225742,145;Bondgenotenlaan;30;
2758233;71318,566;225736,146;Bondgenotenlaan;31;
4336843;71319,93;225731,21;Bondgenotenlaan;33;
2758234;71318,679;225725,734;Bondgenotenlaan;35;
4171956;71283,885;225713,754;Bondgenotenlaan;36;
2758236;71318,566;225719,734;Bondgenotenlaan;37;
301130;71284,607;225707,281;Bondgenotenlaan;38;
4336846;71317,679;225714,641;Bondgenotenlaan;39;
301131;71285,566;225699,145;Bondgenotenlaan;40;
2758238;71318,566;225706,146;Bondgenotenlaan;41;
2758239;71284,88;225694;Bondgenotenlaan;42;
2758240;71318,566;225700,146;Bondgenotenlaan;43;
2758242;71284,226;225689,074;Bondgenotenlaan;44;
2758243;71318,97;225695,23;Bondgenotenlaan;45;
301128;71277,448;225681,363;Bondgenotenlaan;46;
301624;71318,85;225688,93;Bondgenotenlaan;47;
3939527;71284,093;225681,681;Bondgenotenlaan;48;
301622;71317,566;225661,146;Bondgenotenlaan;51;
301127;71283,566;225648,146;Bondgenotenlaan;52;
2758245;71316,68;225649,961;Bondgenotenlaan;53;
2758247;71283,566;225642,146;Bondgenotenlaan;54;
1505266;71316,566;225642,146;Bondgenotenlaan;55;
1512811;71283,566;225632,146;Bondgenotenlaan;56;
2758248;71316,566;225634,146;Bondgenotenlaan;57;
2758250;71316,566;225625,146;Bondgenotenlaan;59;
2758252;71283,567;225623,146;Bondgenotenlaan;60;
2758253;71316,432;225619,301;Bondgenotenlaan;61;
2758254;71282,567;225616,146;Bondgenotenlaan;62;
2758255;71316,567;225612,847;Bondgenotenlaan;63;
301126;71282,51;225610,528;Bondgenotenlaan;64;
1264979;71315,34;225606,981;Bondgenotenlaan;65;
2758256;71316,139;225600,441;Bondgenotenlaan;67;
1318478;71321,11;225592,07;Bondgenotenlaan;69;
2758260;71319,51;225584,53;Bondgenotenlaan;71;
2758262;71321,567;225577,146;Bondgenotenlaan;73;
2758263;71323,567;225570,146;Bondgenotenlaan;75;
4335336;71369,093;226163,163;Brouwersstraat;1;
2758478;71357,505;226167,892;Brouwersstraat;2;
71683;71369,562;226155,146;Brouwersstraat;3;
71682;71354,76;226157,89;Brouwersstraat;4;
4020395;71368,562;226150,146;Brouwersstraat;5;
71684;71364,969;226135,69;Brouwersstraat;9;
2758198;71268,428;226137,846;De Bolle;1;
2758199;71252,655;226132,923;De Bolle;2;
5446014;71258,326;226132,582;De Bolle;2;C
5446015;71253,449;226127,705;De Bolle;2;D
5397711;71256,738;226126,571;De Bolle;2;E
5446016;71261,502;226126,571;De Bolle;2;F
5407334;71267,854;226125,55;De Bolle;2;H
5407337;71254,129;226120,446;De Bolle;2;K
5446573;71258,326;226120,049;De Bolle;2;L
2758200;71267,287;226120,332;De Bolle;2;M
4337544;71247,563;226132,145;De Bolle;4;
2758201;71240,655;226134,016;De Bolle;5;
5579283;71234,941;226134,821;De Bolle;6;
71724;71450,88;226051,97;De Garre;1;
2764959;71452,19;226059,98;De Garre;2;
71725;71453,88;226067,54;De Garre;3;
71727;71456,84;226079,45;De Garre;4;
2764961;71457,82;226086,43;De Garre;5;
2764962;71459,13;226094,95;De Garre;6;
71726;71459,42;226101,72;De Garre;7;
71728;71453,19;226115,32;De Garre;8;
71625;71443,52;226117,56;De Garre;9;
301791;71186,563;226070,144;de Vrièrestraat;1;
301787;71171,563;226073,144;de Vrièrestraat;2;
301792;71186,563;226063,144;de Vrièrestraat;3;
301788;71171,572;226067,489;de Vrièrestraat;4;
301795;71168,502;226062,059;de Vrièrestraat;6;
2767429;71170,563;226054,144;de Vrièrestraat;8;
4337034;71171;226055;de Vrièrestraat;10;
2767431;71185,563;226035,144;de Vrièrestraat;11;
2767432;71171,153;226045,549;de Vrièrestraat;12;
301786;71185,563;226030,144;de Vrièrestraat;13;
2767434;71169,943;226039,929;de Vrièrestraat;14;
2767436;71170;226041;de Vrièrestraat;15;
301789;71169,563;226031,144;de Vrièrestraat;16;
301796;71185,143;226016,299;de Vrièrestraat;17;
2767438;71184,564;226009,144;de Vrièrestraat;19;
301790;71165,564;225994,144;de Vrièrestraat;20;
301797;71183,564;226003,144;de Vrièrestraat;21;
2767441;71165,564;225985,144;de Vrièrestraat;22;
4337078;71183,564;225997,144;de Vrièrestraat;23;
2767442;71183,564;225990,144;de Vrièrestraat;25;
2767444;71164,564;225959,144;de Vrièrestraat;26;
2767445;71182,564;225984,144;de Vrièrestraat;27;
2767447;71163,564;225945,144;de Vrièrestraat;28;
4337080;71189,373;225977,919;de Vrièrestraat;29;
2767450;71164;225946;de Vrièrestraat;30;
2767452;71182,564;225972,144;de Vrièrestraat;31;
4126993;71161,544;225934,054;de Vrièrestraat;32;
4337083;71181,564;225965,144;de Vrièrestraat;33;
2767453;71182,564;225960,144;de Vrièrestraat;35;
4337086;71181,564;225953,144;de Vrièrestraat;37;
2767455;71182,093;225946,299;de Vrièrestraat;39;
301794;71180,564;225934,144;de Vrièrestraat;41;
2767456;71188,531;225864,635;de Vrièrestraat;49;
6468869;71187;225837;de Vrièrestraat;51;
71673;71333,963;226140,653;Dwarsstraat;1;
2759435;71341,562;226138,145;Dwarsstraat;3;
71674;71347,986;226139,299;Dwarsstraat;5;
71680;71374,256;226132,713;Dwarsstraat;7;
2759438;71342,889;226121,266;Dwarsstraat;8;
71681;71379,49;226133,038;Dwarsstraat;9;
5579352;71352,81;226119,25;Dwarsstraat;10;
71678;71407,09;226126,73;Dwarsstraat;11;
71676;71358,563;226119,145;Dwarsstraat;12;
5579353;71365,563;226118,146;Dwarsstraat;14;
2759440;71371,563;226117,146;Dwarsstraat;16;
4335271;71379;226116;Dwarsstraat;18;
4335272;71384,563;226114,146;Dwarsstraat;20;
4258328;71389,563;226113,146;Dwarsstraat;22;
2759441;71394,563;226113,146;Dwarsstraat;24;
2759442;71399,563;226112,146;Dwarsstraat;26;
71677;71405,98;226111,04;Dwarsstraat;28;
2759443;71413,77;226108,74;Dwarsstraat;30;
292523;70825,88;225976,58;Eieburg;6;
2759512;70819,74;225972,26;Eieburg;8;
4067242;70809,03;225964,22;Eieburg;10;
2759514;70803,34;225959,88;Eieburg;12;
2759515;70797,28;225956,05;Eieburg;14;
292520;70792,02;225951,25;Eieburg;16;
301268;70926,566;225709,143;Evendijk;2;
2759819;70921,69;225708,19;Evendijk;4;
4159323;70915,98;225706,35;Evendijk;6;
5463821;70909,78;225705,63;Evendijk;6;A
299851;71571,84;225827,03;Felix Timmermansstraat;1;
1518714;71573,565;225795,148;Felix Timmermansstraat;2;
2766867;71578,565;225823,148;Felix Timmermansstraat;3;
4336393;71585;225820;Felix Timmermansstraat;5;
4336394;71592;225821;Felix Timmermansstraat;7;
299852;71581,565;225791,148;Felix Timmermansstraat;8;
2766869;71603,995;225814,958;Felix Timmermansstraat;9;
2766871;71588,565;225788,148;Felix Timmermansstraat;10;
2766872;71607,565;225809,148;Felix Timmermansstraat;11;
2766873;71613,565;225806,148;Felix Timmermansstraat;13;
2766875;71600,96;225781,8;Felix Timmermansstraat;14;
2766876;71618,565;225804,148;Felix Timmermansstraat;15;
2766877;71607,565;225780,148;Felix Timmermansstraat;16;
2766879;71626,57;225806,36;Felix Timmermansstraat;17;
4336382;71618;225775;Felix Timmermansstraat;18;
2766880;71629,91;225799,46;Felix Timmermansstraat;19;
2766881;71623,565;225770,148;Felix Timmermansstraat;20;
2766882;71649,565;225791,148;Felix Timmermansstraat;21;
2766883;71629,565;225768,148;Felix Timmermansstraat;22;
299814;71655,565;225787,148;Felix Timmermansstraat;23;
4012903;71635,565;225766,148;Felix Timmermansstraat;24;
2766885;71660,565;225786,148;Felix Timmermansstraat;25;
299815;71640,431;225765,417;Felix Timmermansstraat;26;
299817;71666,565;225784,148;Felix Timmermansstraat;27;
299816;71651,246;225759,773;Felix Timmermansstraat;28;
2766888;71658,565;225755,148;Felix Timmermansstraat;30;
1500636;71675,926;225781,056;Felix Timmermansstraat;31;
2766889;71663,06;225750,83;Felix Timmermansstraat;32;
2766891;71669,565;225750,148;Felix Timmermansstraat;34;
1479041;71674,204;225795,334;Felix Timmermansstraat;36;
2766893;71697,229;225770,344;Felix Timmermansstraat;37;
2766894;71679,565;225746,149;Felix Timmermansstraat;38;
2766895;71702,565;225766,149;Felix Timmermansstraat;39;
2766896;71684,091;225744,963;Felix Timmermansstraat;40;
2766897;71708,111;225764,85;Felix Timmermansstraat;41;
2766899;71689,509;225741,713;Felix Timmermansstraat;42;
2766900;71712,204;225763,984;Felix Timmermansstraat;43;
2766902;71696,565;225738,149;Felix Timmermansstraat;44;
2766903;71718,565;225760,077;Felix Timmermansstraat;45;
2766904;71700,297;225736,623;Felix Timmermansstraat;46;
299818;71723,544;225759,325;Felix Timmermansstraat;47;
2766906;71713,204;225731,829;Felix Timmermansstraat;48;
2766908;71721,01;225729,06;Felix Timmermansstraat;50;
299820;71747,26;225751,77;Felix Timmermansstraat;51;
299819;71725,565;225730,149;Felix Timmermansstraat;52;
299821;71732,565;225730,149;Felix Timmermansstraat;54;
301656;71446,13;225675,1;Frans Vantorrestraat;1;
301657;71451,52;225659,14;Frans Vantorrestraat;2;
2766910;71452,566;225676,147;Frans Vantorrestraat;3;
4141707;71456,566;225659,147;Frans Vantorrestraat;4;
2766911;71458,566;225678,147;Frans Vantorrestraat;5;
2766913;71462,566;225661,147;Frans Vantorrestraat;6;
301658;71464,886;225682,007;Frans Vantorrestraat;7;
301659;71468,566;225662,147;Frans Vantorrestraat;8;
301660;71492,75;225679,86;Frans Vantorrestraat;9;
2766916;71497,566;225677,147;Frans Vantorrestraat;11;
301688;71475,566;225663,147;Frans Vantorrestraat;12;
2766918;71504,29;225675,93;Frans Vantorrestraat;13;
1369962;71484,31;225658,16;Frans Vantorrestraat;14;
2766919;71509,566;225673,147;Frans Vantorrestraat;15;
2766921;71491,566;225658,147;Frans Vantorrestraat;16;
2766922;71515,091;225673,302;Frans Vantorrestraat;17;
1271041;71497,566;225657,147;Frans Vantorrestraat;18;
4335824;71524,566;225669,147;Frans Vantorrestraat;19;
1337867;71503,566;225655,147;Frans Vantorrestraat;20;
2766924;71532,89;225667,336;Frans Vantorrestraat;21;
2766926;71509,566;225654,147;Frans Vantorrestraat;22;
301689;71538,566;225665,148;Frans Vantorrestraat;23;
301691;71515,566;225652,147;Frans Vantorrestraat;24;
301690;71543,566;225663,148;Frans Vantorrestraat;25;
301692;71520,566;225650,147;Frans Vantorrestraat;26;
2766928;71549,566;225661,148;Frans Vantorrestraat;27;
2766930;71525,566;225649,147;Frans Vantorrestraat;28;
2766931;71555,566;225660,148;Frans Vantorrestraat;29;
2766933;71532,566;225647,147;Frans Vantorrestraat;30;
2766934;71562,62;225659,87;Frans Vantorrestraat;31;
2766935;71538,38;225642,08;Frans Vantorrestraat;32;
2766936;71567,566;225657,148;Frans Vantorrestraat;33;
4335805;71543,566;225644,148;Frans Vantorrestraat;34;
2766937;71572,566;225655,148;Frans Vantorrestraat;35;
4049845;71549,566;225643,148;Frans Vantorrestraat;36;
4335828;71577,566;225654,148;Frans Vantorrestraat;37;
4335809;71556,314;225642,574;Frans Vantorrestraat;38;
301661;71584,04;225653,5;Frans Vantorrestraat;39;
2766939;71563;225640;Frans Vantorrestraat;40;
301662;71573,401;225627,472;Frans Vantorrestraat;42;
71690;71410,562;226158,146;Garnaalstraat;1;
71691;71395;226158;Garnaalstraat;2;
71687;71391,733;226151,723;Garnaalstraat;4;
2759933;71390,892;226147,649;Garnaalstraat;6;
71688;71414,01;226145,98;Garnaalstraat;7;
2759934;71389,243;226141,491;Garnaalstraat;8;
71686;71387,49;226131,038;Garnaalstraat;10;
299927;71311,673;226036,735;Guido Gezellestraat;1;
299928;71325,563;226016,145;Guido Gezellestraat;2;
2759997;71333,553;226034,445;Guido Gezellestraat;7;
2759998;71339,274;226013,259;Guido Gezellestraat;8;
299929;71347,165;226029,834;Guido Gezellestraat;9;
2759999;71348,563;226012,146;Guido Gezellestraat;10;
4335140;71354,563;226026,146;Guido Gezellestraat;11;
4335186;71353,563;226011,146;Guido Gezellestraat;12;
4158512;71360,563;226025,146;Guido Gezellestraat;13;
4335142;71366,563;226024,146;Guido Gezellestraat;17;
2760000;71374,11;226023,62;Guido Gezellestraat;19;
299932;71380,336;226022,167;Guido Gezellestraat;21;
299933;71386,13;226021,28;Guido Gezellestraat;23;
2760001;71391,563;226020,146;Guido Gezellestraat;25;
2760002;71386,563;226005,146;Guido Gezellestraat;26;
2760003;71396,563;226019,146;Guido Gezellestraat;27;
2760004;71392,563;226004,146;Guido Gezellestraat;28;
2760005;71402,563;226018,146;Guido Gezellestraat;29;
2760006;71398,563;226003,146;Guido Gezellestraat;30;
4335145;71409,563;226016,146;Guido Gezellestraat;31;
2760007;71404,563;226001,146;Guido Gezellestraat;32;
4335146;71417,563;226015,146;Guido Gezellestraat;33;
2760008;71409,563;226001,146;Guido Gezellestraat;34;
2760009;71424,223;226015,415;Guido Gezellestraat;35;
2760010;71412,6;225995,13;Guido Gezellestraat;36;
4335147;71431,319;226014,248;Guido Gezellestraat;37;
2760011;71419,563;225999,146;Guido Gezellestraat;38;
2760012;71425,563;225998,146;Guido Gezellestraat;40;
2760013;71430,563;225997,146;Guido Gezellestraat;42;
2760015;71435,563;225996,146;Guido Gezellestraat;44;
299930;71440,563;225995,146;Guido Gezellestraat;46;
5579376;71445,39;225991,37;Guido Gezellestraat;48;
292475;70819,336;226069,718;Heistlaan;2;
2760128;70824,384;226069,951;Heistlaan;4;
2760129;70828,733;226069,951;Heistlaan;6;
2760130;70833,393;226069,64;Heistlaan;8;
2760131;70832,539;226060,165;Heistlaan;10;
2760132;70827,568;226050,224;Heistlaan;22;
2760136;70829,51;226025,295;Heistlaan;24;
2760137;70827;226033;Heistlaan;24;A
292530;70831,917;226014,81;Heistlaan;26;
292531;70808,254;226008,041;Heistlaan;26;A
292528;70839,35;226002,53;Heistlaan;28;
4336765;70838,38;225994,84;Heistlaan;30;
4336766;70839,7;225986,13;Heistlaan;32;
292527;70840,62;225981,165;Heistlaan;34;
292533;70866,4;226019,12;Heistlaan;35;
292526;70843,569;225950,928;Heistlaan;36;
2760143;70866,564;226012,142;Heistlaan;37;
2760144;70845,4;225942,86;Heistlaan;38;
2760145;70867,564;226008,142;Heistlaan;39;
2760146;70847,62;225937,48;Heistlaan;40;
2760147;70867,564;226003,142;Heistlaan;41;
2760148;70849,565;225931,142;Heistlaan;42;
2760149;70869,65;225996,7;Heistlaan;43;
2760150;70850,21;225925,61;Heistlaan;44;
292529;70871,214;225989,958;Heistlaan;45;
2760152;70852,565;225919,142;Heistlaan;46;
4336666;70871,564;225972,142;Heistlaan;47;
6662248;70871;225970;Heistlaan;47;A
2760153;70855,33;225914,64;Heistlaan;48;
4023458;70855,565;225908,142;Heistlaan;50;
301348;70872,564;225960,142;Heistlaan;51;
2760154;70858,52;225903,91;Heistlaan;52;
2760155;70873,72;225954,92;Heistlaan;53;
2760156;70859,234;225896,896;Heistlaan;54;
2760157;70876,547;225949,706;Heistlaan;55;
2760158;70860,565;225890,142;Heistlaan;56;
2760159;70877,01;225943,81;Heistlaan;57;
2760160;70862,75;225886,29;Heistlaan;58;
4338598;70878,34;225938,95;Heistlaan;59;
2760161;70863,69;225880,76;Heistlaan;60;
4338601;70879,33;225931,22;Heistlaan;61;
301276;70868,17;225876,3;Heistlaan;62;
301277;70869,2;225870,05;Heistlaan;64;
301347;70885,52;225925,57;Heistlaan;65;
2760163;70872,28;225865,16;Heistlaan;66;
301346;70883,51;225919,3;Heistlaan;67;
2760164;70873,565;225858,142;Heistlaan;68;
2760165;70887,63;225914,59;Heistlaan;69;
2760166;70876,565;225853,142;Heistlaan;70;
2760167;70888,051;225909,723;Heistlaan;71;
2760169;70878,229;225849,782;Heistlaan;72;
2760170;70890,581;225904,33;Heistlaan;73;
2760171;70881,565;225842,142;Heistlaan;74;
2760172;70890,998;225899,297;Heistlaan;75;
2760173;70883,39;225837,97;Heistlaan;76;
2760174;70893,565;225893,142;Heistlaan;77;
2760175;70886,15;225832,63;Heistlaan;78;
4143705;70896,15;225888,25;Heistlaan;79;
2760176;70887,565;225826,142;Heistlaan;80;
2760178;70898,22;225882,75;Heistlaan;81;
2760179;70890,03;225821,18;Heistlaan;82;
4028994;70901,2;225877,21;Heistlaan;83;
2760180;70891,52;225815,77;Heistlaan;84;
301345;70902,565;225870,142;Heistlaan;85;
2760181;70894,566;225810,142;Heistlaan;86;
301351;70920,27;225842,57;Heistlaan;87;
2760182;70897,85;225804,88;Heistlaan;88;
2760183;70923,01;225837,11;Heistlaan;89;
2760184;70898,566;225798,142;Heistlaan;90;
2760185;70925,32;225831,56;Heistlaan;91;
2760186;70902,566;225792,142;Heistlaan;92;
4338616;70927,68;225826,17;Heistlaan;93;
4336498;70904,566;225787,142;Heistlaan;94;
2760187;70928,658;225821,318;Heistlaan;95;
2760188;70907,566;225781,142;Heistlaan;96;
2760189;70936,227;225814,041;Heistlaan;97;
4336500;70909,148;225776,761;Heistlaan;98;
2760190;70934,566;225807,143;Heistlaan;99;
2760192;70912,82;225768,55;Heistlaan;100;
2760193;70935,978;225802,163;Heistlaan;101;
4232597;70915,93;225762,67;Heistlaan;102;
2760194;70939;225795,6;Heistlaan;103;
4336503;70920;225757;Heistlaan;104;
2760195;70944,753;225784,461;Heistlaan;105;
2760197;70921,566;225751,143;Heistlaan;106;
2760198;70948,566;225776,143;Heistlaan;107;
2760199;70923,566;225745,143;Heistlaan;108;
2760200;70950,35;225770,32;Heistlaan;109;
2760201;70924,566;225740,143;Heistlaan;110;
2760202;70954,16;225765,12;Heistlaan;111;
2760203;70927,566;225735,143;Heistlaan;112;
2760204;70956,71;225759,37;Heistlaan;113;
2760205;70929,63;225728,1;Heistlaan;114;
2760206;70959,24;225753,34;Heistlaan;115;
9879;70934,137;225715,583;Heistlaan;116;
2760208;70960,885;225749,659;Heistlaan;117;
301349;70966,95;225743,26;Heistlaan;119;
305600;71026;225711;Heistlaan;123;
2760210;70930,99;225660,05;Heistlaan;124;
301275;71005,75;225549,9;Heistlaan;130;
4335459;71029;225606;Heistlaan;133;
2760211;71067,52;225532,06;Heistlaan;147;
4263508;71761;225897;Hendrik Consciencestraat;2;
299832;71758,06;225891,66;Hendrik Consciencestraat;4;
299831;71758,564;225885,149;Hendrik Consciencestraat;6;
299830;71751;225880;Hendrik Consciencestraat;8;
2758647;71754,69;225874,85;Hendrik Consciencestraat;10;
4159814;71757,54;225869,28;Hendrik Consciencestraat;12;
4033938;71756,564;225863,149;Hendrik Consciencestraat;14;
2758649;71756,564;225858,149;Hendrik Consciencestraat;16;
4033332;71756,564;225852,149;Hendrik Consciencestraat;18;
2758653;71756,564;225846,149;Hendrik Consciencestraat;20;
2758654;71755,564;225840,149;Hendrik Consciencestraat;22;
2758656;71755,564;225834,149;Hendrik Consciencestraat;24;
2758659;71755,564;225828,149;Hendrik Consciencestraat;26;
2758661;71747,414;225822,699;Hendrik Consciencestraat;28;
2758664;71754,564;225816,149;Hendrik Consciencestraat;30;
2758665;71739,15;225812,91;Hendrik Consciencestraat;32;
2758667;71754,564;225806,149;Hendrik Consciencestraat;34;
2758668;71753,565;225800,149;Hendrik Consciencestraat;36;
4232351;71753,42;225795,96;Hendrik Consciencestraat;38;
2758671;71753,2;225790,57;Hendrik Consciencestraat;40;
2758673;71753,565;225784,149;Hendrik Consciencestraat;42;
2758675;71753,565;225778,149;Hendrik Consciencestraat;44;
2758677;71753,565;225773,149;Hendrik Consciencestraat;46;
1357108;71752,045;225769,829;Hendrik Consciencestraat;48;
2758681;71752,863;225763,12;Hendrik Consciencestraat;50;
299833;71752,565;225756,149;Hendrik Consciencestraat;52;
299829;71748,43;225736,79;Hendrik Consciencestraat;54;
2758683;71751,452;225732,304;Hendrik Consciencestraat;56;
2758685;71752,108;225723,101;Hendrik Consciencestraat;58;
4336571;71751,736;225715,749;Hendrik Consciencestraat;60;
2758689;71750,565;225702,149;Hendrik Consciencestraat;64;
2758690;71749,565;225697,149;Hendrik Consciencestraat;66;
2758692;71750,565;225691,149;Hendrik Consciencestraat;68;
299828;71749,565;225685,149;Hendrik Consciencestraat;70;
2758694;71747,654;225676,984;Hendrik Consciencestraat;72;
301781;71103,363;226113,543;Hermans-Lybaertstraat;1;
5905457;71102,172;226111,161;Hermans-Lybaertstraat;1;A
6112124;71101,093;226107,197;Hermans-Lybaertstraat;1;B
2760364;71098,372;226103,108;Hermans-Lybaertstraat;1;C
5377662;71096,387;226098,514;Hermans-Lybaertstraat;1;D
301784;71091,563;226083,143;Hermans-Lybaertstraat;3;
4337057;71091;226071;Hermans-Lybaertstraat;7;
2760365;71073;226060;Hermans-Lybaertstraat;8;
2760367;71091,453;226069,54;Hermans-Lybaertstraat;9;
2760368;71066,453;226046,793;Hermans-Lybaertstraat;10;
2760369;71088,563;226064,143;Hermans-Lybaertstraat;11;
2760370;71066,453;226046,793;Hermans-Lybaertstraat;12;
301783;71090,564;226015,144;Hermans-Lybaertstraat;19;
2760373;71071,564;226020,143;Hermans-Lybaertstraat;20;
2760374;71090,564;226007,144;Hermans-Lybaertstraat;21;
292554;71071,12;226014,13;Hermans-Lybaertstraat;22;
2760375;71090,564;225999,144;Hermans-Lybaertstraat;23;
1389263;71090,564;225992,144;Hermans-Lybaertstraat;25;
5579379;71060,69;225988,97;Hermans-Lybaertstraat;26;
2760379;71091;225986;Hermans-Lybaertstraat;27;
2760381;71092,564;225976,144;Hermans-Lybaertstraat;29;
2760383;71072,58;225969,41;Hermans-Lybaertstraat;34;
2760384;71093,301;225955,987;Hermans-Lybaertstraat;35;
4336699;71072,41;225963,55;Hermans-Lybaertstraat;36;
2760386;71072,463;225954,548;Hermans-Lybaertstraat;38;
2760387;71063,794;225935,888;Hermans-Lybaertstraat;40;
292551;71075,564;225924,144;Hermans-Lybaertstraat;44;
4338592;71077,565;225912,144;Hermans-Lybaertstraat;46;
2760388;71078,464;225901,918;Hermans-Lybaertstraat;50;
2760390;71078,565;225897,144;Hermans-Lybaertstraat;52;
4338596;71079,074;225892,028;Hermans-Lybaertstraat;54;
301121;71078,565;225884,144;Hermans-Lybaertstraat;56;
301118;71075,565;225865,144;Hermans-Lybaertstraat;58;
6524214;71076;225866;Hermans-Lybaertstraat;60;
4336306;71080,404;225855,568;Hermans-Lybaertstraat;62;
301119;71080,014;225850,727;Hermans-Lybaertstraat;64;
301120;71080,431;225844,923;Hermans-Lybaertstraat;66;
2760397;71080,864;225838,505;Hermans-Lybaertstraat;68;
2760398;71082,565;225831,144;Hermans-Lybaertstraat;70;
2760400;71080,827;225826,043;Hermans-Lybaertstraat;72;
2760404;71082,431;225812,129;Hermans-Lybaertstraat;78;
2760405;71083,885;225804,845;Hermans-Lybaertstraat;80;
2760407;71082;225794;Hermans-Lybaertstraat;84;
2760408;71085,055;225791,448;Hermans-Lybaertstraat;86;
2760409;71080,566;225772,144;Hermans-Lybaertstraat;88;
292542;70932,688;226018,463;Hof van Koudekerke;1;
1024208;70966,97;226019,31;Hof van Koudekerke;2;
292544;70966,97;226019,31;Hof van Koudekerke;2;A
292545;70966,23;226028,1;Hof van Koudekerke;4;
292546;70966,12;226041,86;Hof van Koudekerke;6;
4250093;70932,22;226038,12;Hof van Koudekerke;7;
292543;70932,01;226043,94;Hof van Koudekerke;9;
4003888;70936,56;226048,3;Hof van Koudekerke;11;
302579;71740,215;226120,482;Ijzerstraat;1;
302580;71727,233;226117,681;Ijzerstraat;2;
2760556;71740,73;226106,47;Ijzerstraat;3;
4214647;71725,82;226107,91;Ijzerstraat;4;
2760557;71740,253;226101,675;Ijzerstraat;5;
2760558;71724,562;226101,148;Ijzerstraat;6;
4337209;71740,14;226097,3;Ijzerstraat;7;
5435336;71739,97;226093,6;Ijzerstraat;7;A
2760560;71739,68;226088,01;Ijzerstraat;7;B
2760561;71724,562;226096,148;Ijzerstraat;8;
4337211;71738,72;226083,89;Ijzerstraat;9;
2760562;71723,562;226091,148;Ijzerstraat;10;
4146450;71738,562;226075,149;Ijzerstraat;11;
2760563;71724,75;226083,06;Ijzerstraat;12;
2760564;71737,562;226068,149;Ijzerstraat;13;
4337214;71736,562;226063,149;Ijzerstraat;15;
2760565;71721,562;226074,148;Ijzerstraat;16;
2760567;71735,563;226056,149;Ijzerstraat;17;
2760568;71721,562;226068,148;Ijzerstraat;18;
2760570;71735,563;226050,149;Ijzerstraat;19;
4161038;71721,562;226063,148;Ijzerstraat;20;
2760571;71734,563;226044,149;Ijzerstraat;21;
4334234;71720,563;226058,148;Ijzerstraat;22;
2760572;71734,563;226038,149;Ijzerstraat;23;
2760573;71720,563;226052,148;Ijzerstraat;24;
2760574;71734,563;226031,149;Ijzerstraat;25;
2760575;71719,563;226048,148;Ijzerstraat;26;
2760577;71733,563;226025,149;Ijzerstraat;27;
1437873;71719,563;226039,148;Ijzerstraat;28;
2760579;71732,563;226019,149;Ijzerstraat;29;
4334236;71720;226040;Ijzerstraat;30;
302583;71732,563;226013,149;Ijzerstraat;31;
2760581;71717,563;226034,148;Ijzerstraat;32;
302585;71731,563;226008,149;Ijzerstraat;33;
302582;71718;226029;Ijzerstraat;34;
2760582;71730,563;226002,149;Ijzerstraat;35;
2760583;71730,563;225997,149;Ijzerstraat;37;
4235125;71706,193;226013,148;Ijzerstraat;40;
4337217;71729,563;225986,149;Ijzerstraat;41;
2760585;71715,563;226007,148;Ijzerstraat;42;
4337218;71728,563;225980,149;Ijzerstraat;43;
4334241;71715,75;226003;Ijzerstraat;44;
4271342;71728,563;225975,149;Ijzerstraat;45;
4334243;71714,563;225997,148;Ijzerstraat;46;
4337220;71727,563;225969,149;Ijzerstraat;47;
4334244;71715;225993;Ijzerstraat;48;
1465850;71726,563;225964,149;Ijzerstraat;49;
1442667;71713,563;225987,148;Ijzerstraat;50;
3939569;71726,69;225959,87;Ijzerstraat;51;
4199561;71713,563;225981,148;Ijzerstraat;52;
2760587;71725,563;225952,149;Ijzerstraat;53;
2760588;71712,563;225976,148;Ijzerstraat;54;
302571;71725,563;225945,149;Ijzerstraat;55;
2760589;71712,563;225971,148;Ijzerstraat;56;
302573;71724,563;225939,149;Ijzerstraat;57;
2760590;71710,08;225966,8;Ijzerstraat;58;
2760592;71724,564;225932,149;Ijzerstraat;59;
2760593;71711,563;225960,148;Ijzerstraat;60;
2760594;71722,564;225925,149;Ijzerstraat;61;
4334248;71711;225956;Ijzerstraat;62;
302569;71721,433;225920,573;Ijzerstraat;63;
4156421;71710,563;225949,148;Ijzerstraat;64;
302577;71708,223;225942,892;Ijzerstraat;66;
302575;71706,618;225936,937;Ijzerstraat;68;
301626;71331,28;225566,99;Invalidenlaan;1;
4336826;71342,8;225571,56;Invalidenlaan;2;
2760598;71349,567;225572,146;Invalidenlaan;3;
4181962;71354,567;225574,146;Invalidenlaan;4;
2760599;71362,567;225576,146;Invalidenlaan;5;
2760600;71368,89;225579,82;Invalidenlaan;6;
2760602;71374,567;225580,146;Invalidenlaan;7;
301627;71381,567;225582,146;Invalidenlaan;8;
301628;71388,567;225584,146;Invalidenlaan;9;
2760603;71394,567;225586,146;Invalidenlaan;10;
2760604;71401,865;225590,642;Invalidenlaan;11;
2760606;71411,092;225593,508;Invalidenlaan;12;
2760607;71417,567;225593,147;Invalidenlaan;13;
2760608;71424;225597;Invalidenlaan;14;
2760610;71429;225598;Invalidenlaan;15;
301629;71434,617;225600,353;Invalidenlaan;16;
301959;71223,121;226186,91;Kardinaal Mercierstraat;7;
2763802;71224,572;226180,171;Kardinaal Mercierstraat;9;
301957;71224,941;226173,41;Kardinaal Mercierstraat;11;
4337610;71230;226124;Kardinaal Mercierstraat;15;
2763806;71230,981;226119,194;Kardinaal Mercierstraat;17;
301960;71202,366;226194,513;Kardinaal Mercierstraat;18;
2763807;71230,712;226113,356;Kardinaal Mercierstraat;19;
301958;71206,612;226188,839;Kardinaal Mercierstraat;20;
2763808;71231,315;226107,13;Kardinaal Mercierstraat;21;
2763809;71206,923;226183,144;Kardinaal Mercierstraat;22;
301951;71231,28;226101,301;Kardinaal Mercierstraat;23;
2763810;71207,958;226177,966;Kardinaal Mercierstraat;24;
301956;71209,201;226173,306;Kardinaal Mercierstraat;26;
301955;71211;226149;Kardinaal Mercierstraat;28;
301954;71210,236;226139,549;Kardinaal Mercierstraat;30;
4337556;71210,858;226126,812;Kardinaal Mercierstraat;34;
4337557;71214,378;226127,123;Kardinaal Mercierstraat;36;
4250002;71210,236;226120,185;Kardinaal Mercierstraat;38;
4337558;71216;226119;Kardinaal Mercierstraat;40;
2763812;71210,547;226113,558;Kardinaal Mercierstraat;42;
2763813;71215,414;226113,662;Kardinaal Mercierstraat;44;
5579500;71217;226107;Kardinaal Mercierstraat;46;
301950;71218,325;226099,979;Kardinaal Mercierstraat;48;
2761157;71296,955;226093,129;Kerkstraat;2;
3956091;71284,964;226094,088;Kerkstraat;4;
6662253;71240;226081;Kerkstraat;5;
2761159;71272,226;226096,794;Kerkstraat;10;
2761162;71260,825;226096,332;Kerkstraat;14;
2761164;71213,563;226085,144;Kerkstraat;17;
2761165;71249,985;226097,701;Kerkstraat;18;
2761167;71207,244;226087,279;Kerkstraat;19;
2761170;71204,958;226087,907;Kerkstraat;21;
4337554;71241,563;226096,145;Kerkstraat;22;
2761171;71200,62;226088,789;Kerkstraat;23;
301963;71236,113;226096,66;Kerkstraat;24;
4337027;71197,994;226089,248;Kerkstraat;25;
5579389;71208,232;226102,041;Kerkstraat;26;
5579390;71193,259;226089,81;Kerkstraat;27;
2761174;71199,26;226109,002;Kerkstraat;30;
301816;71170,088;226093,278;Kerkstraat;31;
2761177;71193,047;226109,934;Kerkstraat;32;
2761178;71161,563;226094,144;Kerkstraat;33;
2761179;71187,663;226110,969;Kerkstraat;34;
2761181;71172,234;226112,937;Kerkstraat;36;
2761183;71151,563;226097,144;Kerkstraat;37;
2761184;71143,563;226101,144;Kerkstraat;39;
301965;71163,95;226119,771;Kerkstraat;40;
1443152;71133,662;226105,684;Kerkstraat;41;
3939578;71157,633;226115,215;Kerkstraat;42;
4337631;71149,88;226116,41;Kerkstraat;44;
2761187;71122,257;226110,722;Kerkstraat;45;
4337632;71151,834;226123,292;Kerkstraat;46;
2761189;71141,272;226121,583;Kerkstraat;48;
5570315;71115,073;226113,526;Kerkstraat;49;
4337633;71133,351;226123,913;Kerkstraat;50;
4337634;71127;226124;Kerkstraat;52;
301814;71110,466;226136,65;Kerkstraat;54;
5564758;71013,078;226155,78;Kerkstraat;55;
6662251;71090;226142;Kerkstraat;56;A
6662250;71093;226141;Kerkstraat;56;B
6525364;71016,339;226152,778;Kerkstraat;57;
4336722;71079,608;226147,108;Kerkstraat;58;
2761194;71007,563;226157,143;Kerkstraat;59;
4336704;71002,093;226157,983;Kerkstraat;61;
2761196;70991,243;226153,903;Kerkstraat;63;
2761199;71055,481;226159,12;Kerkstraat;66;
5553532;70980,563;226167,142;Kerkstraat;67;
2761204;71036,946;226164,297;Kerkstraat;70;
2761207;71030,526;226166,834;Kerkstraat;72;
292513;71023,122;226171,002;Kerkstraat;78;
2761210;70998,684;226180,84;Kerkstraat;80;
2761212;71006,217;226178,328;Kerkstraat;82;
292512;71013,181;226176,413;Kerkstraat;84;
71449;71335,358;226164,268;Knokkestraat;2;
4335262;71344,589;226166,082;Knokkestraat;4;
2761562;71349,193;226167,722;Knokkestraat;6;
5579399;71355,111;226164,199;Knokkestraat;10;
71716;71372,058;226171,425;Knokkestraat;12;
2761565;71377,985;226169,452;Knokkestraat;14;
2761566;71384,174;226168,767;Knokkestraat;16;
2761567;71389,733;226168,092;Knokkestraat;18;
71717;71394,999;226165,754;Knokkestraat;20;
71718;71396;226163;Knokkestraat;20;A
71719;71425,562;226159,146;Knokkestraat;22;
71720;71439,933;226159,42;Knokkestraat;24;
2761568;71443,825;226156,798;Knokkestraat;26;
2761569;71448,805;226155,02;Knokkestraat;28;
2761570;71453,562;226154,146;Knokkestraat;30;
2761571;71458,562;226152,146;Knokkestraat;32;
2761572;71463,403;226151,928;Knokkestraat;34;
71722;71514,083;226135,215;Knokkestraat;52;
5579402;71519,066;226140,954;Knokkestraat;54;
71723;71523,607;226139,084;Knokkestraat;56;
302648;71533,273;226134,877;Knokkestraat;58;
302650;71568,376;226135,755;Knokkestraat;64;
2761581;71574,897;226136,074;Knokkestraat;66;
5579403;71580;226135;Knokkestraat;68;
302651;71582,551;226135,125;Knokkestraat;70;
6524217;71588,592;226134,734;Knokkestraat;72;
302652;71611,349;226135,494;Knokkestraat;74;
2761587;71623,603;226131,955;Knokkestraat;80;
2761588;71631,985;226130,053;Knokkestraat;82;
2761589;71633,208;226118,831;Knokkestraat;84;
2761590;71647,097;226129,367;Knokkestraat;88;
2761591;71660,066;226125,284;Knokkestraat;94;
302529;71671,989;226128,317;Knokkestraat;98;
4334199;71691,531;226126,82;Knokkestraat;102;
302532;71713,242;226117,274;Knokkestraat;108;
5579404;71721,562;226122,148;Knokkestraat;112;
302536;71752,373;226118,892;Knokkestraat;116;
4334131;71758,212;226112,898;Knokkestraat;118;
4334133;71761,884;226114,778;Knokkestraat;120;
5579405;71764;226121;Knokkestraat;122;
2761600;71773,562;226117,149;Knokkestraat;124;
2761601;71777,974;226116,922;Knokkestraat;126;
4334137;71786,087;226116,283;Knokkestraat;128;
2761602;71798,953;226115,83;Knokkestraat;132;
2761603;71809,589;226114,118;Knokkestraat;134;
2761604;71820,148;226113,64;Knokkestraat;136;
2761605;71826,314;226112,83;Knokkestraat;138;
2761606;71831,974;226112,943;Knokkestraat;140;
2761607;71841,562;226111,149;Knokkestraat;142;
2761608;71852,562;226109,149;Knokkestraat;144;
2761609;71859,135;226109,513;Knokkestraat;146;
2761610;71864,978;226109,657;Knokkestraat;148;
2761611;71870,747;226108,851;Knokkestraat;150;
2761612;71878,562;226107,15;Knokkestraat;152;
2761613;71883,747;226107,377;Knokkestraat;154;
299894;71895,562;226105,15;Knokkestraat;156;
5786002;71119;225751;Koudekerkelaan;1;
5824060;71130;225733;Koudekerkelaan;3;
6392096;71131;225726;Koudekerkelaan;5;
5823468;71134;225717;Koudekerkelaan;7;
5824783;71137;225711;Koudekerkelaan;9;
301113;71101,96;225691,31;Koudekerkelaan;10;
301114;71152,37;225686,44;Koudekerkelaan;11;
2762019;71153,99;225679,53;Koudekerkelaan;13;
2762020;71121,84;225663,66;Koudekerkelaan;14;
2762021;71161,566;225666,145;Koudekerkelaan;15;
2762022;71131,9;225649,02;Koudekerkelaan;16;
301112;71170,566;225653,145;Koudekerkelaan;17;
2762023;71141,39;225632,27;Koudekerkelaan;18;
301116;71187,567;225630,145;Koudekerkelaan;19;
2762024;71190,567;225626,145;Koudekerkelaan;21;
2762025;71200,567;225614,145;Koudekerkelaan;23;
2762026;71211,567;225603,145;Koudekerkelaan;25;
301117;71219,88;225592,92;Koudekerkelaan;27;
301111;71151,04;225591,42;Koudekerkelaan;30;
5579413;71314,346;226193,911;Kursaalstraat;2;
71664;71313,148;226190,127;Kursaalstraat;4;
71672;71313,653;226186,279;Kursaalstraat;6;
5579414;71318;226185;Kursaalstraat;8;
71670;71326,78;226160,231;Kursaalstraat;9;
2762226;71327,06;226153,47;Kursaalstraat;11;
4335263;71327,112;226148,026;Kursaalstraat;13;
302015;71307,961;226152,361;Kursaalstraat;14;
71671;71326,208;226142,637;Kursaalstraat;15;
71663;71307,164;226146,236;Kursaalstraat;16;
5579415;71321,371;226123,65;Kursaalstraat;17;
71668;71320,047;226118,037;Kursaalstraat;19;
2762233;71320,36;226111,585;Kursaalstraat;21;
1485123;71301,621;226129,368;Kursaalstraat;24;
2762237;71302,093;226121,075;Kursaalstraat;26;
3939592;71318,495;226105,764;Kursaalstraat;27;
2762238;71318,622;226099,015;Kursaalstraat;29;
71665;71320,932;226087,101;Kursaalstraat;31;
2762240;71301,796;226111,659;Kursaalstraat;32;
71666;71315,563;226071,145;Kursaalstraat;33;
2762241;71303,433;226107,361;Kursaalstraat;34;
3993306;71315,722;226066,856;Kursaalstraat;35;
4337563;71300,754;226103,625;Kursaalstraat;36;
2762243;71317;226060;Kursaalstraat;37;
2762244;71318,853;226050,805;Kursaalstraat;39;
301799;71294,563;226048,145;Kursaalstraat;40;
299917;71318,853;226050,805;Kursaalstraat;41;
2762247;71290,563;226016,145;Kursaalstraat;42;
2762250;71290,563;226016,145;Kursaalstraat;44;
299915;71313,497;226017,973;Kursaalstraat;45;
4337009;71287;225969;Kursaalstraat;46;
6524211;71311;226014;Kursaalstraat;47;
299916;71309,301;226004,931;Kursaalstraat;51;
3939593;71289,564;225948,145;Kursaalstraat;52;
2762255;71287,304;225934,695;Kursaalstraat;54;
299914;71356,49;225925,05;Kursaalstraat;55;
2762257;71344,565;225865,146;Kursaalstraat;55;B
299898;71358,079;225848,991;Kursaalstraat;57;
6524210;71357;225852;Kursaalstraat;59;
301136;71286,85;225914,23;Kursaalstraat;60;
2762259;71352;225845;Kursaalstraat;61;
301135;71287,642;225904,734;Kursaalstraat;64;
2762260;71288,224;225897,96;Kursaalstraat;66;
1495994;71287,77;225891,481;Kursaalstraat;68;
2762262;71287,018;225884,658;Kursaalstraat;70;
2762263;71287,203;225879,073;Kursaalstraat;72;
2762265;71288;225872;Kursaalstraat;74;
4336273;71285,06;225864,8;Kursaalstraat;76;
301134;71285,249;225856,114;Kursaalstraat;78;
5987179;71427;225783;Leenstraat;1;
301643;71394,88;225793,77;Leenstraat;2;
6324444;71421;225775;Leenstraat;3;
2762646;71398,565;225777,146;Leenstraat;4;
6184246;71420;225764;Leenstraat;5;
5987180;71423;225756;Leenstraat;7;
2762647;71399,565;225763,146;Leenstraat;8;
1451159;71399,75;225752,93;Leenstraat;10;
2762648;71402,565;225743,146;Leenstraat;12;
301693;71424,565;225747,147;Leenstraat;13;
301642;71404,565;225734,146;Leenstraat;14;
2762649;71425,565;225741,147;Leenstraat;15;
2762650;71406,566;225727,146;Leenstraat;16;
2762651;71428,18;225734,1;Leenstraat;17;
2762652;71407,566;225721,146;Leenstraat;18;
2762653;71408,566;225715,146;Leenstraat;20;
2762654;71429,566;225720,147;Leenstraat;21;
2762655;71408,566;225709,146;Leenstraat;22;
1510662;71430,566;225714,147;Leenstraat;23;
2762656;71408,566;225702,146;Leenstraat;24;
2762657;71430,566;225708,147;Leenstraat;25;
301640;71408,566;225697,146;Leenstraat;26;
2762659;71431,566;225702,147;Leenstraat;27;
301641;71408,566;225688,146;Leenstraat;28;
1360112;71431,32;225696,7;Leenstraat;29;
4335787;71430,566;225690,147;Leenstraat;31;
2762660;71433,18;225684,14;Leenstraat;33;
301639;71417,566;225656,147;Leenstraat;34;
2762661;71419,87;225647,51;Leenstraat;36;
301694;71436,96;225672,69;Leenstraat;37;
2762662;71422,42;225640,97;Leenstraat;38;
301695;71440,566;225655,147;Leenstraat;39;
2762664;71423,865;225635,209;Leenstraat;40;
4335791;71442,566;225649,147;Leenstraat;41;
2762665;71427,113;225628,415;Leenstraat;42;
1500606;71443,566;225644,147;Leenstraat;43;
4336859;71428,056;225623,301;Leenstraat;44;
1508589;71445,566;225639,147;Leenstraat;45;
2762666;71431,42;225615,85;Leenstraat;46;
4335795;71447,566;225634,147;Leenstraat;47;
301638;71433,566;225609,147;Leenstraat;48;
2762668;71448,566;225630,147;Leenstraat;49;
2762669;71449,999;225626,621;Leenstraat;51;
2762670;71451,886;225621,848;Leenstraat;53;
301698;71455,66;225616,92;Leenstraat;55;
301697;71456,566;225610,147;Leenstraat;57;
4178175;71457,566;225605,147;Leenstraat;59;
2762671;71462,545;225599,466;Leenstraat;61;
301696;71465,34;225587,962;Leenstraat;65;
301088;71278;225830;Marktstraat;1;
301087;71280,145;225855,065;Marktstraat;2;
2763534;71271;225824;Marktstraat;3;
2763536;71266,565;225852,145;Marktstraat;4;
301086;71262,565;225829,145;Marktstraat;5;
2763537;71260,565;225851,145;Marktstraat;6;
2763538;71254,565;225828,145;Marktstraat;7;
2763539;71253,565;225850,145;Marktstraat;8;
2763540;71247,565;225827,145;Marktstraat;9;
4241120;71247,565;225849,145;Marktstraat;10;
2763541;71241,565;225826,145;Marktstraat;11;
2763542;71239,565;225847,145;Marktstraat;12;
2763543;71235,565;225825,145;Marktstraat;13;
2763544;71232,82;225847,2;Marktstraat;14;
4336336;71228,565;225824,145;Marktstraat;15;
2763545;71220,565;225823,145;Marktstraat;17;
301085;71217,21;225819,44;Marktstraat;19;
301100;71213,54;225815,89;Marktstraat;21;
2763546;71204,92;225816,18;Marktstraat;23;
301099;71200,565;225813,145;Marktstraat;25;
301097;71065,566;225768,144;Marktstraat;26;
4096847;71195,565;225810,145;Marktstraat;27;
2763547;71061,16;225766,15;Marktstraat;28;
2763548;71187,565;225802,145;Marktstraat;29;
2763551;71054,566;225763,144;Marktstraat;30;
2763552;71179,565;225798,144;Marktstraat;31;
4336300;71049,566;225760,144;Marktstraat;32;
2763553;71174,565;225796,144;Marktstraat;33;
2763555;71044,566;225758,143;Marktstraat;34;
4336275;71169,565;225793,144;Marktstraat;35;
2763556;71038,566;225756,143;Marktstraat;36;
2763557;71162,565;225790,144;Marktstraat;37;
2763558;71034,15;225755,05;Marktstraat;38;
2763560;71156,565;225787,144;Marktstraat;39;
4195216;71028,566;225751,143;Marktstraat;40;
2763561;71150,42;225785,12;Marktstraat;41;
2763562;71023,06;225750,61;Marktstraat;42;
2763563;71147,17;225781,06;Marktstraat;43;
2763565;71010,566;225742,143;Marktstraat;44;
4336278;71139,565;225778,144;Marktstraat;45;
2763566;71004,566;225740,143;Marktstraat;46;
301098;71133,16;225776,44;Marktstraat;47;
2763569;70999,566;225737,143;Marktstraat;48;
6382176;71128;225773;Marktstraat;49;
2763570;70992,95;225735,64;Marktstraat;50;
5776420;71113,566;225766,144;Marktstraat;51;
301096;70988,58;225732,23;Marktstraat;52;
301101;71084,566;225732,144;Marktstraat;61;
2763823;71491,563;226006,147;Moefe;1;
3939625;71489;226003;Moefe;1;A
2763825;71486,223;225999,364;Moefe;1;B
4337464;71493,563;226009,147;Moefe;2;
302664;71496,563;226013,147;Moefe;3;
4337465;71497,563;226017,147;Moefe;4;
4337466;71499,563;226021,147;Moefe;5;
2763826;71502,563;226025,147;Moefe;6;
2763827;71504,72;226029,44;Moefe;7;
4337468;71506,89;226033,44;Moefe;8;
2763828;71509,563;226037,147;Moefe;9;
4053607;71512,563;226044,147;Moefe;11;
2763829;71515,563;226049,147;Moefe;12;
2763830;71519,04;226056,86;Moefe;13;
2763831;71522,563;226062,147;Moefe;14;
4337470;71525,8;226069,46;Moefe;15;
2763832;71529,91;226075,13;Moefe;16;
4337473;71532,92;226080,23;Moefe;17;
2763834;71534,33;226085,22;Moefe;18;
2763835;71537,562;226091,147;Moefe;19;
2763836;71541,45;226098,67;Moefe;20;
2763837;71543,91;226103,25;Moefe;21;
4337476;71546,34;226107,83;Moefe;22;
302666;71548,562;226112,147;Moefe;23;
2763838;71559,196;226121,418;Moefe;24;
301125;71221,956;225912,258;Molenstraat;1;
2763839;71222,564;225890,145;Molenstraat;3;
2763840;71221,565;225884,145;Molenstraat;5;
2763841;71221,565;225878,145;Molenstraat;7;
301124;71222,57;225872,55;Molenstraat;9;
301123;71222,28;225865,36;Molenstraat;11;
2763842;71221,565;225858,145;Molenstraat;13;
301122;71221,565;225845,145;Molenstraat;15;
5559094;71310,373;226194,1;Nicolas Mengélaan;1;
301975;71291,45;226193,343;Nicolas Mengélaan;4;
3939619;71288,089;226193,523;Nicolas Mengélaan;5;
2763760;71283,625;226193,839;Nicolas Mengélaan;6;
2763762;71269,562;226194,145;Nicolas Mengélaan;8;
301973;71258,46;226192,654;Nicolas Mengélaan;9;
2763763;71248,859;226194,018;Nicolas Mengélaan;11;
2763764;71241,859;226193,766;Nicolas Mengélaan;12;
5579498;71230;226195;Nicolas Mengélaan;13;
2763765;71224;226194,891;Nicolas Mengélaan;14;
71734;71232,227;226193,493;Nicolas Mengélaan;15;
2763768;71187,48;226192,116;Nicolas Mengélaan;17;
4337564;71193,899;226192,792;Nicolas Mengélaan;18;
2763769;71180,562;226194,144;Nicolas Mengélaan;19;
2763771;71171,964;226195,963;Nicolas Mengélaan;20;
2763772;71166,562;226195,144;Nicolas Mengélaan;21;
2763774;71159,539;226191,485;Nicolas Mengélaan;22;
2763775;71157,562;226195,144;Nicolas Mengélaan;23;
301971;71135,319;226191,927;Nicolas Mengélaan;27;
302668;71512,109;226128,529;Noordstraat;1;
71642;71500,661;226143,336;Noordstraat;2;
2764418;71510,562;226120,147;Noordstraat;3;
2764419;71496,011;226133,272;Noordstraat;4;
2764421;71508,562;226114,147;Noordstraat;5;
2764422;71504,861;226110,415;Noordstraat;7;
2764424;71489,093;226116,345;Noordstraat;8;
2764425;71503,222;226105,302;Noordstraat;9;
4335343;71484,8;226096,93;Noordstraat;10;
1367275;71500,407;226098,962;Noordstraat;11;
2764430;71482,563;226091,147;Noordstraat;12;
4337318;71499,563;226091,147;Noordstraat;13;
2764431;71498,79;226085,67;Noordstraat;15;
71643;71479,546;226080,979;Noordstraat;16;
2764432;71496,53;226080,54;Noordstraat;17;
71644;71478,13;226078,376;Noordstraat;18;
2764434;71492,462;226075,834;Noordstraat;19;
4335346;71475,67;226073,45;Noordstraat;20;
2764435;71490,086;226071,47;Noordstraat;21;
2764437;71473,83;226068,41;Noordstraat;22;
2764438;71472,03;226063,17;Noordstraat;24;
2764440;71487,061;226063,748;Noordstraat;25;
2764441;71470,18;226057,94;Noordstraat;26;
4337322;71485,585;226059,128;Noordstraat;27;
4335350;71467,563;226051,146;Noordstraat;28;
4337324;71483,769;226055,415;Noordstraat;29;
2764442;71466,32;226046,22;Noordstraat;30;
2764443;71483,46;226049,49;Noordstraat;31;
2764444;71463,017;226041,642;Noordstraat;32;A
2764446;71460,73;226035,58;Noordstraat;32;B
2764447;71481,48;226044,47;Noordstraat;33;
5407538;71459,306;226031,004;Noordstraat;34;A
71641;71457,17;226025,53;Noordstraat;34;B
4337325;71478,563;226039,147;Noordstraat;35;
299907;71452,19;226009,5;Noordstraat;36;
2764448;71477,19;226034,17;Noordstraat;37;
299906;71438,564;225979,146;Noordstraat;38;
2764450;71481,906;226027,208;Noordstraat;39;
2764451;71373,563;226001,146;Noordstraat;40;
2764452;71472,563;226022,147;Noordstraat;41;
302667;71470,42;226017,47;Noordstraat;43;
5429953;71446,573;225882,249;Noordstraat;47;
4176609;71384,48;225831,271;Noordstraat;58;
299905;71392;225819;Noordstraat;60;
302561;71687,824;226119,302;Onderwijsstraat;1;
302563;71670,636;226120,683;Onderwijsstraat;2;
302560;71671,55;226113,22;Onderwijsstraat;4;
4334173;71687,89;226110,31;Onderwijsstraat;5;
2764541;71670,562;226107,148;Onderwijsstraat;6;
4334175;71694,92;226102,72;Onderwijsstraat;7;
2764542;71669,562;226102,148;Onderwijsstraat;8;
2764544;71685,562;226099,148;Onderwijsstraat;9;
2764545;71663,03;226097,77;Onderwijsstraat;10;
2764547;71686,022;226094,027;Onderwijsstraat;11;
4181206;71668,562;226091,148;Onderwijsstraat;12;
2764549;71683,562;226089,148;Onderwijsstraat;13;
4334218;71668,97;226087,58;Onderwijsstraat;14;
4334178;71683,562;226083,148;Onderwijsstraat;15;
2764550;71667,8;226083,34;Onderwijsstraat;16;
4334180;71682,562;226077,148;Onderwijsstraat;17;
2764551;71667,13;226077,4;Onderwijsstraat;18;
2764552;71682,562;226072,148;Onderwijsstraat;19;
3939630;71681,563;226065,148;Onderwijsstraat;21;
2764553;71666,562;226070,148;Onderwijsstraat;22;
2764554;71665,563;226065,148;Onderwijsstraat;24;
4334184;71680,563;226057,148;Onderwijsstraat;25;
1327485;71666,563;226060,148;Onderwijsstraat;26;
4189020;71680,563;226052,148;Onderwijsstraat;27;
4260193;71664,563;226054,148;Onderwijsstraat;28;
2764555;71679,563;226046,148;Onderwijsstraat;29;
2764556;71665,08;226046,91;Onderwijsstraat;30;
5579522;71665;226047;Onderwijsstraat;30;A
4177088;71680,23;226041,78;Onderwijsstraat;31;
2764557;71663,563;226039,148;Onderwijsstraat;32;
2764558;71678,563;226035,148;Onderwijsstraat;33;
2764559;71663,563;226035,148;Onderwijsstraat;34;
2764560;71677,563;226029,148;Onderwijsstraat;35;
4334222;71662,563;226030,148;Onderwijsstraat;36;
4334191;71676,563;226022,148;Onderwijsstraat;37;
4334223;71661,563;226026,148;Onderwijsstraat;38;
302565;71676,563;226016,148;Onderwijsstraat;39;
2764561;71661,563;226021,148;Onderwijsstraat;40;
302567;71676,563;226012,148;Onderwijsstraat;41;
302558;71660,563;226010,148;Onderwijsstraat;42;
302669;71676,9;226006,56;Onderwijsstraat;43;
302556;71652,77;225984,03;Onderwijsstraat;44;
2764562;71675,54;226001,65;Onderwijsstraat;45;
2764563;71655,64;225978,28;Onderwijsstraat;46;
2764564;71674,563;225996,148;Onderwijsstraat;47;
2764565;71655,62;225971,51;Onderwijsstraat;48;
2764566;71673,563;225991,148;Onderwijsstraat;49;
1363105;71652,51;225964,97;Onderwijsstraat;50;
2764567;71673,563;225986,148;Onderwijsstraat;51;
2764568;71649,67;225959,18;Onderwijsstraat;52;
2764569;71672,563;225980,148;Onderwijsstraat;53;
4334228;71655,37;225952,15;Onderwijsstraat;54;
4212846;71671,563;225975,148;Onderwijsstraat;55;
302554;71650,61;225947,18;Onderwijsstraat;56;
4334195;71671,542;225971,417;Onderwijsstraat;57;
302550;71650,49;225941,94;Onderwijsstraat;58;
2764570;71671,45;225965,963;Onderwijsstraat;59;
302549;71647,77;225910,67;Onderwijsstraat;60;
2764571;71670,337;225960,736;Onderwijsstraat;61;
2764572;71669,563;225954,148;Onderwijsstraat;63;
2764573;71669,563;225948,148;Onderwijsstraat;65;
302552;71668,563;225943,148;Onderwijsstraat;67;
299839;71614,564;225878,148;Onderwijsstraat;72;
299844;71660,17;225894,84;Onderwijsstraat;73;
2764574;71609,564;225876,148;Onderwijsstraat;74;
2764575;71654,564;225887,148;Onderwijsstraat;75;
4336357;71605,7;225874,68;Onderwijsstraat;76;
1476271;71599,564;225871,148;Onderwijsstraat;78;
2764577;71595,33;225869,79;Onderwijsstraat;80;
2764578;71639,61;225873,03;Onderwijsstraat;81;
4180554;71589,564;225865,148;Onderwijsstraat;82;
2764579;71635,564;225870,148;Onderwijsstraat;83;
2764580;71585,564;225862,148;Onderwijsstraat;84;
2764581;71631,564;225867,148;Onderwijsstraat;85;
2764582;71580,83;225861,69;Onderwijsstraat;86;
2764583;71625,564;225864,148;Onderwijsstraat;87;
4154275;71574,174;225860,258;Onderwijsstraat;88;
2764584;71621,564;225862,148;Onderwijsstraat;89;
2764585;71571,564;225855,148;Onderwijsstraat;90;
2764586;71616,564;225859,148;Onderwijsstraat;91;
1353727;71564,564;225851,147;Onderwijsstraat;92;
1398828;71611,564;225857,148;Onderwijsstraat;93;
2764587;71550,564;225848,147;Onderwijsstraat;94;
1491103;71544,564;225845,147;Onderwijsstraat;96;
2764588;71603,38;225852,52;Onderwijsstraat;97;
299842;71537,29;225845,3;Onderwijsstraat;98;
3988733;71607,34;225839,19;Onderwijsstraat;99;
2764589;71528,044;225833,062;Onderwijsstraat;100;
1502937;71593,564;225847,148;Onderwijsstraat;101;
2764590;71525,565;225830,147;Onderwijsstraat;102;
4188685;71589,564;225844,148;Onderwijsstraat;103;
2764591;71517,14;225822,71;Onderwijsstraat;104;
2764592;71582,564;225841,148;Onderwijsstraat;105;
2764594;71513,17;225818,37;Onderwijsstraat;106;
4336355;71576,564;225837,148;Onderwijsstraat;107;
1389615;71508,565;225813,147;Onderwijsstraat;108;
299840;71568;225833;Onderwijsstraat;109;
1514336;71505,565;225808,147;Onderwijsstraat;110;
299843;71544,565;225809,147;Onderwijsstraat;111;
2764596;71498,38;225797,54;Onderwijsstraat;112;
2764597;71539,565;225805,147;Onderwijsstraat;113;
2764599;71495,79;225791,79;Onderwijsstraat;114;
2764600;71537,7;225800,36;Onderwijsstraat;115;
2764602;71493,17;225786,31;Onderwijsstraat;116;
299837;71533,565;225794,147;Onderwijsstraat;117;
2764604;71490,61;225780,85;Onderwijsstraat;118;
299838;71529,565;225790,147;Onderwijsstraat;119;
299835;71487,81;225775,57;Onderwijsstraat;120;
2764606;71525,565;225786,147;Onderwijsstraat;121;
5987175;71471;225761;Onderwijsstraat;122;
2764607;71518,565;225774,147;Onderwijsstraat;123;
301682;71468,565;225752,147;Onderwijsstraat;124;
2764608;71516,565;225768,147;Onderwijsstraat;125;
4335870;71465,565;225746,147;Onderwijsstraat;126;
299836;71521,08;225760,56;Onderwijsstraat;127;
2764609;71463,565;225740,147;Onderwijsstraat;128;
2764611;71459,751;225736,529;Onderwijsstraat;130;
301686;71459,46;225727,63;Onderwijsstraat;132;
301687;71458,4;225721,19;Onderwijsstraat;134;
301684;71484,73;225744,73;Onderwijsstraat;135;
2764613;71458,58;225715,1;Onderwijsstraat;136;
2764614;71482,18;225739,31;Onderwijsstraat;137;
3966894;71459,566;225708,147;Onderwijsstraat;138;
2764616;71479,565;225733,147;Onderwijsstraat;139;
2764617;71459,524;225704,302;Onderwijsstraat;140;
2764618;71478,239;225727,458;Onderwijsstraat;141;
1370820;71460,749;225698,582;Onderwijsstraat;142;
4125076;71477,947;225719,059;Onderwijsstraat;143;
2764621;71464,55;225691,17;Onderwijsstraat;144;
2764623;71477,752;225710,958;Onderwijsstraat;145;
301681;71464,886;225686,544;Onderwijsstraat;146;
2764624;71477,566;225707,147;Onderwijsstraat;147;
2764625;71479,566;225700,147;Onderwijsstraat;149;
2764626;71481,566;225695,147;Onderwijsstraat;151;
301683;71483,5;225689,93;Onderwijsstraat;153;
301685;71484,549;225684,532;Onderwijsstraat;155;
301095;71282,48;225721,32;Oud-Strijdersstraat;1;
301093;71260,566;225718,145;Oud-Strijdersstraat;3;
301094;71256,566;225745,145;Oud-Strijdersstraat;4;
301092;71244,566;225716,145;Oud-Strijdersstraat;5;
301091;71241,566;225743,145;Oud-Strijdersstraat;6;
2764711;71228,566;225715,145;Oud-Strijdersstraat;7;
2764712;71225,566;225740,145;Oud-Strijdersstraat;8;
2764713;71223,566;225713,145;Oud-Strijdersstraat;9;
2764714;71202,566;225742,145;Oud-Strijdersstraat;10;
2764716;71208,566;225707,145;Oud-Strijdersstraat;11;
2764717;71186,19;225738,1;Oud-Strijdersstraat;12;
4336296;71189,566;225702,145;Oud-Strijdersstraat;13;
2764719;71171,566;225728,145;Oud-Strijdersstraat;14;
2764720;71170,566;225693,145;Oud-Strijdersstraat;15;
2764721;71157,566;225722,144;Oud-Strijdersstraat;16;
2764722;71144,65;225712,63;Oud-Strijdersstraat;18;
4336284;71138,566;225707,144;Oud-Strijdersstraat;20;
5936215;71322;226071;Pannenstraat;2;
71752;71327,97;226070,35;Pannenstraat;4;
2764727;71343;226082;Pannenstraat;5;
4050993;71333,563;226068,145;Pannenstraat;6;
2764728;71346,563;226080,145;Pannenstraat;7;
2764730;71344;226063;Pannenstraat;8;
4335421;71350,652;226079,262;Pannenstraat;9;
2764731;71344,563;226066,145;Pannenstraat;10;
2764732;71357,418;226077,795;Pannenstraat;11;
2764733;71351,563;226063,146;Pannenstraat;12;
2764736;71357,563;226061,146;Pannenstraat;14;
2764737;71370,563;226072,146;Pannenstraat;15;
2764738;71363,563;226059,146;Pannenstraat;16;
2764739;71380,633;226071,976;Pannenstraat;17;
4214773;71366,996;226058,507;Pannenstraat;18;
2764740;71370,862;226057,79;Pannenstraat;20;
71753;71387,563;226066,146;Pannenstraat;21;
2764741;71375,563;226055,146;Pannenstraat;22;
71754;71398;226080,305;Pannenstraat;23;
2764742;71379,088;226054,11;Pannenstraat;24;
2764743;71385,563;226052,146;Pannenstraat;26;
71755;71404,077;226059,725;Pannenstraat;27;
2764744;71390,339;226051,074;Pannenstraat;28;
2764746;71410,563;226056,146;Pannenstraat;29;
2764747;71394,954;226048,017;Pannenstraat;30;
4166138;71414,563;226053,146;Pannenstraat;31;
71757;71419,553;226052,106;Pannenstraat;33;
4335171;71403,55;226042,48;Pannenstraat;34;
2764748;71407,563;226040,146;Pannenstraat;36;
71756;71438,563;226039,146;Pannenstraat;37;
2764750;71413,33;226038,52;Pannenstraat;38;
2764751;71441,563;226037,146;Pannenstraat;39;
2764752;71416,563;226035,146;Pannenstraat;40;
4335252;71444,563;226035,146;Pannenstraat;41;
4335173;71420,563;226033,146;Pannenstraat;42;
71758;71448,563;226036,146;Pannenstraat;43;
2764753;71423,883;226032,28;Pannenstraat;44;
4335176;71429,202;226029,28;Pannenstraat;46;
2764754;71435,656;226026,507;Pannenstraat;48;
2764756;71440,161;226022,898;Pannenstraat;50;
4335178;71442,825;226021,4;Pannenstraat;52;
299921;71449,172;226014,251;Pannenstraat;56;
299922;71458,48;225987,19;Pannenstraat;58;
2764757;71496,975;225987,869;Pannenstraat;59;
4171451;71468,563;225984,147;Pannenstraat;60;
302635;71506,563;225981,147;Pannenstraat;61;
4335182;71473,563;225981,147;Pannenstraat;62;
2764758;71478,215;225980,06;Pannenstraat;64;
302636;71520,555;225975,382;Pannenstraat;65;
2764760;71482,202;225977,394;Pannenstraat;66;
2764761;71531,66;225978,05;Pannenstraat;67;
2764763;71490,563;225973,147;Pannenstraat;68;
2764764;71534,32;225970,75;Pannenstraat;69;
299924;71497,182;225971,209;Pannenstraat;70;
2764765;71540,247;225969,837;Pannenstraat;71;
2764766;71546,346;225965,599;Pannenstraat;73;
4215759;71518,13;225957,43;Pannenstraat;74;
2764767;71554,55;225966,02;Pannenstraat;75;
299926;71524,564;225956,147;Pannenstraat;76;
2764768;71556,92;225959,98;Pannenstraat;77;
299925;71521,42;225935,79;Pannenstraat;78;
2764770;71534,564;225952,147;Pannenstraat;80;
4337262;71567,37;225958,113;Pannenstraat;81;
2764771;71540,564;225950,147;Pannenstraat;82;
1283950;71572,067;225956,229;Pannenstraat;83;
2764773;71545,564;225948,147;Pannenstraat;84;
2764774;71579,06;225951,15;Pannenstraat;85;
4235903;71551,4;225945,31;Pannenstraat;86;
3939633;71585,14;225952,022;Pannenstraat;87;
4192928;71556,564;225944,147;Pannenstraat;88;
2764777;71560,564;225941,147;Pannenstraat;90;
1293528;71597,16;225945,69;Pannenstraat;91;
2764778;71565,564;225940,147;Pannenstraat;92;
2764779;71605,5;225942,93;Pannenstraat;93;
299923;71567,484;225922,462;Pannenstraat;94;
2764780;71610,5;225943,5;Pannenstraat;95;
6524212;71579;225934;Pannenstraat;96;
2764781;71619,68;225946,33;Pannenstraat;97;
299846;71581,564;225934,147;Pannenstraat;98;
2764782;71587,564;225933,148;Pannenstraat;100;
2764783;71626,035;225938,1;Pannenstraat;101;
2764785;71593,564;225929,148;Pannenstraat;102;
2764786;71628,52;225934,72;Pannenstraat;103;
4336373;71599,564;225928,148;Pannenstraat;104;
4025736;71634,88;225933,22;Pannenstraat;105;
2764787;71603,564;225926,148;Pannenstraat;106;
2764789;71640,331;225930,517;Pannenstraat;107;
2764790;71609,84;225924,15;Pannenstraat;108;
2764791;71647,04;225930,35;Pannenstraat;109;
2764792;71614,564;225922,148;Pannenstraat;110;
302518;71652,19;225932,93;Pannenstraat;111;
2764795;71620,564;225920,148;Pannenstraat;112;
302521;71668,64;225931,74;Pannenstraat;113;
2764797;71625,564;225918,148;Pannenstraat;114;
2764798;71673,564;225923,148;Pannenstraat;115;
2764800;71631,564;225916,148;Pannenstraat;116;
4337235;71677,845;225923,227;Pannenstraat;117;
2764801;71637,74;225915,15;Pannenstraat;118;
2764802;71680,811;225922,375;Pannenstraat;119;
2764804;71641,564;225914,148;Pannenstraat;120;
2764806;71692,558;225922,918;Pannenstraat;121;
302523;71705,77;225920,963;Pannenstraat;125;
6524209;71666,525;225912,012;Pannenstraat;126;
4336370;71672,564;225909,148;Pannenstraat;128;
299850;71678,09;225905,2;Pannenstraat;130;
4337250;71731,33;225914,88;Pannenstraat;131;
2764812;71738,564;225913,149;Pannenstraat;133;
4337251;71743,564;225913,149;Pannenstraat;135;
4086812;71748,564;225912,149;Pannenstraat;137;
299812;71703;225900;Pannenstraat;138;
2764813;71754,25;225914,65;Pannenstraat;139;
2764815;71709,184;225891,739;Pannenstraat;140;
4336601;71749,04;225897,78;Pannenstraat;148;
299877;71883,754;226081,531;Polderstraat;2;
2765630;71878,4;226069,43;Polderstraat;6;
2765633;71873,768;226066,418;Polderstraat;8;
2765635;71872,016;226060,964;Polderstraat;10;
4337721;71868,689;226055,948;Polderstraat;12;
4337722;71865,697;226052,191;Polderstraat;14;
2765638;71859,531;226047,337;Polderstraat;16;
4337723;71856,562;226039,15;Polderstraat;18;
2765642;71852,712;226035,054;Polderstraat;20;
2765645;71850,196;226031,22;Polderstraat;22;
2765646;71845,596;226027,731;Polderstraat;24;
2765649;71843,69;226022,13;Polderstraat;26;
299874;71840,563;226017,149;Polderstraat;28;
299873;71834,46;226014,53;Polderstraat;30;
2765653;71833,563;226008,149;Polderstraat;32;
4337729;71829,563;226002,149;Polderstraat;34;
2765658;71825,563;225998,149;Polderstraat;36;
2765659;71823,563;225993,149;Polderstraat;38;
2765661;71819,247;225989,028;Polderstraat;40;
2765662;71813,87;225986,27;Polderstraat;42;
2765665;71811,367;225980,735;Polderstraat;44;
4337732;71809,563;225974,149;Polderstraat;46;
4337733;71806,37;225970,26;Polderstraat;48;
2765669;71802,233;225966,275;Polderstraat;50;
2765671;71798,58;225961,15;Polderstraat;52;
2765672;71791,862;225956,212;Polderstraat;54;
2765675;71789,563;225947,149;Polderstraat;56;
2765677;71785,79;225942,304;Polderstraat;58;
4337735;71781,563;225936,149;Polderstraat;60;
2765679;71778,25;225933,19;Polderstraat;62;
2765680;71775,563;225927,149;Polderstraat;64;
302545;71772,564;225923,149;Polderstraat;66;
302543;71769,564;225919,149;Polderstraat;68;
299871;71763,51;225914,52;Polderstraat;70;
301357;70955,565;225909,143;Schuttersstraat;1;
301358;70927,565;225933,142;Schuttersstraat;2;
301355;70958,4;225896,69;Schuttersstraat;3;
2766108;70928,565;225926,142;Schuttersstraat;4;
2766110;70929,565;225920,142;Schuttersstraat;6;
2766111;70929,565;225915,142;Schuttersstraat;8;
2766112;70928,69;225909,65;Schuttersstraat;10;
2766113;70934,8;225899,01;Schuttersstraat;12;
301353;70934,23;225892,04;Schuttersstraat;14;
292508;71060,69;225988,97;Sint-Antoniusstraat;1;
1320202;71066,18;226006,12;Sint-Antoniusstraat;2;
4094160;71060,69;225988,97;Sint-Antoniusstraat;3;
4128771;71060,69;225988,97;Sint-Antoniusstraat;5;
292507;71052,91;226005,97;Sint-Antoniusstraat;6;
292506;71046,97;226003,97;Sint-Antoniusstraat;8;
2766435;71007,564;225984,143;Sint-Antoniusstraat;17;
292504;70983,74;226004,25;Sint-Antoniusstraat;18;
2766436;71001,564;225984,143;Sint-Antoniusstraat;19;
2766438;70978,564;225997,143;Sint-Antoniusstraat;20;
2766439;70994,564;225983,143;Sint-Antoniusstraat;21;
2766441;70972,79;225998,96;Sint-Antoniusstraat;22;
2766443;70988,564;225983,143;Sint-Antoniusstraat;23;
2766444;70966,564;225996,143;Sint-Antoniusstraat;24;
2766445;70983,564;225982,143;Sint-Antoniusstraat;25;
2766446;70976,564;225981,143;Sint-Antoniusstraat;27;
292501;70941,564;225994,142;Sint-Antoniusstraat;28;
2766448;70970,564;225981,143;Sint-Antoniusstraat;29;
4336706;70936,564;225993,142;Sint-Antoniusstraat;30;
292502;70963,98;225980,52;Sint-Antoniusstraat;31;
2766449;70931,564;225993,142;Sint-Antoniusstraat;32;
292496;70958,564;225980,143;Sint-Antoniusstraat;33;
4336708;70925,564;225993,142;Sint-Antoniusstraat;34;
2766450;70952,564;225980,142;Sint-Antoniusstraat;35;
4190914;70920,564;225992,142;Sint-Antoniusstraat;36;
4336668;70946,564;225979,142;Sint-Antoniusstraat;37;
4187690;70915,61;225992,86;Sint-Antoniusstraat;38;
2766452;70938,564;225978,142;Sint-Antoniusstraat;39;
4007940;70909,564;225991,142;Sint-Antoniusstraat;40;
2766453;70932,564;225978,142;Sint-Antoniusstraat;41;
2766455;70907,69;226013,451;Sint-Antoniusstraat;42;
2766457;70925,564;225976,142;Sint-Antoniusstraat;43;
2766458;70902,564;225991,142;Sint-Antoniusstraat;44;
4071250;70919,39;225977,15;Sint-Antoniusstraat;45;
2766460;70896,564;225990,142;Sint-Antoniusstraat;46;
2766461;70911,564;225977,142;Sint-Antoniusstraat;47;
2766462;70891,564;225990,142;Sint-Antoniusstraat;48;
2766464;70906,86;225973,63;Sint-Antoniusstraat;49;
4336712;70886,564;225990,142;Sint-Antoniusstraat;50;
2766465;70900,564;225975,142;Sint-Antoniusstraat;51;
2766467;70880,64;225990,17;Sint-Antoniusstraat;52;
2766469;70894,564;225975,142;Sint-Antoniusstraat;53;
292500;70868,43;225988,95;Sint-Antoniusstraat;54;
2766470;70888,564;225975,142;Sint-Antoniusstraat;55;
4336673;70883,564;225974,142;Sint-Antoniusstraat;57;
292498;70877,564;225973,142;Sint-Antoniusstraat;59;
5433817;71040,208;226117,467;Sint-Jozefsstraat;1;
292539;71013,802;226148,584;Sint-Jozefsstraat;2;
292536;71034,72;226091,11;Sint-Jozefsstraat;3;
4336674;71010,541;226139,575;Sint-Jozefsstraat;4;
2766513;71030;226078;Sint-Jozefsstraat;5;
2766515;71037,763;226059,813;Sint-Jozefsstraat;7;
1320201;71035;226046;Sint-Jozefsstraat;9;
292634;70991,591;226131,239;Sint-Jozefsstraat;10;
292632;70990,348;226124,198;Sint-Jozefsstraat;12;
2766525;71029,564;226031,143;Sint-Jozefsstraat;13;
2766527;71011;226116;Sint-Jozefsstraat;14;
2766531;71033;226023;Sint-Jozefsstraat;19;
292537;71008,418;226096,032;Sint-Jozefsstraat;20;
2766536;71008,78;226085,988;Sint-Jozefsstraat;22;
292534;71029,564;226012,143;Sint-Jozefsstraat;23;
2766540;71035,886;226002,379;Sint-Jozefsstraat;25;
292541;71013,85;226072,99;Sint-Jozefsstraat;26;
1503702;71031,97;225981,01;Sint-Jozefsstraat;27;
5456159;71033;225967;Sint-Jozefsstraat;27;A
6320980;71034;225963;Sint-Jozefsstraat;27;B
6330654;71034;225958;Sint-Jozefsstraat;27;C
6330653;71036;225951;Sint-Jozefsstraat;27;D
6330652;71036;225946;Sint-Jozefsstraat;27;E
6330651;71038;225939;Sint-Jozefsstraat;27;F
6330650;71039;225934;Sint-Jozefsstraat;27;G
6330648;71039;225929;Sint-Jozefsstraat;27;H
6330649;71039;225922;Sint-Jozefsstraat;27;I
6320027;71041;225915;Sint-Jozefsstraat;27;J
2766543;71048;225907;Sint-Jozefsstraat;29;
4336681;70999,86;226065,55;Sint-Jozefsstraat;30;
2766545;71004,46;226059,21;Sint-Jozefsstraat;32;
2766546;71011,564;226048,143;Sint-Jozefsstraat;34;
2766550;71013,21;226038,48;Sint-Jozefsstraat;36;
2766552;71012,564;226027,143;Sint-Jozefsstraat;40;
4336685;71012,88;226020,95;Sint-Jozefsstraat;44;
2766554;71011;226013;Sint-Jozefsstraat;46;
292535;71010,843;226001,467;Sint-Jozefsstraat;48;
6319466;71016;225982;Sint-Jozefsstraat;50;
6458592;71017;225967;Sint-Jozefsstraat;50;A
301370;71014,565;225924,143;Sint-Jozefsstraat;52;
4338648;71015,565;225919,143;Sint-Jozefsstraat;54;
2766556;71015,565;225913,143;Sint-Jozefsstraat;56;
2766557;71019,45;225902,88;Sint-Jozefsstraat;58;
4338649;71019,565;225896,143;Sint-Jozefsstraat;60;
301372;71043,565;225845,143;Sint-Jozefsstraat;61;
301368;71019,565;225889,143;Sint-Jozefsstraat;62;
2766559;71044,565;225838,143;Sint-Jozefsstraat;63;
301366;71017,95;225841,79;Sint-Jozefsstraat;64;
2766561;71045,3;225833,54;Sint-Jozefsstraat;65;
2766562;71018,93;225834,24;Sint-Jozefsstraat;66;
2766563;71046,78;225828,12;Sint-Jozefsstraat;67;
2766564;71018,792;225828,845;Sint-Jozefsstraat;68;
4338642;71052,13;225816,71;Sint-Jozefsstraat;69;
2766565;71019,93;225823,09;Sint-Jozefsstraat;70;
2766566;71051,565;225810,143;Sint-Jozefsstraat;71;
301362;71020,112;225817,901;Sint-Jozefsstraat;72;
2766568;71052,32;225805,61;Sint-Jozefsstraat;73;
301361;71021,112;225812,071;Sint-Jozefsstraat;74;
4004286;71052,565;225799,143;Sint-Jozefsstraat;75;
301343;71014,43;225783,34;Sint-Jozefsstraat;76;
2766569;71052,81;225794,73;Sint-Jozefsstraat;77;
2766570;71019,36;225783,14;Sint-Jozefsstraat;78;
2766571;71049,051;225783,753;Sint-Jozefsstraat;79;
2766572;71025,51;225784,58;Sint-Jozefsstraat;80;
301364;71044,92;225781,43;Sint-Jozefsstraat;81;
301344;71031,2;225782,78;Sint-Jozefsstraat;82;
301079;71287,304;225934,695;Stadhuisstraat;2;
301805;71265,564;225912,145;Stadhuisstraat;3;
301806;71258,564;225931,145;Stadhuisstraat;4;
301077;71257,564;225912,145;Stadhuisstraat;5;
301803;71221,564;225930,145;Stadhuisstraat;6;
2766603;71250,564;225912,145;Stadhuisstraat;7;
301802;71211,564;225930,145;Stadhuisstraat;8;
2766605;71243,344;225910,5;Stadhuisstraat;9;
1450807;71204,564;225931,145;Stadhuisstraat;10;
2766608;71236,564;225912,145;Stadhuisstraat;11;
2766610;71197,564;225933,144;Stadhuisstraat;12;
301804;71230,564;225911,145;Stadhuisstraat;13;
4270973;71190,673;225933,449;Stadhuisstraat;14;
301075;71162;225931;Stadhuisstraat;16;
301801;71146,564;225929,144;Stadhuisstraat;20;
2766613;71139,564;225929,144;Stadhuisstraat;22;
2766614;71131,564;225929,144;Stadhuisstraat;24;
2766617;71123,015;225931,525;Stadhuisstraat;26;
2766620;71114,98;225932,892;Stadhuisstraat;28;
2766622;71109,98;225931,892;Stadhuisstraat;30;
1515704;71282,1;225601,086;Stationsplein;2;
2766645;71275;225599;Stationsplein;4;
4336328;71270,245;225597,551;Stationsplein;6;
2766646;71265,737;225595,994;Stationsplein;8;
3939654;71260,773;225594,244;Stationsplein;10;
2766648;71253,376;225592,506;Stationsplein;12;
2766649;71246;225589,79;Stationsplein;14;
2766651;71238,433;225587,62;Stationsplein;16;
301103;71226,567;225585,145;Stationsplein;18;
2766673;71601,15;226124,49;Steenstraat;3;
4337381;71597,562;226118,147;Steenstraat;5;
302662;71583,177;226120,194;Steenstraat;6;
2766674;71594,562;226112,147;Steenstraat;7;
4337296;71579,562;226113,147;Steenstraat;8;
2766675;71593,79;226107,72;Steenstraat;9;
2766676;71576,562;226109,147;Steenstraat;10;
4337383;71590,39;226102,35;Steenstraat;11;
4337297;71574,26;226105,25;Steenstraat;12;
2766677;71587,36;226096,87;Steenstraat;13;
4013121;71571,79;226100,75;Steenstraat;14;
2766679;71583,1;226092,44;Steenstraat;15;
2766680;71569,31;226095,92;Steenstraat;16;
2766681;71580,8;226087,31;Steenstraat;17;
2766682;71566,62;226090,66;Steenstraat;18;
4337386;71577,563;226081,147;Steenstraat;19;
4337298;71563,563;226084,147;Steenstraat;20;
2766684;71574,563;226076,147;Steenstraat;21;
2766685;71560,87;226080,29;Steenstraat;22;
4337387;71572,563;226071,147;Steenstraat;23;
4337299;71557,94;226075,3;Steenstraat;24;
302661;71570,85;226066,56;Steenstraat;25;
2766687;71555,4;226070,47;Steenstraat;26;
2766688;71552,8;226065,47;Steenstraat;28;
302660;71562,03;226047,12;Steenstraat;29;
4337303;71548,66;226061,02;Steenstraat;30;
2766690;71557;226042,5;Steenstraat;31;
2766691;71547,917;226054,012;Steenstraat;32;
2766693;71555,73;226036,98;Steenstraat;33;
2766695;71544,563;226049,147;Steenstraat;34;
2766696;71550,98;226034,1;Steenstraat;35;
2766697;71540,563;226044,147;Steenstraat;36;
4337372;71550,76;226028,61;Steenstraat;37;
2766699;71538,45;226039,3;Steenstraat;38;
2766700;71548,04;226023,8;Steenstraat;39;
2766701;71535,563;226034,147;Steenstraat;40;
4337375;71550,22;226015,36;Steenstraat;41;
2766702;71532,563;226027,147;Steenstraat;42;
4167778;71540,2;226012,89;Steenstraat;43;
2766703;71528,89;226021,83;Steenstraat;44;
4337378;71539,16;226004,11;Steenstraat;45;
302659;71525,98;226016,45;Steenstraat;46;
4337380;71538,2;225997,48;Steenstraat;47;
302658;71521,563;226009,147;Steenstraat;48;
5579556;71533,523;225993,172;Steenstraat;49;
302655;71516,563;226000,147;Steenstraat;50;
302657;71529,09;225989,61;Steenstraat;51;
302656;71514,563;225996,147;Steenstraat;52;
5579557;71525,708;225987,884;Steenstraat;53;
302654;71510,87;225991,38;Steenstraat;54;
302653;71523,269;225984,713;Steenstraat;55;
299910;71522,564;225919,147;Steenstraat;65;
299909;71498,564;225928,147;Steenstraat;66;
2766708;71522,3;225913,22;Steenstraat;67;
2766709;71496,06;225919,77;Steenstraat;68;
2766711;71518,564;225907,147;Steenstraat;69;
2766712;71493,564;225913,147;Steenstraat;70;
4013070;71492,09;225908,5;Steenstraat;72;
299913;71513,564;225891,147;Steenstraat;73;
299911;71489,564;225902,147;Steenstraat;74;
2766715;71511,564;225884,147;Steenstraat;75;
299908;71489,564;225896,147;Steenstraat;76;
2766718;71510,98;225879,03;Steenstraat;77;
299904;71507,564;225872,147;Steenstraat;79;
299903;71505,564;225866,147;Steenstraat;81;
299899;71461,7;225867,76;Steenstraat;82;
299900;71468,564;225866,147;Steenstraat;84;
299901;71475,564;225863,147;Steenstraat;86;
4335165;71481,564;225862,147;Steenstraat;88;
299902;71488,564;225859,147;Steenstraat;90;
301810;71164,564;226004,144;Van Maerlantstraat;1;
2763483;71141,564;226009,144;Van Maerlantstraat;5;
2763484;71134,564;226012,144;Van Maerlantstraat;7;
2763485;71127,564;226013,144;Van Maerlantstraat;9;
2763486;71120,564;226015,144;Van Maerlantstraat;11;
6526790;71139;226030;Van Maerlantstraat;12;
301809;71112,744;226014,954;Van Maerlantstraat;13;
301808;71131,623;226031,234;Van Maerlantstraat;14;
301811;71125,563;226034,144;Van Maerlantstraat;16;
301807;71115,563;226037,144;Van Maerlantstraat;20;
1470350;71096,57;226042,08;Van Maerlantstraat;22;
71648;71435,342;226156,18;Vissersstraat;1;
4335358;71434,919;226150,577;Vissersstraat;3;
2767296;71424,16;226148,14;Vissersstraat;4;
4335359;71433,562;226143,146;Vissersstraat;5;
71656;71432,562;226136,146;Vissersstraat;7;
4182159;71420,79;226136,9;Vissersstraat;8;
4335386;71420,56;226132,63;Vissersstraat;10;
71650;71418,562;226128,146;Vissersstraat;12;
71655;71428,87;226121,84;Vissersstraat;13;
71651;71416,64;226124,51;Vissersstraat;14;
71653;71427,59;226116,92;Vissersstraat;15;
2767300;71410,83;226102,78;Vissersstraat;16;
71654;71427,37;226111,31;Vissersstraat;17;
2767301;71409,26;226098,3;Vissersstraat;18;
71647;71424,39;226103,38;Vissersstraat;19;
4245847;71406,04;226091,23;Vissersstraat;20;
4335211;71420,563;226096,146;Vissersstraat;21;
2767303;71419,58;226092,08;Vissersstraat;23;
2767305;71416,563;226086,146;Vissersstraat;25;
71652;71392,783;226070,234;Vissersstraat;26;
2767306;71414,563;226081,146;Vissersstraat;27;
2767308;71411,563;226076,146;Vissersstraat;29;
71646;71402,917;226064,883;Vissersstraat;31;
71730;71311,1;226172,312;Vlamingstraat;2;
4023236;71304,225;226172,375;Vlamingstraat;4;
2767326;71295,428;226153,506;Vlamingstraat;5;
2767327;71300,188;226172,375;Vlamingstraat;6;
2767328;71290,08;226154,162;Vlamingstraat;7;
2767331;71285,883;226153,708;Vlamingstraat;9;
2767332;71290,995;226171,551;Vlamingstraat;10;
2767333;71279,562;226153,145;Vlamingstraat;11;
2767337;71274,562;226155,145;Vlamingstraat;13;
301969;71268,302;226147,645;Vlamingstraat;15;
2767338;71275,425;226171,553;Vlamingstraat;16;
301966;71196,464;226149,179;Vlamingstraat;17;
2767341;71268,74;226171,363;Vlamingstraat;18;
2767342;71190,873;226149,904;Vlamingstraat;19;
4337629;71264,749;226169,412;Vlamingstraat;20;
2767346;71261,742;226172,749;Vlamingstraat;22;
2767348;71182,562;226152,144;Vlamingstraat;23;
2767350;71254,038;226170,51;Vlamingstraat;24;
2767352;71168,609;226127,227;Vlamingstraat;25;
3939663;71169,562;226156,144;Vlamingstraat;27;
2767353;71246,582;226169,993;Vlamingstraat;28;
4337582;71163,562;226159,144;Vlamingstraat;29;
2767354;71242,337;226170,096;Vlamingstraat;30;
2767357;71237,056;226169,993;Vlamingstraat;32;
2767358;71156,287;226157,67;Vlamingstraat;33;
2767359;71231,05;226168,854;Vlamingstraat;34;
3939664;71149,142;226164,194;Vlamingstraat;37;
2767362;71139,512;226160,155;Vlamingstraat;39;
2767363;71201,331;226170,303;Vlamingstraat;40;
2767366;71196,154;226170,51;Vlamingstraat;42;
2767367;71133,92;226172,167;Vlamingstraat;43;
4337597;71191,701;226172,685;Vlamingstraat;44;
301980;71120,562;226174,144;Vlamingstraat;45;
2767370;71180,562;226171,144;Vlamingstraat;46;
5579570;71104,46;226178,587;Vlamingstraat;47;
4337599;71173,068;226173,997;Vlamingstraat;48;
292516;71094,209;226181,694;Vlamingstraat;49;
2767375;71166,124;226177,138;Vlamingstraat;50;
292517;71085,718;226184,8;Vlamingstraat;51;
2767376;71077,848;226187,493;Vlamingstraat;53;
2767378;71061,562;226190,143;Vlamingstraat;55;
2767381;71151,42;226182,004;Vlamingstraat;56;
2767383;71053,203;226191,945;Vlamingstraat;57;
2767385;71146,987;226187,133;Vlamingstraat;58;
2767386;71140,995;226185,998;Vlamingstraat;60;
2767387;71043,521;226161,605;Vlamingstraat;63;
301979;71129,075;226193,062;Vlamingstraat;64;
2767391;71027,626;226191,324;Vlamingstraat;71;
2767392;71018,721;226189,822;Vlamingstraat;73;
6382691;71007,538;226186,379;Vlamingstraat;79;
2767394;70972,952;226157,023;Vlamingstraat;81;
2767395;70956;226155;Vlamingstraat;83;A
2767396;70973,138;226116,331;Vlamingstraat;85;
292548;70970,519;226087,904;Vlamingstraat;87;
292547;70971,333;226082,482;Vlamingstraat;89;
2767398;70952,479;226144,85;Vlamingstraat;91;
292449;70949,123;226142,445;Vlamingstraat;91;A
2767402;70945,826;226139,62;Vlamingstraat;91;B
301326;70929,565;225873,142;Vredestraat;1;
301328;70947,41;225854,7;Vredestraat;2;
301327;70936,565;225873,142;Vredestraat;3;
2767414;70953,8;225854,56;Vredestraat;4;
301329;70956,565;225875,143;Vredestraat;5;
2767416;70962,565;225875,143;Vredestraat;7;
301334;70993,67;225858,79;Vredestraat;8;
2767417;70968,565;225876,143;Vredestraat;9;
4338611;70999,87;225859,16;Vredestraat;10;
4245837;70974,565;225876,143;Vredestraat;11;
2767419;71005,565;225859,143;Vredestraat;12;
4338623;70985,508;225878,731;Vredestraat;13;
2767420;71011,052;225859,068;Vredestraat;14;
2767421;70991,225;225879,355;Vredestraat;15;
301336;71016,54;225860,41;Vredestraat;16;
4253734;70996,771;225879,468;Vredestraat;17;
9881;71021,565;225860,143;Vredestraat;18;
301335;71002,25;225880,196;Vredestraat;19;
301330;71043,1;225862,42;Vredestraat;20;
301331;71041,23;225884,17;Vredestraat;21;
1293922;71048,59;225863,63;Vredestraat;22;
2767424;71047,48;225884,54;Vredestraat;23;
2767425;71055,1;225863,25;Vredestraat;24;
4270180;71052,565;225882,143;Vredestraat;25;
301333;71060,89;225863,67;Vredestraat;26;
301332;71058,565;225882,143;Vredestraat;27;
301110;71283,566;225661,145;Vuurkruisersstraat;1;
301109;71261,7;225684,89;Vuurkruisersstraat;2;
301104;71260,566;225656,145;Vuurkruisersstraat;3;
1327484;71245,566;225680,145;Vuurkruisersstraat;4;
4012704;71240,566;225651,145;Vuurkruisersstraat;5;
2767460;71229,566;225677,145;Vuurkruisersstraat;6;
301108;71248,89;225628,98;Vuurkruisersstraat;7;
2767461;71221,04;225676,25;Vuurkruisersstraat;8;
2767463;71235,11;225619,7;Vuurkruisersstraat;9;
2767464;71203,566;225675,145;Vuurkruisersstraat;10;
301107;71230,67;225622,73;Vuurkruisersstraat;11;
2767466;71191,566;225663,145;Vuurkruisersstraat;12;
4336316;71221,566;225649,145;Vuurkruisersstraat;13;
301106;71186,566;225661,145;Vuurkruisersstraat;14;
301105;71206,566;225642,145;Vuurkruisersstraat;15;
4337637;71117,404;226162,951;Vuurtorenstraat;11;
2767474;71098,96;226162,33;Vuurtorenstraat;12;
5559097;71087,852;226158,141;Vuurtorenstraat;14;
2767616;71353,565;225835,146;Westkapellestraat;3;
301644;71337;225818;Westkapellestraat;4;
2767618;71366,565;225831,146;Westkapellestraat;5;
2767620;71347,48;225819,46;Westkapellestraat;6;
299918;71372,565;225828,146;Westkapellestraat;7;
2767622;71352,565;225816,146;Westkapellestraat;8;
2767623;71382;225830;Westkapellestraat;9;
2767624;71362,565;225811,146;Westkapellestraat;10;
2767627;71372,565;225807,146;Westkapellestraat;14;
299919;71439,01;225807,44;Westkapellestraat;15;
2767628;71378,565;225804,146;Westkapellestraat;16;
2767630;71443,2;225804,06;Westkapellestraat;17;
2767631;71448,87;225801,07;Westkapellestraat;19;
4335202;71453,05;225798,1;Westkapellestraat;21;
2767632;71460,31;225797,24;Westkapellestraat;23;
6062215;71439;225779;Westkapellestraat;24;
2767633;71466,09;225795,17;Westkapellestraat;25;
6324446;71445;225777;Westkapellestraat;26;
299920;71470,84;225791,53;Westkapellestraat;27;
6245144;71450;225773;Westkapellestraat;28;
6324447;71457;225770;Westkapellestraat;30;
299823;71536,42;225756,89;Westkapellestraat;35;
4335841;71545;225755;Westkapellestraat;37;
2767634;71551,565;225747,148;Westkapellestraat;39;
2767636;71557,24;225745,39;Westkapellestraat;41;
2767638;71562,802;225742,547;Westkapellestraat;43;
2767639;71567,565;225739,148;Westkapellestraat;45;
301680;71488,565;225751,147;Westkapellestraat;46;
4335844;71571,565;225737,148;Westkapellestraat;47;
2767641;71503,565;225747,147;Westkapellestraat;48;
2767642;71576,565;225736,148;Westkapellestraat;49;
2767643;71510,565;225744,147;Westkapellestraat;50;
2767644;71579,565;225733,148;Westkapellestraat;51;
4268503;71515,565;225742,147;Westkapellestraat;52;
2767646;71586,565;225731,148;Westkapellestraat;53;
301679;71520,888;225740,518;Westkapellestraat;54;
2767647;71594;225731;Westkapellestraat;55;
299822;71526,431;225738,849;Westkapellestraat;56;
2767649;71596,565;225726,148;Westkapellestraat;57;
2767650;71531,565;225735,147;Westkapellestraat;58;
299825;71602,565;225722,148;Westkapellestraat;59;
2767651;71537,091;225733,756;Westkapellestraat;60;
299827;71608,41;225721,14;Westkapellestraat;61;
2767653;71544,565;225728,147;Westkapellestraat;62;
301678;71616,53;225718,97;Westkapellestraat;63;
2767655;71550,565;225726,148;Westkapellestraat;64;
2767656;71620,565;225715,148;Westkapellestraat;65;
2767657;71556,622;225725,158;Westkapellestraat;66;
2767658;71625,01;225714,1;Westkapellestraat;67;
4158538;71561,565;225720,148;Westkapellestraat;68;
2767659;71566,565;225718,148;Westkapellestraat;70;
2767660;71634,565;225709,148;Westkapellestraat;71;
2767661;71572,895;225716,598;Westkapellestraat;72;
2767662;71641,565;225706,148;Westkapellestraat;73;
2767664;71577,318;225715,509;Westkapellestraat;74;
4161820;71647,565;225704,148;Westkapellestraat;75;
2767665;71584,906;225712,757;Westkapellestraat;76;
2767666;71652,565;225701,148;Westkapellestraat;77;
4335798;71589,879;225710,201;Westkapellestraat;78;
2767667;71658,565;225698,148;Westkapellestraat;79;
299824;71596,33;225706,914;Westkapellestraat;80;
4126378;71673,369;225693,616;Westkapellestraat;81;
299826;71602,565;225704,408;Westkapellestraat;82;
4102440;71684,145;225690,44;Westkapellestraat;83;
2767668;71611,565;225699,148;Westkapellestraat;84;
2767669;71622;225691;Westkapellestraat;86;
2767670;71698,184;225684,232;Westkapellestraat;89;
2767672;71630,566;225691,148;Westkapellestraat;90;
2767674;71704,876;225680,716;Westkapellestraat;91;
2767676;71709,845;225678,907;Westkapellestraat;93;
2767678;71644,815;225684,31;Westkapellestraat;94;
4149901;71717,566;225673,149;Westkapellestraat;95;
4336575;71648,566;225682,148;Westkapellestraat;96;
297283;71722,16;225670,93;Westkapellestraat;97;
2767680;71732,114;225668,477;Westkapellestraat;99;
2767681;71654,772;225678,942;Westkapellestraat;100;
5446546;71744,276;225664,233;Westkapellestraat;101;
2767682;71660,519;225678,008;Westkapellestraat;102;
2767683;71664,885;225675,51;Westkapellestraat;104;
2767685;71669,238;225674,511;Westkapellestraat;106;
4143233;71674,832;225671,445;Westkapellestraat;108;
4336578;71682,566;225666,149;Westkapellestraat;110;
2767686;71689,999;225664,85;Westkapellestraat;112;
297282;71697,566;225659,149;Westkapellestraat;114;
301341;70992,58;225924,84;Weststraat;1;
301340;71012,564;225947,143;Weststraat;2;
4143574;70986,565;225923,143;Weststraat;3;
2767754;71007,564;225947,143;Weststraat;4;
4338606;70980,565;225922,143;Weststraat;5;
2767755;71001,564;225947,143;Weststraat;6;
2767756;70974,565;225922,143;Weststraat;7;
4237743;70995,564;225946,143;Weststraat;8;
2767758;70968,565;225921,143;Weststraat;9;
2767760;70990,564;225945,143;Weststraat;10;
301342;70962,565;225921,143;Weststraat;11;
2767762;70984,564;225945,143;Weststraat;12;
2767764;70978,89;225947,44;Weststraat;14;
4338646;70972,564;225944,143;Weststraat;16;
2767765;70967,44;225946,58;Weststraat;18;
301339;70961,564;225943,143;Weststraat;20;
301674;71497,566;225595,147;Witte-Bankstraat;2;
1507213;71504,566;225597,147;Witte-Bankstraat;3;
2757950;71511,566;225599,147;Witte-Bankstraat;4;
1338936;71518,566;225601,147;Witte-Bankstraat;5;
2757952;71524,566;225603,147;Witte-Bankstraat;6;
4335830;71530,566;225606,148;Witte-Bankstraat;7;
2757954;71540,566;225608,148;Witte-Bankstraat;8;
1458028;71551,566;225612,148;Witte-Bankstraat;12;
301675;71558,566;225614,148;Witte-Bankstraat;13;
301676;71596,566;225627,148;Witte-Bankstraat;15;
2757955;71604,566;225628,148;Witte-Bankstraat;16;
4335869;71611,566;225630,148;Witte-Bankstraat;17;
2757956;71618,566;225632,148;Witte-Bankstraat;18;
2757957;71626,566;225635,148;Witte-Bankstraat;19;
2757958;71635,566;225638,148;Witte-Bankstraat;20;
2757959;71641,566;225640,148;Witte-Bankstraat;21;
2757960;71647,566;225641,148;Witte-Bankstraat;22;
2757961;71653,566;225642,148;Witte-Bankstraat;23;
301677;71659,32;225646,84;Witte-Bankstraat;24;
