LAM MK;Area Type;Area FID;Area Version;Area Name;Zoning FID;Zoning Version;Zoning Name;Zoning Id;Zoning Tech;BG Version;Building FID;Building Version;BG Id;LAM City Code;LAM Street Code
71702;Zoning;8389069;20191109094845;W03-C-Knokke-Heist-FH09;8389069;20191109094845;W03-C-Knokke-Heist-FH09;21235;FTTH-Cu;20200316113050;20977969;20200316113050;31379355;33860000;411
71703;Zoning;8389069;20191109094845;W03-C-Knokke-Heist-FH09;8389069;20191109094845;W03-C-Knokke-Heist-FH09;21235;FTTH-Cu;20200316113050;20977970;20200316113050;31379355;33860000;411
71705;Zoning;8389069;20191109094845;W03-C-Knokke-Heist-FH09;8389069;20191109094845;W03-C-Knokke-Heist-FH09;21235;FTTH-Cu;;20977971;20200316113050;;33860000;411
2757575;Zoning;8389069;20191109094845;W03-C-Knokke-Heist-FH09;8389069;20191109094845;W03-C-Knokke-Heist-FH09;21235;FTTH-Cu;;20977692;20200316113055;;33860000;411
4335225;Zoning;8389069;20191109094845;W03-C-Knokke-Heist-FH09;8389069;20191109094845;W03-C-Knokke-Heist-FH09;21235;FTTH-Cu;;20977903;20200316113108;;33860000;411
2757576;Zoning;8389069;20191109094845;W03-C-Knokke-Heist-FH09;8389069;20191109094845;W03-C-Knokke-Heist-FH09;21235;FTTH-Cu;;20977693;20200316113055;;33860000;411
2757577;Zoning;8389069;20191109094845;W03-C-Knokke-Heist-FH09;8389069;20191109094845;W03-C-Knokke-Heist-FH09;21235;FTTH-Cu;;20977694;20200316113055;;33860000;411
71706;Zoning;8389069;20191109094845;W03-C-Knokke-Heist-FH09;8389069;20191109094845;W03-C-Knokke-Heist-FH09;21235;FTTH-Cu;;20977972;20200316113050;;33860000;411
2757578;Zoning;8389069;20191109094845;W03-C-Knokke-Heist-FH09;8389069;20191109094845;W03-C-Knokke-Heist-FH09;21235;FTTH-Cu;;20977695;20200316113055;;33860000;411
2757582;Zoning;8389069;20191109094845;W03-C-Knokke-Heist-FH09;8389069;20191109094845;W03-C-Knokke-Heist-FH09;21235;FTTH-Cu;;20977696;20200316113055;;33860000;411
5579232;Zoning;8389069;20191109094845;W03-C-Knokke-Heist-FH09;8389069;20191109094845;W03-C-Knokke-Heist-FH09;21235;FTTH-Cu;;20977941;20200316113048;;33860000;411
71700;Zoning;8389069;20191109094845;W03-C-Knokke-Heist-FH09;8389069;20191109094845;W03-C-Knokke-Heist-FH09;21235;FTTH-Cu;;20977968;20200316113049;;33860000;411
71704;Zoning;8389069;20191109094845;W03-C-Knokke-Heist-FH09;8389069;20191109094845;W03-C-Knokke-Heist-FH09;21235;FTTH-Cu;;21117916;20200316113109;;33860000;411
71699;Zoning;8389069;20191109094845;W03-C-Knokke-Heist-FH09;8389069;20191109094845;W03-C-Knokke-Heist-FH09;21235;FTTH-Cu;20200316113049;20977967;20200316113049;31379115;33860000;411
2757588;Zoning;8389069;20191109094845;W03-C-Knokke-Heist-FH09;8389069;20191109094845;W03-C-Knokke-Heist-FH09;21235;FTTH-Cu;;20977697;20200316113055;;33860000;411
2757589;Zoning;8389069;20191109094845;W03-C-Knokke-Heist-FH09;8389069;20191109094845;W03-C-Knokke-Heist-FH09;21235;FTTH-Cu;;20977698;20200316113055;;33860000;411
71698;Zoning;8389069;20191109094845;W03-C-Knokke-Heist-FH09;8389069;20191109094845;W03-C-Knokke-Heist-FH09;21235;FTTH-Cu;;21117918;20200316113109;;33860000;411
302694;Zoning;8389069;20191109094845;W03-C-Knokke-Heist-FH09;8389069;20191109094845;W03-C-Knokke-Heist-FH09;21235;FTTH-Cu;;20977870;20200316113103;;33860000;1566
4337457;Zoning;8389069;20191109094845;W03-C-Knokke-Heist-FH09;8389069;20191109094845;W03-C-Knokke-Heist-FH09;21235;FTTH-Cu;;20977931;20200316113047;;33860000;1566
4337458;Zoning;8389069;20191109094845;W03-C-Knokke-Heist-FH09;8389069;20191109094845;W03-C-Knokke-Heist-FH09;21235;FTTH-Cu;;20977932;20200316113047;;33860000;1566
302693;Zoning;8389069;20191109094845;W03-C-Knokke-Heist-FH09;8389069;20191109094845;W03-C-Knokke-Heist-FH09;21235;FTTH-Cu;;20977869;20200316113103;;33860000;1566
2758013;Zoning;8389069;20191109094845;W03-C-Knokke-Heist-FH09;8389069;20191109094845;W03-C-Knokke-Heist-FH09;21235;FTTH-Cu;;20977699;20200316113056;;33860000;1566
2758014;Zoning;8389069;20191109094845;W03-C-Knokke-Heist-FH09;8389069;20191109094845;W03-C-Knokke-Heist-FH09;21235;FTTH-Cu;;20977700;20200316113056;;33860000;1566
5567528;Zoning;8389069;20191109094845;W03-C-Knokke-Heist-FH09;8389069;20191109094845;W03-C-Knokke-Heist-FH09;21235;FTTH-Cu;;20977939;20200316113048;;33860000;1566
302695;Zoning;8389069;20191109094845;W03-C-Knokke-Heist-FH09;8389069;20191109094845;W03-C-Knokke-Heist-FH09;21235;FTTH-Cu;;21117935;20200316113110;;33860000;1566
5579278;Zoning;8389069;20191109094845;W03-C-Knokke-Heist-FH09;8389069;20191109094845;W03-C-Knokke-Heist-FH09;21235;FTTH-Cu;;20977942;20200316113048;;33860000;1566
302692;Zoning;8389069;20191109094845;W03-C-Knokke-Heist-FH09;8389069;20191109094845;W03-C-Knokke-Heist-FH09;21235;FTTH-Cu;;20977868;20200316113102;;33860000;1566
302687;Zoning;8389069;20191109094845;W03-C-Knokke-Heist-FH09;8389069;20191109094845;W03-C-Knokke-Heist-FH09;21235;FTTH-Cu;;20977866;20200316113102;;33860000;1566
3939525;Zoning;8389069;20191109094845;W03-C-Knokke-Heist-FH09;8389069;20191109094845;W03-C-Knokke-Heist-FH09;21235;FTTH-Cu;20200316113045;20977886;20200316113045;31380302;33860000;1566
2758018;Zoning;8389069;20191109094845;W03-C-Knokke-Heist-FH09;8389069;20191109094845;W03-C-Knokke-Heist-FH09;21235;FTTH-Cu;20200316113045;20977701;20200316113046;31380302;33860000;1566
302689;Zoning;8389069;20191109094845;W03-C-Knokke-Heist-FH09;8389069;20191109094845;W03-C-Knokke-Heist-FH09;21235;FTTH-Cu;;20977867;20200316113045;;33860000;1566
2758020;Zoning;8389069;20191109094845;W03-C-Knokke-Heist-FH09;8389069;20191109094845;W03-C-Knokke-Heist-FH09;21235;FTTH-Cu;;20977702;20200316113046;;33860000;1566
302686;Zoning;8389069;20191109094845;W03-C-Knokke-Heist-FH09;8389069;20191109094845;W03-C-Knokke-Heist-FH09;21235;FTTH-Cu;;21344208;20200316113117;;33860000;1566
2759941;Zoning;8389069;20191109094845;W03-C-Knokke-Heist-FH09;8389069;20191109094845;W03-C-Knokke-Heist-FH09;21235;FTTH-Cu;;20977735;20200316113100;;33860000;9685
302711;Zoning;8389069;20191109094845;W03-C-Knokke-Heist-FH09;8389069;20191109094845;W03-C-Knokke-Heist-FH09;21235;FTTH-Cu;;20977878;20200316113103;;33860000;15918
302712;Zoning;8389069;20191109094845;W03-C-Knokke-Heist-FH09;8389069;20191109094845;W03-C-Knokke-Heist-FH09;21235;FTTH-Cu;;20977879;20200316113103;;33860000;15918
2761342;Zoning;8389069;20191109094845;W03-C-Knokke-Heist-FH09;8389069;20191109094845;W03-C-Knokke-Heist-FH09;21235;FTTH-Cu;;20977745;20200316113101;;33860000;15918
2761343;Zoning;8389069;20191109094845;W03-C-Knokke-Heist-FH09;8389069;20191109094845;W03-C-Knokke-Heist-FH09;21235;FTTH-Cu;;20977746;20200316113101;;33860000;15918
2761344;Zoning;8389069;20191109094845;W03-C-Knokke-Heist-FH09;8389069;20191109094845;W03-C-Knokke-Heist-FH09;21235;FTTH-Cu;20200316113101;20977747;20200316113101;31380368;33860000;15918
4337416;Zoning;8389069;20191109094845;W03-C-Knokke-Heist-FH09;8389069;20191109094845;W03-C-Knokke-Heist-FH09;21235;FTTH-Cu;20200316113101;20977926;20200316113109;31380368;33860000;15918
302714;Zoning;8389069;20191109094845;W03-C-Knokke-Heist-FH09;8389069;20191109094845;W03-C-Knokke-Heist-FH09;21235;FTTH-Cu;;20977881;20200316113103;;33860000;15918
302713;Zoning;8389069;20191109094845;W03-C-Knokke-Heist-FH09;8389069;20191109094845;W03-C-Knokke-Heist-FH09;21235;FTTH-Cu;;20977880;20200316113103;;33860000;15918
4337352;Zoning;8389069;20191109094845;W03-C-Knokke-Heist-FH09;8389069;20191109094845;W03-C-Knokke-Heist-FH09;21235;FTTH-Cu;;20977922;20200316113109;;33860000;15918
2761348;Zoning;8389069;20191109094845;W03-C-Knokke-Heist-FH09;8389069;20191109094845;W03-C-Knokke-Heist-FH09;21235;FTTH-Cu;;20977748;20200316113101;;33860000;15918
2761349;Zoning;8389069;20191109094845;W03-C-Knokke-Heist-FH09;8389069;20191109094845;W03-C-Knokke-Heist-FH09;21235;FTTH-Cu;;20977749;20200316113101;;33860000;15918
2761350;Zoning;8389069;20191109094845;W03-C-Knokke-Heist-FH09;8389069;20191109094845;W03-C-Knokke-Heist-FH09;21235;FTTH-Cu;;20977750;20200316113101;;33860000;15918
4337356;Zoning;8389069;20191109094845;W03-C-Knokke-Heist-FH09;8389069;20191109094845;W03-C-Knokke-Heist-FH09;21235;FTTH-Cu;20200316113101;20977923;20200316113109;31380318;33860000;15918
2761351;Zoning;8389069;20191109094845;W03-C-Knokke-Heist-FH09;8389069;20191109094845;W03-C-Knokke-Heist-FH09;21235;FTTH-Cu;20200316113101;20977751;20200316113101;31380318;33860000;15918
4337358;Zoning;8389069;20191109094845;W03-C-Knokke-Heist-FH09;8389069;20191109094845;W03-C-Knokke-Heist-FH09;21235;FTTH-Cu;20200316113101;20977924;20200316113109;31380318;33860000;15918
292351;Zoning;8389069;20191109094845;W03-C-Knokke-Heist-FH09;8389069;20191109094845;W03-C-Knokke-Heist-FH09;21235;FTTH-Cu;;20977831;20200316113057;;33860000;19625
292353;Zoning;8389069;20191109094845;W03-C-Knokke-Heist-FH09;8389069;20191109094845;W03-C-Knokke-Heist-FH09;21235;FTTH-Cu;;20977832;20200316113057;;33860000;19625
292350;Zoning;8389069;20191109094845;W03-C-Knokke-Heist-FH09;8389069;20191109094845;W03-C-Knokke-Heist-FH09;21235;FTTH-Cu;;20977830;20200316113057;;33860000;19625
71741;Zoning;8389069;20191109094845;W03-C-Knokke-Heist-FH09;8389069;20191109094845;W03-C-Knokke-Heist-FH09;21235;FTTH-Cu;;20977977;20200316113050;;33860000;7783
71743;Zoning;8389069;20191109094845;W03-C-Knokke-Heist-FH09;8389069;20191109094845;W03-C-Knokke-Heist-FH09;21235;FTTH-Cu;;20977979;20200316113050;;33860000;7783
2759152;Zoning;8389069;20191109094845;W03-C-Knokke-Heist-FH09;8389069;20191109094845;W03-C-Knokke-Heist-FH09;21235;FTTH-Cu;;20977713;20200316113056;;33860000;7783
2759154;Zoning;8389069;20191109094845;W03-C-Knokke-Heist-FH09;8389069;20191109094845;W03-C-Knokke-Heist-FH09;21235;FTTH-Cu;;20977714;20200316113056;;33860000;7783
2759155;Zoning;8389069;20191109094845;W03-C-Knokke-Heist-FH09;8389069;20191109094845;W03-C-Knokke-Heist-FH09;21235;FTTH-Cu;;20977715;20200316113056;;33860000;7783
4335275;Zoning;8389069;20191109094845;W03-C-Knokke-Heist-FH09;8389069;20191109094845;W03-C-Knokke-Heist-FH09;21235;FTTH-Cu;;20977904;20200316113108;;33860000;7783
4141427;Zoning;8389069;20191109094845;W03-C-Knokke-Heist-FH09;8389069;20191109094845;W03-C-Knokke-Heist-FH09;21235;FTTH-Cu;;20977898;20200316113108;;33860000;7783
2759157;Zoning;8389069;20191109094845;W03-C-Knokke-Heist-FH09;8389069;20191109094845;W03-C-Knokke-Heist-FH09;21235;FTTH-Cu;;20977716;20200316113057;;33860000;7783
2759158;Zoning;8389069;20191109094845;W03-C-Knokke-Heist-FH09;8389069;20191109094845;W03-C-Knokke-Heist-FH09;21235;FTTH-Cu;;20977717;20200316113057;;33860000;7783
2759159;Zoning;8389069;20191109094845;W03-C-Knokke-Heist-FH09;8389069;20191109094845;W03-C-Knokke-Heist-FH09;21235;FTTH-Cu;;21117939;20200316113110;;33860000;7783
2759161;Zoning;8389069;20191109094845;W03-C-Knokke-Heist-FH09;8389069;20191109094845;W03-C-Knokke-Heist-FH09;21235;FTTH-Cu;;21117955;20200316113110;;33860000;7783
4083784;Zoning;8389069;20191109094845;W03-C-Knokke-Heist-FH09;8389069;20191109094845;W03-C-Knokke-Heist-FH09;21235;FTTH-Cu;;20977893;20200316113107;;33860000;7783
2759162;Zoning;8389069;20191109094845;W03-C-Knokke-Heist-FH09;8389069;20191109094845;W03-C-Knokke-Heist-FH09;21235;FTTH-Cu;;20977718;20200316113058;;33860000;7783
4148325;Zoning;8389069;20191109094845;W03-C-Knokke-Heist-FH09;8389069;20191109094845;W03-C-Knokke-Heist-FH09;21235;FTTH-Cu;;20977899;20200316113108;;33860000;7783
2759163;Zoning;8389069;20191109094845;W03-C-Knokke-Heist-FH09;8389069;20191109094845;W03-C-Knokke-Heist-FH09;21235;FTTH-Cu;20200316113059;20977719;20200316113059;31380410;33860000;7783
4335319;Zoning;8389069;20191109094845;W03-C-Knokke-Heist-FH09;8389069;20191109094845;W03-C-Knokke-Heist-FH09;21235;FTTH-Cu;;20977907;20200316113108;;33860000;7783
2759165;Zoning;8389069;20191109094845;W03-C-Knokke-Heist-FH09;8389069;20191109094845;W03-C-Knokke-Heist-FH09;21235;FTTH-Cu;20200316113059;20977720;20200316113059;31380410;33860000;7783
2759166;Zoning;8389069;20191109094845;W03-C-Knokke-Heist-FH09;8389069;20191109094845;W03-C-Knokke-Heist-FH09;21235;FTTH-Cu;;20977721;20200316113059;;33860000;7783
4335321;Zoning;8389069;20191109094845;W03-C-Knokke-Heist-FH09;8389069;20191109094845;W03-C-Knokke-Heist-FH09;21235;FTTH-Cu;;20977908;20200316113108;;33860000;7783
3939547;Zoning;8389069;20191109094845;W03-C-Knokke-Heist-FH09;8389069;20191109094845;W03-C-Knokke-Heist-FH09;21235;FTTH-Cu;;20977887;20200316113103;;33860000;7783
71742;Zoning;8389069;20191109094845;W03-C-Knokke-Heist-FH09;8389069;20191109094845;W03-C-Knokke-Heist-FH09;21235;FTTH-Cu;;20977978;20200316113050;;33860000;7783
297133;Zoning;8389069;20191109094845;W03-C-Knokke-Heist-FH09;8389069;20191109094845;W03-C-Knokke-Heist-FH09;21235;FTTH-Cu;;20977849;20200316113058;;33860000;8140
297132;Zoning;8389069;20191109094845;W03-C-Knokke-Heist-FH09;8389069;20191109094845;W03-C-Knokke-Heist-FH09;21235;FTTH-Cu;;20977848;20200316113058;;33860000;8140
6524207;Zoning;8389069;20191109094845;W03-C-Knokke-Heist-FH09;8389069;20191109094845;W03-C-Knokke-Heist-FH09;21235;FTTH-Cu;;21344206;20200316113117;;33860000;8140
4336078;Zoning;8389069;20191109094845;W03-C-Knokke-Heist-FH09;8389069;20191109094845;W03-C-Knokke-Heist-FH09;21235;FTTH-Cu;;20977911;20200316113108;;33860000;8140
2759460;Zoning;8389069;20191109094845;W03-C-Knokke-Heist-FH09;8389069;20191109094845;W03-C-Knokke-Heist-FH09;21235;FTTH-Cu;;20977722;20200316113059;;33860000;8140
2759461;Zoning;8389069;20191109094845;W03-C-Knokke-Heist-FH09;8389069;20191109094845;W03-C-Knokke-Heist-FH09;21235;FTTH-Cu;;20977723;20200316113059;;33860000;8140
4337451;Zoning;8389069;20191109094845;W03-C-Knokke-Heist-FH09;8389069;20191109094845;W03-C-Knokke-Heist-FH09;21235;FTTH-Cu;;20977929;20200316113047;;33860000;8140
2759464;Zoning;8389069;20191109094845;W03-C-Knokke-Heist-FH09;8389069;20191109094845;W03-C-Knokke-Heist-FH09;21235;FTTH-Cu;;20977724;20200316113059;;33860000;8140
297134;Zoning;8389069;20191109094845;W03-C-Knokke-Heist-FH09;8389069;20191109094845;W03-C-Knokke-Heist-FH09;21235;FTTH-Cu;;20977850;20200316113102;;33860000;8140
4337452;Zoning;8389069;20191109094845;W03-C-Knokke-Heist-FH09;8389069;20191109094845;W03-C-Knokke-Heist-FH09;21235;FTTH-Cu;;20977930;20200316113047;;33860000;8140
297135;Zoning;8389069;20191109094845;W03-C-Knokke-Heist-FH09;8389069;20191109094845;W03-C-Knokke-Heist-FH09;21235;FTTH-Cu;;21117959;20200316113110;;33860000;8140
297136;Zoning;8389069;20191109094845;W03-C-Knokke-Heist-FH09;8389069;20191109094845;W03-C-Knokke-Heist-FH09;21235;FTTH-Cu;;20977851;20200316113102;;33860000;8140
5579355;Zoning;8389069;20191109094845;W03-C-Knokke-Heist-FH09;8389069;20191109094845;W03-C-Knokke-Heist-FH09;21235;FTTH-Cu;;20977943;20200316113048;;33860000;8140
297138;Zoning;8389069;20191109094845;W03-C-Knokke-Heist-FH09;8389069;20191109094845;W03-C-Knokke-Heist-FH09;21235;FTTH-Cu;20200316113048;20977852;20200316113102;31380658;33860000;8140
2759468;Zoning;8389069;20191109094845;W03-C-Knokke-Heist-FH09;8389069;20191109094845;W03-C-Knokke-Heist-FH09;21235;FTTH-Cu;20200316113049;20977725;20200316113059;31380681;33860000;8140
5905456;Zoning;8389069;20191109094845;W03-C-Knokke-Heist-FH09;8389069;20191109094845;W03-C-Knokke-Heist-FH09;21235;FTTH-Cu;20200316113049;20977956;20200316113049;31380681;33860000;8140
71737;Zoning;8389069;20191109094845;W03-C-Knokke-Heist-FH09;8389069;20191109094845;W03-C-Knokke-Heist-FH09;21235;FTTH-Cu;;20977976;20200316113050;;33860000;8485
2759740;Zoning;8389069;20191109094845;W03-C-Knokke-Heist-FH09;8389069;20191109094845;W03-C-Knokke-Heist-FH09;21235;FTTH-Cu;;21344228;20200316113115;;33860000;8485
2759741;Zoning;8389069;20191109094845;W03-C-Knokke-Heist-FH09;8389069;20191109094845;W03-C-Knokke-Heist-FH09;21235;FTTH-Cu;;20977726;20200316113059;;33860000;8485
2759742;Zoning;8389069;20191109094845;W03-C-Knokke-Heist-FH09;8389069;20191109094845;W03-C-Knokke-Heist-FH09;21235;FTTH-Cu;;20977727;20200316113059;;33860000;8485
2759743;Zoning;8389069;20191109094845;W03-C-Knokke-Heist-FH09;8389069;20191109094845;W03-C-Knokke-Heist-FH09;21235;FTTH-Cu;;21117962;20200316113110;;33860000;8485
2759744;Zoning;8389069;20191109094845;W03-C-Knokke-Heist-FH09;8389069;20191109094845;W03-C-Knokke-Heist-FH09;21235;FTTH-Cu;;20977728;20200316113059;;33860000;8485
2759746;Zoning;8389069;20191109094845;W03-C-Knokke-Heist-FH09;8389069;20191109094845;W03-C-Knokke-Heist-FH09;21235;FTTH-Cu;20200316113059;20977729;20200316113059;31380699;33860000;8485
2759749;Zoning;8389069;20191109094845;W03-C-Knokke-Heist-FH09;8389069;20191109094845;W03-C-Knokke-Heist-FH09;21235;FTTH-Cu;20200316113059;21117963;20200316113110;31380699;33860000;8485
4335285;Zoning;8389069;20191109094845;W03-C-Knokke-Heist-FH09;8389069;20191109094845;W03-C-Knokke-Heist-FH09;21235;FTTH-Cu;20200316113059;21117968;20200316113110;31380699;33860000;8485
2759750;Zoning;8389069;20191109094845;W03-C-Knokke-Heist-FH09;8389069;20191109094845;W03-C-Knokke-Heist-FH09;21235;FTTH-Cu;20200316113059;20977730;20200316113059;31380711;33860000;8485
2759751;Zoning;8389069;20191109094845;W03-C-Knokke-Heist-FH09;8389069;20191109094845;W03-C-Knokke-Heist-FH09;21235;FTTH-Cu;20200316113059;20977731;20200316113100;31380711;33860000;8485
2759752;Zoning;8389069;20191109094845;W03-C-Knokke-Heist-FH09;8389069;20191109094845;W03-C-Knokke-Heist-FH09;21235;FTTH-Cu;20200316113100;20977732;20200316113100;31380712;33860000;8485
71739;Zoning;8389069;20191109094845;W03-C-Knokke-Heist-FH09;8389069;20191109094845;W03-C-Knokke-Heist-FH09;21235;FTTH-Cu;20200316113100;21117969;20200316113110;31380712;33860000;8485
5579364;Zoning;8389069;20191109094845;W03-C-Knokke-Heist-FH09;8389069;20191109094845;W03-C-Knokke-Heist-FH09;21235;FTTH-Cu;;21117970;20200316113110;;33860000;8485
2759755;Zoning;8389069;20191109094845;W03-C-Knokke-Heist-FH09;8389069;20191109094845;W03-C-Knokke-Heist-FH09;21235;FTTH-Cu;;20977733;20200316113100;;33860000;8485
2759758;Zoning;8389069;20191109094845;W03-C-Knokke-Heist-FH09;8389069;20191109094845;W03-C-Knokke-Heist-FH09;21235;FTTH-Cu;;21344227;20200316113115;;33860000;8485
1347701;Zoning;8389069;20191109094845;W03-C-Knokke-Heist-FH09;8389069;20191109094845;W03-C-Knokke-Heist-FH09;21235;FTTH-Cu;20200316113104;20977611;20200316113104;31380723;33860000;8485
2759760;Zoning;8389069;20191109094845;W03-C-Knokke-Heist-FH09;8389069;20191109094845;W03-C-Knokke-Heist-FH09;21235;FTTH-Cu;20200316113104;21117972;20200316113110;31380723;33860000;8485
2759762;Zoning;8389069;20191109094845;W03-C-Knokke-Heist-FH09;8389069;20191109094845;W03-C-Knokke-Heist-FH09;21235;FTTH-Cu;;20977734;20200316113100;;33860000;8485
1470202;Zoning;8389069;20191109094845;W03-C-Knokke-Heist-FH09;8389069;20191109094845;W03-C-Knokke-Heist-FH09;21235;FTTH-Cu;;20977615;20200316113104;;33860000;8485
5579365;Zoning;8389069;20191109094845;W03-C-Knokke-Heist-FH09;8389069;20191109094845;W03-C-Knokke-Heist-FH09;21235;FTTH-Cu;;20977944;20200316113048;;33860000;8485
290503;Zoning;8389069;20191109094845;W03-C-Knokke-Heist-FH09;8389069;20191109094845;W03-C-Knokke-Heist-FH09;21235;FTTH-Cu;;20977810;20200316113053;;33860000;8485
5564757;Zoning;8389069;20191109094845;W03-C-Knokke-Heist-FH09;8389069;20191109094845;W03-C-Knokke-Heist-FH09;21235;FTTH-Cu;20200316113045;20977938;20200316113048;31382042;33860000;8485
6525363;Zoning;8389069;20191109094845;W03-C-Knokke-Heist-FH09;8389069;20191109094845;W03-C-Knokke-Heist-FH09;21235;FTTH-Cu;20200316113045;21117973;20200316113110;31382042;33860000;8485
303848;Zoning;8389069;20191109094845;W03-C-Knokke-Heist-FH09;8389069;20191109094845;W03-C-Knokke-Heist-FH09;21235;FTTH-Cu;;20977882;20200316113103;;33860000;8485
5579366;Zoning;8389069;20191109094845;W03-C-Knokke-Heist-FH09;8389069;20191109094845;W03-C-Knokke-Heist-FH09;21235;FTTH-Cu;20200316113053;21117974;20200316113110;31381099;33860000;8485
290632;Zoning;8389069;20191109094845;W03-C-Knokke-Heist-FH09;8389069;20191109094845;W03-C-Knokke-Heist-FH09;21235;FTTH-Cu;20200316113053;20977814;20200316113053;31381099;33860000;8485
290631;Zoning;8389069;20191109094845;W03-C-Knokke-Heist-FH09;8389069;20191109094845;W03-C-Knokke-Heist-FH09;21235;FTTH-Cu;;20977813;20200316113053;;33860000;8485
4337650;Zoning;8389069;20191109094845;W03-C-Knokke-Heist-FH09;8389069;20191109094845;W03-C-Knokke-Heist-FH09;21235;FTTH-Cu;20200316113053;21117976;20200316113110;31382435;33860000;8485
4337651;Zoning;8389069;20191109094845;W03-C-Knokke-Heist-FH09;8389069;20191109094845;W03-C-Knokke-Heist-FH09;21235;FTTH-Cu;20200316113053;21117982;20200316113110;31382435;33860000;8485
4337653;Zoning;8389069;20191109094845;W03-C-Knokke-Heist-FH09;8389069;20191109094845;W03-C-Knokke-Heist-FH09;21235;FTTH-Cu;20200316113053;21117983;20200316113115;31382435;33860000;8485
290630;Zoning;8389069;20191109094845;W03-C-Knokke-Heist-FH09;8389069;20191109094845;W03-C-Knokke-Heist-FH09;21235;FTTH-Cu;;20977812;20200316113053;;33860000;8485
71713;Zoning;8389069;20191109094845;W03-C-Knokke-Heist-FH09;8389069;20191109094845;W03-C-Knokke-Heist-FH09;21235;FTTH-Cu;;20977975;20200316113050;;33860000;31218
2766964;Zoning;8389069;20191109094845;W03-C-Knokke-Heist-FH09;8389069;20191109094845;W03-C-Knokke-Heist-FH09;21235;FTTH-Cu;;20977775;20200316113106;;33860000;31218
2766967;Zoning;8389069;20191109094845;W03-C-Knokke-Heist-FH09;8389069;20191109094845;W03-C-Knokke-Heist-FH09;21235;FTTH-Cu;;20977776;20200316113106;;33860000;31218
2766968;Zoning;8389069;20191109094845;W03-C-Knokke-Heist-FH09;8389069;20191109094845;W03-C-Knokke-Heist-FH09;21235;FTTH-Cu;;21117988;20200316113115;;33860000;31218
2766972;Zoning;8389069;20191109094845;W03-C-Knokke-Heist-FH09;8389069;20191109094845;W03-C-Knokke-Heist-FH09;21235;FTTH-Cu;20200316113106;20977777;20200316113106;31382893;33860000;31218
2766974;Zoning;8389069;20191109094845;W03-C-Knokke-Heist-FH09;8389069;20191109094845;W03-C-Knokke-Heist-FH09;21235;FTTH-Cu;20200316113106;20977778;20200316113106;31382893;33860000;31218
71714;Zoning;8389069;20191109094845;W03-C-Knokke-Heist-FH09;8389069;20191109094845;W03-C-Knokke-Heist-FH09;21235;FTTH-Cu;;21117995;20200316113110;;33860000;31218
2766975;Zoning;8389069;20191109094845;W03-C-Knokke-Heist-FH09;8389069;20191109094845;W03-C-Knokke-Heist-FH09;21235;FTTH-Cu;;20977779;20200316113106;;33860000;31218
71715;Zoning;8389069;20191109094845;W03-C-Knokke-Heist-FH09;8389069;20191109094845;W03-C-Knokke-Heist-FH09;21235;FTTH-Cu;20200316113106;21118004;20200316113111;31382561;33860000;31218
2766976;Zoning;8389069;20191109094845;W03-C-Knokke-Heist-FH09;8389069;20191109094845;W03-C-Knokke-Heist-FH09;21235;FTTH-Cu;20200316113106;20977780;20200316113106;31382561;33860000;31218
2766980;Zoning;8389069;20191109094845;W03-C-Knokke-Heist-FH09;8389069;20191109094845;W03-C-Knokke-Heist-FH09;21235;FTTH-Cu;;20977781;20200316113106;;33860000;31218
2766983;Zoning;8389069;20191109094845;W03-C-Knokke-Heist-FH09;8389069;20191109094845;W03-C-Knokke-Heist-FH09;21235;FTTH-Cu;;21118006;20200316113111;;33860000;31218
2766984;Zoning;8389069;20191109094845;W03-C-Knokke-Heist-FH09;8389069;20191109094845;W03-C-Knokke-Heist-FH09;21235;FTTH-Cu;;20977782;20200316113106;;33860000;31218
2766986;Zoning;8389069;20191109094845;W03-C-Knokke-Heist-FH09;8389069;20191109094845;W03-C-Knokke-Heist-FH09;21235;FTTH-Cu;;21118012;20200316113111;;33860000;31218
2766988;Zoning;8389069;20191109094845;W03-C-Knokke-Heist-FH09;8389069;20191109094845;W03-C-Knokke-Heist-FH09;21235;FTTH-Cu;20200316113106;20977783;20200316113106;31382573;33860000;31218
4096025;Zoning;8389069;20191109094845;W03-C-Knokke-Heist-FH09;8389069;20191109094845;W03-C-Knokke-Heist-FH09;21235;FTTH-Cu;20200316113106;21118013;20200316113111;31382573;33860000;31218
71710;Zoning;8389069;20191109094845;W03-C-Knokke-Heist-FH09;8389069;20191109094845;W03-C-Knokke-Heist-FH09;21235;FTTH-Cu;;20977973;20200316113050;;33860000;31218
71708;Zoning;8389069;20191109094845;W03-C-Knokke-Heist-FH09;8389069;20191109094845;W03-C-Knokke-Heist-FH09;21235;FTTH-Cu;;21118014;20200316113111;;33860000;31218
71711;Zoning;8389069;20191109094845;W03-C-Knokke-Heist-FH09;8389069;20191109094845;W03-C-Knokke-Heist-FH09;21235;FTTH-Cu;;21118015;20200316113111;;33860000;31218
71712;Zoning;8389069;20191109094845;W03-C-Knokke-Heist-FH09;8389069;20191109094845;W03-C-Knokke-Heist-FH09;21235;FTTH-Cu;;20977974;20200316113050;;33860000;31218
5579563;Zoning;8389069;20191109094845;W03-C-Knokke-Heist-FH09;8389069;20191109094845;W03-C-Knokke-Heist-FH09;21235;FTTH-Cu;;21118018;20200316113115;;33860000;31218
71709;Zoning;8389069;20191109094845;W03-C-Knokke-Heist-FH09;8389069;20191109094845;W03-C-Knokke-Heist-FH09;21235;FTTH-Cu;;21118020;20200316113115;;33860000;31218
302680;Zoning;8389069;20191109094845;W03-C-Knokke-Heist-FH09;8389069;20191109094845;W03-C-Knokke-Heist-FH09;21235;FTTH-Cu;20200316113102;20977862;20200316113102;31382811;33860000;31218
302679;Zoning;8389069;20191109094845;W03-C-Knokke-Heist-FH09;8389069;20191109094845;W03-C-Knokke-Heist-FH09;21235;FTTH-Cu;;20977861;20200316113045;;33860000;31218
2766998;Zoning;8389069;20191109094845;W03-C-Knokke-Heist-FH09;8389069;20191109094845;W03-C-Knokke-Heist-FH09;21235;FTTH-Cu;;20977784;20200316113046;;33860000;31218
2767002;Zoning;8389069;20191109094845;W03-C-Knokke-Heist-FH09;8389069;20191109094845;W03-C-Knokke-Heist-FH09;21235;FTTH-Cu;;20977785;20200316113046;;33860000;31218
2767003;Zoning;8389069;20191109094845;W03-C-Knokke-Heist-FH09;8389069;20191109094845;W03-C-Knokke-Heist-FH09;21235;FTTH-Cu;;20977786;20200316113046;;33860000;31218
2767005;Zoning;8389069;20191109094845;W03-C-Knokke-Heist-FH09;8389069;20191109094845;W03-C-Knokke-Heist-FH09;21235;FTTH-Cu;;20977787;20200316113046;;33860000;31218
2767006;Zoning;8389069;20191109094845;W03-C-Knokke-Heist-FH09;8389069;20191109094845;W03-C-Knokke-Heist-FH09;21235;FTTH-Cu;;20977788;20200316113046;;33860000;31218
2767008;Zoning;8389069;20191109094845;W03-C-Knokke-Heist-FH09;8389069;20191109094845;W03-C-Knokke-Heist-FH09;21235;FTTH-Cu;;20977789;20200316113046;;33860000;31218
302681;Zoning;8389069;20191109094845;W03-C-Knokke-Heist-FH09;8389069;20191109094845;W03-C-Knokke-Heist-FH09;21235;FTTH-Cu;;20977863;20200316113045;;33860000;31218
302683;Zoning;8389069;20191109094845;W03-C-Knokke-Heist-FH09;8389069;20191109094845;W03-C-Knokke-Heist-FH09;21235;FTTH-Cu;20200316113044;1804576;20200316113044;31382816;33860000;31218
6524218;Zoning;8389069;20191109094845;W03-C-Knokke-Heist-FH09;8389069;20191109094845;W03-C-Knokke-Heist-FH09;21235;FTTH-Cu;20200316113044;21118021;20200316113115;31382816;33860000;31218
302684;Zoning;8389069;20191109094845;W03-C-Knokke-Heist-FH09;8389069;20191109094845;W03-C-Knokke-Heist-FH09;21235;FTTH-Cu;;20977864;20200316113102;;33860000;31218
2767019;Zoning;8389069;20191109094845;W03-C-Knokke-Heist-FH09;8389069;20191109094845;W03-C-Knokke-Heist-FH09;21235;FTTH-Cu;;21118029;20200316113111;;33860000;31218
2767022;Zoning;8389069;20191109094845;W03-C-Knokke-Heist-FH09;8389069;20191109094845;W03-C-Knokke-Heist-FH09;21235;FTTH-Cu;;20977790;20200316113106;;33860000;31218
2767024;Zoning;8389069;20191109094845;W03-C-Knokke-Heist-FH09;8389069;20191109094845;W03-C-Knokke-Heist-FH09;21235;FTTH-Cu;;21118051;20200316113111;;33860000;31218
2767025;Zoning;8389069;20191109094845;W03-C-Knokke-Heist-FH09;8389069;20191109094845;W03-C-Knokke-Heist-FH09;21235;FTTH-Cu;;20977791;20200316113106;;33860000;31218
2767028;Zoning;8389069;20191109094845;W03-C-Knokke-Heist-FH09;8389069;20191109094845;W03-C-Knokke-Heist-FH09;21235;FTTH-Cu;;20977792;20200316113107;;33860000;31218
2767033;Zoning;8389069;20191109094845;W03-C-Knokke-Heist-FH09;8389069;20191109094845;W03-C-Knokke-Heist-FH09;21235;FTTH-Cu;;20977793;20200316113107;;33860000;31218
302685;Zoning;8389069;20191109094845;W03-C-Knokke-Heist-FH09;8389069;20191109094845;W03-C-Knokke-Heist-FH09;21235;FTTH-Cu;;20977865;20200316113102;;33860000;31218
297127;Zoning;8389069;20191109094845;W03-C-Knokke-Heist-FH09;8389069;20191109094845;W03-C-Knokke-Heist-FH09;21235;FTTH-Cu;20200316113111;21118052;20200316113111;31383425;33860000;31218
2767037;Zoning;8389069;20191109094845;W03-C-Knokke-Heist-FH09;8389069;20191109094845;W03-C-Knokke-Heist-FH09;21235;FTTH-Cu;;20977794;20200316113107;;33860000;31218
2767038;Zoning;8389069;20191109094845;W03-C-Knokke-Heist-FH09;8389069;20191109094845;W03-C-Knokke-Heist-FH09;21235;FTTH-Cu;;20977795;20200316113107;;33860000;31218
4336107;Zoning;8389069;20191109094845;W03-C-Knokke-Heist-FH09;8389069;20191109094845;W03-C-Knokke-Heist-FH09;21235;FTTH-Cu;;21118054;20200316113111;;33860000;31218
2767041;Zoning;8389069;20191109094845;W03-C-Knokke-Heist-FH09;8389069;20191109094845;W03-C-Knokke-Heist-FH09;21235;FTTH-Cu;;20977796;20200316113107;;33860000;31218
5579564;Zoning;8389069;20191109094845;W03-C-Knokke-Heist-FH09;8389069;20191109094845;W03-C-Knokke-Heist-FH09;21235;FTTH-Cu;;20977954;20200316113049;;33860000;31218
297128;Zoning;8389069;20191109094845;W03-C-Knokke-Heist-FH09;8389069;20191109094845;W03-C-Knokke-Heist-FH09;21235;FTTH-Cu;20200316113058;20977847;20200316113058;31382838;33860000;31218
5579565;Zoning;8389069;20191109094845;W03-C-Knokke-Heist-FH09;8389069;20191109094845;W03-C-Knokke-Heist-FH09;21235;FTTH-Cu;20200316113058;21118055;20200316113111;31382838;33860000;31218
292337;Zoning;8389069;20191109094845;W03-C-Knokke-Heist-FH09;8389069;20191109094845;W03-C-Knokke-Heist-FH09;21235;FTTH-Cu;20200316113054;20977819;20200316113054;31383077;33860000;32698
292335;Zoning;8389069;20191109094845;W03-C-Knokke-Heist-FH09;8389069;20191109094845;W03-C-Knokke-Heist-FH09;21235;FTTH-Cu;;20977818;20200316113054;;33860000;32698
71496;Zoning;8389069;20191109094845;W03-C-Knokke-Heist-FH09;8389069;20191109094845;W03-C-Knokke-Heist-FH09;21235;FTTH-Cu;;20977957;20200316113049;;33860000;12058
2760284;Zoning;8389069;20191109094845;W03-C-Knokke-Heist-FH09;8389069;20191109094845;W03-C-Knokke-Heist-FH09;21235;FTTH-Cu;20200316113100;20977736;20200316113100;31383113;33860000;12058
5979720;Zoning;8389069;20191109094845;W03-C-Knokke-Heist-FH09;8389069;20191109094845;W03-C-Knokke-Heist-FH09;21235;FTTH-Cu;;31423875;20200316113044;;33860000;12058
2760285;Zoning;8389069;20191109094845;W03-C-Knokke-Heist-FH09;8389069;20191109094845;W03-C-Knokke-Heist-FH09;21235;FTTH-Cu;;1799470;20200316113044;;33860000;12058
2760286;Zoning;8389069;20191109094845;W03-C-Knokke-Heist-FH09;8389069;20191109094845;W03-C-Knokke-Heist-FH09;21235;FTTH-Cu;20200316113044;1799471;20200316113044;31383167;33860000;12058
4335301;Zoning;8389069;20191109094845;W03-C-Knokke-Heist-FH09;8389069;20191109094845;W03-C-Knokke-Heist-FH09;21235;FTTH-Cu;;21344211;20200316113117;;33860000;12058
2760287;Zoning;8389069;20191109094845;W03-C-Knokke-Heist-FH09;8389069;20191109094845;W03-C-Knokke-Heist-FH09;21235;FTTH-Cu;;1799472;20200316113044;;33860000;12058
4018334;Zoning;8389069;20191109094845;W03-C-Knokke-Heist-FH09;8389069;20191109094845;W03-C-Knokke-Heist-FH09;21235;FTTH-Cu;20200316113044;20977891;20200316113107;31383167;33860000;12058
2760289;Zoning;8389069;20191109094845;W03-C-Knokke-Heist-FH09;8389069;20191109094845;W03-C-Knokke-Heist-FH09;21235;FTTH-Cu;;20977737;20200316113100;;33860000;12058
2760291;Zoning;8389069;20191109094845;W03-C-Knokke-Heist-FH09;8389069;20191109094845;W03-C-Knokke-Heist-FH09;21235;FTTH-Cu;;21344212;20200316113117;;33860000;12058
2760292;Zoning;8389069;20191109094845;W03-C-Knokke-Heist-FH09;8389069;20191109094845;W03-C-Knokke-Heist-FH09;21235;FTTH-Cu;;21344210;20200316113117;;33860000;12058
2760293;Zoning;8389069;20191109094845;W03-C-Knokke-Heist-FH09;8389069;20191109094845;W03-C-Knokke-Heist-FH09;21235;FTTH-Cu;20200316113100;20977738;20200316113100;31383087;33860000;12058
4335302;Zoning;8389069;20191109094845;W03-C-Knokke-Heist-FH09;8389069;20191109094845;W03-C-Knokke-Heist-FH09;21235;FTTH-Cu;;21344209;20200316113117;;33860000;12058
2760294;Zoning;8389069;20191109094845;W03-C-Knokke-Heist-FH09;8389069;20191109094845;W03-C-Knokke-Heist-FH09;21235;FTTH-Cu;20200316113100;21118061;20200316113111;31383087;33860000;12058
2760295;Zoning;8389069;20191109094845;W03-C-Knokke-Heist-FH09;8389069;20191109094845;W03-C-Knokke-Heist-FH09;21235;FTTH-Cu;;20977739;20200316113100;;33860000;12058
2760296;Zoning;8389069;20191109094845;W03-C-Knokke-Heist-FH09;8389069;20191109094845;W03-C-Knokke-Heist-FH09;21235;FTTH-Cu;;20977740;20200316113100;;33860000;12058
2760297;Zoning;8389069;20191109094845;W03-C-Knokke-Heist-FH09;8389069;20191109094845;W03-C-Knokke-Heist-FH09;21235;FTTH-Cu;;21118062;20200316113111;;33860000;12058
5579378;Zoning;8389069;20191109094845;W03-C-Knokke-Heist-FH09;8389069;20191109094845;W03-C-Knokke-Heist-FH09;21235;FTTH-Cu;;20977946;20200316113048;;33860000;12058
2760300;Zoning;8389069;20191109094845;W03-C-Knokke-Heist-FH09;8389069;20191109094845;W03-C-Knokke-Heist-FH09;21235;FTTH-Cu;;20977741;20200316113100;;33860000;12058
71498;Zoning;8389069;20191109094845;W03-C-Knokke-Heist-FH09;8389069;20191109094845;W03-C-Knokke-Heist-FH09;21235;FTTH-Cu;;20977959;20200316113049;;33860000;12058
2760303;Zoning;8389069;20191109094845;W03-C-Knokke-Heist-FH09;8389069;20191109094845;W03-C-Knokke-Heist-FH09;21235;FTTH-Cu;;20977742;20200316113100;;33860000;12058
2760304;Zoning;8389069;20191109094845;W03-C-Knokke-Heist-FH09;8389069;20191109094845;W03-C-Knokke-Heist-FH09;21235;FTTH-Cu;;20977743;20200316113100;;33860000;12058
2760305;Zoning;8389069;20191109094845;W03-C-Knokke-Heist-FH09;8389069;20191109094845;W03-C-Knokke-Heist-FH09;21235;FTTH-Cu;;21118063;20200316113111;;33860000;12058
71499;Zoning;8389069;20191109094845;W03-C-Knokke-Heist-FH09;8389069;20191109094845;W03-C-Knokke-Heist-FH09;21235;FTTH-Cu;;20977960;20200316113049;;33860000;12058
9883;Zoning;8389069;20191109094845;W03-C-Knokke-Heist-FH09;8389069;20191109094845;W03-C-Knokke-Heist-FH09;21235;FTTH-Cu;;20977982;20200316113050;;33860000;6411
292349;Zoning;8389069;20191109094845;W03-C-Knokke-Heist-FH09;8389069;20191109094845;W03-C-Knokke-Heist-FH09;21235;FTTH-Cu;;20977829;20200316113057;;33860000;6411
2758761;Zoning;8389069;20191109094845;W03-C-Knokke-Heist-FH09;8389069;20191109094845;W03-C-Knokke-Heist-FH09;21235;FTTH-Cu;;20977703;20200316113056;;33860000;6411
2758762;Zoning;8389069;20191109094845;W03-C-Knokke-Heist-FH09;8389069;20191109094845;W03-C-Knokke-Heist-FH09;21235;FTTH-Cu;;20977704;20200316113056;;33860000;6411
2758763;Zoning;8389069;20191109094845;W03-C-Knokke-Heist-FH09;8389069;20191109094845;W03-C-Knokke-Heist-FH09;21235;FTTH-Cu;;20977705;20200316113056;;33860000;6411
1329624;Zoning;8389069;20191109094845;W03-C-Knokke-Heist-FH09;8389069;20191109094845;W03-C-Knokke-Heist-FH09;21235;FTTH-Cu;;20977610;20200316113103;;33860000;6411
292347;Zoning;8389069;20191109094845;W03-C-Knokke-Heist-FH09;8389069;20191109094845;W03-C-Knokke-Heist-FH09;21235;FTTH-Cu;;20977827;20200316113057;;33860000;6411
292348;Zoning;8389069;20191109094845;W03-C-Knokke-Heist-FH09;8389069;20191109094845;W03-C-Knokke-Heist-FH09;21235;FTTH-Cu;;20977828;20200316113057;;33860000;6411
9885;Zoning;8389069;20191109094845;W03-C-Knokke-Heist-FH09;8389069;20191109094845;W03-C-Knokke-Heist-FH09;21235;FTTH-Cu;;20977983;20200316113050;;33860000;6411
2758764;Zoning;8389069;20191109094845;W03-C-Knokke-Heist-FH09;8389069;20191109094845;W03-C-Knokke-Heist-FH09;21235;FTTH-Cu;;20977706;20200316113056;;33860000;6411
2758765;Zoning;8389069;20191109094845;W03-C-Knokke-Heist-FH09;8389069;20191109094845;W03-C-Knokke-Heist-FH09;21235;FTTH-Cu;;20977707;20200316113056;;33860000;6411
2758766;Zoning;8389069;20191109094845;W03-C-Knokke-Heist-FH09;8389069;20191109094845;W03-C-Knokke-Heist-FH09;21235;FTTH-Cu;;20977708;20200316113056;;33860000;6411
2758767;Zoning;8389069;20191109094845;W03-C-Knokke-Heist-FH09;8389069;20191109094845;W03-C-Knokke-Heist-FH09;21235;FTTH-Cu;;20977709;20200316113056;;33860000;6411
292684;Zoning;8389069;20191109094845;W03-C-Knokke-Heist-FH09;8389069;20191109094845;W03-C-Knokke-Heist-FH09;21235;FTTH-Cu;;20977840;20200316113058;;33860000;6411
292686;Zoning;8389069;20191109094845;W03-C-Knokke-Heist-FH09;8389069;20191109094845;W03-C-Knokke-Heist-FH09;21235;FTTH-Cu;;20977841;20200316113058;;33860000;6411
2758768;Zoning;8389069;20191109094845;W03-C-Knokke-Heist-FH09;8389069;20191109094845;W03-C-Knokke-Heist-FH09;21235;FTTH-Cu;;20977710;20200316113056;;33860000;6411
292682;Zoning;8389069;20191109094845;W03-C-Knokke-Heist-FH09;8389069;20191109094845;W03-C-Knokke-Heist-FH09;21235;FTTH-Cu;;20977839;20200316113058;;33860000;6411
2758771;Zoning;8389069;20191109094845;W03-C-Knokke-Heist-FH09;8389069;20191109094845;W03-C-Knokke-Heist-FH09;21235;FTTH-Cu;;20977711;20200316113056;;33860000;6411
2758772;Zoning;8389069;20191109094845;W03-C-Knokke-Heist-FH09;8389069;20191109094845;W03-C-Knokke-Heist-FH09;21235;FTTH-Cu;;21118064;20200316113111;;33860000;6411
2758773;Zoning;8389069;20191109094845;W03-C-Knokke-Heist-FH09;8389069;20191109094845;W03-C-Knokke-Heist-FH09;21235;FTTH-Cu;;20977712;20200316113056;;33860000;6411
2763795;Zoning;8389069;20191109094845;W03-C-Knokke-Heist-FH09;8389069;20191109094845;W03-C-Knokke-Heist-FH09;21235;FTTH-Cu;;20977752;20200316113101;;33860000;20517
290499;Zoning;8389069;20191109094845;W03-C-Knokke-Heist-FH09;8389069;20191109094845;W03-C-Knokke-Heist-FH09;21235;FTTH-Cu;20200316113053;20977808;20200316113053;31383205;33860000;20517
3939624;Zoning;8389069;20191109094845;W03-C-Knokke-Heist-FH09;8389069;20191109094845;W03-C-Knokke-Heist-FH09;21235;FTTH-Cu;20200316113053;21118066;20200316113112;31383205;33860000;20517
1445319;Zoning;8389069;20191109094845;W03-C-Knokke-Heist-FH09;8389069;20191109094845;W03-C-Knokke-Heist-FH09;21235;FTTH-Cu;;20977612;20200316113104;;33860000;20517
297126;Zoning;8389069;20191109094845;W03-C-Knokke-Heist-FH09;8389069;20191109094845;W03-C-Knokke-Heist-FH09;21235;FTTH-Cu;20200316113058;20977846;20200316113058;31383883;33860000;23963
302702;Zoning;8389069;20191109094845;W03-C-Knokke-Heist-FH09;8389069;20191109094845;W03-C-Knokke-Heist-FH09;21235;FTTH-Cu;20200316113102;20977873;20200316113103;31383879;33860000;23963
2764985;Zoning;8389069;20191109094845;W03-C-Knokke-Heist-FH09;8389069;20191109094845;W03-C-Knokke-Heist-FH09;21235;FTTH-Cu;;20977765;20200316113105;;33860000;23963
2764986;Zoning;8389069;20191109094845;W03-C-Knokke-Heist-FH09;8389069;20191109094845;W03-C-Knokke-Heist-FH09;21235;FTTH-Cu;;20977766;20200316113105;;33860000;23963
4105499;Zoning;8389069;20191109094845;W03-C-Knokke-Heist-FH09;8389069;20191109094845;W03-C-Knokke-Heist-FH09;21235;FTTH-Cu;;20977897;20200316113108;;33860000;23963
6637419;Zoning;8389069;20191109094845;W03-C-Knokke-Heist-FH09;8389069;20191109094845;W03-C-Knokke-Heist-FH09;21235;FTTH-Cu;;31423879;20200316113044;;33860000;23963
4337449;Zoning;8389069;20191109094845;W03-C-Knokke-Heist-FH09;8389069;20191109094845;W03-C-Knokke-Heist-FH09;21235;FTTH-Cu;;20977928;20200316113109;;33860000;23963
2764987;Zoning;8389069;20191109094845;W03-C-Knokke-Heist-FH09;8389069;20191109094845;W03-C-Knokke-Heist-FH09;21235;FTTH-Cu;;20977767;20200316113105;;33860000;23963
5561970;Zoning;8389069;20191109094845;W03-C-Knokke-Heist-FH09;8389069;20191109094845;W03-C-Knokke-Heist-FH09;21235;FTTH-Cu;;1809031;20200316113045;;33860000;23963
5579526;Zoning;8389069;20191109094845;W03-C-Knokke-Heist-FH09;8389069;20191109094845;W03-C-Knokke-Heist-FH09;21235;FTTH-Cu;;20977948;20200316113048;;33860000;23963
302700;Zoning;8389069;20191109094845;W03-C-Knokke-Heist-FH09;8389069;20191109094845;W03-C-Knokke-Heist-FH09;21235;FTTH-Cu;;21118072;20200316113112;;33860000;23963
297125;Zoning;8389069;20191109094845;W03-C-Knokke-Heist-FH09;8389069;20191109094845;W03-C-Knokke-Heist-FH09;21235;FTTH-Cu;;21118073;20200316113112;;33860000;23963
302699;Zoning;8389069;20191109094845;W03-C-Knokke-Heist-FH09;8389069;20191109094845;W03-C-Knokke-Heist-FH09;21235;FTTH-Cu;;20977872;20200316113103;;33860000;23963
4336094;Zoning;8389069;20191109094845;W03-C-Knokke-Heist-FH09;8389069;20191109094845;W03-C-Knokke-Heist-FH09;21235;FTTH-Cu;;20977912;20200316113108;;33860000;23963
4022844;Zoning;8389069;20191109094845;W03-C-Knokke-Heist-FH09;8389069;20191109094845;W03-C-Knokke-Heist-FH09;21235;FTTH-Cu;;20977892;20200316113107;;33860000;23963
4337361;Zoning;8389069;20191109094845;W03-C-Knokke-Heist-FH09;8389069;20191109094845;W03-C-Knokke-Heist-FH09;21235;FTTH-Cu;20200316113109;20977925;20200316113109;31383247;33860000;23963
302698;Zoning;8389069;20191109094845;W03-C-Knokke-Heist-FH09;8389069;20191109094845;W03-C-Knokke-Heist-FH09;21235;FTTH-Cu;20200316113109;21344207;20200316113117;31383247;33860000;23963
5579527;Zoning;8389069;20191109094845;W03-C-Knokke-Heist-FH09;8389069;20191109094845;W03-C-Knokke-Heist-FH09;21235;FTTH-Cu;;20977949;20200316113048;;33860000;23963
4099099;Zoning;8389069;20191109094845;W03-C-Knokke-Heist-FH09;8389069;20191109094845;W03-C-Knokke-Heist-FH09;21235;FTTH-Cu;20200316113107;20977895;20200316113107;31383308;33860000;23963
302697;Zoning;8389069;20191109094845;W03-C-Knokke-Heist-FH09;8389069;20191109094845;W03-C-Knokke-Heist-FH09;21235;FTTH-Cu;;20977871;20200316113103;;33860000;23963
4336099;Zoning;8389069;20191109094845;W03-C-Knokke-Heist-FH09;8389069;20191109094845;W03-C-Knokke-Heist-FH09;21235;FTTH-Cu;20200316113107;20977914;20200316113108;31383308;33860000;23963
4103220;Zoning;8389069;20191109094845;W03-C-Knokke-Heist-FH09;8389069;20191109094845;W03-C-Knokke-Heist-FH09;21235;FTTH-Cu;20200316113107;20977896;20200316113108;31383308;33860000;23963
4103221;Zoning;8389069;20191109094845;W03-C-Knokke-Heist-FH09;8389069;20191109094845;W03-C-Knokke-Heist-FH09;21235;FTTH-Cu;20200316113107;21118080;20200316113112;31383308;33860000;23963
2764997;Zoning;8389069;20191109094845;W03-C-Knokke-Heist-FH09;8389069;20191109094845;W03-C-Knokke-Heist-FH09;21235;FTTH-Cu;20200316113111;21118081;20200316113112;31383425;33860000;23963
71744;Zoning;8389069;20191109094845;W03-C-Knokke-Heist-FH09;8389069;20191109094845;W03-C-Knokke-Heist-FH09;21235;FTTH-Cu;;21118098;20200316113116;;33860000;23065
71748;Zoning;8389069;20191109094845;W03-C-Knokke-Heist-FH09;8389069;20191109094845;W03-C-Knokke-Heist-FH09;21235;FTTH-Cu;;20977981;20200316113050;;33860000;23065
71747;Zoning;8389069;20191109094845;W03-C-Knokke-Heist-FH09;8389069;20191109094845;W03-C-Knokke-Heist-FH09;21235;FTTH-Cu;;20977980;20200316113050;;33860000;23065
5579523;Zoning;8389069;20191109094845;W03-C-Knokke-Heist-FH09;8389069;20191109094845;W03-C-Knokke-Heist-FH09;21235;FTTH-Cu;;20977947;20200316113048;;33860000;23065
2764631;Zoning;8389069;20191109094845;W03-C-Knokke-Heist-FH09;8389069;20191109094845;W03-C-Knokke-Heist-FH09;21235;FTTH-Cu;;20977753;20200316113101;;33860000;23065
2764632;Zoning;8389069;20191109094845;W03-C-Knokke-Heist-FH09;8389069;20191109094845;W03-C-Knokke-Heist-FH09;21235;FTTH-Cu;;20977754;20200316113101;;33860000;23065
2764634;Zoning;8389069;20191109094845;W03-C-Knokke-Heist-FH09;8389069;20191109094845;W03-C-Knokke-Heist-FH09;21235;FTTH-Cu;;20977755;20200316113101;;33860000;23065
2764635;Zoning;8389069;20191109094845;W03-C-Knokke-Heist-FH09;8389069;20191109094845;W03-C-Knokke-Heist-FH09;21235;FTTH-Cu;;21118125;20200316113116;;33860000;23065
3939631;Zoning;8389069;20191109094845;W03-C-Knokke-Heist-FH09;8389069;20191109094845;W03-C-Knokke-Heist-FH09;21235;FTTH-Cu;;21118144;20200316113116;;33860000;23065
2764637;Zoning;8389069;20191109094845;W03-C-Knokke-Heist-FH09;8389069;20191109094845;W03-C-Knokke-Heist-FH09;21235;FTTH-Cu;;20977756;20200316140638;;33860000;23065
2764638;Zoning;8389069;20191109094845;W03-C-Knokke-Heist-FH09;8389069;20191109094845;W03-C-Knokke-Heist-FH09;21235;FTTH-Cu;;20977757;20200316113101;;33860000;23065
2764639;Zoning;8389069;20191109094845;W03-C-Knokke-Heist-FH09;8389069;20191109094845;W03-C-Knokke-Heist-FH09;21235;FTTH-Cu;;20977758;20200316113101;;33860000;23065
2764640;Zoning;8389069;20191109094845;W03-C-Knokke-Heist-FH09;8389069;20191109094845;W03-C-Knokke-Heist-FH09;21235;FTTH-Cu;;20977759;20200316113101;;33860000;23065
4150670;Zoning;8389069;20191109094845;W03-C-Knokke-Heist-FH09;8389069;20191109094845;W03-C-Knokke-Heist-FH09;21235;FTTH-Cu;;20977900;20200316113108;;33860000;23065
2764642;Zoning;8389069;20191109094845;W03-C-Knokke-Heist-FH09;8389069;20191109094845;W03-C-Knokke-Heist-FH09;21235;FTTH-Cu;;20977761;20200316113105;;33860000;23065
2764644;Zoning;8389069;20191109094845;W03-C-Knokke-Heist-FH09;8389069;20191109094845;W03-C-Knokke-Heist-FH09;21235;FTTH-Cu;;20977762;20200316113105;;33860000;23065
2764645;Zoning;8389069;20191109094845;W03-C-Knokke-Heist-FH09;8389069;20191109094845;W03-C-Knokke-Heist-FH09;21235;FTTH-Cu;;20977763;20200316113105;;33860000;23065
2764647;Zoning;8389069;20191109094845;W03-C-Knokke-Heist-FH09;8389069;20191109094845;W03-C-Knokke-Heist-FH09;21235;FTTH-Cu;;20977764;20200316113105;;33860000;23065
297121;Zoning;8389069;20191109094845;W03-C-Knokke-Heist-FH09;8389069;20191109094845;W03-C-Knokke-Heist-FH09;21235;FTTH-Cu;;20977844;20200316113058;;33860000;24000
2765002;Zoning;8389069;20191109094845;W03-C-Knokke-Heist-FH09;8389069;20191109094845;W03-C-Knokke-Heist-FH09;21235;FTTH-Cu;;20977768;20200316113105;;33860000;24000
297120;Zoning;8389069;20191109094845;W03-C-Knokke-Heist-FH09;8389069;20191109094845;W03-C-Knokke-Heist-FH09;21235;FTTH-Cu;;21118167;20200316113116;;33860000;24000
2765005;Zoning;8389069;20191109094845;W03-C-Knokke-Heist-FH09;8389069;20191109094845;W03-C-Knokke-Heist-FH09;21235;FTTH-Cu;20200316113105;20977769;20200316113105;31383581;33860000;24000
2765006;Zoning;8389069;20191109094845;W03-C-Knokke-Heist-FH09;8389069;20191109094845;W03-C-Knokke-Heist-FH09;21235;FTTH-Cu;20200316113105;21118175;20200316113116;31383581;33860000;24000
297122;Zoning;8389069;20191109094845;W03-C-Knokke-Heist-FH09;8389069;20191109094845;W03-C-Knokke-Heist-FH09;21235;FTTH-Cu;;20977845;20200316113058;;33860000;24000
297123;Zoning;8389069;20191109094845;W03-C-Knokke-Heist-FH09;8389069;20191109094845;W03-C-Knokke-Heist-FH09;21235;FTTH-Cu;;21118177;20200316113112;;33860000;24000
5579528;Zoning;8389069;20191109094845;W03-C-Knokke-Heist-FH09;8389069;20191109094845;W03-C-Knokke-Heist-FH09;21235;FTTH-Cu;;20977950;20200316113048;;33860000;24000
5559096;Zoning;8389069;20191109094845;W03-C-Knokke-Heist-FH09;8389069;20191109094845;W03-C-Knokke-Heist-FH09;21235;FTTH-Cu;20200316113045;1809025;20200316113045;31383570;33860000;24000
6525309;Zoning;8389069;20191109094845;W03-C-Knokke-Heist-FH09;8389069;20191109094845;W03-C-Knokke-Heist-FH09;21235;FTTH-Cu;20200316113045;21118184;20200316113112;31383570;33860000;24000
5579529;Zoning;8389069;20191109094845;W03-C-Knokke-Heist-FH09;8389069;20191109094845;W03-C-Knokke-Heist-FH09;21235;FTTH-Cu;20200316113048;20977951;20200316113048;31380658;33860000;24000
297118;Zoning;8389069;20191109094845;W03-C-Knokke-Heist-FH09;8389069;20191109094845;W03-C-Knokke-Heist-FH09;21235;FTTH-Cu;20200316113048;21118187;20200316113113;31380658;33860000;24000
2765017;Zoning;8389069;20191109094845;W03-C-Knokke-Heist-FH09;8389069;20191109094845;W03-C-Knokke-Heist-FH09;21235;FTTH-Cu;;20977770;20200316113105;;33860000;24000
2765019;Zoning;8389069;20191109094845;W03-C-Knokke-Heist-FH09;8389069;20191109094845;W03-C-Knokke-Heist-FH09;21235;FTTH-Cu;;20977771;20200316113105;;33860000;24000
297117;Zoning;8389069;20191109094845;W03-C-Knokke-Heist-FH09;8389069;20191109094845;W03-C-Knokke-Heist-FH09;21235;FTTH-Cu;;20977843;20200316113058;;33860000;24000
297116;Zoning;8389069;20191109094845;W03-C-Knokke-Heist-FH09;8389069;20191109094845;W03-C-Knokke-Heist-FH09;21235;FTTH-Cu;;20977842;20200316113058;;33860000;24000
5579530;Zoning;8389069;20191109094845;W03-C-Knokke-Heist-FH09;8389069;20191109094845;W03-C-Knokke-Heist-FH09;21235;FTTH-Cu;;20977952;20200316113048;;33860000;24000
5579550;Zoning;8389069;20191109094845;W03-C-Knokke-Heist-FH09;8389069;20191109094845;W03-C-Knokke-Heist-FH09;21235;FTTH-Cu;;20977953;20200316113049;;33860000;28016
71633;Zoning;8389069;20191109094845;W03-C-Knokke-Heist-FH09;8389069;20191109094845;W03-C-Knokke-Heist-FH09;21235;FTTH-Cu;;21118191;20200316113113;;33860000;28016
302629;Zoning;8389069;20191109094845;W03-C-Knokke-Heist-FH09;8389069;20191109094845;W03-C-Knokke-Heist-FH09;21235;FTTH-Cu;;20977855;20200316113102;;33860000;28016
2766147;Zoning;8389069;20191109094845;W03-C-Knokke-Heist-FH09;8389069;20191109094845;W03-C-Knokke-Heist-FH09;21235;FTTH-Cu;;20977772;20200316113105;;33860000;28016
302632;Zoning;8389069;20191109094845;W03-C-Knokke-Heist-FH09;8389069;20191109094845;W03-C-Knokke-Heist-FH09;21235;FTTH-Cu;;21344214;20200316113115;;33860000;28016
3923060;Zoning;8389069;20191109094845;W03-C-Knokke-Heist-FH09;8389069;20191109094845;W03-C-Knokke-Heist-FH09;21235;FTTH-Cu;;20977883;20200316113103;;33860000;28016
2766150;Zoning;8389069;20191109094845;W03-C-Knokke-Heist-FH09;8389069;20191109094845;W03-C-Knokke-Heist-FH09;21235;FTTH-Cu;;20977773;20200316113106;;33860000;28016
302628;Zoning;8389069;20191109094845;W03-C-Knokke-Heist-FH09;8389069;20191109094845;W03-C-Knokke-Heist-FH09;21235;FTTH-Cu;;20977854;20200316113102;;33860000;28016
4337279;Zoning;8389069;20191109094845;W03-C-Knokke-Heist-FH09;8389069;20191109094845;W03-C-Knokke-Heist-FH09;21235;FTTH-Cu;;20977917;20200316113109;;33860000;28016
302627;Zoning;8389069;20191109094845;W03-C-Knokke-Heist-FH09;8389069;20191109094845;W03-C-Knokke-Heist-FH09;21235;FTTH-Cu;;20977853;20200316113046;;33860000;28016
278;Zoning;8389069;20191109094845;W03-C-Knokke-Heist-FH09;8389069;20191109094845;W03-C-Knokke-Heist-FH09;21235;FTTH-Cu;;1803433;20200316113046;;33860000;28016
6396293;Zoning;8389069;20191109094845;W03-C-Knokke-Heist-FH09;8389069;20191109094845;W03-C-Knokke-Heist-FH09;21235;FTTH-Cu;;21344213;20200316113117;;33860000;28016
71634;Zoning;8389069;20191109094845;W03-C-Knokke-Heist-FH09;8389069;20191109094845;W03-C-Knokke-Heist-FH09;21235;FTTH-Cu;;20977962;20200316113049;;33860000;28016
4335330;Zoning;8389069;20191109094845;W03-C-Knokke-Heist-FH09;8389069;20191109094845;W03-C-Knokke-Heist-FH09;21235;FTTH-Cu;20200316113049;21118199;20200316113113;31379115;33860000;28016
2766157;Zoning;8389069;20191109094845;W03-C-Knokke-Heist-FH09;8389069;20191109094845;W03-C-Knokke-Heist-FH09;21235;FTTH-Cu;20200316113102;20977774;20200316113106;31382811;33860000;28016
4335334;Zoning;8389069;20191109094845;W03-C-Knokke-Heist-FH09;8389069;20191109094845;W03-C-Knokke-Heist-FH09;21235;FTTH-Cu;;20977909;20200316113108;;33860000;28016
71632;Zoning;8389069;20191109094845;W03-C-Knokke-Heist-FH09;8389069;20191109094845;W03-C-Knokke-Heist-FH09;21235;FTTH-Cu;;20977961;20200316113049;;33860000;28016
292334;Zoning;8389069;20191109094845;W03-C-Knokke-Heist-FH09;8389069;20191109094845;W03-C-Knokke-Heist-FH09;21235;FTTH-Cu;;20977817;20200316113054;;33860000;32652
1354426;Zoning;8389069;20191109094845;W03-C-Knokke-Heist-FH09;8389069;20191109094845;W03-C-Knokke-Heist-FH09;21235;FTTH-Cu;;21118201;20200316113113;;33860000;32652
2767280;Zoning;8389069;20191109094845;W03-C-Knokke-Heist-FH09;8389069;20191109094845;W03-C-Knokke-Heist-FH09;21235;FTTH-Cu;;20977797;20200316113107;;33860000;32654
302703;Zoning;8389069;20191109094845;W03-C-Knokke-Heist-FH09;8389069;20191109094845;W03-C-Knokke-Heist-FH09;21235;FTTH-Cu;;20977874;20200316113045;;33860000;32654
302704;Zoning;8389069;20191109094845;W03-C-Knokke-Heist-FH09;8389069;20191109094845;W03-C-Knokke-Heist-FH09;21235;FTTH-Cu;;20977875;20200316113103;;33860000;32654
3939662;Zoning;8389069;20191109094845;W03-C-Knokke-Heist-FH09;8389069;20191109094845;W03-C-Knokke-Heist-FH09;21235;FTTH-Cu;;20977888;20200316113045;;33860000;32654
2767282;Zoning;8389069;20191109094845;W03-C-Knokke-Heist-FH09;8389069;20191109094845;W03-C-Knokke-Heist-FH09;21235;FTTH-Cu;;20977798;20200316113107;;33860000;32654
2767283;Zoning;8389069;20191109094845;W03-C-Knokke-Heist-FH09;8389069;20191109094845;W03-C-Knokke-Heist-FH09;21235;FTTH-Cu;;20977799;20200316113046;;33860000;32654
2767284;Zoning;8389069;20191109094845;W03-C-Knokke-Heist-FH09;8389069;20191109094845;W03-C-Knokke-Heist-FH09;21235;FTTH-Cu;;20977800;20200316113107;;33860000;32654
302706;Zoning;8389069;20191109094845;W03-C-Knokke-Heist-FH09;8389069;20191109094845;W03-C-Knokke-Heist-FH09;21235;FTTH-Cu;;20977877;20200316113045;;33860000;32654
4092482;Zoning;8389069;20191109094845;W03-C-Knokke-Heist-FH09;8389069;20191109094845;W03-C-Knokke-Heist-FH09;21235;FTTH-Cu;;20977894;20200316113107;;33860000;32654
2767287;Zoning;8389069;20191109094845;W03-C-Knokke-Heist-FH09;8389069;20191109094845;W03-C-Knokke-Heist-FH09;21235;FTTH-Cu;20200316113045;20977801;20200316113046;31380302;33860000;32654
2767288;Zoning;8389069;20191109094845;W03-C-Knokke-Heist-FH09;8389069;20191109094845;W03-C-Knokke-Heist-FH09;21235;FTTH-Cu;;20977802;20200316113053;;33860000;32654
2767290;Zoning;8389069;20191109094845;W03-C-Knokke-Heist-FH09;8389069;20191109094845;W03-C-Knokke-Heist-FH09;21235;FTTH-Cu;20200316113045;20977804;20200316113046;31380302;33860000;32654
4337289;Zoning;8389069;20191109094845;W03-C-Knokke-Heist-FH09;8389069;20191109094845;W03-C-Knokke-Heist-FH09;21235;FTTH-Cu;;20977918;20200316113109;;33860000;32654
2767292;Zoning;8389069;20191109094845;W03-C-Knokke-Heist-FH09;8389069;20191109094845;W03-C-Knokke-Heist-FH09;21235;FTTH-Cu;;20977805;20200316113053;;33860000;32654
4337292;Zoning;8389069;20191109094845;W03-C-Knokke-Heist-FH09;8389069;20191109094845;W03-C-Knokke-Heist-FH09;21235;FTTH-Cu;;20977919;20200316113109;;33860000;32654
302705;Zoning;8389069;20191109094845;W03-C-Knokke-Heist-FH09;8389069;20191109094845;W03-C-Knokke-Heist-FH09;21235;FTTH-Cu;;20977876;20200316113103;;33860000;32654
290493;Zoning;8389069;20191109094845;W03-C-Knokke-Heist-FH09;8389069;20191109094845;W03-C-Knokke-Heist-FH09;21235;FTTH-Cu;;20977806;20200316113053;;33860000;33405
303846;Zoning;8389069;20191109094845;W03-C-Knokke-Heist-FH09;8389069;20191109094845;W03-C-Knokke-Heist-FH09;21235;FTTH-Cu;20200316113045;1804706;20200316113044;31382042;33860000;33405
290495;Zoning;8389069;20191109094845;W03-C-Knokke-Heist-FH09;8389069;20191109094845;W03-C-Knokke-Heist-FH09;21235;FTTH-Cu;;20977807;20200316113053;;33860000;33405
6524219;Zoning;8389069;20191109094845;W03-C-Knokke-Heist-FH09;8389069;20191109094845;W03-C-Knokke-Heist-FH09;21235;FTTH-Cu;20200316113045;21344215;20200316113115;31382042;33860000;33405
292670;Zoning;8389069;20191109094845;W03-C-Knokke-Heist-FH09;8389069;20191109094845;W03-C-Knokke-Heist-FH09;21235;FTTH-Cu;;20977833;20200316113057;;33860000;15
2756714;Zoning;8389069;20191109094845;W03-C-Knokke-Heist-FH09;8389069;20191109094845;W03-C-Knokke-Heist-FH09;21235;FTTH-Cu;;21118226;20200316113113;;33860000;15
4337486;Zoning;8389069;20191109094845;W03-C-Knokke-Heist-FH09;8389069;20191109094845;W03-C-Knokke-Heist-FH09;21235;FTTH-Cu;;20977933;20200316113047;;33860000;15
2756715;Zoning;8389069;20191109094845;W03-C-Knokke-Heist-FH09;8389069;20191109094845;W03-C-Knokke-Heist-FH09;21235;FTTH-Cu;;20977616;20200316113104;;33860000;15
2756716;Zoning;8389069;20191109094845;W03-C-Knokke-Heist-FH09;8389069;20191109094845;W03-C-Knokke-Heist-FH09;21235;FTTH-Cu;;20977617;20200316113104;;33860000;15
4337493;Zoning;8389069;20191109094845;W03-C-Knokke-Heist-FH09;8389069;20191109094845;W03-C-Knokke-Heist-FH09;21235;FTTH-Cu;;20977934;20200316113047;;33860000;15
2756718;Zoning;8389069;20191109094845;W03-C-Knokke-Heist-FH09;8389069;20191109094845;W03-C-Knokke-Heist-FH09;21235;FTTH-Cu;;21118232;20200316113114;;33860000;15
2756719;Zoning;8389069;20191109094845;W03-C-Knokke-Heist-FH09;8389069;20191109094845;W03-C-Knokke-Heist-FH09;21235;FTTH-Cu;;20977618;20200316113104;;33860000;15
2756721;Zoning;8389069;20191109094845;W03-C-Knokke-Heist-FH09;8389069;20191109094845;W03-C-Knokke-Heist-FH09;21235;FTTH-Cu;;20977619;20200316113104;;33860000;15
2756723;Zoning;8389069;20191109094845;W03-C-Knokke-Heist-FH09;8389069;20191109094845;W03-C-Knokke-Heist-FH09;21235;FTTH-Cu;;20977620;20200316113104;;33860000;15
292673;Zoning;8389069;20191109094845;W03-C-Knokke-Heist-FH09;8389069;20191109094845;W03-C-Knokke-Heist-FH09;21235;FTTH-Cu;;20977835;20200316113057;;33860000;15
292675;Zoning;8389069;20191109094845;W03-C-Knokke-Heist-FH09;8389069;20191109094845;W03-C-Knokke-Heist-FH09;21235;FTTH-Cu;;20977836;20200316113057;;33860000;15
4146526;Zoning;8389069;20191109094845;W03-C-Knokke-Heist-FH09;8389069;20191109094845;W03-C-Knokke-Heist-FH09;21235;FTTH-Cu;20200316113104;21118248;20200316113114;31383890;33860000;15
2756725;Zoning;8389069;20191109094845;W03-C-Knokke-Heist-FH09;8389069;20191109094845;W03-C-Knokke-Heist-FH09;21235;FTTH-Cu;20200316113104;20977621;20200316113104;31383890;33860000;15
2756727;Zoning;8389069;20191109094845;W03-C-Knokke-Heist-FH09;8389069;20191109094845;W03-C-Knokke-Heist-FH09;21235;FTTH-Cu;20200316113104;21118251;20200316113114;31383890;33860000;15
2756728;Zoning;8389069;20191109094845;W03-C-Knokke-Heist-FH09;8389069;20191109094845;W03-C-Knokke-Heist-FH09;21235;FTTH-Cu;;20977622;20200316113104;;33860000;15
2756729;Zoning;8389069;20191109094845;W03-C-Knokke-Heist-FH09;8389069;20191109094845;W03-C-Knokke-Heist-FH09;21235;FTTH-Cu;;20977623;20200316113104;;33860000;15
2756731;Zoning;8389069;20191109094845;W03-C-Knokke-Heist-FH09;8389069;20191109094845;W03-C-Knokke-Heist-FH09;21235;FTTH-Cu;;20977624;20200316113104;;33860000;15
2756734;Zoning;8389069;20191109094845;W03-C-Knokke-Heist-FH09;8389069;20191109094845;W03-C-Knokke-Heist-FH09;21235;FTTH-Cu;;21118255;20200316113114;;33860000;15
2756735;Zoning;8389069;20191109094845;W03-C-Knokke-Heist-FH09;8389069;20191109094845;W03-C-Knokke-Heist-FH09;21235;FTTH-Cu;;20977625;20200316113104;;33860000;15
2756736;Zoning;8389069;20191109094845;W03-C-Knokke-Heist-FH09;8389069;20191109094845;W03-C-Knokke-Heist-FH09;21235;FTTH-Cu;;21118262;20200316113114;;33860000;15
2756737;Zoning;8389069;20191109094845;W03-C-Knokke-Heist-FH09;8389069;20191109094845;W03-C-Knokke-Heist-FH09;21235;FTTH-Cu;;20977626;20200316113105;;33860000;15
2756738;Zoning;8389069;20191109094845;W03-C-Knokke-Heist-FH09;8389069;20191109094845;W03-C-Knokke-Heist-FH09;21235;FTTH-Cu;;20977627;20200316113105;;33860000;15
2756739;Zoning;8389069;20191109094845;W03-C-Knokke-Heist-FH09;8389069;20191109094845;W03-C-Knokke-Heist-FH09;21235;FTTH-Cu;;20977628;20200316113046;;33860000;15
2756741;Zoning;8389069;20191109094845;W03-C-Knokke-Heist-FH09;8389069;20191109094845;W03-C-Knokke-Heist-FH09;21235;FTTH-Cu;20200316113047;20977629;20200316113047;31383583;33860000;15
2756743;Zoning;8389069;20191109094845;W03-C-Knokke-Heist-FH09;8389069;20191109094845;W03-C-Knokke-Heist-FH09;21235;FTTH-Cu;20200316113047;21118272;20200316140638;31383583;33860000;15
4337540;Zoning;8389069;20191109094845;W03-C-Knokke-Heist-FH09;8389069;20191109094845;W03-C-Knokke-Heist-FH09;21235;FTTH-Cu;20200316113047;21118299;20200316113114;31383583;33860000;15
2756745;Zoning;8389069;20191109094845;W03-C-Knokke-Heist-FH09;8389069;20191109094845;W03-C-Knokke-Heist-FH09;21235;FTTH-Cu;;20977630;20200316113047;;33860000;15
292677;Zoning;8389069;20191109094845;W03-C-Knokke-Heist-FH09;8389069;20191109094845;W03-C-Knokke-Heist-FH09;21235;FTTH-Cu;20200316113057;20977837;20200316113057;31383584;33860000;15
6396864;Zoning;8389069;20191109094845;W03-C-Knokke-Heist-FH09;8389069;20191109094845;W03-C-Knokke-Heist-FH09;21235;FTTH-Cu;20200316113057;21118301;20200316113114;31383584;33860000;15
292679;Zoning;8389069;20191109094845;W03-C-Knokke-Heist-FH09;8389069;20191109094845;W03-C-Knokke-Heist-FH09;21235;FTTH-Cu;;20977838;20200316113058;;33860000;15
2756750;Zoning;8389069;20191109094845;W03-C-Knokke-Heist-FH09;8389069;20191109094845;W03-C-Knokke-Heist-FH09;21235;FTTH-Cu;;20977631;20200316113047;;33860000;15
292338;Zoning;8389069;20191109094845;W03-C-Knokke-Heist-FH09;8389069;20191109094845;W03-C-Knokke-Heist-FH09;21235;FTTH-Cu;20200316113054;20977820;20200316113054;31383077;33860000;15
2756754;Zoning;8389069;20191109094845;W03-C-Knokke-Heist-FH09;8389069;20191109094845;W03-C-Knokke-Heist-FH09;21235;FTTH-Cu;;20977632;20200316113047;;33860000;15
2756755;Zoning;8389069;20191109094845;W03-C-Knokke-Heist-FH09;8389069;20191109094845;W03-C-Knokke-Heist-FH09;21235;FTTH-Cu;;20977633;20200316113047;;33860000;15
292344;Zoning;8389069;20191109094845;W03-C-Knokke-Heist-FH09;8389069;20191109094845;W03-C-Knokke-Heist-FH09;21235;FTTH-Cu;;20977824;20200316113057;;33860000;15
2756760;Zoning;8389069;20191109094845;W03-C-Knokke-Heist-FH09;8389069;20191109094845;W03-C-Knokke-Heist-FH09;21235;FTTH-Cu;;20977634;20200316113047;;33860000;15
2756764;Zoning;8389069;20191109094845;W03-C-Knokke-Heist-FH09;8389069;20191109094845;W03-C-Knokke-Heist-FH09;21235;FTTH-Cu;;20977635;20200316113047;;33860000;15
2756766;Zoning;8389069;20191109094845;W03-C-Knokke-Heist-FH09;8389069;20191109094845;W03-C-Knokke-Heist-FH09;21235;FTTH-Cu;;20977636;20200316113047;;33860000;15
2756768;Zoning;8389069;20191109094845;W03-C-Knokke-Heist-FH09;8389069;20191109094845;W03-C-Knokke-Heist-FH09;21235;FTTH-Cu;;20977638;20200316113051;;33860000;15
4336994;Zoning;8389069;20191109094845;W03-C-Knokke-Heist-FH09;8389069;20191109094845;W03-C-Knokke-Heist-FH09;21235;FTTH-Cu;;20977916;20200316113109;;33860000;15
2756770;Zoning;8389069;20191109094845;W03-C-Knokke-Heist-FH09;8389069;20191109094845;W03-C-Knokke-Heist-FH09;21235;FTTH-Cu;;20977639;20200316113051;;33860000;15
2756771;Zoning;8389069;20191109094845;W03-C-Knokke-Heist-FH09;8389069;20191109094845;W03-C-Knokke-Heist-FH09;21235;FTTH-Cu;;20977640;20200316113051;;33860000;15
292343;Zoning;8389069;20191109094845;W03-C-Knokke-Heist-FH09;8389069;20191109094845;W03-C-Knokke-Heist-FH09;21235;FTTH-Cu;;20977823;20200316113057;;33860000;15
2756777;Zoning;8389069;20191109094845;W03-C-Knokke-Heist-FH09;8389069;20191109094845;W03-C-Knokke-Heist-FH09;21235;FTTH-Cu;;20977642;20200316113051;;33860000;15
2756778;Zoning;8389069;20191109094845;W03-C-Knokke-Heist-FH09;8389069;20191109094845;W03-C-Knokke-Heist-FH09;21235;FTTH-Cu;;21118310;20200316113114;;33860000;15
4253977;Zoning;8389069;20191109094845;W03-C-Knokke-Heist-FH09;8389069;20191109094845;W03-C-Knokke-Heist-FH09;21235;FTTH-Cu;;20977901;20200316113108;;33860000;15
2756780;Zoning;8389069;20191109094845;W03-C-Knokke-Heist-FH09;8389069;20191109094845;W03-C-Knokke-Heist-FH09;21235;FTTH-Cu;;21118312;20200316113114;;33860000;15
292340;Zoning;8389069;20191109094845;W03-C-Knokke-Heist-FH09;8389069;20191109094845;W03-C-Knokke-Heist-FH09;21235;FTTH-Cu;20200316113054;20977821;20200316113054;31383614;33860000;15
6524198;Zoning;8389069;20191109094845;W03-C-Knokke-Heist-FH09;8389069;20191109094845;W03-C-Knokke-Heist-FH09;21235;FTTH-Cu;20200316113054;21118323;20200316113114;31383614;33860000;15
2756783;Zoning;8389069;20191109094845;W03-C-Knokke-Heist-FH09;8389069;20191109094845;W03-C-Knokke-Heist-FH09;21235;FTTH-Cu;;20977645;20200316113051;;33860000;15
2756784;Zoning;8389069;20191109094845;W03-C-Knokke-Heist-FH09;8389069;20191109094845;W03-C-Knokke-Heist-FH09;21235;FTTH-Cu;;20977646;20200316113051;;33860000;15
2756785;Zoning;8389069;20191109094845;W03-C-Knokke-Heist-FH09;8389069;20191109094845;W03-C-Knokke-Heist-FH09;21235;FTTH-Cu;;20977647;20200316113051;;33860000;15
292345;Zoning;8389069;20191109094845;W03-C-Knokke-Heist-FH09;8389069;20191109094845;W03-C-Knokke-Heist-FH09;21235;FTTH-Cu;;20977825;20200316113057;;33860000;15
292346;Zoning;8389069;20191109094845;W03-C-Knokke-Heist-FH09;8389069;20191109094845;W03-C-Knokke-Heist-FH09;21235;FTTH-Cu;;20977826;20200316113057;;33860000;15
2756787;Zoning;8389069;20191109094845;W03-C-Knokke-Heist-FH09;8389069;20191109094845;W03-C-Knokke-Heist-FH09;21235;FTTH-Cu;;20977648;20200316113051;;33860000;15
292341;Zoning;8389069;20191109094845;W03-C-Knokke-Heist-FH09;8389069;20191109094845;W03-C-Knokke-Heist-FH09;21235;FTTH-Cu;;20977822;20200316113054;;33860000;15
2756790;Zoning;8389069;20191109094845;W03-C-Knokke-Heist-FH09;8389069;20191109094845;W03-C-Knokke-Heist-FH09;21235;FTTH-Cu;;20977649;20200316113051;;33860000;15
290625;Zoning;8389069;20191109094845;W03-C-Knokke-Heist-FH09;8389069;20191109094845;W03-C-Knokke-Heist-FH09;21235;FTTH-Cu;;21118324;20200316113114;;33860000;15
2756794;Zoning;8389069;20191109094845;W03-C-Knokke-Heist-FH09;8389069;20191109094845;W03-C-Knokke-Heist-FH09;21235;FTTH-Cu;;20977650;20200316113051;;33860000;15
290627;Zoning;8389069;20191109094845;W03-C-Knokke-Heist-FH09;8389069;20191109094845;W03-C-Knokke-Heist-FH09;21235;FTTH-Cu;20200316113053;20977811;20200316113053;31382435;33860000;15
5579219;Zoning;8389069;20191109094845;W03-C-Knokke-Heist-FH09;8389069;20191109094845;W03-C-Knokke-Heist-FH09;21235;FTTH-Cu;20200316113053;21118335;20200316113114;31382435;33860000;15
2756798;Zoning;8389069;20191109094845;W03-C-Knokke-Heist-FH09;8389069;20191109094845;W03-C-Knokke-Heist-FH09;21235;FTTH-Cu;;20977651;20200316113051;;33860000;15
2756800;Zoning;8389069;20191109094845;W03-C-Knokke-Heist-FH09;8389069;20191109094845;W03-C-Knokke-Heist-FH09;21235;FTTH-Cu;20200316113053;21118345;20200316113114;31381099;33860000;15
4337658;Zoning;8389069;20191109094845;W03-C-Knokke-Heist-FH09;8389069;20191109094845;W03-C-Knokke-Heist-FH09;21235;FTTH-Cu;;21118347;20200316113114;;33860000;15
2756801;Zoning;8389069;20191109094845;W03-C-Knokke-Heist-FH09;8389069;20191109094845;W03-C-Knokke-Heist-FH09;21235;FTTH-Cu;;20977652;20200316113051;;33860000;15
290626;Zoning;8389069;20191109094845;W03-C-Knokke-Heist-FH09;8389069;20191109094845;W03-C-Knokke-Heist-FH09;21235;FTTH-Cu;;21118355;20200316113115;;33860000;15
6524195;Zoning;8389069;20191109094845;W03-C-Knokke-Heist-FH09;8389069;20191109094845;W03-C-Knokke-Heist-FH09;21235;FTTH-Cu;20200316113045;21118363;20200316113115;31382042;33860000;15
290501;Zoning;8389069;20191109094845;W03-C-Knokke-Heist-FH09;8389069;20191109094845;W03-C-Knokke-Heist-FH09;21235;FTTH-Cu;;21118378;20200316113115;;33860000;15
2756806;Zoning;8389069;20191109094845;W03-C-Knokke-Heist-FH09;8389069;20191109094845;W03-C-Knokke-Heist-FH09;21235;FTTH-Cu;;20977653;20200316113051;;33860000;15
2756807;Zoning;8389069;20191109094845;W03-C-Knokke-Heist-FH09;8389069;20191109094845;W03-C-Knokke-Heist-FH09;21235;FTTH-Cu;;20977654;20200316113051;;33860000;15
2756808;Zoning;8389069;20191109094845;W03-C-Knokke-Heist-FH09;8389069;20191109094845;W03-C-Knokke-Heist-FH09;21235;FTTH-Cu;;20977655;20200316113051;;33860000;15
2756809;Zoning;8389069;20191109094845;W03-C-Knokke-Heist-FH09;8389069;20191109094845;W03-C-Knokke-Heist-FH09;21235;FTTH-Cu;;20977656;20200316113052;;33860000;15
2756811;Zoning;8389069;20191109094845;W03-C-Knokke-Heist-FH09;8389069;20191109094845;W03-C-Knokke-Heist-FH09;21235;FTTH-Cu;;20977657;20200316113052;;33860000;15
2756812;Zoning;8389069;20191109094845;W03-C-Knokke-Heist-FH09;8389069;20191109094845;W03-C-Knokke-Heist-FH09;21235;FTTH-Cu;;21118380;20200316113115;;33860000;15
2756813;Zoning;8389069;20191109094845;W03-C-Knokke-Heist-FH09;8389069;20191109094845;W03-C-Knokke-Heist-FH09;21235;FTTH-Cu;;20977659;20200316113052;;33860000;15
2756814;Zoning;8389069;20191109094845;W03-C-Knokke-Heist-FH09;8389069;20191109094845;W03-C-Knokke-Heist-FH09;21235;FTTH-Cu;;20977660;20200316113052;;33860000;15
4337751;Zoning;8389069;20191109094845;W03-C-Knokke-Heist-FH09;8389069;20191109094845;W03-C-Knokke-Heist-FH09;21235;FTTH-Cu;;21118390;20200316113115;;33860000;15
4337752;Zoning;8389069;20191109094845;W03-C-Knokke-Heist-FH09;8389069;20191109094845;W03-C-Knokke-Heist-FH09;21235;FTTH-Cu;;21118394;20200316113115;;33860000;15
3939510;Zoning;8389069;20191109094845;W03-C-Knokke-Heist-FH09;8389069;20191109094845;W03-C-Knokke-Heist-FH09;21235;FTTH-Cu;;21118396;20200316113116;;33860000;15
1465872;Zoning;8389069;20191109094845;W03-C-Knokke-Heist-FH09;8389069;20191109094845;W03-C-Knokke-Heist-FH09;21235;FTTH-Cu;;20977614;20200316113104;;33860000;15
4337754;Zoning;8389069;20191109094845;W03-C-Knokke-Heist-FH09;8389069;20191109094845;W03-C-Knokke-Heist-FH09;21235;FTTH-Cu;;21118401;20200316113112;;33860000;15
4337755;Zoning;8389069;20191109094845;W03-C-Knokke-Heist-FH09;8389069;20191109094845;W03-C-Knokke-Heist-FH09;21235;FTTH-Cu;;21118410;20200316113116;;33860000;15
4337756;Zoning;8389069;20191109094845;W03-C-Knokke-Heist-FH09;8389069;20191109094845;W03-C-Knokke-Heist-FH09;21235;FTTH-Cu;;20977937;20200316113047;;33860000;15
1491084;Zoning;8389069;20191109094845;W03-C-Knokke-Heist-FH09;8389069;20191109094845;W03-C-Knokke-Heist-FH09;21235;FTTH-Cu;;21118412;20200316113116;;33860000;15
4337758;Zoning;8389069;20191109094845;W03-C-Knokke-Heist-FH09;8389069;20191109094845;W03-C-Knokke-Heist-FH09;21235;FTTH-Cu;;21118440;20200316113116;;33860000;15
2756816;Zoning;8389069;20191109094845;W03-C-Knokke-Heist-FH09;8389069;20191109094845;W03-C-Knokke-Heist-FH09;21235;FTTH-Cu;;20977662;20200316113052;;33860000;15
290502;Zoning;8389069;20191109094845;W03-C-Knokke-Heist-FH09;8389069;20191109094845;W03-C-Knokke-Heist-FH09;21235;FTTH-Cu;;20977809;20200316113053;;33860000;15
6524194;Zoning;8389069;20191109094845;W03-C-Knokke-Heist-FH09;8389069;20191109094845;W03-C-Knokke-Heist-FH09;21235;FTTH-Cu;;21118441;20200316113116;;33860000;15
71635;Zoning;8389069;20191109094845;W03-C-Knokke-Heist-FH09;8389069;20191109094845;W03-C-Knokke-Heist-FH09;21235;FTTH-Cu;;20977963;20200316113049;;33860000;15
5579221;Zoning;8389069;20191109094845;W03-C-Knokke-Heist-FH09;8389069;20191109094845;W03-C-Knokke-Heist-FH09;21235;FTTH-Cu;;20977940;20200316113048;;33860000;15
2756828;Zoning;8389069;20191109094845;W03-C-Knokke-Heist-FH09;8389069;20191109094845;W03-C-Knokke-Heist-FH09;21235;FTTH-Cu;;20977663;20200316113052;;33860000;15
2756830;Zoning;8389069;20191109094845;W03-C-Knokke-Heist-FH09;8389069;20191109094845;W03-C-Knokke-Heist-FH09;21235;FTTH-Cu;;20977664;20200316113052;;33860000;15
2756832;Zoning;8389069;20191109094845;W03-C-Knokke-Heist-FH09;8389069;20191109094845;W03-C-Knokke-Heist-FH09;21235;FTTH-Cu;;21118456;20200316113116;;33860000;15
2756835;Zoning;8389069;20191109094845;W03-C-Knokke-Heist-FH09;8389069;20191109094845;W03-C-Knokke-Heist-FH09;21235;FTTH-Cu;;21118458;20200316113112;;33860000;15
2756837;Zoning;8389069;20191109094845;W03-C-Knokke-Heist-FH09;8389069;20191109094845;W03-C-Knokke-Heist-FH09;21235;FTTH-Cu;;21118472;20200316113112;;33860000;15
2756838;Zoning;8389069;20191109094845;W03-C-Knokke-Heist-FH09;8389069;20191109094845;W03-C-Knokke-Heist-FH09;21235;FTTH-Cu;;20977665;20200316113052;;33860000;15
2756839;Zoning;8389069;20191109094845;W03-C-Knokke-Heist-FH09;8389069;20191109094845;W03-C-Knokke-Heist-FH09;21235;FTTH-Cu;;20977666;20200316113052;;33860000;15
2756840;Zoning;8389069;20191109094845;W03-C-Knokke-Heist-FH09;8389069;20191109094845;W03-C-Knokke-Heist-FH09;21235;FTTH-Cu;;20977667;20200316113052;;33860000;15
2756841;Zoning;8389069;20191109094845;W03-C-Knokke-Heist-FH09;8389069;20191109094845;W03-C-Knokke-Heist-FH09;21235;FTTH-Cu;;21118488;20200316113112;;33860000;15
2756845;Zoning;8389069;20191109094845;W03-C-Knokke-Heist-FH09;8389069;20191109094845;W03-C-Knokke-Heist-FH09;21235;FTTH-Cu;;20977669;20200316113052;;33860000;15
3996512;Zoning;8389069;20191109094845;W03-C-Knokke-Heist-FH09;8389069;20191109094845;W03-C-Knokke-Heist-FH09;21235;FTTH-Cu;;20977889;20200316113107;;33860000;15
4335233;Zoning;8389069;20191109094845;W03-C-Knokke-Heist-FH09;8389069;20191109094845;W03-C-Knokke-Heist-FH09;21235;FTTH-Cu;20200316113100;21118505;20200316113112;31383113;33860000;15
5579223;Zoning;8389069;20191109094845;W03-C-Knokke-Heist-FH09;8389069;20191109094845;W03-C-Knokke-Heist-FH09;21235;FTTH-Cu;20200316113100;21118506;20200316113112;31383113;33860000;15
2756847;Zoning;8389069;20191109094845;W03-C-Knokke-Heist-FH09;8389069;20191109094845;W03-C-Knokke-Heist-FH09;21235;FTTH-Cu;20200316113100;21118561;20200316113112;31383113;33860000;15
2756850;Zoning;8389069;20191109094845;W03-C-Knokke-Heist-FH09;8389069;20191109094845;W03-C-Knokke-Heist-FH09;21235;FTTH-Cu;20200316113100;21118563;20200316113112;31383113;33860000;15
2756852;Zoning;8389069;20191109094845;W03-C-Knokke-Heist-FH09;8389069;20191109094845;W03-C-Knokke-Heist-FH09;21235;FTTH-Cu;;20977670;20200316113052;;33860000;15
2756854;Zoning;8389069;20191109094845;W03-C-Knokke-Heist-FH09;8389069;20191109094845;W03-C-Knokke-Heist-FH09;21235;FTTH-Cu;;20977671;20200316113052;;33860000;15
2756855;Zoning;8389069;20191109094845;W03-C-Knokke-Heist-FH09;8389069;20191109094845;W03-C-Knokke-Heist-FH09;21235;FTTH-Cu;;21118573;20200316113113;;33860000;15
2756857;Zoning;8389069;20191109094845;W03-C-Knokke-Heist-FH09;8389069;20191109094845;W03-C-Knokke-Heist-FH09;21235;FTTH-Cu;;21118598;20200316113113;;33860000;15
4335311;Zoning;8389069;20191109094845;W03-C-Knokke-Heist-FH09;8389069;20191109094845;W03-C-Knokke-Heist-FH09;21235;FTTH-Cu;;21118605;20200316113113;;33860000;15
2756858;Zoning;8389069;20191109094845;W03-C-Knokke-Heist-FH09;8389069;20191109094845;W03-C-Knokke-Heist-FH09;21235;FTTH-Cu;;20977672;20200316113052;;33860000;15
4335312;Zoning;8389069;20191109094845;W03-C-Knokke-Heist-FH09;8389069;20191109094845;W03-C-Knokke-Heist-FH09;21235;FTTH-Cu;;20977906;20200316113108;;33860000;15
2756859;Zoning;8389069;20191109094845;W03-C-Knokke-Heist-FH09;8389069;20191109094845;W03-C-Knokke-Heist-FH09;21235;FTTH-Cu;;21118629;20200316113113;;33860000;15
2756860;Zoning;8389069;20191109094845;W03-C-Knokke-Heist-FH09;8389069;20191109094845;W03-C-Knokke-Heist-FH09;21235;FTTH-Cu;;21118695;20200316113113;;33860000;15
2756862;Zoning;8389069;20191109094845;W03-C-Knokke-Heist-FH09;8389069;20191109094845;W03-C-Knokke-Heist-FH09;21235;FTTH-Cu;;20977673;20200316113052;;33860000;15
2756863;Zoning;8389069;20191109094845;W03-C-Knokke-Heist-FH09;8389069;20191109094845;W03-C-Knokke-Heist-FH09;21235;FTTH-Cu;;20977674;20200316113053;;33860000;15
2756864;Zoning;8389069;20191109094845;W03-C-Knokke-Heist-FH09;8389069;20191109094845;W03-C-Knokke-Heist-FH09;21235;FTTH-Cu;;20977675;20200316113054;;33860000;15
2756866;Zoning;8389069;20191109094845;W03-C-Knokke-Heist-FH09;8389069;20191109094845;W03-C-Knokke-Heist-FH09;21235;FTTH-Cu;;21118729;20200316113113;;33860000;15
2756867;Zoning;8389069;20191109094845;W03-C-Knokke-Heist-FH09;8389069;20191109094845;W03-C-Knokke-Heist-FH09;21235;FTTH-Cu;;20977676;20200316113054;;33860000;15
2756868;Zoning;8389069;20191109094845;W03-C-Knokke-Heist-FH09;8389069;20191109094845;W03-C-Knokke-Heist-FH09;21235;FTTH-Cu;;20977677;20200316113054;;33860000;15
2756869;Zoning;8389069;20191109094845;W03-C-Knokke-Heist-FH09;8389069;20191109094845;W03-C-Knokke-Heist-FH09;21235;FTTH-Cu;;21118735;20200316113113;;33860000;15
71638;Zoning;8389069;20191109094845;W03-C-Knokke-Heist-FH09;8389069;20191109094845;W03-C-Knokke-Heist-FH09;21235;FTTH-Cu;;20977964;20200316113049;;33860000;15
2756872;Zoning;8389069;20191109094845;W03-C-Knokke-Heist-FH09;8389069;20191109094845;W03-C-Knokke-Heist-FH09;21235;FTTH-Cu;20200316113050;21118760;20200316113113;31379355;33860000;15
5579224;Zoning;8389069;20191109094845;W03-C-Knokke-Heist-FH09;8389069;20191109094845;W03-C-Knokke-Heist-FH09;21235;FTTH-Cu;;21118814;20200316113116;;33860000;15
71639;Zoning;8389069;20191109094845;W03-C-Knokke-Heist-FH09;8389069;20191109094845;W03-C-Knokke-Heist-FH09;21235;FTTH-Cu;;20977965;20200316113049;;33860000;15
2756875;Zoning;8389069;20191109094845;W03-C-Knokke-Heist-FH09;8389069;20191109094845;W03-C-Knokke-Heist-FH09;21235;FTTH-Cu;;21118816;20200316113116;;33860000;15
2756876;Zoning;8389069;20191109094845;W03-C-Knokke-Heist-FH09;8389069;20191109094845;W03-C-Knokke-Heist-FH09;21235;FTTH-Cu;;20977678;20200316113054;;33860000;15
2756878;Zoning;8389069;20191109094845;W03-C-Knokke-Heist-FH09;8389069;20191109094845;W03-C-Knokke-Heist-FH09;21235;FTTH-Cu;;20977679;20200316113054;;33860000;15
2756880;Zoning;8389069;20191109094845;W03-C-Knokke-Heist-FH09;8389069;20191109094845;W03-C-Knokke-Heist-FH09;21235;FTTH-Cu;;21118828;20200316113116;;33860000;15
4335306;Zoning;8389069;20191109094845;W03-C-Knokke-Heist-FH09;8389069;20191109094845;W03-C-Knokke-Heist-FH09;21235;FTTH-Cu;;21118839;20200316113116;;33860000;15
302670;Zoning;8389069;20191109094845;W03-C-Knokke-Heist-FH09;8389069;20191109094845;W03-C-Knokke-Heist-FH09;21235;FTTH-Cu;;20977856;20200316113102;;33860000;15
2756885;Zoning;8389069;20191109094845;W03-C-Knokke-Heist-FH09;8389069;20191109094845;W03-C-Knokke-Heist-FH09;21235;FTTH-Cu;;20977680;20200316140638;;33860000;15
4337343;Zoning;8389069;20191109094845;W03-C-Knokke-Heist-FH09;8389069;20191109094845;W03-C-Knokke-Heist-FH09;21235;FTTH-Cu;;20977921;20200316113109;;33860000;15
2756887;Zoning;8389069;20191109094845;W03-C-Knokke-Heist-FH09;8389069;20191109094845;W03-C-Knokke-Heist-FH09;21235;FTTH-Cu;;21118855;20200316113116;;33860000;15
4337345;Zoning;8389069;20191109094845;W03-C-Knokke-Heist-FH09;8389069;20191109094845;W03-C-Knokke-Heist-FH09;21235;FTTH-Cu;;21118862;20200316113117;;33860000;15
2756889;Zoning;8389069;20191109094845;W03-C-Knokke-Heist-FH09;8389069;20191109094845;W03-C-Knokke-Heist-FH09;21235;FTTH-Cu;;20977681;20200316113054;;33860000;15
4337347;Zoning;8389069;20191109094845;W03-C-Knokke-Heist-FH09;8389069;20191109094845;W03-C-Knokke-Heist-FH09;21235;FTTH-Cu;;21118865;20200316113113;;33860000;15
302671;Zoning;8389069;20191109094845;W03-C-Knokke-Heist-FH09;8389069;20191109094845;W03-C-Knokke-Heist-FH09;21235;FTTH-Cu;;20977857;20200316113102;;33860000;15
302672;Zoning;8389069;20191109094845;W03-C-Knokke-Heist-FH09;8389069;20191109094845;W03-C-Knokke-Heist-FH09;21235;FTTH-Cu;;20977858;20200316113102;;33860000;15
2756894;Zoning;8389069;20191109094845;W03-C-Knokke-Heist-FH09;8389069;20191109094845;W03-C-Knokke-Heist-FH09;21235;FTTH-Cu;;21118900;20200316113113;;33860000;15
302674;Zoning;8389069;20191109094845;W03-C-Knokke-Heist-FH09;8389069;20191109094845;W03-C-Knokke-Heist-FH09;21235;FTTH-Cu;;20977859;20200316113102;;33860000;15
2756896;Zoning;8389069;20191109094845;W03-C-Knokke-Heist-FH09;8389069;20191109094845;W03-C-Knokke-Heist-FH09;21235;FTTH-Cu;;20977682;20200316113055;;33860000;15
2756898;Zoning;8389069;20191109094845;W03-C-Knokke-Heist-FH09;8389069;20191109094845;W03-C-Knokke-Heist-FH09;21235;FTTH-Cu;20200316113055;20977684;20200316113055;31383631;33860000;15
4337439;Zoning;8389069;20191109094845;W03-C-Knokke-Heist-FH09;8389069;20191109094845;W03-C-Knokke-Heist-FH09;21235;FTTH-Cu;20200316113055;21344205;20200316113117;31383631;33860000;15
4337440;Zoning;8389069;20191109094845;W03-C-Knokke-Heist-FH09;8389069;20191109094845;W03-C-Knokke-Heist-FH09;21235;FTTH-Cu;;20977927;20200316113109;;33860000;15
4337441;Zoning;8389069;20191109094845;W03-C-Knokke-Heist-FH09;8389069;20191109094845;W03-C-Knokke-Heist-FH09;21235;FTTH-Cu;;21118902;20200316113117;;33860000;15
2756900;Zoning;8389069;20191109094845;W03-C-Knokke-Heist-FH09;8389069;20191109094845;W03-C-Knokke-Heist-FH09;21235;FTTH-Cu;;20977685;20200316113055;;33860000;15
4016351;Zoning;8389069;20191109094845;W03-C-Knokke-Heist-FH09;8389069;20191109094845;W03-C-Knokke-Heist-FH09;21235;FTTH-Cu;;20977890;20200316113107;;33860000;15
2756901;Zoning;8389069;20191109094845;W03-C-Knokke-Heist-FH09;8389069;20191109094845;W03-C-Knokke-Heist-FH09;21235;FTTH-Cu;;20977686;20200316113055;;33860000;15
2756903;Zoning;8389069;20191109094845;W03-C-Knokke-Heist-FH09;8389069;20191109094845;W03-C-Knokke-Heist-FH09;21235;FTTH-Cu;;21118918;20200316113117;;33860000;15
2756904;Zoning;8389069;20191109094845;W03-C-Knokke-Heist-FH09;8389069;20191109094845;W03-C-Knokke-Heist-FH09;21235;FTTH-Cu;;20977688;20200316113055;;33860000;15
302675;Zoning;8389069;20191109094845;W03-C-Knokke-Heist-FH09;8389069;20191109094845;W03-C-Knokke-Heist-FH09;21235;FTTH-Cu;20200316113102;20977860;20200316113102;31383879;33860000;15
297130;Zoning;8389069;20191109094845;W03-C-Knokke-Heist-FH09;8389069;20191109094845;W03-C-Knokke-Heist-FH09;21235;FTTH-Cu;20200316113058;21118937;20200316113117;31383883;33860000;15
2756906;Zoning;8389069;20191109094845;W03-C-Knokke-Heist-FH09;8389069;20191109094845;W03-C-Knokke-Heist-FH09;21235;FTTH-Cu;;20977689;20200316113055;;33860000;15
2756909;Zoning;8389069;20191109094845;W03-C-Knokke-Heist-FH09;8389069;20191109094845;W03-C-Knokke-Heist-FH09;21235;FTTH-Cu;;20977691;20200316113055;;33860000;15
4337482;Zoning;8389069;20191109094845;W03-C-Knokke-Heist-FH09;8389069;20191109094845;W03-C-Knokke-Heist-FH09;21235;FTTH-Cu;;21118992;20200316113117;;33860000;15
2756911;Zoning;8389069;20191109094845;W03-C-Knokke-Heist-FH09;8389069;20191109094845;W03-C-Knokke-Heist-FH09;21235;FTTH-Cu;;21118994;20200316113117;;33860000;15
297131;Zoning;8389069;20191109094845;W03-C-Knokke-Heist-FH09;8389069;20191109094845;W03-C-Knokke-Heist-FH09;21235;FTTH-Cu;;21118997;20200316113117;;33860000;15
