{
"type": "FeatureCollection",
"crs": { "type": "name", "properties": { "name": "urn:ogc:def:crs:OGC:1.3:CRS84" } },
"features": [
{ "type": "Feature", "properties": { "fid": "6804453", "zoningName": "W03-C-Antwerpen-West-FH06", "zoningId": 19083, "technologyCode": "FTTH-Cu", "typeCode": "RESSMECOR", "layoutCode": "MIX" }, "geometry": { "type": "Polygon", "coordinates": [ [ [ 4.399344971577348, 51.220565173870391, 0.000009164807688 ], [ 4.399996362152068, 51.220158744713189, 0.000009164807688 ], [ 4.400204987419969, 51.219927251972592, 0.000009164807688 ], [ 4.400363019657184, 51.219728551255926, 0.000009164807688 ], [ 4.400528788986832, 51.219285499172784, 0.000009164807688 ], [ 4.40049548696426, 51.219160354017838, 0.000009164807688 ], [ 4.400357151137569, 51.218773057318955, 0.000009164807688 ], [ 4.400607490409097, 51.218736685445251, 0.000009164807688 ], [ 4.400975182014462, 51.218674503159413, 0.000009164807688 ], [ 4.400876241226392, 51.218550369506957, 0.000009164807688 ], [ 4.400278626062815, 51.217765835234736, 0.000009164807688 ], [ 4.400442197750301, 51.217584018456613, 0.000009164807688 ], [ 4.400627111528378, 51.217389283242156, 0.000009164807688 ], [ 4.400835680992413, 51.217099185077743, 0.000009164807688 ], [ 4.400917869480918, 51.217021685382001, 0.000009164807688 ], [ 4.401132814155642, 51.216806082012688, 0.000009164807688 ], [ 4.401428360213713, 51.216509998286448, 0.000009164807688 ], [ 4.40166855864866, 51.216229822578683, 0.000009164807688 ], [ 4.401889799086058, 51.215981437337859, 0.000009164807688 ], [ 4.402193226940332, 51.215663497287501, 0.000009164807688 ], [ 4.402322652481303, 51.215306868187852, 0.000009164807688 ], [ 4.402273476955774, 51.215105244604693, 0.000009164807688 ], [ 4.402230597651054, 51.214862894258381, 0.000009164807688 ], [ 4.402114827732875, 51.214425879640238, 0.000009164807688 ], [ 4.402049808518653, 51.214182541908315, 0.000009164807688 ], [ 4.402018087937238, 51.214058390105798, 0.000009164807688 ], [ 4.401937438623965, 51.214068346190153, 0.000009164807688 ], [ 4.401863083282614, 51.214033602094055, 0.000009164807688 ], [ 4.40167303794634, 51.213665145218471, 0.000009164807688 ], [ 4.401372175085268, 51.213131832799739, 0.000009164807688 ], [ 4.401126707960172, 51.212653135354223, 0.000009164807688 ], [ 4.401030044888685, 51.21237802068066, 0.000009164807688 ], [ 4.400969829651847, 51.212206198309971, 0.000009164807688 ], [ 4.400964887819436, 51.211927084574974, 0.000009164807688 ], [ 4.401239673367049, 51.211388643455749, 0.000009164807688 ], [ 4.402324779314482, 51.211741946022762, 0.000009164807688 ], [ 4.403185311778921, 51.212059547014022, 0.000009164807688 ], [ 4.405244524778827, 51.212297307779885, 0.000009164807688 ], [ 4.405156219897023, 51.212619161679662, 0.000009164807688 ], [ 4.404840430997568, 51.213254966806623, 0.000009164807688 ], [ 4.404929232107548, 51.213556899840903, 0.000009164807688 ], [ 4.4050628439306, 51.214524323302697, 0.000009164807688 ], [ 4.40511073040527, 51.21508055125048, 0.000009164807688 ], [ 4.405022464178672, 51.215459022649362, 0.000009164807688 ], [ 4.404874172450421, 51.215931874585742, 0.000009164807688 ], [ 4.40477468059159, 51.216118644380103, 0.000009164807688 ], [ 4.404507728293656, 51.216544848067734, 0.000009164807688 ], [ 4.40418544643139, 51.217011793416518, 0.000009164807688 ], [ 4.404052772861232, 51.217245257071333, 0.000009164807688 ], [ 4.404010148657747, 51.217348571818995, 0.000009164807688 ], [ 4.404049814010184, 51.21751046615887, 0.000009164807688 ], [ 4.404469295273719, 51.217963277777692, 0.000009164807688 ], [ 4.404790665004381, 51.218341621796966, 0.000009164807688 ], [ 4.404993151649719, 51.21838725008336, 0.000009164807688 ], [ 4.405126481849985, 51.218982188074371, 0.000009164807688 ], [ 4.405188504216292, 51.219405310070947, 0.000009164807688 ], [ 4.40526161951697, 51.219854253346654, 0.000009164807688 ], [ 4.405263350561104, 51.220041984464238, 0.000009164807688 ], [ 4.405136824879322, 51.22005493689332, 0.000009164807688 ], [ 4.404956544160699, 51.220097704778532, 0.000009164807688 ], [ 4.40456434986323, 51.220185235632052, 0.000009164807688 ], [ 4.404399884613911, 51.220226011087149, 0.000009164807688 ], [ 4.403841665654658, 51.220388087446629, 0.000009164807688 ], [ 4.403335627631847, 51.220534252583107, 0.000009164807688 ], [ 4.40293079374164, 51.220649593879621, 0.000009164807688 ], [ 4.402682484208178, 51.220677478912826, 0.000009164807688 ], [ 4.402623914333199, 51.220615912275903, 0.000009164807688 ], [ 4.402472056319545, 51.220598077366347, 0.000009164807688 ], [ 4.402177826872203, 51.220558431383566, 0.000009164807688 ], [ 4.401562634191484, 51.220692700712142, 0.000009164807688 ], [ 4.400468033747808, 51.220624468662301, 0.000009164807688 ], [ 4.400254464251562, 51.220569896369724, 0.000009164807688 ], [ 4.399890642766761, 51.220532249756019, 0.000009164807688 ], [ 4.399656576479935, 51.220574030382288, 0.000009164807688 ], [ 4.399344971577348, 51.220565173870391, 0.000009164807688 ] ] ] } }
]
}
