{
"type": "FeatureCollection",
"crs": { "type": "name", "properties": { "name": "urn:ogc:def:crs:OGC:1.3:CRS84" } },
"features": [
{ "type": "Feature", "properties": { "fid": "31372691", "zoningName": "W04-C-Evere-FH05", "zoningId": 32939, "technologyCode": "FTTH-Cu", "typeCode": "NA", "layoutCode": "NA" }, "geometry": { "type": "Polygon", "coordinates": [ [ [ 4.421530162949822, 50.860829976473262, 0.0 ], [ 4.425861464585833, 50.861960518765521, 0.0 ], [ 4.426713635593319, 50.862910525384791, 0.0 ], [ 4.423175287341691, 50.865747686098686, 0.0 ], [ 4.418142217401885, 50.864023329226143, 0.0 ], [ 4.418229594490183, 50.863809445417218, 0.0 ], [ 4.421267463571577, 50.860917218573107, 0.0 ], [ 4.421530162949822, 50.860829976473262, 0.0 ] ] ] } }
]
}
