{
"type": "FeatureCollection",
"crs": { "type": "name", "properties": { "name": "urn:ogc:def:crs:OGC:1.3:CRS84" } },
"features": [
{ "type": "Feature", "properties": { "fid": "7577476", "zoningName": "W03-C-Knokke-Heist-FH05", "zoningId": 19896, "technologyCode": "FTTH-Cu", "typeCode": "NA", "layoutCode": "NA" }, "geometry": { "type": "Polygon", "coordinates": [ [ [ 3.290230477063335, 51.352666423563832, -0.000009061328788 ], [ 3.291900001839075, 51.351596764009663, -0.000009061328788 ], [ 3.291539352787042, 51.351387510855695, -0.000009061328788 ], [ 3.289342001711856, 51.350159126860845, -0.000009061328788 ], [ 3.290282552361766, 51.349474216090357, -0.000009061328788 ], [ 3.290401820320133, 51.349216681834932, -0.000009061328788 ], [ 3.289910707027647, 51.34911838148296, -0.000009061328788 ], [ 3.28984368385469, 51.348698946661052, -0.000009061328788 ], [ 3.28979888595883, 51.348384309045805, -0.000009061328788 ], [ 3.289863083196148, 51.348335226129088, -0.000009061328788 ], [ 3.290429812351126, 51.348324357798532, -0.000009061328788 ], [ 3.290953962285102, 51.348416089980837, -0.000009061328788 ], [ 3.291378133807918, 51.348564128730366, -0.000009061328788 ], [ 3.291739395887989, 51.348745924471629, -0.000009061328788 ], [ 3.291859499196907, 51.348767612410242, -0.000009061328788 ], [ 3.292357284054625, 51.348735511312746, -0.000009061328788 ], [ 3.292655003679017, 51.34882060393592, -0.000009061328788 ], [ 3.292807202040629, 51.349034830022326, -0.000009061328788 ], [ 3.292813772168753, 51.349224848655396, -0.000009061328788 ], [ 3.292792591195081, 51.349350532571009, -0.000009061328788 ], [ 3.293752853753086, 51.349391278779514, -0.000009061328788 ], [ 3.293511545273761, 51.349869710962729, -0.000009061328788 ], [ 3.29354686938227, 51.349922669979556, -0.000009061328788 ], [ 3.294442782351921, 51.350103514443013, -0.000009061328788 ], [ 3.294429783371679, 51.350148091160229, -0.000009061328788 ], [ 3.294550246731515, 51.350687078630678, -0.000009061328788 ], [ 3.293983851768396, 51.351105718008313, 0.0 ], [ 3.293525863749914, 51.350890927691871, 0.0 ], [ 3.292872304004101, 51.351334419449834, 0.0 ], [ 3.293282324011602, 51.351582027550251, 0.0 ], [ 3.29474496005406, 51.351540469984286, 0.0 ], [ 3.29487367817378, 51.35197616988124, -0.000009061328788 ], [ 3.295056555522591, 51.352920751660918, -0.000009061328788 ], [ 3.295463769935498, 51.353647650882948, -0.000009061328788 ], [ 3.295232385250456, 51.35369590797589, -0.000009061328788 ], [ 3.295093228833124, 51.353707236845963, -0.000009061328788 ], [ 3.294165177299406, 51.353534051585676, -0.000009061328788 ], [ 3.292653789776381, 51.353218250980476, -0.000009061328788 ], [ 3.291226392136405, 51.35290662653555, -0.000009061328788 ], [ 3.290230477063335, 51.352666423563832, -0.000009061328788 ] ] ] } }
]
}
