{
"type": "FeatureCollection",
"crs": { "type": "name", "properties": { "name": "urn:ogc:def:crs:OGC:1.3:CRS84" } },
"features": [
{ "type": "Feature", "properties": { "fid": "7578283", "zoningName": "W03-C-Knokke-Heist-FH06", "zoningId": 19897, "technologyCode": "FTTH-Cu", "typeCode": "NA", "layoutCode": "NA" }, "geometry": { "type": "Polygon", "coordinates": [ [ [ 3.275066851885261, 51.347631599835324, -0.000008792093632 ], [ 3.274594803871029, 51.347498959900086, -0.000008792093632 ], [ 3.274822765521473, 51.347144704440701, -0.000008792093632 ], [ 3.275774581898587, 51.34738692115193, -0.000008792093632 ], [ 3.276655372579646, 51.347541508054839, -0.000008792093632 ], [ 3.277408289268817, 51.347850541015532, -0.000008792093632 ], [ 3.278446968771667, 51.348130154892793, -0.000008792093632 ], [ 3.27889962234332, 51.348152623265911, -0.000008792093632 ], [ 3.279414298231619, 51.348335866267178, -0.000008792093632 ], [ 3.279629782845245, 51.348498051534634, -0.000008792093632 ], [ 3.280008505707855, 51.348556455667179, -0.000008792093632 ], [ 3.28146184252376, 51.348922239220563, -0.000008792093632 ], [ 3.281816936247071, 51.3490536584615, -0.000008792093632 ], [ 3.283453100511577, 51.35004360836745, -0.000008792093632 ], [ 3.284480014640061, 51.348949862110622, -0.000008792093632 ], [ 3.285090684119032, 51.349092761273972, -0.000008792093632 ], [ 3.287337737276331, 51.348962213471019, -0.000008792093632 ], [ 3.287384421196216, 51.349250575250061, -0.000008792093632 ], [ 3.28691926330578, 51.349280330785781, -0.000008792093632 ], [ 3.28691982001463, 51.349270105345788, -0.000008792093632 ], [ 3.286238390000395, 51.349289192623729, -0.000008792093632 ], [ 3.286243018472843, 51.349431987217926, -0.000008792093632 ], [ 3.286931545073057, 51.349403409801369, -0.000008792093632 ], [ 3.286919017409471, 51.349290905236522, -0.000008792093632 ], [ 3.287282082109192, 51.34927013893244, -0.000008792093632 ], [ 3.287386569674597, 51.349261927122306, -0.000008792093632 ], [ 3.2875864798799, 51.350525348099119, -0.000008792093632 ], [ 3.287699617485689, 51.351422428436734, -0.000008792093632 ], [ 3.28713643751039, 51.351469803387985, 0.0 ], [ 3.287105722712418, 51.351269122534546, 0.0 ], [ 3.286922214713088, 51.351276512733513, 0.0 ], [ 3.286949033990208, 51.351506362262604, 0.0 ], [ 3.287702311722635, 51.35144379090589, -0.000008792093632 ], [ 3.287740792327476, 51.351748899514675, -0.000008792093632 ], [ 3.287938297567239, 51.353316142378844, -0.000008792093632 ], [ 3.286920837366516, 51.353059693228865, -0.000008792093632 ], [ 3.285745478708038, 51.352678208032252, -0.000008792093632 ], [ 3.285558427663358, 51.352603969356458, -0.000008792093632 ], [ 3.285858148835807, 51.352227827140233, -0.000008792093632 ], [ 3.285772923457508, 51.35219599379613, -0.000008792093632 ], [ 3.285450038290886, 51.352572958953957, -0.000008792093632 ], [ 3.283961243558616, 51.352076010722861, -0.000008792093632 ], [ 3.283817743436053, 51.351960265654839, -0.000008792093632 ], [ 3.283479431301419, 51.351421624874391, -0.000008792093632 ], [ 3.28311349639837, 51.35081406959123, -0.000008792093632 ], [ 3.282795780061162, 51.350646377901136, -0.000008792093632 ], [ 3.280083401069288, 51.349728940692145, -0.000008792093632 ], [ 3.27477712046258, 51.348065485574381, -0.000008792093632 ], [ 3.275066851885261, 51.347631599835324, -0.000008792093632 ] ] ] } }
]
}
