{
"type": "FeatureCollection",
"crs": { "type": "name", "properties": { "name": "urn:ogc:def:crs:OGC:1.3:CRS84" } },
"features": [
{ "type": "Feature", "properties": { "fid": "5577033", "zoningName": "W02-D-Leuven-FH02", "zoningId": 15482, "technologyCode": "FTTH-Cu", "typeCode": "RESSMECOR", "layoutCode": "MIX" }, "geometry": { "type": "Polygon", "coordinates": [ [ [ 4.693689109955158, 50.882980192748505, -0.00000905909768 ], [ 4.693659581849673, 50.882633297415644, -0.00000905909768 ], [ 4.694081456584562, 50.882627360265737, -0.00000905909768 ], [ 4.694045746776649, 50.882258557572094, -0.00000905909768 ], [ 4.693633146896157, 50.88229783165535, -0.00000905909768 ], [ 4.693501561537134, 50.880704387406666, -0.00000905909768 ], [ 4.694263449277964, 50.880626014013345, -0.00000905909768 ], [ 4.694757345284514, 50.880578884839871, -0.00000905909768 ], [ 4.695501067451442, 50.880489115204917, -0.00000905909768 ], [ 4.696072992099129, 50.880396007776874, -0.00000905909768 ], [ 4.696593752161715, 50.880312572605881, -0.00000905909768 ], [ 4.697415390191703, 50.880161565643775, -0.00000905909768 ], [ 4.697968502545581, 50.879965551829478, -0.00000905909768 ], [ 4.697820154137824, 50.879867785537023, -0.00000905909768 ], [ 4.697146309474205, 50.879391152566029, -0.00000905909768 ], [ 4.696755596733128, 50.879109136051497, -0.00000905909768 ], [ 4.696627207545078, 50.87906374049237, -0.00000905909768 ], [ 4.696304999437028, 50.879097051916425, -0.00000905909768 ], [ 4.695684331363856, 50.879163830651798, -0.00000905909768 ], [ 4.69554476307448, 50.878759823307995, -0.00000905909768 ], [ 4.69544684608064, 50.878330187071946, -0.00000905909768 ], [ 4.695531195184579, 50.87767793800132, -0.00000905909768 ], [ 4.696491195141703, 50.87771243228655, -0.00000905909768 ], [ 4.697448700375834, 50.877605846175854, -0.00000905909768 ], [ 4.698357244606116, 50.877393580772157, -0.00000905909768 ], [ 4.69767634543809, 50.876121970902886, -0.00000905909768 ], [ 4.697742114218704, 50.87604743335514, -0.00000905909768 ], [ 4.698057550344263, 50.875911187463657, -0.00000905909768 ], [ 4.698581203139668, 50.875818203236221, -0.00000905909768 ], [ 4.6991776242616, 50.875784656287365, -0.00000905909768 ], [ 4.699951689135053, 50.875776841947335, -0.00000905909768 ], [ 4.700244694541475, 50.875736612306682, -0.00000905909768 ], [ 4.701335984833696, 50.875846922383801, -0.00000905909768 ], [ 4.703659661479787, 50.876177156742244, -0.00000905909768 ], [ 4.704073690669529, 50.876243681786356, -0.00000905909768 ], [ 4.703926381198886, 50.876573593334612, -0.00000905909768 ], [ 4.704025715201847, 50.876705590388511, -0.00000905909768 ], [ 4.704024054944817, 50.876760063933233, -0.00000905909768 ], [ 4.704071255310684, 50.876766396251497, -0.00000905909768 ], [ 4.704427951097893, 50.876769349398138, -0.00000905909768 ], [ 4.704431669449487, 50.876903523588126, -0.00000905909768 ], [ 4.704526350422614, 50.877080554514876, -0.00000905909768 ], [ 4.704674847407537, 50.877198329705784, -0.00000905909768 ], [ 4.70554379559275, 50.87693274096879, -0.00000905909768 ], [ 4.706578625525275, 50.877944005249759, -0.00000905909768 ], [ 4.707110210008906, 50.877696535947514, -0.00000905909768 ], [ 4.707412825674872, 50.877568514102627, -0.00000905909768 ], [ 4.7082066297488, 50.878027121873885, -0.00000905909768 ], [ 4.706747855565846, 50.878833908513215, -0.00000905909768 ], [ 4.706150572230696, 50.879149424522005, -0.00000905909768 ], [ 4.705417675424619, 50.880044226847446, -0.00000905909768 ], [ 4.705201908051702, 50.880367500809264, -0.00000905909768 ], [ 4.705013939593493, 50.880683496080131, -0.00000905909768 ], [ 4.704578249949165, 50.881195748033619, -0.00000905909768 ], [ 4.704267494047255, 50.881454237301334, -0.00000905909768 ], [ 4.703939349355363, 50.881671739145681, -0.00000905909768 ], [ 4.70293347847912, 50.88226714731956, -0.00000905909768 ], [ 4.701621516778238, 50.883008602327557, -0.00000905909768 ], [ 4.70124208298094, 50.883066712911102, -0.00000905909768 ], [ 4.700006780481285, 50.883112154936526, -0.00000905909768 ], [ 4.699813758805643, 50.883075859864682, -0.00000905909768 ], [ 4.699151390113496, 50.883077077047503, -0.00000905909768 ], [ 4.698411119747202, 50.882912664233835, -0.00000905909768 ], [ 4.698783623984641, 50.882314890208519, -0.00000905909768 ], [ 4.697877373052978, 50.881901193797468, -0.00000905909768 ], [ 4.697461137295342, 50.881958285797928, -0.00000905909768 ], [ 4.69717862332045, 50.882062050750271, -0.00000905909768 ], [ 4.696631572239651, 50.882452480279944, -0.00000905909768 ], [ 4.695242450355729, 50.882734653312703, -0.00000905909768 ], [ 4.693824823029153, 50.882994114762553, -0.00000905909768 ], [ 4.693689109955158, 50.882980192748505, -0.00000905909768 ] ] ] } }
]
}
