LAM MK;xPos;yPos;Street;Nr;Suffix
5579270;74721,156;227122,506;Bayauxlaan;2;
320829;74710,648;227097,261;Bayauxlaan;3;
321029;74711,07;227123,223;Bayauxlaan;4;
2757964;74695,831;227103,92;Bayauxlaan;5;
2757967;74689,555;227126,707;Bayauxlaan;6;
3939518;74701,005;227099,994;Bayauxlaan;7;
2757968;74678,866;227129,166;Bayauxlaan;8;
2757971;74684,968;227104,046;Bayauxlaan;11;
2757975;74678,55;227104,17;Bayauxlaan;15;
5579272;74670,859;227107,232;Bayauxlaan;17;
1334735;74633,276;227109,953;Bayauxlaan;23;
2757981;74622,858;227110,378;Bayauxlaan;27;
3939520;74611,763;227111,816;Bayauxlaan;29;
4347925;74596,468;227106,314;Bayauxlaan;33;
320352;74591,126;227113,814;Bayauxlaan;35;
320372;74558,782;227114,857;Bayauxlaan;39;
5579274;74427,105;227134,329;Bayauxlaan;40;
320371;74551,55;227114,169;Bayauxlaan;41;
319357;74405,584;227124,059;Bayauxlaan;42;
2757992;74542,257;227115,658;Bayauxlaan;43;
319356;74386,996;227118,717;Bayauxlaan;44;
319319;74356,67;227105,58;Bayauxlaan;46;
2757993;74529,216;227116,085;Bayauxlaan;47;
5553539;74334,727;227093,897;Bayauxlaan;48;
2757994;74522,27;227116,272;Bayauxlaan;49;
318034;74445,551;227094,169;Bayauxlaan;51;A
2757996;74318,357;227087,011;Bayauxlaan;52;
12840;74404,551;227078,168;Bayauxlaan;53;
2757997;74308,086;227083,295;Bayauxlaan;54;
319321;74296,266;227078,44;Bayauxlaan;56;
318033;74338,551;227052,168;Bayauxlaan;57;
319320;74260,912;227070,105;Bayauxlaan;58;
2758000;74319,551;227044,168;Bayauxlaan;59;
318032;74302,14;227037,19;Bayauxlaan;61;
2758002;74227,708;227052,138;Bayauxlaan;62;
318031;74282,65;227029,14;Bayauxlaan;63;
320283;74207,279;227044,272;Bayauxlaan;64;
2758003;74262,552;227021,167;Bayauxlaan;65;
319251;74161,624;227026,351;Bayauxlaan;66;
1473040;74244,552;227014,167;Bayauxlaan;67;
319250;74128,552;227013,166;Bayauxlaan;68;
1320203;74227,552;227005,167;Bayauxlaan;69;
318453;74053,511;226982,123;Bayauxlaan;70;
2758005;74206,552;226998,167;Bayauxlaan;71;
5573002;74191,536;226986,909;Bayauxlaan;73;
5579275;74169,552;226983,167;Bayauxlaan;77;
321036;74741,36;227256,832;Blancgarinstraat;1;
337911;74740,052;227278,888;Blancgarinstraat;2;
2758113;74726;227258;Blancgarinstraat;3;
4344082;74728,679;227281,32;Blancgarinstraat;4;
4345293;74715,62;227259,82;Blancgarinstraat;5;
4345295;74704,86;227259,98;Blancgarinstraat;7;
2758115;74720,744;227282,427;Blancgarinstraat;8;
4345296;74700,29;227260,36;Blancgarinstraat;9;
2758116;74694,58;227260,9;Blancgarinstraat;11;
2758118;74711,259;227284,65;Blancgarinstraat;12;
321034;74688,02;227261,55;Blancgarinstraat;13;
2758120;74703,484;227283,929;Blancgarinstraat;16;
337910;74694,005;227285,45;Blancgarinstraat;18;
321043;74789,552;226889,172;Burg. Frans Desmidtplein;6;
2758751;74779,552;226890,172;Burg. Frans Desmidtplein;7;
2758752;74780;226891;Burg. Frans Desmidtplein;8;
2758753;74770,552;226890,171;Burg. Frans Desmidtplein;9;
2758755;74771;226891;Burg. Frans Desmidtplein;10;
2758756;74762,552;226891,171;Burg. Frans Desmidtplein;11;
2758757;74763;226892;Burg. Frans Desmidtplein;12;
5579307;74755,552;226892,171;Burg. Frans Desmidtplein;13;
321040;74756;226893;Burg. Frans Desmidtplein;14;
321038;74744,142;226897,271;Burg. Frans Desmidtplein;15;
318038;74145,137;226962,967;Canadasquare;1;
319257;74120,552;227032,166;Canadasquare;2;
319258;74119,736;227045,113;Canadasquare;3;
6342523;74117;227041;Canadasquare;3;A
318451;74049,552;227006,166;Canadasquare;22;
336833;74782,437;227265,781;Dumortierlaan;1;
2759206;74782,748;227220,699;Dumortierlaan;2;
336834;74791,418;227271,809;Dumortierlaan;3;
5579336;74781;227227;Dumortierlaan;4;
2759211;74788,492;227276,06;Dumortierlaan;5;
2759214;74784,549;227229,171;Dumortierlaan;6;
5579337;74798;227278;Dumortierlaan;7;
336813;74794,57;227232,12;Dumortierlaan;8;
2759218;74801,549;227281,171;Dumortierlaan;9;
2759220;74803,292;227291,269;Dumortierlaan;11;
2759223;74806,984;227287,381;Dumortierlaan;13;
2759225;74811,549;227291,171;Dumortierlaan;15;
2759228;74815,549;227294,171;Dumortierlaan;17;
2759231;74820,549;227298,171;Dumortierlaan;19;
336831;74824,38;227303,75;Dumortierlaan;21;
2759237;74824,67;227309,907;Dumortierlaan;23;
4344430;74827,019;227306,023;Dumortierlaan;25;
4344432;74829;227308;Dumortierlaan;27;
4344433;74831;227310;Dumortierlaan;29;
2759242;74828,981;227313,981;Dumortierlaan;33;
5579340;74834,628;227312,339;Dumortierlaan;35;
2759248;74836,711;227316,391;Dumortierlaan;37;
2759251;74840,506;227319,711;Dumortierlaan;39;
2759254;74845,093;227322,669;Dumortierlaan;41;
2759256;74849,299;227326,24;Dumortierlaan;43;
2759262;74849,326;227331,786;Dumortierlaan;45;
2759263;74853,949;227329,357;Dumortierlaan;47;
2759266;74856,418;227332,735;Dumortierlaan;49;
2759269;74860,288;227335,995;Dumortierlaan;51;
2759270;74863,702;227339,474;Dumortierlaan;53;
2759273;74866,983;227343,236;Dumortierlaan;55;
336832;74872,329;227348,488;Dumortierlaan;57;
2759280;74870,246;227350,977;Dumortierlaan;59;
2759282;74879,072;227356,595;Dumortierlaan;61;
6524257;74897,167;227370,446;Dumortierlaan;67;
2759289;74898,124;227378,061;Dumortierlaan;69;
2759291;74909,37;227380,93;Dumortierlaan;71;
2759295;74908,948;227388,539;Dumortierlaan;73;
2759297;74917,01;227387,22;Dumortierlaan;75;
2759302;74920;227390;Dumortierlaan;77;
2759306;74924,548;227393,172;Dumortierlaan;79;
2759309;74928,548;227397,172;Dumortierlaan;81;
2759311;74932;227401;Dumortierlaan;83;
2759623;74691,702;226891,441;Elizabetlaan;117;
321047;74685,846;226892,571;Elizabetlaan;119;
2759625;74672,67;226892,783;Elizabetlaan;121;
320831;74668,181;226897,874;Elizabetlaan;123;
320832;74651,956;226896,15;Elizabetlaan;125;
1218709;74613,697;226900,23;Elizabetlaan;127;A
4126816;74604,593;226901,262;Elizabetlaan;127;B
1215657;74594,22;226902,43;Elizabetlaan;129;
317997;74452,71;226863,68;Elizabetlaan;130;
1215655;74580,559;226902,478;Elizabetlaan;131;
317998;74430,15;226869,54;Elizabetlaan;132;
320350;74574,295;226902,075;Elizabetlaan;133;
2759637;74422,93;226870,01;Elizabetlaan;134;
320370;74542,552;226923,17;Elizabetlaan;135;
5579358;74399,63;226855,35;Elizabetlaan;136;
1215658;74530,552;226924,17;Elizabetlaan;137;
317999;74391,553;226871,169;Elizabetlaan;138;
2759645;74522,552;226925,169;Elizabetlaan;139;
317994;74353,329;226877,643;Elizabetlaan;140;
2759647;74515,552;226925,169;Elizabetlaan;141;
2759649;74334,553;226879,168;Elizabetlaan;142;
318001;74495,932;226929,135;Elizabetlaan;143;
317992;74318,639;226881,206;Elizabetlaan;144;
318000;74462,1;226934,89;Elizabetlaan;145;
317993;74312,553;226881,168;Elizabetlaan;146;
2759652;74433,194;226928,248;Elizabetlaan;147;
2759654;74293,96;226882,85;Elizabetlaan;148;
2759655;74412,552;226927,169;Elizabetlaan;149;
318010;74269,553;226884,168;Elizabetlaan;150;
318009;74250,79;226885,08;Elizabetlaan;152;
317996;74362,552;226931,168;Elizabetlaan;153;
2759657;74221,063;226886,373;Elizabetlaan;154;
317995;74338,552;226932,168;Elizabetlaan;155;
317991;74213,553;226887,167;Elizabetlaan;156;
4255356;74323;226936;Elizabetlaan;157;A
5987885;74316;226937;Elizabetlaan;157;B
6325868;74310;226938;Elizabetlaan;157;C
6096218;74298;226938;Elizabetlaan;157;D
5609880;74180,336;226882,892;Elizabetlaan;158;A
5695976;74180,829;226874,598;Elizabetlaan;158;B
5610579;74181,568;226868,439;Elizabetlaan;158;C
5731389;74181,897;226863,101;Elizabetlaan;158;D
5545220;74181,65;226857,517;Elizabetlaan;158;E
2759660;74285,73;226938,558;Elizabetlaan;159;
318004;74102,296;226838,173;Elizabetlaan;160;
2759664;74288,552;226970,407;Elizabetlaan;161;
317339;73998,06;226882,81;Elizabetlaan;162;
4345567;74266,18;226970,84;Elizabetlaan;163;
2759665;73967,553;226882,165;Elizabetlaan;164;
2759666;74263,906;226940,321;Elizabetlaan;165;
2759667;73952,553;226879,165;Elizabetlaan;166;
318008;74245,628;226942,174;Elizabetlaan;167;
317337;73935,54;226874,62;Elizabetlaan;168;
318007;74247,877;226965,274;Elizabetlaan;169;
317335;73910,101;226866,621;Elizabetlaan;170;
2759668;74226,525;226964,455;Elizabetlaan;171;
4346061;73886,255;226859,255;Elizabetlaan;172;
4345571;74225,137;226942,806;Elizabetlaan;173;
317343;73872,624;226851,207;Elizabetlaan;174;
4252182;74207,552;226945,167;Elizabetlaan;175;
317341;73864,553;226850,164;Elizabetlaan;176;
318006;74188,21;226945,973;Elizabetlaan;177;
317333;73847,577;226834,145;Elizabetlaan;178;
318011;74180,552;226946,941;Elizabetlaan;179;
318012;74160;226947;Elizabetlaan;181;
317809;73957,91;226948,23;Elizabetlaan;185;
2759669;73936,553;226937,165;Elizabetlaan;187;
2759670;73927,553;226933,165;Elizabetlaan;189;
1129827;73910,553;226924,165;Elizabetlaan;191;
1129828;73893,95;226921,8;Elizabetlaan;193;
2759671;73878,553;226910,164;Elizabetlaan;195;
2759673;73855;226903;Elizabetlaan;199;
338543;74812;227211;Ferdinand Mosselmanstraat;3;
5579503;74814,461;227200,259;Ferdinand Mosselmanstraat;5;
2763871;74828,082;227191,519;Ferdinand Mosselmanstraat;7;
338542;74846,183;227171,608;Ferdinand Mosselmanstraat;9;
2759993;73964,95;226775,36;Georginapad;1;
2759994;73960,52;226812,49;Georginapad;2;
2759996;73943,1;226785,82;Georginapad;3;
317413;73895,961;226829,486;Georginapad;4;
317410;73912,938;226800,392;Georginapad;5;
317412;73875,279;226827,69;Georginapad;6;
317408;73888,942;226800,753;Georginapad;7;
338545;74758,366;226987,444;Jozef Mommenstraat;1;
338544;74774,551;226958,171;Jozef Mommenstraat;2;
4347586;74764,682;226982,173;Jozef Mommenstraat;3;
2763845;74780,06;226952,81;Jozef Mommenstraat;4;
338548;74771,217;226982,306;Jozef Mommenstraat;5;
338546;74786,551;226956,172;Jozef Mommenstraat;6;
338549;74777,484;226982,041;Jozef Mommenstraat;7;
2763847;74783,351;226981,774;Jozef Mommenstraat;9;
2763848;74787,885;226981,108;Jozef Mommenstraat;11;
4347588;74793,79;226980,24;Jozef Mommenstraat;13;
317803;73808,553;226922,164;Jozef Nellenslaan;104;
4346883;73827,633;226931,391;Jozef Nellenslaan;106;
4346886;73831,553;226934,164;Jozef Nellenslaan;108;
2764149;73848,553;226940,164;Jozef Nellenslaan;110;
2764150;73877,935;226946,917;Jozef Nellenslaan;116;
2764154;73899,553;226955,165;Jozef Nellenslaan;118;
4346890;73917,69;226957,75;Jozef Nellenslaan;120;
4346892;73924,09;226960,95;Jozef Nellenslaan;122;
2764159;73939,17;226969,78;Jozef Nellenslaan;124;
4018211;73943,74;226972,92;Jozef Nellenslaan;126;
317807;73960,552;226985,165;Jozef Nellenslaan;128;
318446;73993,393;227004,661;Jozef Nellenslaan;130;
318449;74029;227020;Jozef Nellenslaan;134;
319254;74127,84;227058,896;Jozef Nellenslaan;138;
6405028;74155;227071;Jozef Nellenslaan;140;
319256;74219,916;227092,016;Jozef Nellenslaan;144;
4343360;74242,869;227103,096;Jozef Nellenslaan;146;
319310;74252,873;227107,347;Jozef Nellenslaan;148;
319311;74274,555;227121,054;Jozef Nellenslaan;150;
319307;74289,431;227129,877;Jozef Nellenslaan;152;
5579515;74309,842;227148,269;Jozef Nellenslaan;154;
319359;74334,758;227175,125;Jozef Nellenslaan;156;
319360;74348,468;227192,396;Jozef Nellenslaan;158;
5845586;74353,63;227196,964;Jozef Nellenslaan;160;
319361;74372,726;227216,201;Jozef Nellenslaan;162;
318020;74362,552;226961,168;Julius Sabbelaan;1;
318019;74413,07;226951,71;Julius Sabbelaan;2;
2765905;74390,552;226930,168;Julius Sabbelaan;2;A
318021;74362,55;226979,15;Julius Sabbelaan;3;
4345499;74397,46;226976,15;Julius Sabbelaan;4;
2765908;74419,552;226974,169;Julius Sabbelaan;6;
318023;74367,551;227028,168;Julius Sabbelaan;7;
5579548;74367,551;227028,168;Julius Sabbelaan;9;
2765912;74406,91;227000,42;Julius Sabbelaan;10;
318024;74357,551;227058,168;Julius Sabbelaan;11;
2765913;74398,6;227019,51;Julius Sabbelaan;14;
2765915;74401,351;227036,188;Julius Sabbelaan;16;
2765917;74411,311;227037,216;Julius Sabbelaan;18;
318025;74402,551;227055,168;Julius Sabbelaan;20;
337594;74764,724;227527,928;Kongostraat;1;
5736975;74753,473;227528,605;Kongostraat;1;B
337598;74750,25;227554,344;Kongostraat;2;
2761752;74740,547;227529,17;Kongostraat;3;
2761753;74731,547;227530,17;Kongostraat;5;
337501;74715,547;227531,17;Kongostraat;7;
336890;74804,727;227480,201;Koninginnenlaan;1;
5579408;74819,548;227427,171;Koninginnenlaan;2;
5579409;74814,122;227478,27;Koninginnenlaan;3;
336893;74809;227474;Koninginnenlaan;5;
1356735;74823,546;227421,702;Koninginnenlaan;6;
336891;74812,547;227467,171;Koninginnenlaan;7;
2761771;74829;227417;Koninginnenlaan;8;
2761772;74824,262;227469,059;Koninginnenlaan;9;
2761773;74832,548;227412,171;Koninginnenlaan;10;
2761775;74819,349;227463,628;Koninginnenlaan;11;
2761777;74836,548;227407,171;Koninginnenlaan;12;
4347425;74834,256;227458,611;Koninginnenlaan;13;
4347442;74841;227404;Koninginnenlaan;14;
2761779;74828;227454;Koninginnenlaan;15;
2761782;74844,548;227398,171;Koninginnenlaan;16;
2761784;74834,547;227444,171;Koninginnenlaan;17;
2761786;74848,548;227393,171;Koninginnenlaan;18;
2761787;74853,548;227388,171;Koninginnenlaan;20;
4347427;74839,69;227439,2;Koninginnenlaan;21;
2761788;74858,222;227383,018;Koninginnenlaan;22;
2761790;74843,11;227435,5;Koninginnenlaan;23;
4102988;74862,88;227379,63;Koninginnenlaan;24;
2761793;74847,678;227430,32;Koninginnenlaan;25;
4065780;74866,19;227374,24;Koninginnenlaan;26;
2761794;74853,383;227423,024;Koninginnenlaan;27;
2761797;74869,701;227368,823;Koninginnenlaan;28;
2761801;74875,307;227364,072;Koninginnenlaan;30;
336895;74860,548;227415,06;Koninginnenlaan;31;
336894;74870,26;227404,39;Koninginnenlaan;33;
2761806;74878,43;227394,53;Koninginnenlaan;35;
336892;74888,534;227381,28;Koninginnenlaan;41;
336242;74429,83;226535,58;Koningslaan;41;
2761820;74433,33;226556;Koningslaan;43;
2761821;74435,34;226574,4;Koningslaan;45;
2761824;74434,87;226596,4;Koningslaan;47;
2761826;74433,13;226615,57;Koningslaan;49;
320539;74436,74;226635,65;Koningslaan;51;
320540;74443,91;226672,56;Koningslaan;53;
2761832;74441,67;226691,3;Koningslaan;55;
2761835;74440,44;226708,17;Koningslaan;57;
2761836;74445,48;226723,53;Koningslaan;59;
2761838;74445,06;226730,4;Koningslaan;61;
4347959;74445,79;226745,26;Koningslaan;63;
2761840;74446;226752,01;Koningslaan;65;
2761844;74448,93;226771,04;Koningslaan;67;
320543;74449,45;226777,92;Koningslaan;69;
320544;74445,693;226796,329;Koningslaan;71;
2761847;74453;226800;Koningslaan;71;A
320545;74451,7;226818,59;Koningslaan;73;
320546;74452,63;226826,98;Koningslaan;75;
318016;74450,5;226845,99;Koningslaan;77;
318017;74439,79;226984,19;Koningslaan;79;
2761857;74458,82;226983,3;Koningslaan;81;
4345514;74464,551;226998,169;Koningslaan;83;
1320204;74465,551;227005,169;Koningslaan;85;
2761860;74465,551;227021,169;Koningslaan;89;
2761862;74466,551;227030,169;Koningslaan;91;
318018;74470,551;227054,169;Koningslaan;93;
320366;74496;226940;Koningslaan;146;
2761912;74496,552;226947,169;Koningslaan;148;
2761915;74497,552;226956,169;Koningslaan;150;
1512550;74497,552;226962,169;Koningslaan;152;
2761921;74498;226969;Koningslaan;154;
1187954;74504,552;226973,169;Koningslaan;156;
2761927;74499,12;226981,67;Koningslaan;158;
2761928;74499,552;226987,169;Koningslaan;160;
1366078;74499,551;226997,169;Koningslaan;162;
1185123;74500,551;227006,169;Koningslaan;164;
2761932;74501,551;227013,169;Koningslaan;166;
2761933;74501,551;227020,169;Koningslaan;168;
2761936;74503,949;227031,673;Koningslaan;172;
2761937;74504,36;227040,713;Koningslaan;174;
2761940;74503,551;227048,169;Koningslaan;178;
1334511;74504,037;227058,505;Koningslaan;180;
320367;74504,934;227068,402;Koningslaan;182;
320368;74506,064;227077,094;Koningslaan;184;
1451246;74506,652;227085,339;Koningslaan;186;
1339089;74507,065;227094,035;Koningslaan;188;
2271921;74513,406;227110,354;Koningslaan;192;
320369;74507,961;227118,162;Koningslaan;194;
321011;74649,552;226908,17;Leopoldlaan;10;
2762746;74651,261;226921,716;Leopoldlaan;12;
2762747;74652,926;226936,282;Leopoldlaan;14;
320354;74620,726;226902,122;Leopoldlaan;15;
1339656;74623,14;226915,04;Leopoldlaan;17;
4345303;74654,552;226948,17;Leopoldlaan;18;
1332722;74624;226929;Leopoldlaan;19;
4345305;74655,616;226953,52;Leopoldlaan;20;
2762752;74624,552;226940,17;Leopoldlaan;21;
2762753;74625,727;226950,608;Leopoldlaan;23;
2762755;74656,551;226966,17;Leopoldlaan;24;
4084522;74627,063;226958,724;Leopoldlaan;25;
2762761;74657,28;226974,07;Leopoldlaan;28;
2762762;74626,742;226968,45;Leopoldlaan;29;
2762765;74657,551;226983,17;Leopoldlaan;30;
2762766;74628,023;226976,642;Leopoldlaan;31;
2762769;74629,982;226984,99;Leopoldlaan;35;
2762770;74630,262;226991,186;Leopoldlaan;37;
320827;74660,62;227006,41;Leopoldlaan;38;
1451221;74630,551;227001,17;Leopoldlaan;39;
320355;74633,082;227019,974;Leopoldlaan;41;
2762777;74660,551;227013,17;Leopoldlaan;42;
3958458;74661,551;227018,17;Leopoldlaan;44;
1373535;74635,37;227033,2;Leopoldlaan;45;
2762779;74663,551;227029,17;Leopoldlaan;46;
2762782;74636;227047,2;Leopoldlaan;47;
3939600;74665,712;227034,726;Leopoldlaan;48;
2762785;74636,551;227052,17;Leopoldlaan;49;
2762786;74672,667;227042,376;Leopoldlaan;50;
3939601;74636,551;227057,17;Leopoldlaan;51;
2762789;74665,551;227051,17;Leopoldlaan;52;
4007329;74637,27;227064,86;Leopoldlaan;53;
2762791;74638,26;227076,951;Leopoldlaan;55;
4148575;74665,551;227059,17;Leopoldlaan;56;
320353;74639,66;227089,15;Leopoldlaan;61;
320826;74667,195;227076,624;Leopoldlaan;62;
5579461;74633,836;227089,616;Leopoldlaan;63;
6524231;74673,726;227080,13;Leopoldlaan;64;
1024232;74642,725;227104,79;Leopoldlaan;65;
2762803;74669,213;227086,61;Leopoldlaan;66;
2762805;74670,167;227094,533;Leopoldlaan;68;
320825;74673,735;227099,732;Leopoldlaan;70;A
321015;74674,23;227136,77;Leopoldlaan;72;
2762812;74674,699;227141,362;Leopoldlaan;74;
4343863;74675,75;227145,97;Leopoldlaan;76;
2762814;74676,481;227153,218;Leopoldlaan;78;
2762820;74677,853;227163,548;Leopoldlaan;82;
2762823;74678,592;227174,048;Leopoldlaan;84;
2762828;74680,308;227181,393;Leopoldlaan;86;
2762839;74680,55;227191,17;Leopoldlaan;92;
2762841;74680,814;227195,09;Leopoldlaan;94;
4343866;74680,55;227200,17;Leopoldlaan;96;
4270055;74680,81;227205,027;Leopoldlaan;98;
2762845;74683,22;227213,862;Leopoldlaan;100;
2762848;74683,443;227221,867;Leopoldlaan;102;
2762850;74686,152;227232,78;Leopoldlaan;104;
3939603;74686,227;227241,715;Leopoldlaan;106;
2762865;74685,629;227248,101;Leopoldlaan;114;
321018;74686,405;227254,282;Leopoldlaan;116;
2762868;74692,442;227291,636;Leopoldlaan;118;
337909;74693,549;227322,17;Leopoldlaan;122;
2762872;74693,549;227328,17;Leopoldlaan;124;
2762874;74696,135;227344,101;Leopoldlaan;126;
2762877;74697,548;227359,17;Leopoldlaan;128;
2762881;74698,06;227366,77;Leopoldlaan;130;
337908;74699,103;227383,062;Leopoldlaan;132;
337514;74701,684;227411,967;Leopoldlaan;134;
6524261;74703,27;227421,756;Leopoldlaan;136;
2762887;74704,548;227427,668;Leopoldlaan;138;
2762889;74704,938;227434,603;Leopoldlaan;140;
337515;74706,72;227447,687;Leopoldlaan;144;
5320269;74707,548;227457,17;Leopoldlaan;146;
2762892;74717;227459;Leopoldlaan;148;
3939605;74708,892;227463,92;Leopoldlaan;152;
2762893;74721;227470;Leopoldlaan;154;
2762895;74711,696;227488,054;Leopoldlaan;156;
5407363;74710,06;227470,974;Leopoldlaan;156;A
2762897;74712,873;227500,473;Leopoldlaan;158;
2762899;74724,803;227508,464;Leopoldlaan;160;
1469482;74714,188;227510,678;Leopoldlaan;162;
2762901;74715,784;227522,3;Leopoldlaan;164;
337513;74720,692;227526,416;Leopoldlaan;166;
5579463;74720,64;227554,59;Leopoldlaan;168;
338425;74740;226900;Lippenslaan;154;
2763148;74740,552;226908,171;Lippenslaan;156;
2763151;74740,552;226908,171;Lippenslaan;158;
2763157;74742,552;226916,171;Lippenslaan;160;
2763160;74743;226923;Lippenslaan;162;
2763162;74754,29;226927,86;Lippenslaan;164;
2763165;74744,552;226934,171;Lippenslaan;166;
2763168;74744,552;226941,171;Lippenslaan;168;
2763171;74745,552;226945,171;Lippenslaan;170;
2763173;74745,551;226950,171;Lippenslaan;172;
2763175;74746,551;226959,171;Lippenslaan;174;
320839;74704;226893;Lippenslaan;175;
2763178;74747;226960;Lippenslaan;176;
321070;74702,805;226901,246;Lippenslaan;177;
338429;74748,418;226984,239;Lippenslaan;178;
2763180;74696,128;226904,842;Lippenslaan;179;
338431;74749,551;226991,171;Lippenslaan;180;
5579475;74704,022;226907,331;Lippenslaan;181;
2763182;74749,817;226998,634;Lippenslaan;182;
2763183;74706;226913;Lippenslaan;183;
2763185;74756,961;227001,839;Lippenslaan;184;
2763187;74706,552;226920,171;Lippenslaan;185;
2763188;74750,995;227005,2;Lippenslaan;186;
2763189;74706,14;226926,03;Lippenslaan;187;
2763192;74751,551;227011,171;Lippenslaan;188;
1454495;74706,951;226933,174;Lippenslaan;189;
3939610;74760,747;227017,341;Lippenslaan;190;
2763195;74707,231;226939,174;Lippenslaan;191;
2763196;74752,531;227018,393;Lippenslaan;192;
3939611;74753,196;227025;Lippenslaan;194;
1461551;74705,2;226948,197;Lippenslaan;195;
2763198;74754,193;227030,545;Lippenslaan;196;
2763199;74709,885;226953,573;Lippenslaan;197;
2763201;74761,229;227030,104;Lippenslaan;198;
2763204;74710,418;226959,107;Lippenslaan;199;
2763205;74757,956;227037,774;Lippenslaan;200;
320997;74711,206;226962,933;Lippenslaan;201;
2763212;74754,866;227043,209;Lippenslaan;202;
2763213;74705,275;226968,974;Lippenslaan;203;
2763215;74756;227049;Lippenslaan;204;
5579476;74711,818;226972,446;Lippenslaan;205;
2763218;74755,551;227054,171;Lippenslaan;206;
1469879;74711,483;226978,773;Lippenslaan;207;
2763220;74756,593;227060,69;Lippenslaan;208;
2763221;74707,57;226986,214;Lippenslaan;209;
2763222;74763,56;227065,505;Lippenslaan;210;
2763223;74713,151;226985,439;Lippenslaan;211;
4347581;74757,751;227072,168;Lippenslaan;212;
2763225;74765,144;227074,533;Lippenslaan;214;
2763229;74758,326;227077,604;Lippenslaan;216;
2763232;74758,55;227082,171;Lippenslaan;218;
2763233;74760,151;227089,373;Lippenslaan;220;
2763237;74710,944;227008,74;Lippenslaan;221;
338435;74766,876;227092,999;Lippenslaan;222;
2763240;74716,106;227008,065;Lippenslaan;223;
338433;74760,609;227102,656;Lippenslaan;224;
2763243;74715,349;227013,974;Lippenslaan;225;
5579477;74761,677;227110,068;Lippenslaan;226;
1447535;74715,883;227019,64;Lippenslaan;227;
321000;74763,332;227132,193;Lippenslaan;228;
320836;74716,879;227024,382;Lippenslaan;229;
2763249;74765,614;227148,557;Lippenslaan;230;
320835;74718,417;227029,707;Lippenslaan;231;
2763250;74772,609;227149,866;Lippenslaan;232;
2763251;74711,393;227030,37;Lippenslaan;233;
2763252;74766,325;227151,602;Lippenslaan;234;
2763253;74718,868;227037,467;Lippenslaan;235;
2763254;74767,55;227156,171;Lippenslaan;236;
2763255;74713,329;227038,449;Lippenslaan;237;
321002;74775,335;227166,748;Lippenslaan;238;
2763257;74714,476;227046,975;Lippenslaan;239;
2763258;74768,25;227167,14;Lippenslaan;240;
2763259;74720;227045;Lippenslaan;241;
2763261;74769,55;227177,171;Lippenslaan;242;
2763262;74720,551;227053,171;Lippenslaan;243;
2763264;74769,16;227183,64;Lippenslaan;244;
320834;74721,551;227060,171;Lippenslaan;245;
2763267;74776,837;227188,447;Lippenslaan;246;
320833;74722,551;227065,171;Lippenslaan;247;
321005;74771,55;227194,171;Lippenslaan;248;
2763269;74722,283;227075,307;Lippenslaan;249;
2763270;74771,549;227201,171;Lippenslaan;250;
4009071;74717,992;227075,068;Lippenslaan;251;
2763272;74772,549;227207,171;Lippenslaan;252;
2763273;74723,016;227083,174;Lippenslaan;253;
321009;74773,549;227212,171;Lippenslaan;254;
2763276;74723,816;227088,972;Lippenslaan;255;
2763277;74774;227219;Lippenslaan;256;
2763279;74723,949;227095,842;Lippenslaan;257;
336835;74777,693;227262,343;Lippenslaan;258;
320838;74725,206;227101;Lippenslaan;259;
2763281;74783,88;227270,288;Lippenslaan;260;
320999;74730,375;227121,836;Lippenslaan;261;
2763284;74779,288;227275,841;Lippenslaan;262;
5579478;74732,55;227131,171;Lippenslaan;263;
2763288;74732,108;227142,613;Lippenslaan;265;
2763289;74786,676;227283,813;Lippenslaan;266;
2763291;74732,167;227149,423;Lippenslaan;267;
4344405;74779,893;227284,46;Lippenslaan;268;
3939613;74728,085;227153,171;Lippenslaan;269;
6447295;74734,287;227155,567;Lippenslaan;269;A
2763295;74781,265;227291,953;Lippenslaan;270;
2763296;74734,656;227163,865;Lippenslaan;271;
2763297;74729,894;227164,545;Lippenslaan;273;
2763299;74787,67;227297,348;Lippenslaan;274;
2763300;74736,233;227171,306;Lippenslaan;275;
2763301;74782,135;227299,692;Lippenslaan;276;
2763302;74736,842;227176,902;Lippenslaan;277;
2763304;74782,484;227306,343;Lippenslaan;278;
2763305;74737,079;227182,883;Lippenslaan;279;
2763307;74783,33;227311,669;Lippenslaan;280;
2690586;74737,675;227188,915;Lippenslaan;281;
2763310;74783,418;227316,343;Lippenslaan;282;
2763311;74738,824;227197,014;Lippenslaan;283;
2763313;74784,939;227323,799;Lippenslaan;284;
2763315;74734,62;227197,322;Lippenslaan;285;
2763317;74791,252;227329,382;Lippenslaan;286;
2763318;74740,047;227202,599;Lippenslaan;287;
2763320;74740,277;227207,498;Lippenslaan;289;
338144;74739,962;227212,142;Lippenslaan;291;
2763323;74732,613;227215,345;Lippenslaan;293;
2763325;74740,529;227218,014;Lippenslaan;295;
2763326;74740,831;227226,399;Lippenslaan;297;
321004;74741,656;227233,07;Lippenslaan;299;
2763328;74785,637;227337,479;Lippenslaan;300;
4343862;74743,358;227244,306;Lippenslaan;301;
2763329;74785,548;227343,171;Lippenslaan;302;
2763330;74746,404;227278,979;Lippenslaan;303;
1366430;74787,548;227352,171;Lippenslaan;304;
321008;74746,85;227285,136;Lippenslaan;305;
2763331;74797,248;227349,939;Lippenslaan;306;
337907;74740,945;227289,881;Lippenslaan;307;
2763334;74788,654;227362,206;Lippenslaan;308;
2763335;74747,796;227296,242;Lippenslaan;309;
2763337;74789,012;227368,783;Lippenslaan;310;
2763339;74749,269;227304,152;Lippenslaan;311;
2763340;74797,973;227366,893;Lippenslaan;312;
2763341;74750,698;227309,996;Lippenslaan;313;
2763343;74789,548;227377,171;Lippenslaan;314;
2763344;74750,436;227317,16;Lippenslaan;315;
2763346;74790,548;227387,171;Lippenslaan;316;
2763347;74751,441;227323,059;Lippenslaan;317;
2763348;74791,548;227393,171;Lippenslaan;318;
2763349;74752,093;227328,213;Lippenslaan;319;
2763350;74792,352;227401,278;Lippenslaan;320;
2763351;74747,362;227334,343;Lippenslaan;321;
2763352;74800,424;227399,893;Lippenslaan;322;
2763354;74754,261;227333,284;Lippenslaan;323;
2763356;74792,548;227408,343;Lippenslaan;324;
2763357;74753,266;227337,797;Lippenslaan;325;
2763358;74800,75;227407,609;Lippenslaan;326;
1288638;74793,631;227413,945;Lippenslaan;328;
2763362;74755,548;227353,171;Lippenslaan;329;
2763363;74794,338;227419,627;Lippenslaan;330;
2763364;74756,092;227359,343;Lippenslaan;331;
336836;74795,092;227430,631;Lippenslaan;332;
2763368;74755,962;227364,757;Lippenslaan;333;
2763369;74796,134;227436,492;Lippenslaan;334;
2763370;74756,702;227372,278;Lippenslaan;335;
2763374;74796,586;227443,182;Lippenslaan;336;
337906;74755,748;227379,188;Lippenslaan;337;
5579479;74796,134;227450,494;Lippenslaan;338;
337510;74761,548;227407,171;Lippenslaan;339;
336896;74816,513;227482,921;Lippenslaan;340;
2763376;74753,559;227417,358;Lippenslaan;341;
2763377;74800,029;227489,235;Lippenslaan;342;
2763378;74761,636;227420,603;Lippenslaan;343;
2763379;74806,214;227492,693;Lippenslaan;344;
337512;74762,18;227428,799;Lippenslaan;345;
2763380;74802,117;227499,344;Lippenslaan;346;
1456582;74763,636;227434,734;Lippenslaan;347;
2763382;74809,039;227498,066;Lippenslaan;348;
1283786;74764,18;227439,561;Lippenslaan;349;
336897;74805,123;227508,847;Lippenslaan;350;
3939614;74764,842;227445,369;Lippenslaan;351;
337511;74764,854;227452,32;Lippenslaan;353;
2763386;74749,875;227455,562;Lippenslaan;355;
2763391;74764,502;227457,456;Lippenslaan;363;
4344169;74765;227462;Lippenslaan;365;
4344173;74759,651;227457,572;Lippenslaan;367;
2763392;74759,428;227462,532;Lippenslaan;371;
5579480;74752,017;227467,364;Lippenslaan;373;
2763394;74767,153;227466,87;Lippenslaan;375;
2763395;74767,942;227473,842;Lippenslaan;377;
2763396;74768,547;227479,171;Lippenslaan;379;
2763398;74769,547;227485,171;Lippenslaan;381;
2763399;74770,547;227491,171;Lippenslaan;383;
2763400;74770,547;227497,171;Lippenslaan;385;
2763402;74771,547;227503,171;Lippenslaan;387;
2763403;74771,221;227511,408;Lippenslaan;389;
2763404;74772,524;227518,441;Lippenslaan;391;
337509;74772,612;227525,897;Lippenslaan;393;
320556;74397,1;226639,26;Lispannenlaan;1;
320557;74426,17;226672,02;Lispannenlaan;2;
320555;74357,61;226634,5;Lispannenlaan;3;
2763435;74404,79;226680,36;Lispannenlaan;4;
2763436;74332,09;226640,03;Lispannenlaan;5;
2763437;74397,75;226674,49;Lispannenlaan;6;
320553;74319,16;226638,93;Lispannenlaan;7;
320552;74288,45;226658,07;Lispannenlaan;9;
320148;73992,6;226604,38;Lispannenlaan;10;
4347985;74279,66;226662,58;Lispannenlaan;11;
2763439;73994,15;226586,04;Lispannenlaan;12;
2763440;74257,76;226649,94;Lispannenlaan;13;
320150;73993,64;226564,87;Lispannenlaan;14;
2763442;74247,42;226658,05;Lispannenlaan;15;
2763444;74229,08;226651,684;Lispannenlaan;17;
2763445;74191,09;226649,99;Lispannenlaan;19;
2763447;74175,04;226642,13;Lispannenlaan;21;
4248488;74159,62;226638,11;Lispannenlaan;23;
6443387;74143;226633;Lispannenlaan;25;A
5913163;74121,274;226620,945;Lispannenlaan;25;B
2763448;74092,32;226604,41;Lispannenlaan;29;
320551;74081,501;226601,247;Lispannenlaan;31;
320254;74056,66;226597,05;Lispannenlaan;33;
5579485;74031,675;226589,806;Lispannenlaan;35;
320252;74026,504;226587,6;Lispannenlaan;37;
320146;74020,42;226541,13;Lispannenlaan;39;
320561;74324,86;226608,17;Majoor Vandammestraat;1;
336259;74273;226581;Majoor Vandammestraat;2;
320560;74252,555;226620,169;Majoor Vandammestraat;4;
2758720;74228;226620;Majoor Vandammestraat;6;
320562;74286,36;226638,23;Majoor Vandammestraat;8;
320094;74118,636;226532,155;Maxim Willemspad;1;
2763624;74037,09;226497,71;Meerlaan;36;
320090;74023,806;226513,016;Meerlaan;40;
320095;74004,84;226525,36;Meerlaan;42;
320226;73976,75;226557,51;Meerlaan;44;
320229;73966,17;226578,64;Meerlaan;46;
1320708;73954,533;226595,831;Meerlaan;48;
2763634;73968,7;226633,34;Meerlaan;50;
2763637;73939,7;226612,78;Meerlaan;52;
317392;73935,64;226618,81;Meerlaan;54;
1474146;73919,555;226653,165;Meerlaan;56;
2763642;73943,555;226668,165;Meerlaan;58;
2763644;73945,66;226681,09;Meerlaan;60;
317394;73908,18;226685,3;Meerlaan;62;
317396;73887,554;226729,165;Meerlaan;64;
2763646;73882,17;226747,823;Meerlaan;66;
4346048;73876,123;226760,576;Meerlaan;68;
2763649;73872,715;226772,619;Meerlaan;70;
4125688;73869,691;226779,463;Meerlaan;72;
317400;73861,715;226796,619;Meerlaan;74;
4140158;73822;226892;Meerlaan;76;
317801;73811,553;226914,164;Meerlaan;78;
318039;74461,551;227075,169;Meerminlaan;1;
319349;74415,058;227153,111;Meerminlaan;3;
2763698;74405,025;227168,533;Meerminlaan;5;
319348;74392,07;227182,582;Meerminlaan;7;
5579493;74393,55;227195,168;Meerminlaan;9;
6326824;74382;227190;Meerminlaan;9;A
317287;73897,896;226712,6;Morgensterpad;1;
317289;73919,555;226697,165;Morgensterpad;2;
317347;73911,801;226739,824;Morgensterpad;3;
2763859;73942,01;226719,07;Morgensterpad;4;
2763860;73912,142;226750,577;Morgensterpad;5;
2763861;73941,554;226743,165;Morgensterpad;6;
2763862;73911,694;226773,932;Morgensterpad;7;
317349;73942,554;226763,165;Morgensterpad;8;
317351;73912,346;226781,279;Morgensterpad;9;
317353;73944,5;226824,92;Morgensterpad;10;
317355;73917,53;226828,2;Morgensterpad;11;
317357;73915,255;226849,847;Morgensterpad;13;
317359;73941,46;226852,32;Morgensterpad;14;
317990;74315,78;227020,56;Neptunuspad;1;
317989;74291,848;227009,964;Neptunuspad;2;
317988;74319,84;227002,33;Neptunuspad;3;
318036;74337,73;227005,613;Neptunuspad;5;
318035;74337,552;226979,168;Neptunuspad;6;
318037;74345,4;227005,32;Neptunuspad;7;
2764301;74364;227000;Neptunuspad;9;
320356;74579,531;226911,005;Paul Parmentierlaan;114;
320357;74576,168;226916,505;Paul Parmentierlaan;116;
5579536;74577;226924;Paul Parmentierlaan;120;
2765132;74577,03;226931,56;Paul Parmentierlaan;122;
1352878;74577,552;226940,17;Paul Parmentierlaan;124;
2765140;74578,552;226948,17;Paul Parmentierlaan;126;
1390145;74579,449;226956,601;Paul Parmentierlaan;130;
2765150;74580,235;226965,789;Paul Parmentierlaan;132;
2765160;74580,551;226982,17;Paul Parmentierlaan;138;
4347907;74581,551;226990,17;Paul Parmentierlaan;140;
320359;74582,916;226999,813;Paul Parmentierlaan;142;
320360;74583,551;227009,17;Paul Parmentierlaan;144;
2765175;74590,959;227018,398;Paul Parmentierlaan;146;
4347910;74584,551;227025,17;Paul Parmentierlaan;148;
2765181;74591,644;227033,397;Paul Parmentierlaan;150;
2765185;74585,551;227044,17;Paul Parmentierlaan;152;
320363;74552,05;226936,67;Paul Parmentierlaan;153;
4347913;74585,589;227048,185;Paul Parmentierlaan;154;
2765190;74551,552;226944,17;Paul Parmentierlaan;155;
4185498;74585,551;227053,17;Paul Parmentierlaan;156;
2765192;74552,39;226953,13;Paul Parmentierlaan;157;
2765195;74586,7;227058,97;Paul Parmentierlaan;158;
2765197;74552,552;226958,17;Paul Parmentierlaan;159;
2765199;74587,551;227065,17;Paul Parmentierlaan;160;
2765201;74552,552;226965,17;Paul Parmentierlaan;161;
2765204;74587,551;227071,17;Paul Parmentierlaan;162;
2765206;74552,046;226976,521;Paul Parmentierlaan;163;
2765209;74595,064;227080,475;Paul Parmentierlaan;164;
2765214;74589,153;227080,812;Paul Parmentierlaan;166;
4346514;74550,88;226989,581;Paul Parmentierlaan;167;
2765216;74588,551;227090,17;Paul Parmentierlaan;168;
1373457;74544,305;226989,992;Paul Parmentierlaan;169;
1447603;74589,551;227095,17;Paul Parmentierlaan;170;
2765222;74554,551;226999,17;Paul Parmentierlaan;171;
4346517;74556;227006;Paul Parmentierlaan;173;
2765228;74554,581;227015,209;Paul Parmentierlaan;177;
3939639;74556,075;227024,753;Paul Parmentierlaan;179;
1321216;74555,007;227034,425;Paul Parmentierlaan;183;
2765238;74555,936;227045,899;Paul Parmentierlaan;187;
2765246;74559;227052;Paul Parmentierlaan;189;
2765252;74558,113;227062,224;Paul Parmentierlaan;191;
1455514;74558,644;227073,483;Paul Parmentierlaan;195;
320365;74560,112;227084,423;Paul Parmentierlaan;199;
6524230;74562,411;227092,034;Paul Parmentierlaan;201;
320364;74563;227102;Paul Parmentierlaan;203;
338456;74793,552;226909,172;Piers de Raveschootlaan;115;
2765597;74796,42;226921,38;Piers de Raveschootlaan;117;
2765600;74795,552;226929,172;Piers de Raveschootlaan;121;
2765602;74796,552;226938,172;Piers de Raveschootlaan;123;
338460;74798,551;226955,172;Piers de Raveschootlaan;125;
338464;74801,52;226986,35;Piers de Raveschootlaan;127;
4347590;74802,685;226999,839;Piers de Raveschootlaan;129;
2765606;74794,672;227000,64;Piers de Raveschootlaan;131;
338458;74804,551;227010,172;Piers de Raveschootlaan;133;
2765609;74804,683;227016,706;Piers de Raveschootlaan;137;
2765610;74805,551;227023,172;Piers de Raveschootlaan;139;
2765611;74807;227035;Piers de Raveschootlaan;141;
4347602;74807,343;227044,756;Piers de Raveschootlaan;143;
2765613;74808,482;227055,307;Piers de Raveschootlaan;147;
338486;74808,816;227061,173;Piers de Raveschootlaan;149;
2765615;74808,481;227069,64;Piers de Raveschootlaan;151;
3939645;74809,948;227081,98;Piers de Raveschootlaan;153;
2765619;74809,916;227089,317;Piers de Raveschootlaan;157;
2765620;74804,538;227096,505;Piers de Raveschootlaan;159;
2765621;74812,751;227103,383;Piers de Raveschootlaan;161;
2765623;74814,348;227109,307;Piers de Raveschootlaan;163;
2765625;74815,04;227114,571;Piers de Raveschootlaan;165;
338490;74816;227121;Piers de Raveschootlaan;167;
320563;74397,32;226618,28;Sportlaan;1;
2766426;74358;226634;Sportlaan;2;
2766427;74396,34;226598,39;Sportlaan;3;
336217;74400,8;226578,55;Sportlaan;5;
336216;74400,94;226558,92;Sportlaan;7;
336211;74405,88;226538,75;Sportlaan;9;
317796;73981,368;226960,146;Sterrenlaan;1;
318445;74020,348;226984,918;Sterrenlaan;2;
337912;74740,548;227379,171;Taborastraat;1;
337503;74740,811;227414,432;Taborastraat;2;
337914;74734;227381;Taborastraat;3;
337504;74746,347;227406,161;Taborastraat;4;
337915;74728,856;227375,69;Taborastraat;5;
337507;74726,655;227418,893;Taborastraat;6;
6179616;74733;227407;Taborastraat;6;A
2766802;74726;227408;Taborastraat;6;B
337916;74723,42;227380,64;Taborastraat;7;
2766807;74714,548;227381,17;Taborastraat;9;
337508;74710,294;227409,976;Taborastraat;10;
337913;74706,548;227382,17;Taborastraat;13;
337042;74850,436;227512,36;Van Bunnenlaan;2;
6524259;74860;227513;Van Bunnenlaan;4;
2758486;74862,547;227507,171;Van Bunnenlaan;6;
2758489;74863,107;227498,633;Van Bunnenlaan;8;
2758493;74869;227502;Van Bunnenlaan;10;
2758496;74874,547;227495,172;Van Bunnenlaan;12;
2758497;74881,547;227488,172;Van Bunnenlaan;14;
2758502;74887,547;227481,172;Van Bunnenlaan;16;
2758505;74892,28;227473,45;Van Bunnenlaan;18;
337047;74900,13;227461,79;Van Bunnenlaan;20;
5573001;74908,63;227453,708;Van Bunnenlaan;22;
2758514;74917,19;227444,625;Van Bunnenlaan;26;
2758515;74924,825;227433,991;Van Bunnenlaan;28;
2758518;74931,974;227427,327;Van Bunnenlaan;30;
2758520;74930,753;227420,991;Van Bunnenlaan;32;
337599;74771,088;227550,888;Van Bunnenplein;1;
2758551;74761,568;227560,045;Van Bunnenplein;3;
2758552;74775,817;227567,852;Van Bunnenplein;4;
2758553;74772,386;227586,959;Van Bunnenplein;5;
2758556;74776,977;227580,285;Van Bunnenplein;7;
2758558;74786,763;227591,363;Van Bunnenplein;9;
2758560;74800;227596;Van Bunnenplein;10;
337582;74807,434;227597,347;Van Bunnenplein;11;
336902;74847,428;227521,291;Van Bunnenplein;24;
2758572;74838,547;227520,171;Van Bunnenplein;25;
5321535;74831,726;227518,982;Van Bunnenplein;26;
5579294;74833;227510;Van Bunnenplein;27;
336903;74827;227516;Van Bunnenplein;28;
5579295;74821,547;227514,171;Van Bunnenplein;29;
336901;74819;227505;Van Bunnenplein;30;
337588;74730,79;227582,843;Zeedijk-Knokke;640;
6455899;74725;227586;Zeedijk-Knokke;640;A
337590;74754,634;227597,44;Zeedijk-Knokke;641;
2761448;74759,258;227591,637;Zeedijk-Knokke;642;
2761450;74765,151;227599,525;Zeedijk-Knokke;643;
2761451;74774,49;227601,61;Zeedijk-Knokke;644;
2761452;74770,138;227594,81;Zeedijk-Knokke;645;
2761454;74779,204;227596,533;Zeedijk-Knokke;646;
2761455;74788,333;227598,665;Zeedijk-Knokke;647;
320256;73980,28;226603,79;Zegemeerpad;1;
317404;73980,28;226603,79;Zegemeerpad;2;
317406;73980,624;226802,852;Zegemeerpad;3;
2767902;73986,754;226813,282;Zegemeerpad;3;A
318015;74245,239;226839,781;Zegemeerpad;4;
318014;74213,553;226860,167;Zegemeerpad;5;
318026;74212,553;226829,167;Zegemeerpad;6;
5845607;74219,553;226831,167;Zegemeerpad;7;
2767903;74270,478;226843,25;Zegemeerpad;10;
4154821;74286,239;226846,781;Zegemeerpad;11;
2767904;74305,41;226849,9;Zegemeerpad;12;
4052206;74335,98;226855,38;Zegemeerpad;13;
318027;74349,151;226857,219;Zegemeerpad;14;
318028;74404,35;226832,55;Zegemeerpad;15;
5579582;74419,45;226830,48;Zegemeerpad;16;
320537;74417,74;226811,93;Zegemeerpad;17;
319242;74164,821;227047,736;Zonnelaan;1;
320284;74195,535;227044,651;Zonnelaan;2;
2767917;74202,74;227063,224;Zonnelaan;4;
319244;74169,196;227076,712;Zonnelaan;5;
319248;74199,431;227081,217;Zonnelaan;6;
321031;74768,35;227140,437;Zoutelaan;1;
338530;74769,823;227105,461;Zoutelaan;2;
2768144;74776,949;227136,907;Zoutelaan;3;
338531;74776,763;227114,527;Zoutelaan;4;
2768147;74781,009;227143,413;Zoutelaan;5;
323550;74778,499;227108,918;Zoutelaan;6;
2768150;74787,821;227140,838;Zoutelaan;7;
2768152;74785,042;227117,131;Zoutelaan;8;
2768154;74793,35;227142,308;Zoutelaan;9;
2768156;74792,587;227118,934;Zoutelaan;10;
2768157;74799,283;227144,042;Zoutelaan;11;
2768160;74787,446;227111,723;Zoutelaan;12;
2768162;74804,594;227145,609;Zoutelaan;13;
338533;74797,595;227121,204;Zoutelaan;14;
2768164;74797,528;227115,929;Zoutelaan;14;B
338534;74812,853;227153,115;Zoutelaan;15;
2768167;74803,55;227123,171;Zoutelaan;16;
2768168;74808,55;227125,171;Zoutelaan;18;
2768169;74820,951;227155,576;Zoutelaan;19;
338532;74813,55;227126,172;Zoutelaan;20;
2768173;74829,49;227152,802;Zoutelaan;21;
2768175;74832,547;227159,446;Zoutelaan;23;
2768179;74837,778;227162,581;Zoutelaan;25;
2768187;74845,683;227159,175;Zoutelaan;29;
5547100;74843,983;227164,056;Zoutelaan;29;A
336641;74849,46;227166,322;Zoutelaan;31;
319315;74318;227114;Zwaluwenlaan;1;
2768390;74356,745;227148,978;Zwaluwenlaan;18;
319353;74372,419;227134,317;Zwaluwenlaan;20;
