LAM MK;xPos;yPos;Street;Nr;Suffix
9867;72484,066;226514,074;Anemonenlaan;2;
2757843;72506,685;226502,455;Anemonenlaan;3;
295571;72524,32;226478,089;Anemonenlaan;5;
296985;72559,461;226386,052;Anemonenlaan;6;
296983;72560,559;226377,155;Anemonenlaan;7;
295472;72573,54;226313,403;Anemonenlaan;9;
295471;72573,717;226296,805;Anemonenlaan;10;
6344143;72575;226275;Anemonenlaan;11;
2757844;72568,687;226260,186;Anemonenlaan;12;
2757845;72567,67;226254,28;Anemonenlaan;13;
295469;72563,687;226236,201;Anemonenlaan;14;
294681;73205,78;226380,61;Arcadelaan;1;
2758059;72777,556;226668,156;Bergdreef;1;
2758060;72822,084;226680,622;Bergdreef;7;
293757;73009,859;226662,904;Bergdreef;8;
5579279;73021,556;226664,158;Bergdreef;10;
5579280;72846,39;226681,96;Bergdreef;11;
293759;73060,794;226651,208;Bergdreef;12;
293452;72925,03;226695,54;Bergdreef;19;
2758068;72924,86;226704,11;Bergdreef;21;
294229;72947,746;226701,845;Bergdreef;23;
2758072;73101,556;226676,159;Bergdreef;31;
2758073;73116,28;226649,15;Bergdreef;33;
293615;73043,09;226571,62;Bocheldreef;2;
6667849;73023;226542;Bocheldreef;3;
2758188;73021,684;226575,982;Bocheldreef;4;
293622;73006,557;226536,158;Bocheldreef;5;
2758189;73007,15;226563,95;Bocheldreef;8;
293614;72989,668;226555,951;Bocheldreef;10;
6667850;72974;226520;Bocheldreef;11;
293613;72971,89;226549,2;Bocheldreef;12;
2758190;72973,557;226522,158;Bocheldreef;13;
293620;72970,192;226573,585;Bocheldreef;14;
293612;72951,48;226535,93;Bocheldreef;15;
293618;72964,557;226588,158;Bocheldreef;16;
4335982;72959,873;226608,427;Bocheldreef;18;
4273817;72955,92;226626,33;Bocheldreef;20;
293617;72945,556;226650,157;Bocheldreef;22;
293624;72940,26;226587,12;Bocheldreef;23;
296481;72748,333;226710,583;Brieshelling;1;
5559100;72754,357;226693,467;Brieshelling;3;
2758419;72759,688;226685,724;Brieshelling;5;
296566;72759;226685;Brieshelling;7;
296480;72763,065;226681,109;Brieshelling;9;
293716;73063,2;226498,04;Dalgang;1;
293714;73040,612;226485,579;Dalgang;2;
293717;73070,23;226491,96;Dalgang;3;
4335913;73051,61;226472,43;Dalgang;4;
293720;73086,79;226474,133;Dalgang;5;
2758717;73063,45;226461,06;Dalgang;6;
293721;73089,56;226466,54;Dalgang;7;
293723;73077,2;226448,52;Dalgang;8;
2767486;73094,555;226737,158;De Wandelaar;1;
2767488;73032,813;226779,037;De Wandelaar;2;
4335776;73086,555;226734,158;De Wandelaar;3;
4335777;73072,555;226728,158;De Wandelaar;5;
2767490;73036,92;226713,68;De Wandelaar;7;
5830112;72349,529;226300,544;Dir.-Gen. Willemspark;1;
295465;72843,145;226289,906;Duinbergenlaan;57;
295467;72853;226276;Duinbergenlaan;59;
295464;72845,735;226314,315;Duinbergenlaan;61;
293809;72890,197;226262,854;Duinbergenlaan;62;
2759073;72848,751;226337,745;Duinbergenlaan;63;
2759074;72889,368;226269,173;Duinbergenlaan;64;
293811;72889,875;226275,03;Duinbergenlaan;66;
293801;72887,463;226323,934;Duinbergenlaan;68;
295468;72844,354;226377,426;Duinbergenlaan;69;
293803;72884,559;226364,157;Duinbergenlaan;70;
4336422;72841,26;226381,7;Duinbergenlaan;71;
2759077;72883,574;226382,442;Duinbergenlaan;72;
2759078;72851,558;226396,157;Duinbergenlaan;73;
2759080;72884,559;226389,804;Duinbergenlaan;74;
295466;72851,558;226402,157;Duinbergenlaan;75;
293805;72878,558;226401,157;Duinbergenlaan;76;
292942;72846,796;226434,584;Duinbergenlaan;77;
5579331;72879,028;226409,273;Duinbergenlaan;78;
2759084;72835,558;226472,157;Duinbergenlaan;79;
293807;72874,654;226445,489;Duinbergenlaan;80;
4023063;72874,827;226452,173;Duinbergenlaan;82;
292974;72810,814;226486,045;Duinbergenlaan;83;
292975;72780,948;226501,526;Duinbergenlaan;85;
2759092;72874,954;226458,426;Duinbergenlaan;86;
5579332;72761;226514;Duinbergenlaan;87;
2759095;72872,558;226465,157;Duinbergenlaan;88;
292976;72748,43;226543,71;Duinbergenlaan;89;
293520;72874,64;226471,07;Duinbergenlaan;90;
2759096;72742,765;226544,982;Duinbergenlaan;91;
292977;72732,718;226563,06;Duinbergenlaan;93;
9849;72711,78;226573,601;Duinbergenlaan;95;
2759100;72692,811;226552,565;Duinbergenlaan;97;
2759101;72689,557;226580,155;Duinbergenlaan;99;
292972;72664,068;226572,109;Duinbergenlaan;101;
4335087;72652;226601;Duinbergenlaan;105;
292995;72637,47;226627,686;Duinbergenlaan;111;
5579333;72641;226629;Duinbergenlaan;113;
2759106;72636;226635;Duinbergenlaan;115;
2759107;72633,368;226636,551;Duinbergenlaan;117;
5905446;72632,235;226643,254;Duinbergenlaan;121;A
4336643;72630,24;226650,02;Duinbergenlaan;123;
2759111;72627,067;226655,733;Duinbergenlaan;125;
5905445;72625,29;226661,572;Duinbergenlaan;127;
292984;72616,05;226460,137;Duinendreef;1;
296970;72556,636;226409,439;Duinendreef;2;
2759130;72640,05;226462,471;Duinendreef;3;
2759131;72629,972;226485,012;Duinendreef;5;
2759132;72580,494;226419,012;Duinendreef;6;
4336635;72649,196;226487,325;Duinendreef;7;
296972;72597,446;226422,78;Duinendreef;8;
2759133;72661,05;226464,964;Duinendreef;9;
295455;72624,351;226426,632;Duinendreef;10;
2759134;72669,506;226487,325;Duinendreef;11;
2759135;72681,289;226468,122;Duinendreef;13;
2759136;72651,558;226439,155;Duinendreef;14;
2759137;72697,177;226463,964;Duinendreef;15;
295454;72665,146;226436,552;Duinendreef;16;
292986;72711,73;226463,74;Duinendreef;17;
295453;72685,62;226433,261;Duinendreef;18;
292987;72754,558;226443,71;Duinendreef;19;
4336464;72709,558;226433,156;Duinendreef;20;
4336638;72771,05;226439,599;Duinendreef;21;
295452;72716,004;226429,14;Duinendreef;22;
1468793;72788,193;226435,615;Duinendreef;23;
295451;72749,558;226415,156;Duinendreef;24;
2759140;72828,679;226432,704;Duinendreef;25;
2759141;72755;226413;Duinendreef;26;
292988;72837,431;226433,823;Duinendreef;27;
2759142;72777,938;226403,156;Duinendreef;28;
293660;72885,623;226440,981;Duinendreef;29;
2759143;72797,818;226396,527;Duinendreef;30;
2759144;72901;226442,67;Duinendreef;31;
4336476;72797,818;226396,527;Duinendreef;32;
4018125;72908,542;226445,934;Duinendreef;33;
4336477;72797,818;226396,527;Duinendreef;34;
2759145;72822,558;226400,157;Duinendreef;36;
4335928;72913,43;226448,58;Duinendreef;37;
2759146;72915;226447;Duinendreef;39;
2759147;72835,558;226400,157;Duinendreef;40;
3939546;72917,88;226451,77;Duinendreef;41;
295449;72841,85;226398,79;Duinendreef;42;
4335931;72920;226450;Duinendreef;43;
4335932;72923,161;226454,442;Duinendreef;45;
2759148;72881;226409;Duinendreef;46;
4335933;72925;226453;Duinendreef;47;
293654;72908,493;226412,903;Duinendreef;48;
4335934;72927,561;226457,071;Duinendreef;49;
4335935;72932,181;226458,426;Duinendreef;51;
293658;72937,1;226433,777;Duinendreef;52;
9851;72936,443;226462,316;Duinendreef;53;
293664;72962,638;226440,468;Duinendreef;54;
293372;72973,23;226442,96;Duinendreef;56;
5397870;72952,885;226470,001;Duinendreef;57;
319467;73320,195;226609,258;Elizabetlaan;224;
296709;73304,875;226596,242;Elizabetlaan;226;
2759695;73278,35;226544,91;Elizabetlaan;228;
4337134;73271,73;226527,94;Elizabetlaan;230;
2759697;73267,75;226519,61;Elizabetlaan;232;
2759698;73256,368;226499,996;Elizabetlaan;234;
4337137;73244,693;226480,924;Elizabetlaan;236;
2759700;73265,008;226468,591;Elizabetlaan;238;
2759701;73238,264;226460,462;Elizabetlaan;240;
295092;73287,556;226649,16;Elizabetlaan;241;
2759702;73235,557;226454,922;Elizabetlaan;242;
295091;73266,525;226631,953;Elizabetlaan;243;
2759703;73228,63;226435,3;Elizabetlaan;244;
295140;73245;226596;Elizabetlaan;245;
2759704;73215,78;226411,789;Elizabetlaan;246;
296705;73201,535;226537,211;Elizabetlaan;247;
294623;73208,16;226400,389;Elizabetlaan;248;
296706;73189,31;226487,84;Elizabetlaan;251;
296707;73183,23;226471,56;Elizabetlaan;253;
296708;73168,77;226443,74;Elizabetlaan;255;
2759706;73162,532;226436,653;Elizabetlaan;257;
2759708;73152,044;226417,277;Elizabetlaan;259;
296741;73150,532;226410,057;Elizabetlaan;261;
296742;73103,84;226360,2;Elizabetlaan;265;
2759712;73091,391;226348,517;Elizabetlaan;267;
296743;73076,234;226336,399;Elizabetlaan;269;
296744;73044,436;226322,708;Elizabetlaan;271;
4337109;73027,819;226313,394;Elizabetlaan;273;
2759716;73012,408;226307,065;Elizabetlaan;275;
296745;73005,041;226303,976;Elizabetlaan;277;
295422;72848;226270;Elizabetlaan;283;
295421;72814,43;226256,26;Elizabetlaan;285;
2759722;72787,525;226256,561;Elizabetlaan;287;
4336406;72782,775;226257,468;Elizabetlaan;289;
2759724;72778,058;226256,525;Elizabetlaan;291;
2759725;72760,263;226261,346;Elizabetlaan;293;
295420;72754,205;226259,512;Elizabetlaan;295;
295419;72719,721;226260,292;Elizabetlaan;299;
2759728;72715,174;226261,251;Elizabetlaan;301;
5579363;72696,791;226262,678;Elizabetlaan;303;
295417;72661,058;226261,842;Elizabetlaan;307;
9887;72653,148;226259,314;Elizabetlaan;309;
295416;72606,544;226251,821;Elizabetlaan;311;
2759733;72591,417;226246,932;Elizabetlaan;313;
2759735;72584,291;226243,567;Elizabetlaan;315;
295415;72569,56;226237,694;Elizabetlaan;317;
2759738;72234,152;226166,849;Elizabetlaan;321;
4336664;72225;226166;Elizabetlaan;323;
9863;72777;226686;Engelsestraat;1;
4336913;72772;226693;Engelsestraat;3;
2759779;72781,779;226691,314;Engelsestraat;5;
2759780;72788,667;226694,71;Engelsestraat;7;
2759782;72796,712;226698,381;Engelsestraat;9;
3923034;72801,556;226677,156;Engelsestraat;10;
2759785;72806,16;226702,076;Engelsestraat;11;
2759786;72834,556;226687,156;Engelsestraat;12;
296484;72813,556;226705,06;Engelsestraat;13;
2759789;72858,556;226699,157;Engelsestraat;14;
294223;72887,299;226700,286;Engelsestraat;18;
294225;72918,084;226718,416;Engelsestraat;20;
5579369;72918,34;226726,49;Engelsestraat;22;
294226;72937,556;226733,157;Engelsestraat;24;
296486;72818,525;226708,441;Engelsestraat;25;
2759792;72823,16;226709,314;Engelsestraat;27;
2759794;72829,779;226713,203;Engelsestraat;31;
4336905;72836,159;226717,219;Engelsestraat;33;
2759797;72841,16;226719,219;Engelsestraat;37;
1311040;72847,159;226721,457;Engelsestraat;39;
1311041;72855,032;226725,695;Engelsestraat;41;
2759798;72863,091;226727,849;Engelsestraat;43;
294227;72871,649;226732,729;Engelsestraat;45;
294224;72918,5;226755,81;Engelsestraat;47;
2759801;72937,555;226759,157;Engelsestraat;49;
2759802;72950,555;226765,157;Engelsestraat;51;
9853;72960,555;226770,157;Engelsestraat;53;
293591;72895,512;226325,219;Ermitage;1;
293577;72918,559;226346,158;Ermitage;2;
293590;72922,559;226346,158;Ermitage;3;
293575;72926,274;226329,984;Ermitage;4;
293573;72919,225;226324,124;Ermitage;5;
293570;72928,559;226308,158;Ermitage;6;
293568;72917,067;226298,489;Ermitage;7;
2757326;72896,86;226298,777;Ermitage;8;
293752;72889,225;226294,538;Ermitage;9;
295456;72633,639;226335,775;Florapad;1;
296958;72567,067;226349,074;Florapad;2;
6650095;72567;226347;Florapad;2;A
6650093;72570;226334;Florapad;2;C
6650098;72567;226353;Florapad;2;D
6650094;72568;226349;Florapad;2;E
6650091;72569;226343;Florapad;2;F
6650092;72570;226339;Florapad;2;G
6650096;72567;226357;Florapad;2;H
6650097;72566;226359;Florapad;2;I
2759906;72605,474;226325,513;Florapad;3;
4336425;72601;226321;Florapad;5;
295457;72572,463;226319,313;Florapad;7;
293748;72900,59;226596,33;Gallischpad;2;
5407540;72928,057;226610,052;Gallischpad;2;A
2759932;72905,557;226599,157;Gallischpad;4;
293750;72929;226607;Gallischpad;6;
296966;72594,72;226354,056;Hazenpad;1;
296964;72587,24;226395,89;Hazenpad;2;
296962;72579,7;226394,01;Hazenpad;4;
293627;72943,17;226535,9;Heuvelpad;2;
293633;72915,384;226519,204;Heuvelpad;3;
293629;72946,511;226558,857;Heuvelpad;4;
2760411;72921,557;226539,157;Heuvelpad;5;
2760412;72923,06;226547,5;Heuvelpad;7;
293631;72912,66;226572,71;Heuvelpad;9;
295412;72611,56;226253,059;Irispad;1;
295410;72630,24;226258,97;Irispad;2;
2760612;72596,352;226277,155;Irispad;3;
4336444;72619,956;226274,567;Irispad;4;
4336446;72614,479;226289,329;Irispad;6;
2760613;72610,575;226305,075;Irispad;8;
295473;72593,09;226296,4;Irispad;10;
293783;72991,938;226492,951;Jozef Nellenslaan;1;
2764245;73016,657;226471,744;Jozef Nellenslaan;2;
295121;73007,303;226501,347;Jozef Nellenslaan;3;
295120;73023,807;226473,244;Jozef Nellenslaan;4;
295145;73021,78;226509,697;Jozef Nellenslaan;5;
293793;73040;226484;Jozef Nellenslaan;6;
293791;73038,557;226525,158;Jozef Nellenslaan;7;
293795;73077,81;226509,14;Jozef Nellenslaan;8;
293789;73058,73;226536,74;Jozef Nellenslaan;9;
293787;73094,78;226525,36;Jozef Nellenslaan;10;
2764247;73064,405;226541,433;Jozef Nellenslaan;11;
293785;73102,407;226534,163;Jozef Nellenslaan;12;
293778;73083,25;226558,181;Jozef Nellenslaan;13;
296694;73140,502;226596,98;Jozef Nellenslaan;14;
293781;73088,811;226566,078;Jozef Nellenslaan;15;
2764248;73143,648;226602,664;Jozef Nellenslaan;16;
295114;73101,049;226588,571;Jozef Nellenslaan;17;
1468819;73151,556;226619,159;Jozef Nellenslaan;18;
295111;73104,271;226598,793;Jozef Nellenslaan;19;
4337179;73157,556;226626,159;Jozef Nellenslaan;20;
295112;73125,077;226634,63;Jozef Nellenslaan;21;
4337180;73169,556;226644,159;Jozef Nellenslaan;22;
295113;73182,556;226660,159;Jozef Nellenslaan;24;
295093;73208,333;226687,587;Jozef Nellenslaan;26;
2764250;73224,555;226703,159;Jozef Nellenslaan;28;
2764251;73241,555;226712,16;Jozef Nellenslaan;30;
295094;73194,778;226724,317;Jozef Nellenslaan;31;
4335766;73256,555;226718,16;Jozef Nellenslaan;32;
295095;73213,27;226730,698;Jozef Nellenslaan;33;
4335767;73261,555;226720,16;Jozef Nellenslaan;34;
295097;73229,174;226737,333;Jozef Nellenslaan;35;
295096;73277,91;226724,19;Jozef Nellenslaan;36;
2764253;73236,174;226740,064;Jozef Nellenslaan;37;
295042;73251,032;226749,079;Jozef Nellenslaan;39;
295046;73277,143;226760,095;Jozef Nellenslaan;45;
5579513;73292;226767;Jozef Nellenslaan;47;
293734;72990,613;226384,126;Kinderpad;1;
293738;72973,786;226403,158;Kinderpad;2;
293736;72983,36;226381,197;Kinderpad;3;
293727;72987,588;226408,023;Kinderpad;4;
293732;72897,559;226346,157;Kinderpad;5;
1024210;72913,62;226383,11;Kinderpad;6;
293730;72887,559;226345,157;Kinderpad;7;
2761353;72988,494;226661,269;Klaprozenpad;1;
293609;72962,7;226652,3;Klaprozenpad;2;
2761355;73010,41;226633,64;Klaprozenpad;3;
2761356;72972,73;226627,53;Klaprozenpad;4;
3939579;72979;226613;Klaprozenpad;6;
293610;72995,88;226590,35;Klaprozenpad;8;
293611;73026,25;226602,87;Klaprozenpad;10;
295461;72682,305;226360,36;Krekelpad;1;
295460;72691,98;226339,24;Krekelpad;2;
295462;72704,082;226371,011;Krekelpad;3;
295459;72716,07;226350,44;Krekelpad;4;
295458;72733,65;226360,63;Krekelpad;6;
292989;72718,05;226462,614;Krokussenpad;1;
1024209;72759,527;226472,342;Krokussenpad;2;
292990;72739,177;226451,329;Krokussenpad;2;A
2762167;72717,004;226480,917;Krokussenpad;3;
292992;72739,827;226483,775;Krokussenpad;4;
292991;72719,019;226503,41;Krokussenpad;5;
293604;73071,557;226584,158;Kruindreef;1;
293950;73060,557;226592,158;Kruindreef;3;
293605;73083,222;226602,951;Kruindreef;4;
293607;73056;226612;Kruindreef;5;
5990451;73061;226610;Kruindreef;5;A
293599;73106,637;226615,824;Kruindreef;6;
6648286;73071;226617;Kruindreef;7;
6667848;73079;226622;Kruindreef;7;A
293597;73093,541;226633,428;Kruindreef;9;
292891;72787,281;226453,53;Kwade Helling;6;
292887;72811,543;226431,568;Kwade Helling;9;
295107;73109,555;226730,159;Leeuwerikenlaan;2;
5320405;73120,957;226709,355;Leeuwerikenlaan;4;
5579456;73149,444;226736,221;Leeuwerikenlaan;5;
295102;73161,555;226724,475;Leeuwerikenlaan;7;
295104;73178,983;226708,032;Leeuwerikenlaan;9;
295106;73139,924;226698,538;Leeuwerikenlaan;10;
295105;73185;226703;Leeuwerikenlaan;11;
295103;73154,509;226682,444;Leeuwerikenlaan;12;
295101;73226;226668;Leeuwerikenlaan;13;
2762683;73253,556;226674,16;Leeuwerikenlaan;15;
2762686;73247,25;226650,64;Leeuwerikenlaan;17;
295100;73197,98;226646,02;Leeuwerikenlaan;18;
295099;73252,8;226645,36;Leeuwerikenlaan;19;
2762687;73210,11;226631,35;Leeuwerikenlaan;20;
2762688;73196,937;226616,678;Leeuwerikenlaan;22;
2762690;73227,556;226619,16;Leeuwerikenlaan;24;
4337168;73233,556;226613,16;Leeuwerikenlaan;26;
295098;73244,386;226597,08;Leeuwerikenlaan;28;
2762725;73297,416;226732,241;Lentelaan;2;A
294948;73297,444;226711,937;Lentelaan;4;
2762730;73298,952;226693,81;Lentelaan;6;
2762732;73275,21;226680,86;Lentelaan;8;
294950;73296,34;226662,8;Lentelaan;10;
293652;72969,212;226327,062;Lommergang;1;
293642;73001,77;226325,07;Lommergang;2;
2763461;72953;226403;Lommergang;3;
2763463;73008,7;226346,93;Lommergang;4;
4335884;72949;226387;Lommergang;5;
2763464;72991,487;226363,874;Lommergang;6;
2763465;72944;226417;Lommergang;7;
293645;72996;226365;Lommergang;8;
293648;72962,638;226440,468;Lommergang;14;
295125;73040,466;226694,208;Majoor Quaillestraat;1;
294233;72962;226808;Majoor Quaillestraat;2;
294232;72964,555;226799,157;Majoor Quaillestraat;4;
294230;72973,555;226775,157;Majoor Quaillestraat;6;
294231;72979,026;226726,238;Majoor Quaillestraat;8;
5579543;72982;226714;Majoor Quaillestraat;10;
294176;72898,935;226779,757;Manitobaplein;1;
294171;72864,017;226760,457;Manitobaplein;2;
294177;72903,555;226765,157;Manitobaplein;3;
294173;72869,001;226742,807;Manitobaplein;4;
296696;73229,95;226360,52;Margrietenpad;1;
296695;73251,07;226353,03;Margrietenpad;2;
296644;73227,361;226389,62;Margrietenpad;3;
2763512;73252,59;226361,23;Margrietenpad;4;
2763513;73253,8;226376,98;Margrietenpad;6;
2763514;73257,18;226383,68;Margrietenpad;8;
2763515;73255,518;226398,489;Margrietenpad;10;
296643;73256,859;226411,803;Margrietenpad;12;
296645;73262,816;226445,951;Margrietenpad;14;
2763517;73263;226442;Margrietenpad;14;A
6466230;73266;226452;Margrietenpad;14;B
295441;72837;226277;Meeuwendreef;2;
295442;72808,55;226261,39;Meeuwendreef;3;
2763735;72816,233;226296,085;Meeuwendreef;4;
4336408;72811,617;226298,576;Meeuwendreef;6;
2763736;72791,95;226276,75;Meeuwendreef;7;
295440;72789,209;226325,918;Meeuwendreef;8;
2763737;72778,37;226291,92;Meeuwendreef;9;
295439;72782,354;226346,426;Meeuwendreef;10;
295445;72763,401;226311,264;Meeuwendreef;11;
4336412;72768,559;226355,156;Meeuwendreef;12;
2763739;72744,8;226342,26;Meeuwendreef;13;
295438;72765,32;226369,314;Meeuwendreef;14;
295444;72724,131;226388,648;Meeuwendreef;15;
295447;72759,38;226386,82;Meeuwendreef;16;
295443;72718,766;226421,202;Meeuwendreef;17;
5579501;72652,371;226600,277;Mimosastraat;2;
2763816;72640,239;226567,297;Mimosastraat;3;
295591;72643,231;226597,992;Mimosastraat;4;
4336628;72632,715;226563,059;Mimosastraat;5;
3991226;72627,192;226558,171;Mimosastraat;7;
4335092;72630,526;226591,223;Mimosastraat;8;
2763819;72621,557;226552,155;Mimosastraat;9;
5579502;72614,748;226528,175;Mimosastraat;11;
5564756;72612,83;226579,826;Mimosastraat;12;
292973;72614,748;226528,175;Mimosastraat;13;
4336631;72608,558;226510,155;Mimosastraat;15;
4030250;72618;226577;Mimosastraat;16;
292931;72605,478;226491,424;Mimosastraat;17;
292929;72605,985;226483,09;Mimosastraat;19;
295397;72847,624;226360,346;Oudjespad;2;
2764707;72817,06;226379,12;Oudjespad;4;
4336419;72803,655;226361,442;Oudjespad;6;
295463;72798,543;226357,426;Oudjespad;8;
295601;72637;226606,455;Patriottenstraat;1;
5579538;72637;226622;Patriottenstraat;2;
4336656;72620,287;226621,475;Patriottenstraat;6;
6421187;72633;226604;Patriottenstraat;7;A
292999;72623;226617;Patriottenstraat;8;
5905439;72611,052;226594,678;Patriottenstraat;9;
292998;72606,006;226615,865;Patriottenstraat;10;
2765414;72615;226614;Patriottenstraat;12;
3939643;72601;226611;Patriottenstraat;14;
295599;72535,27;226560,074;Patriottenstraat;15;
296974;72515,604;226551,677;Patriottenstraat;17;
4336661;72599;226608;Patriottenstraat;18;
2765417;72497,257;226543,123;Patriottenstraat;19;
295598;72471,301;226527,612;Patriottenstraat;21;
5559095;72586,6;226606,441;Patriottenstraat;24;
4335115;72574,446;226600,709;Patriottenstraat;28;
2765421;72570,638;226597,155;Patriottenstraat;30;
2765422;72562,477;226595,613;Patriottenstraat;32;
9859;72560;226591;Patriottenstraat;34;
5579540;72534,678;226582,816;Patriottenstraat;36;
295597;72535;226581;Patriottenstraat;38;
2765426;72524,542;226580,312;Patriottenstraat;40;
4335120;72526;226579;Patriottenstraat;42;
2765429;72517,161;226578,328;Patriottenstraat;44;
2765431;72511,78;226577,708;Patriottenstraat;46;
2765432;72507,669;226573,82;Patriottenstraat;48;
2765434;72498,669;226571,343;Patriottenstraat;50;
2765435;72489,526;226565,185;Patriottenstraat;52;
4336814;72485;226561;Patriottenstraat;54;
4336816;72482;226567;Patriottenstraat;58;
2765437;72473;226554;Patriottenstraat;60;
5321467;72473,195;226556,392;Patriottenstraat;62;
2765438;72463,415;226550,692;Patriottenstraat;64;
295596;72455,125;226546,013;Patriottenstraat;66;
295595;72439,734;226535,042;Patriottenstraat;68;
5805229;72419,098;226534,593;Patriottenstraat;70;
293797;72877,081;226503,981;Petunialaan;2;
4335907;72886,334;226524,68;Petunialaan;4;
4335908;72885;226524;Petunialaan;6;
2765472;72888,557;226543,157;Petunialaan;8;
2765474;72891;226561;Petunialaan;10;
2765476;72880,703;226579,869;Petunialaan;12;
293799;72870,99;226598,67;Petunialaan;14;
293756;72875,997;226617,768;Petunialaan;16;
4335922;72877;226618;Petunialaan;18;
2765478;72885,557;226618,157;Petunialaan;20;
6390038;72886;226623;Petunialaan;22;
4335925;72900,086;226627,071;Petunialaan;24;
2765480;72920,834;226636,938;Petunialaan;28;
293754;72924;226641;Petunialaan;30;
5579541;73123;226713;Phillippartpad;1;
295116;73094,24;226717,205;Phillippartpad;2;
295117;73115;226703;Phillippartpad;3;
4335747;73080,556;226708,316;Phillippartpad;4;
294984;73129,5;226687,25;Phillippartpad;5;
295115;73054,556;226722,158;Phillippartpad;6;
9857;73132,006;226655,989;Phillippartpad;8;
293767;72898,827;226499,204;Poststraat;1;
293763;72879,368;226475,451;Poststraat;2;
5418244;72921,27;226496,97;Poststraat;5;
2765700;72887,479;226470,78;Poststraat;6;
293769;72947,335;226494,854;Poststraat;7;
2765701;72895,032;226472,661;Poststraat;8;
2765702;72965,557;226488,158;Poststraat;9;
4335999;72896;226473;Poststraat;10;
293761;72975,557;226487,158;Poststraat;11;
2765704;72899,558;226471,157;Poststraat;12;
4336000;72904,558;226470,157;Poststraat;14;
293775;72905;226471;Poststraat;16;
293772;72910,864;226471,334;Poststraat;18;
6524200;72910;226470;Poststraat;20;
1322186;72915,558;226469,157;Poststraat;22;
4335995;72920,558;226469,157;Poststraat;26;
2765713;72925,796;226468,65;Poststraat;28;
4335996;72930,351;226469,388;Poststraat;30;
293765;72935,612;226467,124;Poststraat;32;
296698;73179,728;226467,203;Prinsjespad;2;
296699;73139,19;226477,96;Prinsjespad;3;
2765715;73165,867;226496,03;Prinsjespad;4;
293596;73115,68;226507,43;Prinsjespad;5;
296697;73148,99;226510,23;Prinsjespad;6;
293595;73139,02;226523,7;Prinsjespad;8;
293742;73033,956;226429,308;Rondeweg;1;
293744;73012,567;226435,166;Rondeweg;2;
293740;73024,604;226413,158;Rondeweg;3;
293746;73003,79;226419,2;Rondeweg;4;
296716;73039,32;226405,21;Rondeweg;5;
4337107;73013,511;226392,282;Rondeweg;6;
2765833;73038,16;226380,65;Rondeweg;8;
295587;72566,685;226482,978;Sint-Michielsplein;2;
2766573;72551,812;226472,582;Sint-Michielsplein;4;
295586;72535,431;226464,582;Sint-Michielsplein;8;
296714;73126,281;226376,842;Van Cailliedreef;1;
296715;73133,77;226400,21;Van Cailliedreef;2;
2758582;73118,04;226381,58;Van Cailliedreef;3;
2758583;73101,76;226387,94;Van Cailliedreef;5;
2758584;73120,72;226410,475;Van Cailliedreef;6;
293691;73085,003;226399,471;Van Cailliedreef;7;
293694;73063,69;226409,434;Van Cailliedreef;9;
293700;73070,3;226435,12;Van Cailliedreef;10;
293712;73049,39;226417,88;Van Cailliedreef;11;
293709;73058,43;226452,55;Van Cailliedreef;12;
293685;73016,284;226441,669;Van Cailliedreef;13;
293702;73035,58;226457,27;Van Cailliedreef;14;
293681;72999,938;226450,105;Van Cailliedreef;15;
293706;73020,097;226466,244;Van Cailliedreef;16;
295435;72663,87;226414,89;Van Hoenackerpad;2;
2760492;72665,465;226397,933;Van Hoenackerpad;4;
295429;72738,59;226311,52;Van Hoenackerpad;5;
295436;72670,862;226380,933;Van Hoenackerpad;6;
295437;72748,05;226297,31;Van Hoenackerpad;7;
295431;72714,222;226299,005;Van Hoenackerpad;8;
295374;72762,02;226281,96;Van Hoenackerpad;9;
295433;72728,33;226284,14;Van Hoenackerpad;10;
2760495;72736,76;226266,79;Van Hoenackerpad;12;
296700;73231,556;226580,16;Vandaelelaan;2;
296702;73181,73;226533,57;Vandaelelaan;3;
2758710;73210,38;226598,34;Vandaelelaan;4;
2758711;73182,46;226513,61;Vandaelelaan;5;
2758712;73211,557;226569,16;Vandaelelaan;6;
2758713;73155,99;226533,97;Vandaelelaan;7;
2758714;73193,428;226564,367;Vandaelelaan;8;
293725;73130,62;226538,43;Vandaelelaan;9;
4337202;73189,366;226563,986;Vandaelelaan;10;
2758715;73182,43;226591,67;Vandaelelaan;12;
2758716;73164,176;226563,048;Vandaelelaan;14;
296703;73156,064;226564,682;Vandaelelaan;16;
296704;73132,557;226577,159;Vandaelelaan;18;
292981;72728,511;226524,933;Vossenhul;2;
292980;72703,46;226504,45;Vossenhul;3;
2767404;72709,462;226527,979;Vossenhul;4;
2767406;72699,57;226483,74;Vossenhul;5;
2767407;72698,27;226546,091;Vossenhul;6;
292983;72686,62;226508,871;Vossenhul;7;
2767408;72673,591;226549,728;Vossenhul;8;
292982;72665,749;226509,378;Vossenhul;9;
2767410;72656,938;226536,233;Vossenhul;10;
4057832;72647,604;226508,997;Vossenhul;11;
292979;72636,669;226533,598;Vossenhul;12;
2767412;72629,19;226506,8;Vossenhul;13;
295126;73136;226751;Zeedijk-Albertstrand;430;
5579241;73145;226759;Zeedijk-Albertstrand;431;
2757769;73154;226763;Zeedijk-Albertstrand;432;
2757770;73164;226757;Zeedijk-Albertstrand;433;
2757772;73183;226758;Zeedijk-Albertstrand;434;
295128;73200;226766;Zeedijk-Albertstrand;436;
295129;73211;226773;Zeedijk-Albertstrand;437;
5579242;73216;226774;Zeedijk-Albertstrand;438;
2757777;73222;226779;Zeedijk-Albertstrand;439;
2757778;73231;226781;Zeedijk-Albertstrand;440;
2757781;73237;226783;Zeedijk-Albertstrand;441;
2757782;73248;226788;Zeedijk-Albertstrand;442;
2757783;73261;226792;Zeedijk-Albertstrand;443;
2757785;73274;226799;Zeedijk-Albertstrand;444;
295127;73295;226807;Zeedijk-Albertstrand;445;
296955;72423,37;226543,45;Zeedijk-Duinbergen;300;
6347676;72421;226538;Zeedijk-Duinbergen;300;A
6347682;72427;226546;Zeedijk-Duinbergen;300;B
2758982;72428,448;226548,147;Zeedijk-Duinbergen;301;
2758983;72434,65;226553,12;Zeedijk-Duinbergen;302;
2758985;72437,827;226557,534;Zeedijk-Duinbergen;303;
2758986;72437;226558;Zeedijk-Duinbergen;304;
2758987;72441,24;226562,23;Zeedijk-Duinbergen;305;
2758988;72444,177;226566,677;Zeedijk-Duinbergen;306;
2758989;72447;226570;Zeedijk-Duinbergen;307;
4336802;72451,46;226574,06;Zeedijk-Duinbergen;308;
2758991;72454;226578;Zeedijk-Duinbergen;309;
4336803;72459,39;226581,57;Zeedijk-Duinbergen;310;
295592;72462,557;226586,154;Zeedijk-Duinbergen;311;
295593;72465,35;226590,85;Zeedijk-Duinbergen;312;
295594;72474,557;226599,154;Zeedijk-Duinbergen;313;
6524203;72490;226611;Zeedijk-Duinbergen;314;
295577;72486;226611;Zeedijk-Duinbergen;315;
295578;72499,161;226615,915;Zeedijk-Duinbergen;316;
2758994;72508;226618;Zeedijk-Duinbergen;317;
2758996;72505,526;226619,185;Zeedijk-Duinbergen;318;
4335116;72511,746;226620,835;Zeedijk-Duinbergen;319;
2758997;72514,864;226622,702;Zeedijk-Duinbergen;321;
295572;72518,862;226624,699;Zeedijk-Duinbergen;322;
295573;72537;226624,16;Zeedijk-Duinbergen;323;
2759001;72540,557;226630,154;Zeedijk-Duinbergen;325;
2759002;72540,557;226630,154;Zeedijk-Duinbergen;326;
2759004;72548;226634;Zeedijk-Duinbergen;327;
2759005;72554,557;226635,154;Zeedijk-Duinbergen;328;
2759006;72564,557;226640,154;Zeedijk-Duinbergen;329;
2759008;72565;226641;Zeedijk-Duinbergen;330;
295574;72573,795;226643,662;Zeedijk-Duinbergen;331;
295575;72583,192;226646,408;Zeedijk-Duinbergen;332;
295576;72588;226649;Zeedijk-Duinbergen;333;
293001;72595,557;226652,155;Zeedijk-Duinbergen;334;
293002;72602,567;226655,986;Zeedijk-Duinbergen;335;
2759012;72609,549;226659,033;Zeedijk-Duinbergen;336;
293003;72617,166;226661,953;Zeedijk-Duinbergen;337;
5878109;72687,556;226688,155;Zeedijk-Duinbergen;385;
296487;72765,556;226724,156;Zeedijk-Duinbergen;388;
2759016;72776;226729;Zeedijk-Duinbergen;389;
2759018;72782,556;226731,156;Zeedijk-Duinbergen;391;
3939540;72783;226732;Zeedijk-Duinbergen;392;
296491;72797,556;226738,156;Zeedijk-Duinbergen;394;
5579327;72794;226738;Zeedijk-Duinbergen;395;
6422955;72798;226739;Zeedijk-Duinbergen;395;A
6430784;72800;226741;Zeedijk-Duinbergen;395;B
296493;72805;226742;Zeedijk-Duinbergen;396;
5579328;72804,556;226741,156;Zeedijk-Duinbergen;397;
2759025;72808,936;226744,06;Zeedijk-Duinbergen;398;
1504176;72809;226743;Zeedijk-Duinbergen;399;
2759026;72815,556;226746,156;Zeedijk-Duinbergen;400;
2759030;72816;226747;Zeedijk-Duinbergen;402;
2759032;72824;226751;Zeedijk-Duinbergen;403;
2759033;72831;226754;Zeedijk-Duinbergen;404;
2759034;72837,175;226755,029;Zeedijk-Duinbergen;405;
4336898;72841,698;226758,664;Zeedijk-Duinbergen;406;
2759036;72841;226759;Zeedijk-Duinbergen;407;
2759037;72849,555;226761,156;Zeedijk-Duinbergen;408;
294235;72856,555;226766,156;Zeedijk-Duinbergen;409;
294234;72899;226785;Zeedijk-Duinbergen;410;
294236;72906,555;226789,157;Zeedijk-Duinbergen;411;
294237;72916,555;226793,157;Zeedijk-Duinbergen;412;
294238;72927,555;226796,157;Zeedijk-Duinbergen;413;
294243;72937,555;226801,157;Zeedijk-Duinbergen;414;
2759040;72937,555;226801,157;Zeedijk-Duinbergen;415;
5579329;72938;226802;Zeedijk-Duinbergen;416;
294239;72945,555;226805,157;Zeedijk-Duinbergen;417;
2759043;72957;226808;Zeedijk-Duinbergen;418;
302676;71832,56;226346,149;Zeedijk-Heist;299;
295579;72535;226628;Zeegrasstraat;1;
295581;72522,992;226618,371;Zeegrasstraat;2;
2767850;72525,576;226611,462;Zeegrasstraat;4;
2767851;72543,557;226611,154;Zeegrasstraat;5;
2767852;72524,495;226603,804;Zeegrasstraat;6;
2767853;72548,16;226608,06;Zeegrasstraat;9;
2767854;72546,557;226602,154;Zeegrasstraat;11;
2767855;72548,557;226597,154;Zeegrasstraat;13;
2767857;72532,557;226590,154;Zeegrasstraat;14;
295580;72550,557;226592,154;Zeegrasstraat;15;
295424;72640,605;226390,059;Zeegrasstraat;17;
295425;72646,336;226374,821;Zeegrasstraat;19;
295428;72666,8;226336,44;Zeegrasstraat;21;
295583;72544,622;226552,836;Zeegrasstraat;22;
2767858;72671,66;226325,57;Zeegrasstraat;23;
3939669;72552;226539;Zeegrasstraat;24;
6465861;72555;226531;Zeegrasstraat;24;A
2767860;72679,49;226305,96;Zeegrasstraat;25;
2767861;72523,582;226526,406;Zeegrasstraat;26;
6418857;72535;226528;Zeegrasstraat;26;A
5418243;72531,765;226528,043;Zeegrasstraat;26;B
2767862;72688,9;226286,93;Zeegrasstraat;27;
2767863;72561,923;226513,123;Zeegrasstraat;28;
6240031;72555;226508;Zeegrasstraat;28;A
295427;72686,01;226279,92;Zeegrasstraat;29;
295584;72570,623;226492,059;Zeegrasstraat;30;
296978;72602,02;226405,409;Zeegrasstraat;32;
296979;72606,258;226394,505;Zeegrasstraat;34;
296976;72616,528;226365,523;Zeegrasstraat;36;
295423;72637,878;226318,013;Zeegrasstraat;38;
4336423;72640,878;226309,679;Zeegrasstraat;40;
295426;72647,212;226292,79;Zeegrasstraat;42;
4185262;72664;226263;Zeegrasstraat;44;
296713;73053,36;226324,146;Zomerpad;1;
296712;73073,39;226345,01;Zomerpad;2;
2767911;73027,328;226348,258;Zomerpad;3;
2767912;73019,579;226328,52;Zomerpad;3;A
296710;73068,22;226364,698;Zomerpad;4;
2767913;73045,06;226349,5;Zomerpad;5;
293670;73079,08;226379,61;Zomerpad;6;
296711;73039,55;226371,589;Zomerpad;7;
293674;73103,25;226420,3;Zomerpad;8;
293677;73076,44;226431,42;Zomerpad;9;
2767914;73124,128;226434,379;Zomerpad;10;
2767915;73121,335;226436,664;Zomerpad;12;
296740;73101,2;226488,81;Zomerpad;13;
296739;73126,68;226461,77;Zomerpad;14;
296738;73114,38;226501,903;Zomerpad;15;
4337167;73131,54;226481,46;Zomerpad;16;
