LAM MK;xPos;yPos;Street;Nr;Suffix
968887;151761,757;210862,662;Admiraal de Boisotstraat;2;
762227;151768,514;210838,689;Admiraal de Boisotstraat;3;
1752964;151757,226;210859,115;Admiraal de Boisotstraat;4;
1752966;151765,262;210834,466;Admiraal de Boisotstraat;5;
1752970;151753,443;210854,243;Admiraal de Boisotstraat;6;
1752971;151762,33;210830,185;Admiraal de Boisotstraat;7;
1752972;151750,524;210849,607;Admiraal de Boisotstraat;8;
1752973;151759,211;210826,282;Admiraal de Boisotstraat;9;
4515990;151746,607;210844,351;Admiraal de Boisotstraat;10;
1752976;151755,514;210822,53;Admiraal de Boisotstraat;11;
1752980;151738,366;210836,578;Admiraal de Boisotstraat;12;
1752987;151753,347;210817,931;Admiraal de Boisotstraat;13;
4515991;151737;210838;Admiraal de Boisotstraat;14;
1752992;151749,8;210813,688;Admiraal de Boisotstraat;15;
4515992;151734;210833;Admiraal de Boisotstraat;16;
1753004;151746,542;210809,009;Admiraal de Boisotstraat;17;
1753009;151731,822;210828,156;Admiraal de Boisotstraat;18;
1753016;151728,857;210823,794;Admiraal de Boisotstraat;20;
1753019;151736;210795;Admiraal de Boisotstraat;21;
1753023;151725,737;210819,364;Admiraal de Boisotstraat;22;
1753029;151733,172;210791,544;Admiraal de Boisotstraat;23;
1753034;151723,887;210813,898;Admiraal de Boisotstraat;24;
1753038;151729,511;210787,791;Admiraal de Boisotstraat;25;
968888;151719,977;210810,72;Admiraal de Boisotstraat;26;
1753056;151726,219;210782,931;Admiraal de Boisotstraat;27;
1753059;151717,262;210806,066;Admiraal de Boisotstraat;28;
1753064;151722,926;210778,619;Admiraal de Boisotstraat;29;
1753075;151713,941;210801,596;Admiraal de Boisotstraat;30;
1753078;151719,182;210774,169;Admiraal de Boisotstraat;31;
1753084;151710,809;210797,581;Admiraal de Boisotstraat;32;
1753086;151715,766;210769,438;Admiraal de Boisotstraat;33;
1753088;151707,028;210794,182;Admiraal de Boisotstraat;34;
762226;151712,744;210764,962;Admiraal de Boisotstraat;35;
1753095;151704,223;210789,415;Admiraal de Boisotstraat;36;
762224;151708,51;210761,116;Admiraal de Boisotstraat;37;
968886;151700,632;210786,03;Admiraal de Boisotstraat;38;
1753102;151705,863;210756,638;Admiraal de Boisotstraat;39;
1753106;151702,539;210752,114;Admiraal de Boisotstraat;41;
1753109;151699,633;210747,167;Admiraal de Boisotstraat;43;
1753113;151695,584;210743,397;Admiraal de Boisotstraat;45;
1753117;151691,847;210739,296;Admiraal de Boisotstraat;47;
4519679;151689,477;210734,794;Admiraal de Boisotstraat;49;
4519680;151685,859;210731,059;Admiraal de Boisotstraat;51;
1753121;151683,017;210726,879;Admiraal de Boisotstraat;53;
762222;151680,412;210723,331;Admiraal de Boisotstraat;55;
762818;151797,335;210852,977;Allewaertstraat;1;
762218;151774,144;210846,85;Allewaertstraat;2;
762220;151777,301;210840,063;Allewaertstraat;2;A
762819;151797,679;210841,152;Allewaertstraat;3;
1734697;151779,394;210834,109;Allewaertstraat;4;
1734698;151798,239;210836,754;Allewaertstraat;5;
1734699;151779,252;210829,505;Allewaertstraat;6;
1734700;151800,181;210831,435;Allewaertstraat;7;
1734701;151781,643;210822,34;Allewaertstraat;8;
1734702;151801,075;210827,134;Allewaertstraat;9;
1734703;151781,329;210818,197;Allewaertstraat;10;
1734704;151803,105;210819,112;Allewaertstraat;11;
1734705;151805,496;210809,564;Allewaertstraat;11;A
1734706;151782,859;210812,086;Allewaertstraat;12;
1734707;151806,862;210805,024;Allewaertstraat;13;
1734708;151784,186;210806,982;Allewaertstraat;14;
4518475;151807,871;210799,976;Allewaertstraat;15;
1734709;151785,413;210801,158;Allewaertstraat;16;
1734710;151808,88;210794,869;Allewaertstraat;17;
1734711;151786,576;210795,46;Allewaertstraat;18;
4518476;151810,364;210789,499;Allewaertstraat;19;
1734712;151787,835;210789,337;Allewaertstraat;20;
3918204;151811,551;210783,897;Allewaertstraat;21;
1734713;151788,423;210784,921;Allewaertstraat;22;
4518478;151814,075;210776,876;Allewaertstraat;23;
1734714;151791,094;210779,353;Allewaertstraat;24;
1734715;151790,513;210774,621;Allewaertstraat;26;
4519682;151793,438;210768,835;Allewaertstraat;28;
1734716;151794,924;210762,804;Allewaertstraat;30;
1734717;151797,086;210756,983;Allewaertstraat;32;
762216;151801;210747;Allewaertstraat;34;
973075;152340,741;211023,292;Amerikalei;2;
4518336;152334,857;211020,38;Amerikalei;4;
973071;152329,526;211017,292;Amerikalei;6;
973073;152321,937;211013,44;Amerikalei;8;
5575005;152286,715;211000,533;Amerikalei;10;
1734835;152286,248;210994,621;Amerikalei;12;
976321;152282;210990;Amerikalei;14;
976322;152276,302;210987,946;Amerikalei;16;
976320;152269,488;210986,519;Amerikalei;18;
1734838;152264,819;210983,09;Amerikalei;20;
1734840;152258,461;210981,145;Amerikalei;22;
976319;152250,149;210977,919;Amerikalei;24;
6525304;152234;210968;Amerikalei;28;
976325;152225,539;210964,737;Amerikalei;30;
976324;152211,178;210956,61;Amerikalei;32;
4519400;152216;210957;Amerikalei;34;
4519402;152211;210953;Amerikalei;36;
1734845;152190;210945;Amerikalei;38;
1734846;152178,107;210938,511;Amerikalei;40;
1734848;152169,035;210934,877;Amerikalei;42;
1734850;152161,284;210931,152;Amerikalei;44;
1734851;152155,822;210926,748;Amerikalei;46;
1734853;152148,105;210924,005;Amerikalei;48;
976332;152141,872;210921,499;Amerikalei;50;
976330;152136,702;210918,304;Amerikalei;52;
976331;152131,315;210915,048;Amerikalei;54;
976329;152125,775;210912,169;Amerikalei;56;
976327;152120,538;210908,722;Amerikalei;58;
976326;152113,923;210906,509;Amerikalei;60;
5952124;152102;210899;Amerikalei;64;
976318;152094,59;210896,671;Amerikalei;66;
4519414;152092;210891;Amerikalei;68;
1734864;152087,93;210892,533;Amerikalei;70;
1734866;152083,187;210888,997;Amerikalei;72;
1734868;152075,551;210887,302;Amerikalei;74;
1734870;152070,823;210883,75;Amerikalei;76;
1101809;152065,211;210881,394;Amerikalei;78;
762822;152022,303;210869,608;Amerikalei;78;A
5575009;152016,693;210857,808;Amerikalei;80;
5575010;152004,608;210850,889;Amerikalei;84;
762809;152001;210848;Amerikalei;86;
762811;151997,377;210845,21;Amerikalei;88;
762812;151990,531;210843,343;Amerikalei;90;
30338;151982,114;210841,922;Amerikalei;92;
762808;151952,102;210822,397;Amerikalei;94;
1734879;151947,791;210819,787;Amerikalei;96;
1734880;151940,366;210814,947;Amerikalei;98;
1734883;151925;210807;Amerikalei;102;
1101800;151918,856;210805,636;Amerikalei;104;
762807;151905,129;210803,934;Amerikalei;104;A
5437477;151912,052;210803;Amerikalei;104;B
5575013;151877,801;210784,954;Amerikalei;106;
762814;151864,032;210778,031;Amerikalei;110;
762815;151856,773;210775,113;Amerikalei;112;
1734894;151850,984;210771,391;Amerikalei;114;
762816;151845,377;210768,885;Amerikalei;116;
762208;151799,826;210746,63;Amerikalei;128;
762182;151794,108;210742,685;Amerikalei;130;
5575014;151788,669;210739,277;Amerikalei;132;
762184;151777,211;210731,818;Amerikalei;136;
1734910;151770,363;210729,712;Amerikalei;138;
762187;151764,211;210725,567;Amerikalei;140;
762196;151747,497;210718,61;Amerikalei;146;
762193;151741,884;210715,297;Amerikalei;148;
5575016;151733,59;210711,267;Amerikalei;150;
762200;151731;210709;Amerikalei;152;
762189;151726,337;210707,362;Amerikalei;154;
762191;151720,65;210704,57;Amerikalei;156;
5575017;151712,041;210700,309;Amerikalei;158;
762627;151640,962;210667,404;Amerikalei;164;
30251;151635,694;210660,871;Amerikalei;166;
1734927;151630,184;210656,701;Amerikalei;168;
1734930;151624,132;210653,556;Amerikalei;170;
1734931;151619,469;210649,605;Amerikalei;172;
4074311;151614,26;210646,443;Amerikalei;174;
1734932;151608,272;210644,7;Amerikalei;176;
1734933;151602,987;210641,96;Amerikalei;178;
1734934;151597,691;210639,425;Amerikalei;180;
1734937;151591,13;210634,81;Amerikalei;182;
762630;151584,563;210630,786;Amerikalei;184;
762626;151577,52;210627,464;Amerikalei;186;
762628;151570,865;210625,377;Amerikalei;188;
1734940;151569,813;210621,973;Amerikalei;190;
762629;151564,034;210625,311;Amerikalei;192;
1734943;151560,672;210619,904;Amerikalei;194;
762625;151554,449;210617,648;Amerikalei;196;
1028362;151488,953;210583,898;Amerikalei;198;
1734944;151489;210584;Amerikalei;200;
1734945;151481,267;210578,783;Amerikalei;202;
1734946;151474,399;210576,765;Amerikalei;204;
1734948;151465,034;210571,779;Amerikalei;206;
4517229;151462;210569;Amerikalei;208;
1028357;151456,462;210567,425;Amerikalei;210;
1028358;151451,269;210564,762;Amerikalei;212;
1028361;151445,774;210561,825;Amerikalei;214;
1028359;151407,966;210541,791;Amerikalei;226;
762632;151515,636;210671,156;Baron Dhanislaan;1;
1028364;151475,311;210641,877;Baron Dhanislaan;2;
30314;151518,206;210665,837;Baron Dhanislaan;3;
1028363;151477,159;210636,291;Baron Dhanislaan;4;
1825295;151521,301;210660,873;Baron Dhanislaan;5;
1825302;151478,477;210630,994;Baron Dhanislaan;6;
1825333;151525,542;210654,969;Baron Dhanislaan;7;
1825343;151481,398;210626,059;Baron Dhanislaan;8;
1825351;151528,301;210649,786;Baron Dhanislaan;9;
1825359;151485,084;210621,061;Baron Dhanislaan;10;
1825366;151531,521;210643,728;Baron Dhanislaan;11;
1825372;151487,618;210615,476;Baron Dhanislaan;12;
1825380;151533,794;210638,989;Baron Dhanislaan;13;
1825388;151491,247;210609,572;Baron Dhanislaan;14;
1825397;151537,995;210630,695;Baron Dhanislaan;15;
1028366;151494,513;210604,287;Baron Dhanislaan;16;
762633;151540;210626;Baron Dhanislaan;17;
762631;151544,97;210615,031;Baron Dhanislaan;19;
5575420;151500,566;210589,605;Baron Dhanislaan;20;
5373899;151875;210823;Beeldhouwersstraat;1;
968891;151715,807;210920,872;Beeldhouwersstraat;2;
762795;151881,633;210820,022;Beeldhouwersstraat;3;
1739389;151719,485;210916,904;Beeldhouwersstraat;4;
1739390;151890,766;210814,281;Beeldhouwersstraat;5;
1739391;151723,305;210912,873;Beeldhouwersstraat;6;
762791;151898,92;210809,108;Beeldhouwersstraat;7;
1739392;151728,564;210909,322;Beeldhouwersstraat;8;
1739393;151734,358;210905,206;Beeldhouwersstraat;10;
1739394;151739,608;210902,063;Beeldhouwersstraat;12;
1739395;151743,81;210898,234;Beeldhouwersstraat;14;
1739396;151749,857;210893,668;Beeldhouwersstraat;16;
4251750;151755,105;210889,971;Beeldhouwersstraat;18;
1326102;151760,85;210886,207;Beeldhouwersstraat;20;
1739397;151765,247;210881,093;Beeldhouwersstraat;22;
29810;151769,277;210878,095;Beeldhouwersstraat;24;
968907;151768,735;210869,006;Beeldhouwersstraat;26;
5446081;151802;210853;Beeldhouwersstraat;28;
762796;151807,861;210848,223;Beeldhouwersstraat;30;
1739398;151812,368;210845,211;Beeldhouwersstraat;32;
1739399;151815,75;210842,207;Beeldhouwersstraat;34;
1739400;151820,102;210838,677;Beeldhouwersstraat;36;
1739401;151825,5;210833,705;Beeldhouwersstraat;38;
1739402;151830,389;210829,43;Beeldhouwersstraat;40;
1739403;151835,592;210825,699;Beeldhouwersstraat;42;
1739404;151841,01;210821,107;Beeldhouwersstraat;44;
1739405;151848,207;210816,296;Beeldhouwersstraat;46;
1739406;151855,996;210810,665;Beeldhouwersstraat;48;
1739407;151860,559;210806,58;Beeldhouwersstraat;50;
1139965;152355,013;211096,41;Begijnenvest;1;
1739686;152361,277;211099,497;Begijnenvest;3;
5575121;152360;211074;Begijnenvest;4;
1739687;152365,729;211103,004;Begijnenvest;5;
138050;152364,404;211078,958;Begijnenvest;6;
1739688;152369,938;211105,306;Begijnenvest;7;
1469013;152376,403;211085,749;Begijnenvest;8;
1739689;152378,116;211110,441;Begijnenvest;9;
1739691;152398,091;211095,449;Begijnenvest;10;
4504590;152379;211109;Begijnenvest;11;
1739693;152403;211092;Begijnenvest;12;
4504591;152383;211111;Begijnenvest;13;
1739694;152409;211098;Begijnenvest;14;
4093937;152387,716;211113,395;Begijnenvest;15;
4510937;152420;211106;Begijnenvest;16;
1739695;152390,512;211117,035;Begijnenvest;17;
4510939;152428;211110;Begijnenvest;18;
4152272;152396,208;211118,301;Begijnenvest;19;
1739696;152435,608;211114,047;Begijnenvest;20;
1739697;152401,738;211122,389;Begijnenvest;21;
138049;152441,161;211117,085;Begijnenvest;22;
1739698;152405;211121;Begijnenvest;23;
138048;152446,984;211120,6;Begijnenvest;24;
1739699;152452,354;211124,138;Begijnenvest;26;
1739700;152412,518;211127,708;Begijnenvest;27;
1739701;152456,38;211127,025;Begijnenvest;28;
4504593;152417,369;211130,303;Begijnenvest;29;
4127034;152457;211127;Begijnenvest;30;
1739702;152422,209;211132,383;Begijnenvest;31;
1739703;152462,532;211129,21;Begijnenvest;32;
1739704;152426,229;211134,209;Begijnenvest;33;
138044;152489,009;211142,674;Begijnenvest;36;
4144192;152452,215;211148,737;Begijnenvest;37;
1739706;152494,11;211145,236;Begijnenvest;38;
1739707;152453;211145;Begijnenvest;39;
1739708;152500,01;211148,428;Begijnenvest;40;
6441403;152501;211150;Begijnenvest;40;A
4504595;152459,021;211150,387;Begijnenvest;41;
1739709;152506,286;211151,687;Begijnenvest;42;
1139966;152463,929;211151,974;Begijnenvest;43;
1739710;152511,196;211154,213;Begijnenvest;44;
1139963;152486,073;211166,341;Begijnenvest;45;
3999149;152515,941;211156,764;Begijnenvest;46;
4504619;152488;211165;Begijnenvest;47;
1739711;152520,643;211158,293;Begijnenvest;48;
1739712;152493,388;211169,255;Begijnenvest;49;
1739714;152501,658;211174,037;Begijnenvest;51;
1739715;152529,459;211164,831;Begijnenvest;52;
1739716;152504;211171;Begijnenvest;53;
138045;152537,384;211169,35;Begijnenvest;54;
6326726;152540;211169;Begijnenvest;54;A
1351240;152511,075;211177,143;Begijnenvest;55;
1739717;152514,338;211179,826;Begijnenvest;57;
1739718;152567,349;211183,332;Begijnenvest;58;
1739719;152519,011;211182,041;Begijnenvest;59;
4510965;152570;211183;Begijnenvest;60;
4105413;152525,348;211185,13;Begijnenvest;61;
1739720;152572,379;211186,22;Begijnenvest;62;
4504622;152530;211185;Begijnenvest;63;
1739721;152576,779;211188,823;Begijnenvest;64;
4504609;152534;211187;Begijnenvest;65;
4510966;152581,599;211190,816;Begijnenvest;66;
1739722;152585,907;211193,915;Begijnenvest;68;
6443527;152586;211193;Begijnenvest;68;A
1139916;152552,951;211200,441;Begijnenvest;69;
138047;152589;211194;Begijnenvest;70;
190099;152558,277;211209,744;Begijnenvest;71;
11950;152605,761;211225,064;Begijnenvest;72;
4506566;152564,108;211217,09;Begijnenvest;73;
1739723;152605,449;211229,744;Begijnenvest;74;
1739724;152566,408;211221,375;Begijnenvest;75;
1739725;152605,27;211236,631;Begijnenvest;76;
1739726;152569,749;211226,311;Begijnenvest;77;
1739727;152604,999;211241,863;Begijnenvest;78;
1139904;152572,562;211233,366;Begijnenvest;79;
1739728;152604,133;211247,788;Begijnenvest;80;
1139903;152579,009;211252,379;Begijnenvest;81;
1739729;152605,553;211251,986;Begijnenvest;82;
4232527;152583,299;211256,455;Begijnenvest;83;
1739730;152606,932;211259,071;Begijnenvest;84;
1739731;152584,56;211260,986;Begijnenvest;85;
1139930;152611,371;211269,847;Begijnenvest;86;
1739732;152588,047;211265,778;Begijnenvest;87;
43829;152621,797;211291,169;Begijnenvest;88;
4506565;152591,062;211272,475;Begijnenvest;89;
1739733;152623,305;211296,147;Begijnenvest;90;
1739734;152625,936;211300,852;Begijnenvest;92;
1139902;152603,947;211302,824;Begijnenvest;93;
1739735;152628,174;211305,935;Begijnenvest;94;
4506551;152606,406;211311,832;Begijnenvest;95;
1739736;152631,729;211315,712;Begijnenvest;96;
1739737;152610,028;211317,419;Begijnenvest;97;
4506996;152633;211319;Begijnenvest;98;
4234401;152612,777;211324,763;Begijnenvest;99;
1739738;152636,137;211325,643;Begijnenvest;100;
1739739;152614,531;211332,282;Begijnenvest;101;
1739740;152638,793;211333,837;Begijnenvest;102;
1739741;152616,653;211337,227;Begijnenvest;103;
6462459;152620;211337;Begijnenvest;103;B
43828;152643,844;211347,625;Begijnenvest;104;
4506552;152622;211345;Begijnenvest;105;
1184628;152573,357;211334,502;Begijnenvest;107;
1739743;152624;211354;Begijnenvest;107;A
6437841;152625;211357;Begijnenvest;107;B
6379858;152632;211367;Begijnenvest;111;
1139901;152617,713;211373,386;Begijnenvest;113;
1028371;151374,814;210577,837;Bolivarplaats;2;
1028386;151398,871;210555,017;Bolivarplaats;3;
1028372;151404,48;210548,188;Bolivarplaats;4;
138060;152595,022;211200,095;Bollandusstraat;2;
1753199;152609;211213;Bollandusstraat;3;
1753206;152598,091;211195,337;Bollandusstraat;4;
1753213;152612;211210;Bollandusstraat;5;
3918411;152613;211208;Bollandusstraat;5;B
1753234;152599,517;211192,187;Bollandusstraat;6;
1753239;152601,992;211188,247;Bollandusstraat;8;
1139929;152617,033;211204,067;Bollandusstraat;9;
1753242;152604,294;211184,547;Bollandusstraat;10;
1753253;152620;211196;Bollandusstraat;11;
4228821;152607,031;211180,823;Bollandusstraat;12;
4263202;152623,605;211191,734;Bollandusstraat;13;
138059;152609,782;211176,553;Bollandusstraat;14;
1753267;152629,939;211183,077;Bollandusstraat;15;
138061;152615,429;211168,958;Bollandusstraat;16;
1139927;152632;211179;Bollandusstraat;17;
762802;151925,569;210885,964;Bouwmeestersstraat;1;
762801;151914,311;210857,246;Bouwmeestersstraat;2;
1774155;151937,812;210875,991;Bouwmeestersstraat;3;
1774162;151918,127;210853,547;Bouwmeestersstraat;4;
4518461;151952,037;210864,47;Bouwmeestersstraat;5;
1774166;151922,826;210850,255;Bouwmeestersstraat;6;
4518462;151963,988;210858,203;Bouwmeestersstraat;7;
1774173;151929,112;210846,065;Bouwmeestersstraat;8;
762804;151974,956;210849,008;Bouwmeestersstraat;9;
1774176;151933,359;210842,005;Bouwmeestersstraat;10;
1774185;151982;210840;Bouwmeestersstraat;11;
4518465;151939,881;210837,713;Bouwmeestersstraat;12;
1774189;151943,853;210834,869;Bouwmeestersstraat;14;
1774194;151946,791;210832,547;Bouwmeestersstraat;16;
762803;151956,778;210825,174;Bouwmeestersstraat;18;
1139895;152559,56;211248,735;Brabantstraat;1;
1139896;152563,423;211231,743;Brabantstraat;2;
1139894;152566,057;211249,707;Brabantstraat;3;
1139897;152572,678;211250,637;Brabantstraat;5;
43834;152690,148;211253,94;Britselei;2;
11964;152681,789;211243,92;Britselei;4;
6456663;152680;211238;Britselei;4;B
5942210;152649;211204;Britselei;12;
1139926;152645,671;211198,853;Britselei;14;
1780715;152640,856;211192,705;Britselei;16;
1139925;152636,758;211187,966;Britselei;18;
6589858;152634;211181;Britselei;20;
138062;152617;211165;Britselei;22;
1780730;152611,234;211163,395;Britselei;24;
1780737;152605,237;211160,646;Britselei;26;
1780741;152598,795;211157,203;Britselei;28;
1780749;152593,159;211153,392;Britselei;30;
1780756;152587,577;211150,887;Britselei;32;
1780764;152581,058;211148,77;Britselei;34;
138072;152576,591;211145,437;Britselei;36;
5575254;152564,598;211142,655;Britselei;38;
138063;152547;211126;Britselei;40;
138070;152534,486;211121,914;Britselei;44;
1780828;152527,257;211119,869;Britselei;46;
1780842;152520,397;211116,63;Britselei;48;
1780851;152513,027;211113,168;Britselei;50;
1780858;152506,8;211109,715;Britselei;52;
138064;152501,935;211107,374;Britselei;54;
138068;152473,707;211090,71;Britselei;56;
138074;152468,091;211089,501;Britselei;58;
1780874;152462,653;211086,136;Britselei;60;
1780875;152456,439;211083,145;Britselei;62;
138077;152427,668;211069,482;Britselei;70;
6464898;152428;211065;Britselei;70;A
1780886;152422,664;211066,67;Britselei;72;
138076;152417,907;211064,177;Britselei;74;
138066;152411,684;211061,267;Britselei;76;
138078;152405,799;211058,595;Britselei;78;
138079;152398,868;211055,036;Britselei;80;
5575256;152390,446;211050,41;Britselei;82;
138065;152388;211048;Britselei;84;
1780916;152371,38;211039,009;Britselei;88;
1780935;152375;211039;Britselei;90;
1780938;152372;211036;Britselei;92;
138069;152366;211033;Britselei;94;
977837;151909,254;210998,433;Coquilhatstraat;2;
1808861;151916,392;211018,992;Coquilhatstraat;3;
977841;151917,304;211000,408;Coquilhatstraat;4;
4234637;151921,981;211020,266;Coquilhatstraat;5;
1808871;151922,307;211000,937;Coquilhatstraat;6;
1808885;151924,889;211022,033;Coquilhatstraat;7;
6433442;151927;211020;Coquilhatstraat;7;A
1371125;151927,276;211001,762;Coquilhatstraat;8;
1808898;151931,602;211022,257;Coquilhatstraat;9;
1808903;151939,135;211002,536;Coquilhatstraat;10;
1808924;151935,353;211023,546;Coquilhatstraat;11;
1338477;151940,596;211024,303;Coquilhatstraat;13;
1808935;151947,396;211004,39;Coquilhatstraat;14;
1808951;151946,702;211024,124;Coquilhatstraat;15;
1808958;151951,479;211025,038;Coquilhatstraat;17;
1808966;151990,185;211008,891;Coquilhatstraat;18;
1808997;151957,423;211025,385;Coquilhatstraat;19;
1809006;151995,418;211010,465;Coquilhatstraat;20;
1809021;151962,201;211027,668;Coquilhatstraat;21;
977838;152006,573;211013,561;Coquilhatstraat;22;
1809074;151969,279;211027,6;Coquilhatstraat;23;
977839;152055,655;211017,079;Coquilhatstraat;24;
1809113;151972,478;211028,214;Coquilhatstraat;25;
1809124;152061,982;211017,595;Coquilhatstraat;26;
1809133;151977,67;211029,14;Coquilhatstraat;27;
1809139;152067,386;211018,114;Coquilhatstraat;28;
1809151;151982,532;211029,549;Coquilhatstraat;29;
1809164;152072,391;211019,052;Coquilhatstraat;30;
1809175;151988,713;211029,208;Coquilhatstraat;31;
1809182;152078,716;211019,537;Coquilhatstraat;32;
1809186;151994,419;211029,908;Coquilhatstraat;33;
4518611;152082,571;211020,08;Coquilhatstraat;34;
969862;152006,463;211029,308;Coquilhatstraat;35;
1809193;152087,789;211020,622;Coquilhatstraat;36;
977842;152035,122;211035,023;Coquilhatstraat;37;
1809208;152092,495;211021,3;Coquilhatstraat;38;
1809214;152043,083;211034,832;Coquilhatstraat;39;
1809223;152097,201;211021,874;Coquilhatstraat;40;
4204878;152048,232;211035,482;Coquilhatstraat;41;
1809235;152101,225;211022,255;Coquilhatstraat;42;
1809246;152053,163;211037,077;Coquilhatstraat;43;
4518616;152105,179;211022,665;Coquilhatstraat;44;
1809252;152059,04;211038,088;Coquilhatstraat;45;
977840;152109,448;211023,737;Coquilhatstraat;46;
1809274;152065,839;211038,215;Coquilhatstraat;47;
977843;152087,192;211042,847;Coquilhatstraat;49;
1809344;152085;211039;Coquilhatstraat;49;A
1809346;152092;211040;Coquilhatstraat;49;B
1809357;152106,841;211044,462;Coquilhatstraat;51;
1809380;152119,312;211045,696;Coquilhatstraat;55;
1809386;152124,316;211046,538;Coquilhatstraat;57;
977844;152130,996;211048,224;Coquilhatstraat;59;
977849;152022,865;211115,348;De Vrièrestraat;1;
969858;151996,202;211112,486;De Vrièrestraat;2;
2062123;152023,414;211109,347;De Vrièrestraat;3;
2062124;151996,555;211106,296;De Vrièrestraat;4;
2062125;152024,912;211102,673;De Vrièrestraat;5;
2062126;151997,093;211099,31;De Vrièrestraat;6;
2062127;152025,135;211097,336;De Vrièrestraat;7;
2062128;151999,681;211092,252;De Vrièrestraat;8;
4518595;152026,015;211090,789;De Vrièrestraat;9;
6191007;152028;211088;De Vrièrestraat;9;A
2062129;151999,711;211086,987;De Vrièrestraat;10;
4518596;152026,297;211085,033;De Vrièrestraat;11;
2062130;152000,478;211080,975;De Vrièrestraat;12;
2062131;152027,191;211078,852;De Vrièrestraat;13;
2062132;151999,12;211075,797;De Vrièrestraat;14;
4221639;152027,777;211072,892;De Vrièrestraat;15;
2062134;152029,108;211064,34;De Vrièrestraat;17;
2062136;152001,962;211063,792;De Vrièrestraat;18;
4518598;152033;211059;De Vrièrestraat;19;
2062137;152002,794;211057,517;De Vrièrestraat;20;
2062138;152030,058;211054,737;De Vrièrestraat;21;
969859;152002,44;211052,386;De Vrièrestraat;22;
2062139;152031,481;211048,577;De Vrièrestraat;23;
969860;152004,872;211045,666;De Vrièrestraat;24;
977850;152031,815;211043,357;De Vrièrestraat;25;
4517592;152003,987;211040,478;De Vrièrestraat;26;
977848;152035,136;211015,536;De Vrièrestraat;27;
969861;152004,896;211034,938;De Vrièrestraat;28;
2062140;152034,936;211010,273;De Vrièrestraat;29;
977846;152007,969;211008,797;De Vrièrestraat;30;
2062142;152008,759;211003,423;De Vrièrestraat;32;
2062143;152037,072;210997,825;De Vrièrestraat;33;
2062144;152036,814;210992,2;De Vrièrestraat;33;A
2062145;152008,988;210997,373;De Vrièrestraat;34;
2062146;152038,189;210986,285;De Vrièrestraat;35;
2062148;152040,042;210972,558;De Vrièrestraat;37;
2062149;152011,699;210969,828;De Vrièrestraat;38;
2062150;152039,318;210978,848;De Vrièrestraat;39;
2062151;152013,662;210962,627;De Vrièrestraat;40;
2062152;152040,421;210967,186;De Vrièrestraat;41;
2062153;152013,329;210957,796;De Vrièrestraat;42;
2062154;152041,117;210960,465;De Vrièrestraat;43;
4004449;152014,159;210951,235;De Vrièrestraat;44;
2062155;152041,519;210954,76;De Vrièrestraat;45;
2062156;152015,646;210944,521;De Vrièrestraat;46;
2062157;152041,812;210950,085;De Vrièrestraat;47;
2062158;152015,903;210939,147;De Vrièrestraat;48;
4518607;152042,829;210944,168;De Vrièrestraat;49;
2062159;152016,698;210932,923;De Vrièrestraat;50;
2062160;152043,537;210939,212;De Vrièrestraat;51;
2062161;152017,288;210927,072;De Vrièrestraat;52;
2062162;152044,098;210933,965;De Vrièrestraat;53;
2062163;152017,036;210921,325;De Vrièrestraat;54;
4518608;152044,269;210929,095;De Vrièrestraat;55;
2062164;152018,667;210914,887;De Vrièrestraat;56;
2062165;152044,962;210920,941;De Vrièrestraat;57;
4518626;152018,022;210910,142;De Vrièrestraat;58;
4153593;152044;210915;De Vrièrestraat;59;
977845;152023;210900;De Vrièrestraat;60;
977847;152045,213;210912,271;De Vrièrestraat;61;
977599;151454,677;210854,455;Edward Pecherstraat;1;
2042502;151456,326;210844,997;Edward Pecherstraat;3;
2042507;151433,149;210860,816;Edward Pecherstraat;4;
2042508;151456;210840;Edward Pecherstraat;5;
2042510;151434,158;210855,583;Edward Pecherstraat;6;
2042512;151458,154;210838,218;Edward Pecherstraat;7;
2042514;151434,653;210850,707;Edward Pecherstraat;8;
2042517;151459,193;210833,309;Edward Pecherstraat;9;
2042519;151435,252;210844,985;Edward Pecherstraat;10;
2042521;151460,758;210827,521;Edward Pecherstraat;11;
2042528;151436,291;210838,028;Edward Pecherstraat;12;
2042531;151462,265;210820,425;Edward Pecherstraat;13;
2042535;151437,079;210830,781;Edward Pecherstraat;14;
2042539;151463,703;210814,692;Edward Pecherstraat;15;
2042543;151437,551;210825,235;Edward Pecherstraat;16;
2042547;151465,01;210806,207;Edward Pecherstraat;17;
2042551;151438,452;210819,499;Edward Pecherstraat;20;
2042553;151467,529;210795,233;Edward Pecherstraat;21;
2042555;151439,579;210813,154;Edward Pecherstraat;22;
2042558;151469,005;210784,777;Edward Pecherstraat;23;
2042563;151470;210783;Edward Pecherstraat;25;
4518191;151445;210793;Edward Pecherstraat;26;
4183941;151469;210780;Edward Pecherstraat;27;
4518193;151447;210786;Edward Pecherstraat;28;
2042566;151469;210778;Edward Pecherstraat;29;
4518194;151448;210781;Edward Pecherstraat;30;
2042567;151471,362;210772,614;Edward Pecherstraat;31;
2042570;151472,156;210766,497;Edward Pecherstraat;33;
4518196;151447;210789;Edward Pecherstraat;34;
2042572;151472,992;210760,69;Edward Pecherstraat;35;
4518198;151449;210784;Edward Pecherstraat;36;
2042574;151473,616;210754,899;Edward Pecherstraat;37;
4518199;151450;210780;Edward Pecherstraat;38;
3994198;151474,476;210750,128;Edward Pecherstraat;39;
4518200;151451;210768;Edward Pecherstraat;40;
2042578;151475,066;210745,396;Edward Pecherstraat;41;
4518202;151451;210774;Edward Pecherstraat;42;
2042580;151476,131;210739,813;Edward Pecherstraat;43;
4518203;151452;210771;Edward Pecherstraat;44;
2042584;151476,562;210734,978;Edward Pecherstraat;45;
4518204;151452;210768;Edward Pecherstraat;46;
2042587;151476,845;210729,17;Edward Pecherstraat;47;
4518205;151453;210764;Edward Pecherstraat;48;
977600;151476,785;210721,179;Edward Pecherstraat;49;
4518206;151452;210759;Edward Pecherstraat;50;
977598;151478,895;210713,095;Edward Pecherstraat;51;
4518208;151454;210754;Edward Pecherstraat;52;
4518209;151457;210733;Edward Pecherstraat;54;
2042592;151457,687;210719,422;Edward Pecherstraat;56;
977596;151458,361;210712,362;Edward Pecherstraat;58;
762634;151538,117;210735,146;Emiel Banningstraat;1;
977602;151514;210757;Emiel Banningstraat;2;
1738562;151534,411;210730,583;Emiel Banningstraat;3;
1738563;151508,669;210755,822;Emiel Banningstraat;4;
1738564;151509;210752;Emiel Banningstraat;4;A
1738565;151529,943;210726,428;Emiel Banningstraat;5;
1738566;151504,73;210750,748;Emiel Banningstraat;6;
762636;151526,493;210721,385;Emiel Banningstraat;7;
1738567;151500,934;210745,915;Emiel Banningstraat;8;
762637;151523,188;210716,572;Emiel Banningstraat;9;
1738568;151496,708;210741,515;Emiel Banningstraat;10;
1738569;151519,326;210711,864;Emiel Banningstraat;11;
1738570;151492,955;210736,412;Emiel Banningstraat;12;
1738571;151490,12;210731,035;Emiel Banningstraat;14;
1028367;151472,379;210648,778;Emiel Banningstraat;15;
1738572;151486,911;210726,452;Emiel Banningstraat;16;
1738573;151466,508;210643,986;Emiel Banningstraat;17;
977603;151484,218;210719,476;Emiel Banningstraat;18;
1738574;151463,621;210638,259;Emiel Banningstraat;19;
1028370;151448,129;210674,213;Emiel Banningstraat;20;
1738575;151459,953;210633,439;Emiel Banningstraat;21;
4148769;151444,411;210670,666;Emiel Banningstraat;22;
1738578;151456,188;210627,764;Emiel Banningstraat;23;
977601;151452,28;210623,384;Emiel Banningstraat;25;
1738580;151436,746;210661,903;Emiel Banningstraat;26;
1738581;151448,873;210618,64;Emiel Banningstraat;27;
4091264;151432,852;210657,426;Emiel Banningstraat;28;
1738582;151445,025;210613,72;Emiel Banningstraat;29;
1738585;151425,331;210647,683;Emiel Banningstraat;32;
1738586;151437,619;210604,23;Emiel Banningstraat;33;
1738587;151420,484;210642,812;Emiel Banningstraat;34;
1738588;151433,776;210599,533;Emiel Banningstraat;35;
1738589;151416,9;210637,683;Emiel Banningstraat;36;
1738590;151430,653;210594,836;Emiel Banningstraat;37;
1738591;151412,824;210632,332;Emiel Banningstraat;38;
1738592;151426,322;210590,149;Emiel Banningstraat;39;
1738593;151409,095;210626,932;Emiel Banningstraat;40;
1738594;151422;210582;Emiel Banningstraat;41;
1738596;151406,441;210621,447;Emiel Banningstraat;42;
4517241;151419;210578;Emiel Banningstraat;43;
1738597;151402,003;210617,502;Emiel Banningstraat;44;
4517242;151413;210572;Emiel Banningstraat;45;
1738601;151399,04;210612,988;Emiel Banningstraat;46;
1738602;151413,373;210573,859;Emiel Banningstraat;47;
1738603;151395,933;210608,982;Emiel Banningstraat;48;
1738604;151409,534;210568,304;Emiel Banningstraat;49;
1738605;151393,946;210604,751;Emiel Banningstraat;50;
1738606;151405,329;210563,306;Emiel Banningstraat;51;
1738607;151390,312;210601,615;Emiel Banningstraat;52;
1028368;151402,414;210558,667;Emiel Banningstraat;53;
1738608;151386,492;210597,201;Emiel Banningstraat;54;
1738609;151382,525;210592,519;Emiel Banningstraat;56;
1028369;151379,485;210585,274;Emiel Banningstraat;58;
990582;151997,697;211323,829;Geuzenstraat;3;
1101825;151974,556;211286,396;Geuzenstraat;4;
1894631;151998,604;211318,385;Geuzenstraat;5;
6446106;151999;211315;Geuzenstraat;5;A
4517169;151978;211282;Geuzenstraat;6;
1894673;151999,285;211312,486;Geuzenstraat;7;
1491004;151975,615;211277,17;Geuzenstraat;8;
1894730;152000,419;211306,285;Geuzenstraat;9;
1894763;151976,371;211271,12;Geuzenstraat;10;
1894811;151976,825;211265,221;Geuzenstraat;12;
6448436;151977;211262;Geuzenstraat;12;A
4517160;152004;211291;Geuzenstraat;13;
1894816;151977,203;211259,398;Geuzenstraat;14;
1894837;152002,764;211287,454;Geuzenstraat;15;
1894859;151977,959;211253,348;Geuzenstraat;16;
1894870;152004,049;211281,026;Geuzenstraat;17;
1894884;151978,715;211247,298;Geuzenstraat;18;
6451825;152007;211271;Geuzenstraat;19;A
1894948;151979,396;211240,87;Geuzenstraat;20;
973391;152005,562;211268,246;Geuzenstraat;21;
5575588;152005,985;211262,067;Geuzenstraat;23;
1895001;151980,908;211228,997;Geuzenstraat;24;
1895021;152010;211254;Geuzenstraat;25;
1895044;151981,74;211223,023;Geuzenstraat;26;
973390;152010;211250;Geuzenstraat;27;
1895083;151982,27;211217,351;Geuzenstraat;28;
973392;152007,982;211243,895;Geuzenstraat;29;
1895116;151982,95;211212,436;Geuzenstraat;30;
1449595;151984,329;211205,403;Geuzenstraat;32;
4011157;152008,587;211238,829;Geuzenstraat;33;
973386;151987;211202;Geuzenstraat;34;
1895177;152009,267;211233,837;Geuzenstraat;35;
1895195;152010,78;211222,494;Geuzenstraat;37;
1895215;152011,385;211216,066;Geuzenstraat;39;
973389;152011,514;211208,653;Geuzenstraat;41;
5861712;152012;211204;Geuzenstraat;43;
5748872;152012;211200;Geuzenstraat;45;
977595;151417,355;210865,841;Gijzelaarsstraat;1;
1898911;151416,429;210860,513;Gijzelaarsstraat;3;
1898923;151416,339;210853,123;Gijzelaarsstraat;5;
1898930;151414,928;210847,22;Gijzelaarsstraat;7;
4518217;151415;210844;Gijzelaarsstraat;9;
4518218;151414;210838;Gijzelaarsstraat;11;
1898975;151413;210828;Gijzelaarsstraat;15;
1898996;151412;210821;Gijzelaarsstraat;17;
1899019;151410,813;210810,766;Gijzelaarsstraat;19;
1899028;151407,758;210797,924;Gijzelaarsstraat;21;
6320727;151405;210785;Gijzelaarsstraat;21;A
5965675;151405;210780;Gijzelaarsstraat;21;C
6420850;151404;210776;Gijzelaarsstraat;23;A
4518219;151402;210762;Gijzelaarsstraat;25;
6320728;151404;210773;Gijzelaarsstraat;25;A
6320729;151402;210767;Gijzelaarsstraat;25;C
1899103;151401,466;210747,645;Gijzelaarsstraat;27;
1899128;151396,693;210724,399;Gijzelaarsstraat;31;
977594;151394,993;210718,269;Gijzelaarsstraat;33;
6462756;151390;210679;Gijzelaarsstraat;35;B
4148220;151390,865;210675,848;Gijzelaarsstraat;37;
1899220;151389,679;210671,02;Gijzelaarsstraat;39;
1899226;151388,814;210665,318;Gijzelaarsstraat;41;
1899251;151388,103;210659,873;Gijzelaarsstraat;43;
1899307;151387,611;210654,057;Gijzelaarsstraat;45;
1899329;151386,496;210649,594;Gijzelaarsstraat;47;
1899358;151385,896;210644,346;Gijzelaarsstraat;49;
3957345;151384,816;210639,36;Gijzelaarsstraat;51;
1899374;151384,28;210633,671;Gijzelaarsstraat;53;
1899412;151383,44;210628,32;Gijzelaarsstraat;55;
4218041;151381,941;210623,046;Gijzelaarsstraat;57;
4517249;151378;210611;Gijzelaarsstraat;61;
1899506;151378,338;210607,034;Gijzelaarsstraat;63;
4517252;151374;210591;Gijzelaarsstraat;67;
4517253;151374,361;210588,135;Gijzelaarsstraat;69;
5956437;151373;210584;Gijzelaarsstraat;71;
977799;151442,226;210902,266;Gillisplaats;3;
977798;151439,543;210896,412;Gillisplaats;4;
5575593;151424,19;210876,517;Gillisplaats;5;
968898;151708,587;210925,181;Graaf van Hoornestraat;1;
968894;151674,023;210903,018;Graaf van Hoornestraat;2;
1944414;151674,501;210895,634;Graaf van Hoornestraat;2;A
1944415;151703,682;210913,21;Graaf van Hoornestraat;3;
1944416;151673,586;210889,945;Graaf van Hoornestraat;4;
968899;151703,374;210905,872;Graaf van Hoornestraat;5;
1944417;151672,621;210884,695;Graaf van Hoornestraat;6;
968893;151702,159;210901,206;Graaf van Hoornestraat;7;
1944418;151671,261;210879,053;Graaf van Hoornestraat;8;
4210825;151701,612;210896,446;Graaf van Hoornestraat;9;
1944419;151671,425;210872,381;Graaf van Hoornestraat;10;
4515998;151701,166;210890,762;Graaf van Hoornestraat;11;
1944420;151669,459;210867,964;Graaf van Hoornestraat;12;
1944421;151700,373;210884,737;Graaf van Hoornestraat;13;
1944422;151669,88;210861,176;Graaf van Hoornestraat;14;
1944423;151700,233;210878,188;Graaf van Hoornestraat;15;
1944424;151668,827;210856,369;Graaf van Hoornestraat;16;
1944425;151698,935;210872,615;Graaf van Hoornestraat;17;
1944426;151666,595;210851,358;Graaf van Hoornestraat;18;
4515993;151665,469;210844,639;Graaf van Hoornestraat;20;
4515999;151700;210858;Graaf van Hoornestraat;21;
4515994;151664,688;210839,653;Graaf van Hoornestraat;22;
1944428;151696,382;210855,494;Graaf van Hoornestraat;23;
1944429;151663,999;210834,579;Graaf van Hoornestraat;24;
1944430;151695,451;210850,068;Graaf van Hoornestraat;25;
1944431;151662,928;210829,254;Graaf van Hoornestraat;26;
1357041;151694,732;210843,874;Graaf van Hoornestraat;27;
1944432;151661,081;210823,636;Graaf van Hoornestraat;28;
1944433;151693,814;210838,175;Graaf van Hoornestraat;29;
968896;151659,465;210817,716;Graaf van Hoornestraat;30;
1944434;151693,923;210831,837;Graaf van Hoornestraat;31;
968897;151658,662;210811,761;Graaf van Hoornestraat;32;
1944435;151692,645;210826,404;Graaf van Hoornestraat;33;
1944436;151650,369;210807,103;Graaf van Hoornestraat;34;
1944437;151691,709;210821,32;Graaf van Hoornestraat;35;
1944438;151659,025;210799,136;Graaf van Hoornestraat;36;
1944439;151690,627;210816,059;Graaf van Hoornestraat;37;
1944440;151658,227;210791,799;Graaf van Hoornestraat;38;
1944441;151690,041;210811,135;Graaf van Hoornestraat;39;
1944442;151657,943;210786,247;Graaf van Hoornestraat;40;
1944443;151688,932;210805,505;Graaf van Hoornestraat;41;
1944444;151658,27;210780,289;Graaf van Hoornestraat;42;
1944445;151688,129;210800,12;Graaf van Hoornestraat;43;
1944446;151657,754;210775,08;Graaf van Hoornestraat;44;
1944447;151687,194;210794,674;Graaf van Hoornestraat;45;
1944448;151688;210793;Graaf van Hoornestraat;45;A
5851558;151688;210792;Graaf van Hoornestraat;45;B
1944450;151686,113;210789,853;Graaf van Hoornestraat;47;
1944451;151655,012;210764,511;Graaf van Hoornestraat;48;
968895;151654,596;210759,045;Graaf van Hoornestraat;50;
1944453;151688,932;210778,105;Graaf van Hoornestraat;51;
1944454;151655,199;210752,936;Graaf van Hoornestraat;52;
4069276;151687,514;210773,212;Graaf van Hoornestraat;53;
1289475;151654,64;210747,541;Graaf van Hoornestraat;54;
1944455;151684,782;210767,727;Graaf van Hoornestraat;55;
1944456;151654,08;210742,016;Graaf van Hoornestraat;56;
762228;151681,609;210760,274;Graaf van Hoornestraat;57;
6326784;151680;210758;Graaf van Hoornestraat;57;A
1944457;151653,254;210737,349;Graaf van Hoornestraat;58;
1944458;151679,052;210719,686;Graaf van Hoornestraat;59;
762229;151651,405;210730,802;Graaf van Hoornestraat;60;
1944459;151645,503;210696,077;Graaf van Hoornestraat;66;
1139970;152452,17;211341,553;Kapucinessenstraat;1;
6429806;152453;211336;Kapucinessenstraat;1;A
1139969;152434,493;211332,325;Kapucinessenstraat;2;
4000933;152456,056;211330,249;Kapucinessenstraat;3;
4504616;152458,044;211323,997;Kapucinessenstraat;5;
2067982;152435,473;211320,664;Kapucinessenstraat;6;
2067983;152459,18;211316,798;Kapucinessenstraat;7;
1522944;152436,793;211314,145;Kapucinessenstraat;8;
2067985;152438,024;211307,285;Kapucinessenstraat;10;
2067986;152439,274;211300,144;Kapucinessenstraat;12;
2067987;152464,809;211287,408;Kapucinessenstraat;13;
2067988;152441;211291;Kapucinessenstraat;14;
2067989;152466,19;211279,524;Kapucinessenstraat;15;
4504581;152442,504;211285,718;Kapucinessenstraat;16;
1185697;152467,441;211271,415;Kapucinessenstraat;17;
1139973;152469,205;211262,868;Kapucinessenstraat;19;
2067991;152443,685;211273,841;Kapucinessenstraat;20;
1185705;152470,962;211254,726;Kapucinessenstraat;21;
2067992;152444,913;211267,207;Kapucinessenstraat;22;
1185706;152471,666;211248,836;Kapucinessenstraat;23;
6440127;152472;211248;Kapucinessenstraat;23;A
2067993;152446,17;211261,101;Kapucinessenstraat;24;
5576481;152473,456;211239,398;Kapucinessenstraat;25;
2067996;152448,194;211254,08;Kapucinessenstraat;26;
1185694;152475;211235;Kapucinessenstraat;27;
4504587;152451,85;211229,184;Kapucinessenstraat;28;
1185703;152475,303;211230,289;Kapucinessenstraat;29;
2067998;152455,133;211205,788;Kapucinessenstraat;30;
1185704;152476,376;211221,671;Kapucinessenstraat;31;
2067999;152456,379;211200,16;Kapucinessenstraat;32;
1139972;152477,723;211211,128;Kapucinessenstraat;33;
4504588;152458,152;211193,974;Kapucinessenstraat;34;
1185701;152479,332;211203,01;Kapucinessenstraat;35;
1185702;152480,458;211196,987;Kapucinessenstraat;35;A
2068000;152458,618;211189,331;Kapucinessenstraat;36;
5576482;152482,102;211188,93;Kapucinessenstraat;37;
1452582;152459,508;211183,741;Kapucinessenstraat;38;
2068004;152460,926;211177,993;Kapucinessenstraat;40;
1185696;152484,005;211179,148;Kapucinessenstraat;41;
2068005;152463,109;211170,885;Kapucinessenstraat;42;
1139971;152484,503;211174,102;Kapucinessenstraat;43;
2068006;152464,52;211164,503;Kapucinessenstraat;44;
138051;152489,411;211135,607;Kapucinessenstraat;45;
1139968;152466,481;211156,58;Kapucinessenstraat;46;
2068007;152491,338;211131,439;Kapucinessenstraat;47;
138052;152469,553;211131,574;Kapucinessenstraat;48;
2068008;152492,42;211124,216;Kapucinessenstraat;49;
3928725;152470,985;211125,407;Kapucinessenstraat;50;
2068009;152493,215;211116,982;Kapucinessenstraat;51;
2068010;152472,164;211119,919;Kapucinessenstraat;52;
2068011;152473,837;211113,748;Kapucinessenstraat;54;
3928726;152473,708;211109,152;Kapucinessenstraat;56;
6429580;152473;211105;Kapucinessenstraat;56;A
2068012;152474,887;211103,755;Kapucinessenstraat;58;
5576483;152475,948;211099,009;Kapucinessenstraat;60;
4510930;152477,416;211095,822;Kapucinessenstraat;62;
969870;151962,701;211128,909;Karel Rogierstraat;1;
976238;151961,469;211156,55;Karel Rogierstraat;2;
2048271;151958,105;211126,401;Karel Rogierstraat;3;
2048272;151956,323;211154,832;Karel Rogierstraat;4;
2048274;151951,199;211153,03;Karel Rogierstraat;6;
4517593;151950;211122;Karel Rogierstraat;7;
2048275;151946,373;211149,672;Karel Rogierstraat;8;
2048276;151944,894;211121,049;Karel Rogierstraat;9;
2048277;151939,271;211147,657;Karel Rogierstraat;10;
1442534;151939,401;211118,358;Karel Rogierstraat;11;
2048278;151907,286;211135,16;Karel Rogierstraat;12;
2048279;151934,818;211115,682;Karel Rogierstraat;13;
2048280;151900,962;211130,97;Karel Rogierstraat;14;
2048281;151928,454;211113,291;Karel Rogierstraat;15;
2048282;151895,359;211128,779;Karel Rogierstraat;16;
4253968;151922,974;211110,961;Karel Rogierstraat;17;
2048283;151888,315;211126,648;Karel Rogierstraat;18;
2048284;151913,879;211107,153;Karel Rogierstraat;19;
5507573;151914;211104;Karel Rogierstraat;19;B
2048285;151904,95;211102,8;Karel Rogierstraat;19;C
2048286;151883,841;211123,164;Karel Rogierstraat;20;
2048287;151897,54;211100,104;Karel Rogierstraat;21;
2048288;151878,256;211121,335;Karel Rogierstraat;22;
2048289;151890,92;211097,591;Karel Rogierstraat;23;
2048290;151873,584;211119,274;Karel Rogierstraat;24;
2048291;151884,88;211094,836;Karel Rogierstraat;25;
2048292;151867,09;211117,741;Karel Rogierstraat;26;
2048293;151878,235;211092,058;Karel Rogierstraat;27;
6428414;151880;211087;Karel Rogierstraat;27;C
2048294;151862,342;211114,644;Karel Rogierstraat;28;
2048295;151872,687;211089,814;Karel Rogierstraat;29;
2048296;151856,441;211113,341;Karel Rogierstraat;30;
2048297;151867,788;211087,783;Karel Rogierstraat;31;
2048298;151852,973;211110,604;Karel Rogierstraat;32;
2048299;151862,853;211085,717;Karel Rogierstraat;33;
2048300;151847,509;211109,796;Karel Rogierstraat;34;
2048301;151857,658;211083,473;Karel Rogierstraat;35;
2048302;151843,346;211107,767;Karel Rogierstraat;36;
2048303;151851,996;211081,458;Karel Rogierstraat;37;
2048304;151838,923;211105,792;Karel Rogierstraat;38;
976240;151833,573;211104,22;Karel Rogierstraat;38;A
2048306;151846,505;211079,074;Karel Rogierstraat;39;
976239;151827,581;211100,538;Karel Rogierstraat;40;
2048307;151840,817;211076,534;Karel Rogierstraat;41;
2048308;151835,17;211074,219;Karel Rogierstraat;43;
2048309;151829,939;211072,541;Karel Rogierstraat;45;
969869;151824,385;211069,825;Karel Rogierstraat;47;
6086689;151855;211077;Karel Rogierstraat;97;
978271;152232,691;211282,873;Kasteelpleinstraat;2;
3927764;152235,012;211277,914;Kasteelpleinstraat;4;
978270;152238,766;211271,606;Kasteelpleinstraat;6;
978272;152271;211217;Kasteelpleinstraat;8;
973052;152269,428;211213,201;Kasteelpleinstraat;10;
1139990;152280,481;211263,839;Kasteelpleinstraat;11;
1960304;152271,285;211206,061;Kasteelpleinstraat;12;
1960305;152284;211256;Kasteelpleinstraat;13;
1960306;152273,231;211199,112;Kasteelpleinstraat;14;
1960307;152283,938;211258,086;Kasteelpleinstraat;15;
1960308;152275,734;211194,21;Kasteelpleinstraat;16;
4504625;152360,045;211183,251;Kasteelpleinstraat;17;
1960309;152277,782;211188,461;Kasteelpleinstraat;18;
4504627;152289,384;211246,363;Kasteelpleinstraat;19;
1960310;152280,366;211183,162;Kasteelpleinstraat;20;
1960311;152291;211243;Kasteelpleinstraat;21;
1960312;152282,635;211174,121;Kasteelpleinstraat;22;
4504628;152292,771;211238,407;Kasteelpleinstraat;23;
4504630;152296,463;211229,598;Kasteelpleinstraat;25;
973050;152286,446;211164,669;Kasteelpleinstraat;26;
4504631;152299,628;211220,578;Kasteelpleinstraat;27;
4504632;152299;211222;Kasteelpleinstraat;29;
1960317;152287;211147;Kasteelpleinstraat;30;
1960318;152302;211213;Kasteelpleinstraat;31;
1960319;152293,396;211145,48;Kasteelpleinstraat;32;
1960320;152305,497;211204,186;Kasteelpleinstraat;33;
1960321;152295,726;211140,118;Kasteelpleinstraat;34;
1960322;152298,513;211134,634;Kasteelpleinstraat;36;
1960323;152311,188;211189,681;Kasteelpleinstraat;37;
4518356;152300,155;211128,797;Kasteelpleinstraat;38;
1960326;152304;211115;Kasteelpleinstraat;42;
1960327;152318,148;211169,643;Kasteelpleinstraat;43;
1960328;152324;211165;Kasteelpleinstraat;43;A
1313927;152308,839;211109,132;Kasteelpleinstraat;44;
1960329;152321,647;211160,494;Kasteelpleinstraat;45;
1960331;152309;211108;Kasteelpleinstraat;46;
4504636;152323;211156;Kasteelpleinstraat;47;
4518357;152311;211103;Kasteelpleinstraat;48;
1960332;152325,039;211151,808;Kasteelpleinstraat;49;
6326624;152327;211146;Kasteelpleinstraat;49;A
4518358;152313,399;211099,802;Kasteelpleinstraat;50;
1960333;152329,042;211139,062;Kasteelpleinstraat;51;
973049;152315,214;211090,348;Kasteelpleinstraat;52;
1960334;152331,679;211132,996;Kasteelpleinstraat;53;
973047;152324,585;211061,536;Kasteelpleinstraat;54;
1960335;152333,789;211128,038;Kasteelpleinstraat;55;
4518338;152328;211059;Kasteelpleinstraat;56;
1960336;152336,215;211122,341;Kasteelpleinstraat;57;
1960337;152327,338;211054,655;Kasteelpleinstraat;58;
1960338;152339,135;211113,003;Kasteelpleinstraat;59;
4030205;152329,956;211048,571;Kasteelpleinstraat;60;
1960339;152341,38;211105,702;Kasteelpleinstraat;61;
1960340;152333,752;211040,48;Kasteelpleinstraat;62;
1960342;152344,339;211098,512;Kasteelpleinstraat;63;
1960343;152334;211035;Kasteelpleinstraat;64;
1960344;152345;211096;Kasteelpleinstraat;65;
1960345;152336,074;211033,272;Kasteelpleinstraat;66;
1139991;152347;211089;Kasteelpleinstraat;67;
973048;152338,58;211028,276;Kasteelpleinstraat;68;
138081;152357,443;211062,062;Kasteelpleinstraat;69;
1960347;152359,24;211057,592;Kasteelpleinstraat;71;
1960348;152361,015;211053,034;Kasteelpleinstraat;73;
1960349;152362,686;211048,845;Kasteelpleinstraat;75;
138080;152367;211036;Kasteelpleinstraat;79;
977620;151430,733;210869,097;Kasteelstraat;2;
977605;151461,773;210849,05;Kasteelstraat;4;
1960352;151465,131;210876,686;Kasteelstraat;5;
4042457;151465;210846;Kasteelstraat;6;
1960353;151470,246;210871,951;Kasteelstraat;7;
1960354;151467,549;210844,392;Kasteelstraat;8;
4518851;151473,947;210869,621;Kasteelstraat;9;
1960355;151471,537;210841,174;Kasteelstraat;10;
1960356;151479,261;210865,756;Kasteelstraat;11;
1960357;151475,065;210837,33;Kasteelstraat;12;
1960358;151483,488;210862,254;Kasteelstraat;13;
1960359;151477;210833;Kasteelstraat;14;
1960360;151488,318;210859,053;Kasteelstraat;15;
1960361;151480,408;210832,389;Kasteelstraat;16;
4518853;151493,33;210854,826;Kasteelstraat;17;
1960362;151482;210829;Kasteelstraat;18;
1960363;151498,283;210851,446;Kasteelstraat;19;
1960364;151485,142;210828,156;Kasteelstraat;20;
4188288;151502,294;210847,624;Kasteelstraat;21;
1960365;151489,703;210825,481;Kasteelstraat;22;
1960366;151507,445;210843,415;Kasteelstraat;23;
1960367;151494,816;210821,858;Kasteelstraat;24;
1960368;151511,249;210840,104;Kasteelstraat;25;
1326108;151498,777;210818,399;Kasteelstraat;26;
1960369;151499;210814;Kasteelstraat;26;A
1960370;151515,295;210837,687;Kasteelstraat;27;
1960371;151504,804;210814,781;Kasteelstraat;28;
977811;151520,446;210835,1;Kasteelstraat;29;
968885;151608,492;210766,145;Kasteelstraat;31;
762639;151590,452;210747,851;Kasteelstraat;32;
1960372;151612,981;210761,812;Kasteelstraat;33;
1960373;151594,915;210744,855;Kasteelstraat;34;
1960374;151617,356;210758,782;Kasteelstraat;35;
4518045;151599,788;210741,37;Kasteelstraat;36;
1960375;151621,577;210755,057;Kasteelstraat;37;
1960376;151603,845;210738,234;Kasteelstraat;38;
1960377;151625,98;210752,078;Kasteelstraat;39;
1960378;151607,845;210734,84;Kasteelstraat;40;
1960379;151629,37;210749,059;Kasteelstraat;41;
4223972;151611,083;210731,629;Kasteelstraat;42;
1960380;151633,555;210746,108;Kasteelstraat;43;
1960381;151615,468;210728,562;Kasteelstraat;44;
1960382;151638,294;210742,065;Kasteelstraat;45;
1960383;151620,857;210725,499;Kasteelstraat;46;
1960384;151642,16;210738,299;Kasteelstraat;47;
1960385;151624,165;210723,109;Kasteelstraat;48;
968884;151646;210733;Kasteelstraat;49;
1960386;151627,069;210720,48;Kasteelstraat;50;
762210;151678,51;210712,54;Kasteelstraat;51;
1960387;151629,873;210716,97;Kasteelstraat;52;
4519681;151682;210707;Kasteelstraat;53;
1960388;151635,149;210713,09;Kasteelstraat;54;
1960389;151685,133;210707,245;Kasteelstraat;55;
4518049;151639,56;210709,607;Kasteelstraat;56;
1960390;151689,789;210704,075;Kasteelstraat;57;
762638;151645,969;210705,078;Kasteelstraat;58;
762214;151694;210699;Kasteelstraat;59;
43830;152620,941;211287,002;Kiliaanstraat;1;
1139899;152616,886;211266,421;Kiliaanstraat;2;
1961908;152628,008;211284,071;Kiliaanstraat;3;
1961909;152618,865;211263,09;Kiliaanstraat;4;
43831;152632,446;211279,176;Kiliaanstraat;5;
1961910;152623,393;211259,457;Kiliaanstraat;6;
43832;152636,809;211274,988;Kiliaanstraat;7;
1961911;152646,087;211267,552;Kiliaanstraat;9;
1961912;152632,464;211250,697;Kiliaanstraat;10;
1961913;152657,919;211258,061;Kiliaanstraat;11;
1325777;152637,342;211247,052;Kiliaanstraat;12;
1139900;152646,251;211239,692;Kiliaanstraat;14;
6082748;152651;211235;Kiliaanstraat;18;
1139933;152578,866;211298,656;Koninginnestraat;1;
1139932;152556,973;211275,622;Koninginnestraat;2;
1967075;152544,612;211273,686;Koninginnestraat;2;A
4215636;152585,29;211298,905;Koninginnestraat;3;
1967078;152565,385;211276,977;Koninginnestraat;4;
1139934;152593;211296;Koninginnestraat;5;
1967081;152570,673;211277,691;Koninginnestraat;6;
6309445;152600;211297;Koninginnestraat;7;
1967083;152577,932;211278,896;Koninginnestraat;8;
1139931;152584,743;211280,708;Koninginnestraat;10;
1967095;152593,111;211281,732;Koninginnestraat;12;
1972086;152008;211327;Kronenburgstraat;50;
973397;152014,267;211326,379;Kronenburgstraat;52;
6439944;152018;211324;Kronenburgstraat;52;A
1972095;152022;211324;Kronenburgstraat;54;
1972103;152025,535;211323,568;Kronenburgstraat;56;
1972108;152031,356;211322,278;Kronenburgstraat;58;
1972112;152037,708;211321,448;Kronenburgstraat;60;
1972120;152045,493;211320,178;Kronenburgstraat;62;
973395;152053,204;211318,346;Kronenburgstraat;64;
1972144;152060,7;211317,209;Kronenburgstraat;68;
1972154;152066,592;211316,148;Kronenburgstraat;70;
1972163;152072,577;211315,167;Kronenburgstraat;72;
1972172;152078,7;211314,113;Kronenburgstraat;74;
1972182;152084,526;211312,974;Kronenburgstraat;76;
1972185;152090,422;211311,52;Kronenburgstraat;78;
1972191;152096,092;211310,848;Kronenburgstraat;80;
1972195;152102,36;211309,31;Kronenburgstraat;82;
973394;152106,914;211308,558;Kronenburgstraat;82;A
978241;152129,676;211301,281;Kronenburgstraat;84;
1972205;152139,012;211299,699;Kronenburgstraat;86;
1972208;152144,339;211298,117;Kronenburgstraat;88;
1972213;152153,412;211296,903;Kronenburgstraat;90;
1972215;152161,641;211294,53;Kronenburgstraat;92;
1972221;152171,346;211293;Kronenburgstraat;94;
978240;152182,423;211290,838;Kronenburgstraat;96;
978239;152183;211291;Kronenburgstraat;98;
1972229;152189;211292;Kronenburgstraat;100;
1972233;152192,973;211288,886;Kronenburgstraat;102;
1972243;152201,359;211287,462;Kronenburgstraat;104;
4518800;152205;211289;Kronenburgstraat;106;
1972247;152209,324;211286,09;Kronenburgstraat;108;
1972254;152220;211284;Kronenburgstraat;110;
1972263;152221,351;211283,664;Kronenburgstraat;112;
978238;152226,995;211283,136;Kronenburgstraat;114;
1980036;151532,584;210834,942;Lambermontplaats;2;
4518856;151536;210831;Lambermontplaats;3;
1980039;151538,579;210835,974;Lambermontplaats;4;
1980044;151544,034;210836,793;Lambermontplaats;5;
1980047;151548,712;210836,001;Lambermontplaats;6;
1980050;151551,866;210838,055;Lambermontplaats;7;
4038291;151559,042;210838,166;Lambermontplaats;8;
977813;151563,606;210840,642;Lambermontplaats;9;
968883;151605,33;210808,25;Lambermontplaats;10;
1300395;151605,045;210802,897;Lambermontplaats;11;
1980057;151605,786;210790,43;Lambermontplaats;13;
1980062;151606,569;210784,044;Lambermontplaats;14;
1980064;151606,791;210778,199;Lambermontplaats;15;
968882;151603,182;210770,317;Lambermontplaats;16;
762640;151588;210750;Lambermontplaats;17;
1980071;151580,686;210744,008;Lambermontplaats;18;
1980073;151574,872;210742,756;Lambermontplaats;19;
1980075;151565,435;210741,782;Lambermontplaats;20;
1980078;151564;210739;Lambermontplaats;21;
1980081;151556,803;210740,156;Lambermontplaats;22;
1980082;151551,096;210738,272;Lambermontplaats;23;
762641;151542,591;210740,797;Lambermontplaats;24;
977609;151513,277;210763,119;Lambermontplaats;25;
1980088;151508,027;210770,517;Lambermontplaats;26;
1980091;151506;210771;Lambermontplaats;27;
4518213;151507,455;210776,914;Lambermontplaats;28;
977610;151505;210777;Lambermontplaats;29;
977607;151507,645;210782,81;Lambermontplaats;30;
1980097;151507,048;210789,244;Lambermontplaats;31;
1980101;151506,683;210795,723;Lambermontplaats;32;
1980104;151506;210796;Lambermontplaats;33;
1980105;151506,857;210802,862;Lambermontplaats;34;
977606;151507;210803;Lambermontplaats;35;
977608;151509,91;210810,677;Lambermontplaats;36;
973399;152124,295;211293,95;Lambermontstraat;1;
973398;152098,503;211300,915;Lambermontstraat;2;
973403;152120;211288;Lambermontstraat;3;
1980111;152096,764;211295,773;Lambermontstraat;4;
973402;152115,223;211282,029;Lambermontstraat;5;
6462999;152113;211278;Lambermontstraat;5;A
1980115;152092,341;211291,968;Lambermontstraat;6;
5575878;152107,047;211270,846;Lambermontstraat;7;
1980124;152089,018;211287,729;Lambermontstraat;8;
973401;152104;211267;Lambermontstraat;9;
978235;152099,979;211262,459;Lambermontstraat;11;
1980136;152080,768;211278,585;Lambermontstraat;12;
1980138;152096,287;211258,187;Lambermontstraat;13;
1980141;152093,385;211254,442;Lambermontstraat;15;
1980143;152089,64;211250,064;Lambermontstraat;17;
1980146;152064,909;211257,557;Lambermontstraat;18;
1980149;152060,652;211248,627;Lambermontstraat;20;
1980151;152055,983;211245,144;Lambermontstraat;22;
4518794;152074;211233;Lambermontstraat;23;
1980153;152052,643;211241,523;Lambermontstraat;24;
1980158;152067,427;211224,626;Lambermontstraat;25;
1980161;152048,397;211236,074;Lambermontstraat;26;
1980164;152040,403;211252,062;Lambermontstraat;26;A
1980168;152043,71;211229,818;Lambermontstraat;28;
1980171;152053;211205;Lambermontstraat;29;
1980174;152038,73;211223,669;Lambermontstraat;30;
1447943;152049,307;211201,234;Lambermontstraat;31;
1300441;152033,152;211215,837;Lambermontstraat;32;
4518796;152044,868;211197,461;Lambermontstraat;33;
1980185;152028,534;211208,609;Lambermontstraat;34;
978233;152040,936;211192,785;Lambermontstraat;35;
1980187;152024,288;211203,851;Lambermontstraat;36;
973400;152021,669;211198,975;Lambermontstraat;38;
5364302;151823,798;210944,674;Leopold de Waelplaats;1;
968890;151667,732;210907,296;Leopold de Waelstraat;1;
977828;151640,498;210926,362;Leopold de Waelstraat;2;
2062838;151663,061;210899,863;Leopold de Waelstraat;3;
2062839;151634,553;210919,294;Leopold de Waelstraat;4;
2062840;151659,879;210894,458;Leopold de Waelstraat;5;
2062841;151631,102;210915,507;Leopold de Waelstraat;6;
2062842;151656,13;210890,38;Leopold de Waelstraat;7;
2062843;151627,772;210911,418;Leopold de Waelstraat;8;
2062844;151652,919;210885,391;Leopold de Waelstraat;9;
2062845;151624,83;210907,536;Leopold de Waelstraat;10;
2062846;151649,383;210880,394;Leopold de Waelstraat;11;
2062847;151621,846;210903,412;Leopold de Waelstraat;12;
2062848;151646,483;210875,953;Leopold de Waelstraat;13;
2062849;151618,447;210899,177;Leopold de Waelstraat;14;
4000090;151642,899;210871,547;Leopold de Waelstraat;15;
2062850;151615,341;210894,596;Leopold de Waelstraat;16;
2062851;151638,619;210865,989;Leopold de Waelstraat;17;
2062852;151642;210865;Leopold de Waelstraat;17;A
2062853;151611,813;210889,781;Leopold de Waelstraat;18;
2062854;151633,801;210860,87;Leopold de Waelstraat;19;
2062855;151607,077;210884,623;Leopold de Waelstraat;20;
2062856;151630,066;210855,846;Leopold de Waelstraat;21;
2062857;151603,644;210879,663;Leopold de Waelstraat;22;
2062858;151626,338;210850,639;Leopold de Waelstraat;23;
2062859;151601,055;210874,462;Leopold de Waelstraat;24;
2062860;151622,696;210846,466;Leopold de Waelstraat;25;
2062861;151595,956;210867,862;Leopold de Waelstraat;26;
1326101;151617,792;210839,269;Leopold de Waelstraat;27;
2062862;151589,719;210862,376;Leopold de Waelstraat;28;
4515996;151616;210835;Leopold de Waelstraat;29;
2062863;151585,363;210857,019;Leopold de Waelstraat;30;
2062864;151612,781;210831,893;Leopold de Waelstraat;31;
2062865;151580,782;210851,377;Leopold de Waelstraat;32;
2062866;151609,098;210827,065;Leopold de Waelstraat;33;
2062867;151577,625;210845,149;Leopold de Waelstraat;34;
2062868;151605,187;210822,154;Leopold de Waelstraat;35;
977827;151572,035;210839,263;Leopold de Waelstraat;36;
968889;151600,872;210816,884;Leopold de Waelstraat;37;
43818;152680,614;211356,92;Leopoldplaats;9;
43819;152679;211356;Leopoldplaats;9;A
43815;152671,72;211360,01;Leopoldplaats;10;
6058301;152667;211360;Leopoldplaats;10;A
43817;152660,537;211363,387;Leopoldplaats;11;
43816;152653;211364;Leopoldplaats;12;
1139891;152532,2;211348,917;Louizastraat;1;
1139967;152513,312;211341,235;Louizastraat;2;
1992846;152533,426;211344,392;Louizastraat;3;
1992848;152533,762;211339,461;Louizastraat;5;
1992852;152518,649;211302,943;Louizastraat;6;
1992853;152534,508;211333,87;Louizastraat;7;
1349749;152518,882;211292,44;Louizastraat;8;
1992856;152535,088;211328,471;Louizastraat;9;
1992868;152535,61;211322,648;Louizastraat;11;
1992870;152522;211272;Louizastraat;12;
4506550;152536,908;211315,721;Louizastraat;13;
4504606;152524;211263;Louizastraat;14;
1992872;152538,806;211307,659;Louizastraat;15;
1992873;152523,825;211254,904;Louizastraat;16;
1139890;152542,751;211295,117;Louizastraat;17;
1992876;152524,618;211248,154;Louizastraat;18;
1992879;152524,976;211242,352;Louizastraat;20;
1992881;152527,186;211233,159;Louizastraat;22;
1992882;152545,408;211263,824;Louizastraat;23;
1992884;152526,966;211224,627;Louizastraat;24;
1992886;152546,105;211257,7;Louizastraat;25;
1992888;152527,57;211217,292;Louizastraat;26;
4506563;152547,521;211251,329;Louizastraat;27;
1992894;152529,469;211211,062;Louizastraat;28;
1139888;152548,45;211246,193;Louizastraat;29;
4504642;152530,077;211204,605;Louizastraat;30;
1139893;152553,205;211230,634;Louizastraat;31;
11970;152530,76;211197,996;Louizastraat;32;
4506564;152550,72;211223,916;Louizastraat;33;
138055;152537,798;211160,845;Louizastraat;34;
1992911;152550,379;211217,852;Louizastraat;35;
6464819;152551;211213;Louizastraat;35;B
1992912;152537,882;211154,766;Louizastraat;36;
5394006;152550,963;211209,518;Louizastraat;37;
1139892;152551;211206;Louizastraat;37;A
1992915;152539,146;211144,662;Louizastraat;38;
138056;152557,341;211177,837;Louizastraat;39;
1992921;152543;211141;Louizastraat;40;
4510958;152557;211172;Louizastraat;41;
1992924;152539;211137;Louizastraat;42;
4510959;152559;211166;Louizastraat;43;
1992925;152559,202;211161,978;Louizastraat;45;
5575953;151989;211193;Marnixplaats;2;
973385;152016,92;211198,664;Marnixplaats;4;
978232;152037,948;211187,136;Marnixplaats;5;
978231;152042,239;211154,147;Marnixplaats;6;
977852;152034,558;211127,079;Marnixplaats;7;
1998378;152029,62;211125,954;Marnixplaats;8;
1998379;152024,756;211125,372;Marnixplaats;9;
977851;152019,707;211124,61;Marnixplaats;10;
6435515;152022;211124;Marnixplaats;10;A
969871;151996,452;211121,242;Marnixplaats;11;
969874;151990,971;211121,541;Marnixplaats;12;
969872;151985,302;211120,052;Marnixplaats;13;
969873;151969,457;211132,149;Marnixplaats;14;
976242;151966,589;211159,731;Marnixplaats;15;
6518719;151969;211160;Marnixplaats;15;A
1998390;151964,948;211168,926;Marnixplaats;16;
976241;151967;211171;Marnixplaats;17;
6086776;151966;211174;Marnixplaats;36;
1331284;152686,553;211349,952;Mechelsesteenweg;2;
43821;152687,235;211339,66;Mechelsesteenweg;4;
43823;152691,248;211318,579;Mechelsesteenweg;8;
43824;152691,548;211309,854;Mechelsesteenweg;10;
43826;152695,413;211288,353;Mechelsesteenweg;14;
43827;152696,087;211279,583;Mechelsesteenweg;16;
43820;152697,342;211266,053;Mechelsesteenweg;18;
1028390;151399,881;210681,076;Pacificatiestraat;18;
2038525;151405,506;210680,339;Pacificatiestraat;20;
2038527;151411,405;210680,188;Pacificatiestraat;22;
2038528;151417,326;210679,516;Pacificatiestraat;24;
2038529;151423,528;210679,577;Pacificatiestraat;26;
4517255;151429,09;210678,949;Pacificatiestraat;28;
2038530;151397,987;210707,706;Pacificatiestraat;29;
2038533;151434,51;210679,049;Pacificatiestraat;30;
4518211;151403,894;210707,653;Pacificatiestraat;31;
2038536;151407;210707;Pacificatiestraat;31;A
2038537;151439,791;210679,363;Pacificatiestraat;32;
2038540;151409,552;210707,475;Pacificatiestraat;33;
2038542;151413;210707;Pacificatiestraat;33;A
1028389;151449,526;210679,699;Pacificatiestraat;34;
1326109;151415,588;210707,523;Pacificatiestraat;35;
762645;151513,192;210677,066;Pacificatiestraat;36;
2038553;151421,276;210707,024;Pacificatiestraat;37;
2038554;151423,299;210709,202;Pacificatiestraat;37;A
2038556;151525,547;210674,909;Pacificatiestraat;38;
2038559;151427,918;210707,213;Pacificatiestraat;39;
1318446;151531,606;210674,754;Pacificatiestraat;40;
2038564;151433,902;210706,934;Pacificatiestraat;41;
6453971;151437;210705;Pacificatiestraat;41;A
2038570;151536,313;210674,566;Pacificatiestraat;42;
3928132;151439,54;210706,372;Pacificatiestraat;43;
2038572;151541,865;210674,132;Pacificatiestraat;44;
1101799;151445,834;210705,964;Pacificatiestraat;45;
2038573;151548,824;210673,745;Pacificatiestraat;46;
1101798;151453,36;210705,388;Pacificatiestraat;47;
4518023;151554,767;210673,666;Pacificatiestraat;48;
977616;151460,164;210704,951;Pacificatiestraat;49;
4518024;151560,108;210673,452;Pacificatiestraat;50;
2038580;151566,749;210672,788;Pacificatiestraat;52;
2038583;151515,41;210703,199;Pacificatiestraat;53;
4518025;151572,27;210672,408;Pacificatiestraat;54;
2038589;151524,647;210700,685;Pacificatiestraat;55;
2038591;151576,748;210672,522;Pacificatiestraat;56;
2038592;151530,94;210700,301;Pacificatiestraat;57;
4518026;151582,002;210672,085;Pacificatiestraat;58;
2038593;151536,839;210699,979;Pacificatiestraat;59;
2038595;151587,14;210672,037;Pacificatiestraat;60;
2038596;151541,37;210700,662;Pacificatiestraat;61;
2038599;151592,204;210671,449;Pacificatiestraat;62;
4518034;151547,34;210700,56;Pacificatiestraat;63;
2038600;151597,176;210671,39;Pacificatiestraat;64;
4518035;151553,605;210699,149;Pacificatiestraat;65;
2038604;151602,725;210670,703;Pacificatiestraat;66;
4518036;151558,407;210699,803;Pacificatiestraat;67;
2038609;151607,864;210670,527;Pacificatiestraat;68;
2038611;151565,154;210698,266;Pacificatiestraat;69;
762644;151614,369;210670,506;Pacificatiestraat;70;
4518039;151570,783;210698,227;Pacificatiestraat;71;
2038613;151576,322;210698,027;Pacificatiestraat;73;
2038614;151580,827;210699,195;Pacificatiestraat;75;
2038616;151586,542;210699,011;Pacificatiestraat;77;
2038617;151593,158;210697,398;Pacificatiestraat;79;
2038619;151597,801;210698,178;Pacificatiestraat;81;
4262756;151604,489;210697,222;Pacificatiestraat;83;
2038624;151609,722;210696,549;Pacificatiestraat;85;
4021394;151614,307;210697,297;Pacificatiestraat;87;
2038627;151619,755;210696,863;Pacificatiestraat;89;
2038630;151625,525;210696,174;Pacificatiestraat;91;
2038635;151631,445;210695,605;Pacificatiestraat;93;
2038637;151638,197;210694,307;Pacificatiestraat;95;
2038639;151647;210671;Pacificatiestraat;97;
762800;151934,402;210913,106;Plaatsnijdersstraat;1;
762799;151928,966;210906,742;Plaatsnijdersstraat;3;
762798;151901,06;210868,85;Plaatsnijdersstraat;5;
2044501;151897,447;210863,336;Plaatsnijdersstraat;7;
2044502;151893,253;210858,565;Plaatsnijdersstraat;9;
2044503;151888,556;210853,253;Plaatsnijdersstraat;11;
2044504;151882,336;210844,754;Plaatsnijdersstraat;13;
762797;151872,846;210832,074;Plaatsnijdersstraat;15;
973404;151925,442;211237,923;Scheldestraat;77;
2050539;151930,614;211233,896;Scheldestraat;79;
2050540;151916,45;211209,259;Scheldestraat;80;
4234010;151934,849;211230,871;Scheldestraat;81;
2050541;151921,056;211205,683;Scheldestraat;82;
2050542;151938,855;211227,675;Scheldestraat;83;
2050543;151925,797;211202,043;Scheldestraat;84;
4517153;151943;211223;Scheldestraat;85;
2050544;151930,758;211198,423;Scheldestraat;86;
2050545;151946,253;211221,872;Scheldestraat;87;
2050546;151936,524;211194,611;Scheldestraat;88;
2050547;151951,391;211218,01;Scheldestraat;89;
2050548;151940,346;211191,072;Scheldestraat;90;
2050549;151957,329;211212,9;Scheldestraat;91;
2050551;151945,051;211187,018;Scheldestraat;92;
4517155;151962;211210;Scheldestraat;93;
1291473;151950,765;211182,591;Scheldestraat;94;
2050552;151963,638;211207,873;Scheldestraat;95;
3928370;151953;211178;Scheldestraat;96;
2050553;151969;211202;Scheldestraat;97;
2050554;151956,502;211177,823;Scheldestraat;98;
6450868;151958;211175;Scheldestraat;98;A
2050555;151973,011;211199,932;Scheldestraat;99;
1101813;151977,62;211195,704;Scheldestraat;101;
1139961;152412,873;211335,814;Schermersstraat;2;
4504559;152419,763;211337,257;Schermersstraat;4;
1139962;152426,684;211338,524;Schermersstraat;6;
1139960;152434;211340;Schermersstraat;8;
1139959;152456,781;211342,529;Schermersstraat;10;
2050649;152462,378;211343,578;Schermersstraat;12;
2050650;152467,529;211344,982;Schermersstraat;14;
2050652;152475,201;211346,402;Schermersstraat;16;
2050653;152481,603;211347,813;Schermersstraat;18;
1292061;152490,321;211348,986;Schermersstraat;20;
2050656;152499,076;211350,487;Schermersstraat;22;
1139958;152509,129;211353,101;Schermersstraat;24;
1139924;152530,323;211355,408;Schermersstraat;26;
2050661;152536,667;211356,263;Schermersstraat;28;
2050663;152544,937;211357,225;Schermersstraat;30;
2050664;152555,558;211360,209;Schermersstraat;32;
2050666;152563,828;211363,892;Schermersstraat;34;
2050667;152571,009;211367,009;Schermersstraat;36;
4016768;152579,636;211368,389;Schermersstraat;38;
2050668;152586,681;211369,237;Schermersstraat;40;
2050669;152598,075;211371,064;Schermersstraat;42;
2050670;152606;211371;Schermersstraat;44;
1139923;152610;211371;Schermersstraat;46;
969856;151812,996;211063,586;Schildersstraat;1;
762821;151944,184;210929,454;Schildersstraat;2;
2050926;151818,649;211059,231;Schildersstraat;3;
2050927;151948,974;210925,154;Schildersstraat;4;
2050928;151821,855;211055,722;Schildersstraat;5;
2050929;151953,067;210921,353;Schildersstraat;6;
2050930;151826,338;211052,881;Schildersstraat;7;
1479076;151833,19;211048,287;Schildersstraat;9;
2050931;151978;210904;Schildersstraat;10;
4069865;151838;211045;Schildersstraat;11;
2050932;152006,473;210884,06;Schildersstraat;12;
2050933;151839,86;211042,979;Schildersstraat;13;
762820;152012,892;210878,301;Schildersstraat;14;
1226926;151845,595;211038,029;Schildersstraat;15;
1226924;151855;211029;Schildersstraat;17;
2050934;151857,18;211028,897;Schildersstraat;19;
2050935;151862,728;211024,076;Schildersstraat;21;
2050936;151866,556;211021,408;Schildersstraat;23;
969857;151871,563;211018,16;Schildersstraat;25;
6326590;151875;211015;Schildersstraat;25;A
977835;151909,155;210991,722;Schildersstraat;27;
2050937;151909;210985;Schildersstraat;27;A
2050938;151913,991;210987,675;Schildersstraat;29;
2050939;151919,124;210982,839;Schildersstraat;31;
1458378;151923,734;210979,047;Schildersstraat;33;
2050940;151928,768;210975,124;Schildersstraat;35;
2050943;151951,599;210958,234;Schildersstraat;41;
2050944;151963,764;210947,148;Schildersstraat;43;
2050945;151967,868;210944,229;Schildersstraat;45;
2050946;151972,713;210939,943;Schildersstraat;47;
1213497;151976,587;210936,994;Schildersstraat;49;
2050947;151981,546;210932,081;Schildersstraat;51;
2050948;151986,528;210928,437;Schildersstraat;53;
2050949;151991,335;210922,247;Schildersstraat;55;
977836;152020,4;210901,454;Schildersstraat;57;
1139982;152420,157;211304,963;Terninckgang;1;
5373832;152418,184;211314,384;Terninckgang;1;A
2056533;152420,956;211301,39;Terninckgang;2;
4504611;152421,669;211297,799;Terninckgang;3;
4050784;152422,535;211294,38;Terninckgang;4;
2056534;152427,954;211271,554;Terninckgang;7;
2056535;152428,601;211267,418;Terninckgang;8;
1139983;152429,671;211262,901;Terninckgang;9;
1139984;152430,046;211258,62;Terninckgang;10;
1139980;152413,441;211249,327;Terninckgang;12;
1139981;152415;211245;Terninckgang;13;
1139975;152284,749;211266,656;Terninckstraat;2;
2056537;152290,452;211268,538;Terninckstraat;4;
4504638;152294,461;211270,701;Terninckstraat;6;
4504640;152298,417;211272,758;Terninckstraat;8;
2056540;152302,715;211275,547;Terninckstraat;10;
2056542;152308,517;211278,343;Terninckstraat;12;
2056543;152313,106;211280,822;Terninckstraat;14;
4504641;152318,38;211283,618;Terninckstraat;16;
2056546;152324,345;211286,998;Terninckstraat;18;
2056548;152331,629;211290,123;Terninckstraat;20;
2056550;152340,231;211295,17;Terninckstraat;22;
2056551;152360,316;211305,787;Terninckstraat;24;
2056553;152352;211300;Terninckstraat;30;
6210378;152362;211309;Terninckstraat;34;
6049214;152402;211325;Terninckstraat;40;
977854;152039,303;211125,959;Tolstraat;2;
1101812;152048,657;211149,274;Tolstraat;3;
2056992;152043,506;211123,234;Tolstraat;4;
2056993;152052,332;211147,812;Tolstraat;5;
2056994;152048,998;211120,274;Tolstraat;6;
2056995;152056,276;211145,816;Tolstraat;7;
2056997;152061,397;211145,162;Tolstraat;9;
2056998;152060,711;211115,142;Tolstraat;10;
2056999;152068,19;211142,271;Tolstraat;11;
1476449;152065,176;211112,153;Tolstraat;12;
2057000;152074,671;211137,379;Tolstraat;13;
2057001;152071,826;211109,56;Tolstraat;14;
2057002;152079,854;211135,593;Tolstraat;15;
2057003;152075,922;211105,864;Tolstraat;16;
2057004;152085,591;211132,582;Tolstraat;17;
2057005;152082,694;211103,473;Tolstraat;18;
2057006;152089,836;211128,358;Tolstraat;19;
2057007;152087,542;211100,493;Tolstraat;20;
2057008;152094,08;211128,363;Tolstraat;21;
977857;152093,893;211097,852;Tolstraat;22;
2057009;152098,349;211125,98;Tolstraat;23;
977856;152100,158;211094,676;Tolstraat;24;
2057010;152103,06;211123,95;Tolstraat;25;
977858;152107,98;211091,443;Tolstraat;26;
2057011;152107,366;211121,509;Tolstraat;27;
2057012;152113,445;211088,307;Tolstraat;28;
2057013;152112,17;211118,907;Tolstraat;29;
2057014;152118,605;211084,992;Tolstraat;30;
978263;152117,363;211116,409;Tolstraat;31;
2057015;152123,981;211082,408;Tolstraat;32;
978262;152122,841;211113,933;Tolstraat;33;
4518586;152129,906;211080,492;Tolstraat;34;
2057016;152127,416;211111,672;Tolstraat;35;
2057017;152134,678;211078,28;Tolstraat;36;
2057018;152132,14;211109,127;Tolstraat;37;
977855;152139,454;211076,19;Tolstraat;38;
2057019;152139;211107;Tolstraat;39;
976333;152170,267;211059,831;Tolstraat;40;
2057020;152141,54;211103,382;Tolstraat;41;
2057021;152175,942;211056,862;Tolstraat;42;
2057022;152146,049;211100,392;Tolstraat;43;
2057023;152179,739;211054,35;Tolstraat;44;
2057024;152151,456;211097,814;Tolstraat;45;
978260;152158,972;211096,675;Tolstraat;45;A
2057025;152184,631;211051,108;Tolstraat;46;
973058;152189,572;211078,473;Tolstraat;47;
2057026;152191,608;211047,684;Tolstraat;48;
2057027;152195,245;211075,054;Tolstraat;49;
2057028;152198,043;211044,098;Tolstraat;50;
2057029;152198,775;211073,705;Tolstraat;51;
2057030;152205,009;211041,263;Tolstraat;52;
2057031;152203,765;211071,319;Tolstraat;53;
4519429;152211,503;211036,85;Tolstraat;54;
2057032;152209,976;211067,322;Tolstraat;55;
2057033;152221,703;211031,995;Tolstraat;56;
990583;152216,026;211064,348;Tolstraat;57;
4519430;152226;211027;Tolstraat;58;
4519431;152231,692;211027,1;Tolstraat;60;
2057034;152228,282;211059,48;Tolstraat;61;
2057035;152236,954;211024,757;Tolstraat;62;
2057036;152234,106;211056,776;Tolstraat;63;
2057037;152242,509;211021,792;Tolstraat;64;
2057038;152239,783;211053,937;Tolstraat;65;
2057039;152247,638;211019,489;Tolstraat;66;
2057040;152245,913;211049,826;Tolstraat;67;
2057041;152252,522;211016,831;Tolstraat;68;
973059;152252,006;211047,399;Tolstraat;69;
2057042;152258,482;211014,096;Tolstraat;70;
973060;152258,55;211043,19;Tolstraat;71;
2057043;152265,319;211011,05;Tolstraat;72;
2057044;152263,895;211040,374;Tolstraat;73;
2057045;152270,846;211008,514;Tolstraat;74;
2057046;152269,137;211039,04;Tolstraat;75;
4156019;152276,619;211005,221;Tolstraat;76;
1361460;152275,112;211036,859;Tolstraat;77;
2057048;152285,761;211031,263;Tolstraat;81;
2057049;152293,997;211026,089;Tolstraat;83;
2057050;152303,797;211020,123;Tolstraat;85;
2057051;152310,068;211017,157;Tolstraat;87;
973061;152315,211;211016,43;Tolstraat;89;
973057;152266,503;211224,441;Verbondstraat;1;
973056;152264,445;211218,152;Verbondstraat;3;
2059605;152242,026;211231,797;Verbondstraat;4;
2059606;152260,972;211213,732;Verbondstraat;5;
2059607;152238,443;211226,481;Verbondstraat;6;
3928530;152258,907;211207,549;Verbondstraat;7;
2059608;152235,68;211221,452;Verbondstraat;8;
2059609;152254,539;211203,745;Verbondstraat;9;
2059610;152230,507;211217,285;Verbondstraat;10;
2059611;152252,007;211197,466;Verbondstraat;11;
2059612;152227,513;211212,352;Verbondstraat;12;
2059613;152246,762;211189,05;Verbondstraat;13;
2059614;152225,061;211206,826;Verbondstraat;14;
2059615;152243,973;211184,115;Verbondstraat;15;
2059616;152245;211185;Verbondstraat;15;A
2059617;152223,34;211200,349;Verbondstraat;16;
2059618;152240,464;211179,038;Verbondstraat;17;
2059619;152218,91;211196,441;Verbondstraat;18;
2059620;152237,192;211172,268;Verbondstraat;19;
2059621;152215,784;211191,556;Verbondstraat;20;
4518353;152235;211169;Verbondstraat;21;
2059622;152211,875;211185,693;Verbondstraat;22;
4518354;152234,146;211165,174;Verbondstraat;23;
2059623;152210,573;211178,984;Verbondstraat;24;
2059624;152230,596;211161,112;Verbondstraat;25;
2059625;152207,837;211174,424;Verbondstraat;26;
2059626;152227,368;211156,102;Verbondstraat;27;
2059627;152203,212;211170,776;Verbondstraat;28;
4518355;152223,987;211150,833;Verbondstraat;29;
2059628;152202,105;211164,783;Verbondstraat;30;
2059629;152221,915;211145,747;Verbondstraat;31;
2059630;152197,024;211161,266;Verbondstraat;32;
973054;152219,446;211141,981;Verbondstraat;33;
1365719;152194,418;211156,641;Verbondstraat;34;
978265;152191,748;211151,821;Verbondstraat;36;
973053;152209,296;211122,412;Verbondstraat;37;
978266;152183,54;211136,041;Verbondstraat;38;
2059631;152205,426;211119,675;Verbondstraat;39;
4518810;152181,307;211130,574;Verbondstraat;40;
2059632;152202,875;211114,897;Verbondstraat;41;
2059633;152178,555;211127,288;Verbondstraat;42;
2059635;152176,487;211122,712;Verbondstraat;44;
2059636;152197,89;211106,815;Verbondstraat;45;
2059637;152173,759;211118,029;Verbondstraat;46;
2059638;152169,739;211114,44;Verbondstraat;48;
2059639;152192,761;211098,765;Verbondstraat;49;
2059640;152167,021;211109,803;Verbondstraat;50;
2059641;152189,907;211094,152;Verbondstraat;51;
1101811;152164,198;211104,367;Verbondstraat;52;
2059642;152187,011;211089,696;Verbondstraat;53;
2059643;152184,706;211085,26;Verbondstraat;55;
30328;152182,715;211080,928;Verbondstraat;57;
977861;152146,237;211073,492;Verbondstraat;58;
976316;152166,43;211055,186;Verbondstraat;59;
2059644;152144,77;211068,034;Verbondstraat;60;
2059645;152164,328;211050,289;Verbondstraat;61;
2059646;152140,862;211064,395;Verbondstraat;62;
2059647;152161,668;211044,733;Verbondstraat;63;
2059648;152137,718;211059,574;Verbondstraat;64;
2059649;152143,818;211017,08;Verbondstraat;65;
977860;152135,295;211054,658;Verbondstraat;66;
2059650;152137;211004;Verbondstraat;67;
6193314;152132;210994;Verbondstraat;67;A
977859;152117,099;211024,703;Verbondstraat;68;
2059651;152128,216;210985,902;Verbondstraat;69;
977864;152114,218;211018,049;Verbondstraat;70;
2059652;152124,456;210981,215;Verbondstraat;71;
977865;152111,324;211013,96;Verbondstraat;72;
2059653;152122,17;210975,49;Verbondstraat;73;
2059654;152108,3;211009,25;Verbondstraat;74;
4519420;152118,529;210970,801;Verbondstraat;75;
5563990;152103,974;211002,84;Verbondstraat;76;
2059656;152113,697;210962,645;Verbondstraat;77;
6525362;152100;211000;Verbondstraat;78;
977866;152100,168;210995,937;Verbondstraat;80;
2059657;152109,146;210954,057;Verbondstraat;81;
2059658;152097,086;210991,046;Verbondstraat;82;
2059659;152105,751;210949,029;Verbondstraat;83;
2059660;152093,522;210985,93;Verbondstraat;84;
2059661;152102,702;210944,096;Verbondstraat;85;
2059662;152091,595;210980,132;Verbondstraat;86;
3928531;152099,881;210939,057;Verbondstraat;87;
1303888;152088,341;210974,974;Verbondstraat;88;
2059663;152085,875;210969,233;Verbondstraat;90;
2059664;152092,802;210928,774;Verbondstraat;91;
3990028;152082,398;210964,307;Verbondstraat;92;
2059665;152089,401;210923,489;Verbondstraat;93;
2059666;152078,079;210960,124;Verbondstraat;94;
4518592;152075,446;210954,946;Verbondstraat;96;
4164766;152082,873;210913,276;Verbondstraat;97;
2059668;152073,632;210949,059;Verbondstraat;98;
2059669;152080,152;210908,58;Verbondstraat;99;
4518590;152070,488;210944,468;Verbondstraat;100;
2059670;152076,888;210903,713;Verbondstraat;101;
2059671;152067,073;210940,421;Verbondstraat;102;
1101808;152073,825;210898,434;Verbondstraat;103;
2059672;152063,57;210935,425;Verbondstraat;104;
977867;152061,585;210929,633;Verbondstraat;106;
4175592;152067;210886;Verbondstraat;107;
5576354;152057,202;210924,155;Verbondstraat;108;
977862;152057;210921;Verbondstraat;110;
977868;152053,853;210916,852;Verbondstraat;112;
30245;152046,487;210904,704;Verbondstraat;116;
977805;151634,362;210933,174;Verschansingstraat;1;
2060271;151627,408;210930,153;Verschansingstraat;3;
2060273;151618,323;210929,498;Verschansingstraat;5;
2060275;151616;210927;Verschansingstraat;7;
4518860;151610,602;210928,533;Verschansingstraat;9;
2060278;151605,254;210927,705;Verschansingstraat;11;
4064986;151600,259;210926,722;Verschansingstraat;13;
2060281;151595,307;210926,118;Verschansingstraat;15;
2060283;151590,416;210925,212;Verschansingstraat;17;
2060284;151584,559;210924,427;Verschansingstraat;19;
30336;151579,003;210923,34;Verschansingstraat;21;
2060287;151574;210921;Verschansingstraat;23;
2060288;151568,108;210922,087;Verschansingstraat;25;
6665243;151567;210921;Verschansingstraat;25;A
2060289;151562,585;210920,596;Verschansingstraat;27;
2060291;151556,238;210919,603;Verschansingstraat;29;
1283493;151549,75;210918,905;Verschansingstraat;31;
977809;151544,685;210917,947;Verschansingstraat;33;
6453592;151544;210918;Verschansingstraat;33;A
977808;151540,26;210917,18;Verschansingstraat;35;
2060296;151535,178;210916,144;Verschansingstraat;37;
1497048;151529,909;210915,548;Verschansingstraat;39;
2060298;151524,905;210914,841;Verschansingstraat;41;
2060300;151519,126;210914,041;Verschansingstraat;43;
2060302;151513,958;210912,444;Verschansingstraat;45;
4518862;151507,015;210911,98;Verschansingstraat;47;
6339393;151501;210909;Verschansingstraat;49;A
2060307;151494,815;210909,332;Verschansingstraat;51;
6425580;151494;210908;Verschansingstraat;51;B
2060310;151489,122;210908,478;Verschansingstraat;53;
2060313;151483,109;210908,197;Verschansingstraat;55;
6339518;151483;210907;Verschansingstraat;55;A
2060314;151477,062;210907,232;Verschansingstraat;57;
2060315;151471,972;210906,681;Verschansingstraat;59;
5574493;151462;210904;Verschansingstraat;61;A
6012608;151455;210903;Verschansingstraat;61;C
977802;151448,767;210902,901;Verschansingstraat;63;
973383;151973,882;211302,888;Volkstraat;1;
2061580;151969,986;211296,415;Volkstraat;3;
2061582;151964,9;211288,925;Volkstraat;5;
2061584;151963;211284;Volkstraat;7;
2061586;151959,379;211281,364;Volkstraat;9;
1496696;151954,771;211274,959;Volkstraat;11;
4517170;151953;211270;Volkstraat;13;
973382;151950,086;211267,754;Volkstraat;15;
973381;151945,536;211262,462;Volkstraat;17;
2061594;151941,389;211256,71;Volkstraat;19;
2061596;151941;211254;Volkstraat;21;
2061598;151936,534;211251,65;Volkstraat;23;
2061599;151933,071;211246,953;Volkstraat;25;
973380;151930,366;211242,413;Volkstraat;27;
976234;151909,321;211214,355;Volkstraat;29;
2061603;151905;211210;Volkstraat;31;
2061605;151902,265;211206,592;Volkstraat;33;
2061606;151898,926;211201,795;Volkstraat;35;
6434381;151897;211199;Volkstraat;35;A
2061607;151895,064;211197,275;Volkstraat;37;
2061610;151891,809;211192,214;Volkstraat;39;
5414520;151921,411;211141,927;Volkstraat;41;
2061613;151873,474;211168,494;Volkstraat;43;
2061615;151868,884;211164,279;Volkstraat;45;
2061617;151865,283;211159,261;Volkstraat;47;
2061619;151861,775;211154,261;Volkstraat;49;
2061621;151857,853;211149,623;Volkstraat;51;
2061623;151854,168;211144,467;Volkstraat;53;
2061624;151850,672;211139,591;Volkstraat;55;
2061626;151846,494;211135,081;Volkstraat;57;
2061628;151842,809;211130,828;Volkstraat;59;
4024082;151838,887;211126,233;Volkstraat;61;
4516986;151835,178;211121,482;Volkstraat;63;
2061633;151831,233;211116,923;Volkstraat;65;
2061636;151827,738;211111,532;Volkstraat;67;
976233;151821,575;211105,55;Volkstraat;69;
978248;152243,696;211242,776;Vrijheidstraat;1;
978251;152233,864;211269,654;Vrijheidstraat;2;
2062287;152231,13;211239,447;Vrijheidstraat;3;
2062288;152228,644;211267,678;Vrijheidstraat;4;
2062289;152224,068;211236,76;Vrijheidstraat;5;
2062290;152223,259;211265,462;Vrijheidstraat;6;
2062291;152219,103;211234,129;Vrijheidstraat;7;
2062292;152217,801;211263,197;Vrijheidstraat;8;
2062293;152214,179;211231,5;Vrijheidstraat;9;
2062294;152212,709;211260,904;Vrijheidstraat;10;
2062295;152207,808;211229,269;Vrijheidstraat;11;
2062296;152208,497;211257,972;Vrijheidstraat;12;
2062297;152202,753;211227,041;Vrijheidstraat;13;
2062298;152203,303;211256,146;Vrijheidstraat;14;
4176588;152198,454;211224,698;Vrijheidstraat;15;
2062299;152198,395;211253,622;Vrijheidstraat;16;
4518807;152192,305;211222,481;Vrijheidstraat;17;
2062300;152192,437;211251,035;Vrijheidstraat;18;
2062301;152188;211218;Vrijheidstraat;19;
4518808;152181,898;211218,323;Vrijheidstraat;21;
2062302;152186,399;211248,867;Vrijheidstraat;22;
2062303;152175,552;211215,873;Vrijheidstraat;23;
2062304;152181,363;211246,726;Vrijheidstraat;24;
978256;152174,159;211245,332;Vrijheidstraat;26;
2062305;152164,01;211210,908;Vrijheidstraat;27;
978255;152167,726;211243,147;Vrijheidstraat;28;
2062306;152157,534;211207,912;Vrijheidstraat;29;
5576397;152154,728;211237,697;Vrijheidstraat;30;
2062309;152150,853;211205,722;Vrijheidstraat;31;
978254;152156;211238;Vrijheidstraat;32;
4027671;152146,241;211203,457;Vrijheidstraat;33;
4518813;152149;211235;Vrijheidstraat;34;
2062312;152140,78;211201,022;Vrijheidstraat;35;
978252;152144,251;211231,99;Vrijheidstraat;36;
2062313;152135,649;211198,939;Vrijheidstraat;37;
2062314;152138,768;211229,283;Vrijheidstraat;38;
2062315;152131,921;211197,544;Vrijheidstraat;39;
2062316;152133,041;211226,806;Vrijheidstraat;40;
2062317;152126,151;211195,63;Vrijheidstraat;41;
2062318;152127,279;211224,677;Vrijheidstraat;42;
4518809;152121,733;211193,297;Vrijheidstraat;43;
2062319;152121,376;211221,878;Vrijheidstraat;44;
978249;152114,403;211191,979;Vrijheidstraat;45;
2062320;152115,397;211219,777;Vrijheidstraat;46;
978250;152084,889;211178,412;Vrijheidstraat;47;
2062321;152108,691;211217,903;Vrijheidstraat;48;
2062322;152079,941;211176,586;Vrijheidstraat;49;
2062323;152104,064;211214,81;Vrijheidstraat;50;
4179438;152075,166;211174,551;Vrijheidstraat;51;
2062324;152098,622;211212,712;Vrijheidstraat;52;
4518790;152069,565;211171,946;Vrijheidstraat;53;
2062325;152091,737;211211,243;Vrijheidstraat;54;
2062326;152064,812;211169,921;Vrijheidstraat;55;
2062327;152086,515;211208,895;Vrijheidstraat;56;
2062328;152059,492;211167,598;Vrijheidstraat;57;
2062329;152082,17;211206,119;Vrijheidstraat;58;
4017169;152054,668;211165,826;Vrijheidstraat;59;
2062330;152077,206;211203,848;Vrijheidstraat;60;
2062331;152050,614;211164,133;Vrijheidstraat;61;
2062332;152070,53;211202,02;Vrijheidstraat;62;
30344;152045,098;211161,763;Vrijheidstraat;63;
2062333;152065,818;211198,573;Vrijheidstraat;64;
5373885;152040,138;211159,048;Vrijheidstraat;65;
1306280;152060,116;211197,099;Vrijheidstraat;66;
2062334;152054,605;211194,622;Vrijheidstraat;68;
2062335;152049,886;211191,477;Vrijheidstraat;70;
978253;152043,378;211189,576;Vrijheidstraat;72;
978259;152122;211185;Welvaartstraat;1;
978257;152090,546;211181,311;Welvaartstraat;2;
2063722;152130,526;211184,89;Welvaartstraat;3;
4518787;152096,699;211178,837;Welvaartstraat;4;
2063723;152135,868;211182,402;Welvaartstraat;5;
2063724;152099,976;211176,327;Welvaartstraat;6;
2063725;152139,959;211180,345;Welvaartstraat;7;
2063726;152105,977;211173,179;Welvaartstraat;8;
2063727;152145,941;211177,683;Welvaartstraat;9;
2063728;152111,631;211170,362;Welvaartstraat;10;
2063729;152117,306;211167,803;Welvaartstraat;12;
4518804;152154,199;211173,402;Welvaartstraat;13;
2063730;152122,84;211165,589;Welvaartstraat;14;
2063731;152159,437;211170,492;Welvaartstraat;15;
2063732;152128,354;211162,523;Welvaartstraat;16;
2063733;152163,659;211167,706;Welvaartstraat;17;
4157620;152133,367;211159,7;Welvaartstraat;18;
2063734;152167,903;211166,027;Welvaartstraat;19;
2063735;152139,773;211156,017;Welvaartstraat;20;
2063736;152172,751;211163,837;Welvaartstraat;21;
2063737;152144,434;211154,382;Welvaartstraat;22;
2063738;152177,7;211161,179;Welvaartstraat;23;
2063739;152148,542;211151,698;Welvaartstraat;24;
2063740;152182,362;211158,183;Welvaartstraat;25;
2063741;152153,681;211149,911;Welvaartstraat;26;
4203394;152187,224;211155,248;Welvaartstraat;27;
973062;152221,737;211136,407;Welvaartstraat;27;A
2063742;152156,937;211147,476;Welvaartstraat;28;
2063743;152229,309;211133,855;Welvaartstraat;29;
4518788;152162,39;211145,158;Welvaartstraat;30;
2063744;152235,772;211131,84;Welvaartstraat;31;
2063745;152166,257;211142,656;Welvaartstraat;32;
2063746;152243,695;211127,184;Welvaartstraat;33;
2063747;152259,47;211120,443;Welvaartstraat;33;A
2063748;152255;211120;Welvaartstraat;33;B
6464925;152267;211117;Welvaartstraat;33;C
2063749;152171,783;211140,633;Welvaartstraat;34;
2063750;152273,717;211111,339;Welvaartstraat;35;
978258;152176,528;211138,745;Welvaartstraat;36;
973063;152279,833;211108,767;Welvaartstraat;37;
973065;152214,595;211119,568;Welvaartstraat;38;
2063751;152285,67;211105,362;Welvaartstraat;39;
2063752;152217,632;211114,831;Welvaartstraat;40;
2063753;152290,415;211102,969;Welvaartstraat;41;
2063754;152221,071;211113,229;Welvaartstraat;42;
2063755;152296;211100;Welvaartstraat;43;
2063756;152224,476;211111,026;Welvaartstraat;44;
4518359;152298;211099;Welvaartstraat;45;
3928648;152230,119;211110,853;Welvaartstraat;46;
1326105;152301,73;211096,927;Welvaartstraat;47;
2063757;152235,44;211107,743;Welvaartstraat;48;
3928649;152306,033;211094,729;Welvaartstraat;49;
2063758;152240,131;211105,819;Welvaartstraat;50;
2063760;152245,073;211103,069;Welvaartstraat;52;
2063761;152248,826;211100,696;Welvaartstraat;54;
973066;152256,942;211096,149;Welvaartstraat;54;A
973067;152265,626;211092,405;Welvaartstraat;56;
2063762;152271,322;211089,771;Welvaartstraat;58;
2063763;152276,628;211087,471;Welvaartstraat;60;
4518340;152281,201;211085,014;Welvaartstraat;62;
2063764;152285,493;211082,379;Welvaartstraat;64;
2063765;152289,977;211079,781;Welvaartstraat;66;
2063766;152295,959;211077,516;Welvaartstraat;68;
2063767;152299,935;211074,577;Welvaartstraat;70;
4518342;152298,258;211053,666;Welvaartstraat;72;
2063768;152317,756;211065,022;Welvaartstraat;76;
973068;152325;211061;Welvaartstraat;78;
969864;151982,724;211114,842;Zwijgerstraat;1;
30225;151964,869;211124,974;Zwijgerstraat;2;
2067017;151979,313;211110,893;Zwijgerstraat;3;
969889;151960,679;211119,409;Zwijgerstraat;4;
4517590;151975,394;211105,964;Zwijgerstraat;5;
2067018;151957,679;211114,352;Zwijgerstraat;6;
4517591;151975;211100;Zwijgerstraat;7;
2067019;151954,234;211110,266;Zwijgerstraat;8;
2067020;151972;211097;Zwijgerstraat;9;
4517596;151950,525;211105,776;Zwijgerstraat;10;
2067021;151967,237;211093,545;Zwijgerstraat;11;
2067022;151946,511;211102,101;Zwijgerstraat;12;
2067023;151963,381;211089,945;Zwijgerstraat;13;
1452594;151943,904;211097,466;Zwijgerstraat;14;
2067024;151960,423;211085,486;Zwijgerstraat;15;
1288120;151937,686;211091,724;Zwijgerstraat;16;
2067025;151957,01;211081,505;Zwijgerstraat;17;
2067026;151953,832;211077,328;Zwijgerstraat;19;
2067028;151949,443;211072,611;Zwijgerstraat;21;
2067029;151946,032;211067,572;Zwijgerstraat;23;
2067030;151942,414;211063,702;Zwijgerstraat;25;
2067032;151939,787;211059,214;Zwijgerstraat;27;
2067033;151905;211054;Zwijgerstraat;28;
2067034;151935,804;211054,525;Zwijgerstraat;29;
4517599;151901;211046;Zwijgerstraat;30;
2067035;151932,888;211049,844;Zwijgerstraat;31;
969855;151899;211043;Zwijgerstraat;32;
4245328;151930,054;211045,92;Zwijgerstraat;33;
969854;151897,782;211038,662;Zwijgerstraat;34;
2067036;151927,023;211041,8;Zwijgerstraat;35;
2067037;151894,069;211034,124;Zwijgerstraat;36;
2067038;151923,447;211038,18;Zwijgerstraat;37;
2067039;151890,577;211029,089;Zwijgerstraat;38;
2067040;151919,827;211034,348;Zwijgerstraat;39;
2067041;151885,247;211025,93;Zwijgerstraat;40;
2067042;151916,765;211030,539;Zwijgerstraat;41;
969866;151880,614;211019,078;Zwijgerstraat;42;
969865;151913,449;211026,781;Zwijgerstraat;43;
969867;151879;211013;Zwijgerstraat;44;
969868;151907,379;211020,147;Zwijgerstraat;45;
1753012;151739,62;210801,126;Admiraal de Boisotstraat;19;
5558254;152238,564;210971,175;Amerikalei;26;
1734860;152104,69;210901,888;Amerikalei;62;
1734881;151927,637;210810,773;Amerikalei;100;
762805;151871,294;210781,867;Amerikalei;108;
5572188;151837,091;210764,631;Amerikalei;118;
5566743;151819,751;210759,56;Amerikalei;122;
762204;151782,571;210736,094;Amerikalei;134;
762202;151755,229;210722,615;Amerikalei;144;
762198;151702,518;210695,181;Amerikalei;160;
5572189;151438,422;210557,028;Amerikalei;216;
1734956;151423,322;210550,003;Amerikalei;220;
1028365;151495,992;210599,707;Baron Dhanislaan;18;
762792;151884,518;210790,502;Beeldhouwersstraat;52;
138082;152353,683;211070,808;Begijnenvest;2;
1739705;152436,998;211140,145;Begijnenvest;35;
1739713;152523,701;211161,353;Begijnenvest;50;
5558086;152606,57;211219,186;Bollandusstraat;1;
189980;152661,889;211222,887;Britselei;8;
1780701;152651,636;211209,205;Britselei;10;
11966;152542,02;211129,06;Britselei;42;
5575257;152377,236;211043,426;Britselei;86;
1809368;152113,672;211045,15;Coquilhatstraat;53;
2062133;152000,068;211070,59;De Vrièrestraat;16;
2062141;152036,076;211003,809;De Vrièrestraat;31;
2062147;152009,785;210982,81;De Vrièrestraat;36;
4518189;151447,342;210765,444;Edward Pecherstraat;24;
1738579;151440,44;210666,33;Emiel Banningstraat;24;
1738583;151430,091;210651,384;Emiel Banningstraat;30;
1738584;151441,282;210609,007;Emiel Banningstraat;31;
1894772;152001,697;211297,074;Geuzenstraat;11;
1894908;152005,051;211274,731;Geuzenstraat;19;
1894990;151980,221;211235,209;Geuzenstraat;22;
1895122;152010,188;211228,578;Geuzenstraat;31;
1898944;151412,552;210823,273;Gijzelaarsstraat;13;
1899070;151404,825;210774,746;Gijzelaarsstraat;23;
1899118;151398,45;210733,67;Gijzelaarsstraat;29;
1028378;151391,389;210682,178;Gijzelaarsstraat;35;
977613;151418,599;210872,151;Gillisplaats;6;
1944427;151697,397;210863,915;Graaf van Hoornestraat;19;
1944449;151655,455;210770,076;Graaf van Hoornestraat;46;
1944452;151690,805;210784,003;Graaf van Hoornestraat;49;
2067984;152460,586;211308,045;Kapucinessenstraat;9;
2067990;152443,954;211279,66;Kapucinessenstraat;18;
138054;152495,884;211105,966;Kapucinessenstraat;53;
138053;152476,768;211092,644;Kapucinessenstraat;64;
2048273;151951,287;211123,912;Karel Rogierstraat;5;
1960316;152290,343;211154,874;Kasteelpleinstraat;28;
1334898;152307,847;211198,392;Kasteelpleinstraat;35;
1960324;152303,487;211121,178;Kasteelpleinstraat;40;
977810;151445,881;210890,699;Kasteelstraat;1;
1960350;151456,298;210883,419;Kasteelstraat;3;
762212;151697,01;210697,517;Kasteelstraat;61;
1338470;152627,924;211255,431;Kiliaanstraat;8;
973393;152000,188;211330,248;Kronenburgstraat;48;
977812;151525,008;210830,273;Lambermontplaats;1;
4035764;151605,609;210796,736;Lambermontplaats;12;
1980125;152085,442;211283,996;Lambermontstraat;10;
4517166;152076,19;211271,454;Lambermontstraat;14;
4517167;152071,023;211265,073;Lambermontstraat;16;
1980166;152057,921;211213,175;Lambermontstraat;27;
1992858;152520,326;211272,987;Louizastraat;10;
973384;151985,333;211194,752;Marnixplaats;1;
30235;152010,871;211198,619;Marnixplaats;3;
43825;152692,261;211300,028;Mechelsesteenweg;12;
977617;151392,289;210708,278;Pacificatiestraat;27;
976225;151960,928;211175,059;Scheldestraat;100;
2050941;151934,718;210970,358;Schildersstraat;37;
2056996;152054,135;211117,169;Tolstraat;8;
4243958;152221,714;211062,644;Tolstraat;59;
2057047;152280,479;211034,067;Tolstraat;79;
2059667;152086,099;210917,846;Verbondstraat;95;
977869;152051,387;210911,289;Verbondstraat;114;
2060305;151501,014;210910,524;Verschansingstraat;49;
2060316;151466,268;210905,474;Verschansingstraat;61;
1346344;152169,516;211213,658;Vrijheidstraat;25;
4518803;152149,588;211175,669;Welvaartstraat;11;
2067027;151926,979;211077,202;Zwijgerstraat;20;
969853;151907,741;211057,869;Zwijgerstraat;26;
