LAM MK;Area Type;Area FID;Area Version;Area Name;Zoning FID;Zoning Version;Zoning Name;Zoning Id;Zoning Tech;BG Version;Building FID;Building Version;BG Id;LAM City Code;LAM Street Code
5579271;Zoning;7578283;20200227093120;W03-C-Knokke-Heist-FH06;7578283;20200227093120;W03-C-Knokke-Heist-FH06;19897;FTTH-Cu;;29312699;20200322130053;;33860000;1415
320335;Zoning;7578283;20200227093120;W03-C-Knokke-Heist-FH06;7578283;20200227093120;W03-C-Knokke-Heist-FH06;19897;FTTH-Cu;;31239010;20200322130108;;33860000;1415
2757976;Zoning;7578283;20200227093120;W03-C-Knokke-Heist-FH06;7578283;20200227093120;W03-C-Knokke-Heist-FH06;19897;FTTH-Cu;;29312310;20200322130126;;33860000;1415
2757979;Zoning;7578283;20200227093120;W03-C-Knokke-Heist-FH06;7578283;20200227093120;W03-C-Knokke-Heist-FH06;19897;FTTH-Cu;;29312311;20200322130133;;33860000;1415
320325;Zoning;7578283;20200227093120;W03-C-Knokke-Heist-FH06;7578283;20200227093120;W03-C-Knokke-Heist-FH06;19897;FTTH-Cu;;29312615;20200322130226;;33860000;1415
3939519;Zoning;7578283;20200227093120;W03-C-Knokke-Heist-FH06;7578283;20200227093120;W03-C-Knokke-Heist-FH06;19897;FTTH-Cu;;29312671;20200306134151;;33860000;1415
320324;Zoning;7578283;20200227093120;W03-C-Knokke-Heist-FH06;7578283;20200227093120;W03-C-Knokke-Heist-FH06;19897;FTTH-Cu;;29312614;20200322125106;;33860000;1415
2757982;Zoning;7578283;20200227093120;W03-C-Knokke-Heist-FH06;7578283;20200227093120;W03-C-Knokke-Heist-FH06;19897;FTTH-Cu;;29312312;20200322125046;;33860000;1415
3939521;Zoning;7578283;20200227093120;W03-C-Knokke-Heist-FH06;7578283;20200227093120;W03-C-Knokke-Heist-FH06;19897;FTTH-Cu;;29312672;20200322124954;;33860000;1415
2757983;Zoning;7578283;20200227093120;W03-C-Knokke-Heist-FH06;7578283;20200227093120;W03-C-Knokke-Heist-FH06;19897;FTTH-Cu;;31239011;20200322124945;;33860000;1415
2757985;Zoning;7578283;20200227093120;W03-C-Knokke-Heist-FH06;7578283;20200227093120;W03-C-Knokke-Heist-FH06;19897;FTTH-Cu;;29312313;20200322124936;;33860000;1415
320323;Zoning;7578283;20200227093120;W03-C-Knokke-Heist-FH06;7578283;20200227093120;W03-C-Knokke-Heist-FH06;19897;FTTH-Cu;;29312613;20200322124923;;33860000;1415
320306;Zoning;7578283;20200227093120;W03-C-Knokke-Heist-FH06;7578283;20200227093120;W03-C-Knokke-Heist-FH06;19897;FTTH-Cu;;29312604;20200306134142;;33860000;1415
320339;Zoning;7578283;20200227093120;W03-C-Knokke-Heist-FH06;7578283;20200227093120;W03-C-Knokke-Heist-FH06;19897;FTTH-Cu;;29312624;20200306134143;;33860000;2643
2758121;Zoning;7578283;20200227093120;W03-C-Knokke-Heist-FH06;7578283;20200227093120;W03-C-Knokke-Heist-FH06;19897;FTTH-Cu;;29312314;20200306134145;;33860000;2643
2758123;Zoning;7578283;20200227093120;W03-C-Knokke-Heist-FH06;7578283;20200227093120;W03-C-Knokke-Heist-FH06;19897;FTTH-Cu;;29312315;20200306134145;;33860000;2643
320338;Zoning;7578283;20200227093120;W03-C-Knokke-Heist-FH06;7578283;20200227093120;W03-C-Knokke-Heist-FH06;19897;FTTH-Cu;;29312623;20200306134143;;33860000;2643
337851;Zoning;7578283;20200227093120;W03-C-Knokke-Heist-FH06;7578283;20200227093120;W03-C-Knokke-Heist-FH06;19897;FTTH-Cu;;29312670;20200322113923;;33860000;2643
320337;Zoning;7578283;20200227093120;W03-C-Knokke-Heist-FH06;7578283;20200227093120;W03-C-Knokke-Heist-FH06;19897;FTTH-Cu;;29312622;20200306134143;;33860000;2643
1478070;Zoning;7578283;20200227093120;W03-C-Knokke-Heist-FH06;7578283;20200227093120;W03-C-Knokke-Heist-FH06;19897;FTTH-Cu;;29312307;20200306134145;;33860000;2643
320340;Zoning;7578283;20200227093120;W03-C-Knokke-Heist-FH06;7578283;20200227093120;W03-C-Knokke-Heist-FH06;19897;FTTH-Cu;;29312625;20200306134143;;33860000;2643
2758127;Zoning;7578283;20200227093120;W03-C-Knokke-Heist-FH06;7578283;20200227093120;W03-C-Knokke-Heist-FH06;19897;FTTH-Cu;;29312316;20200306134146;;33860000;2643
320336;Zoning;7578283;20200227093120;W03-C-Knokke-Heist-FH06;7578283;20200227093120;W03-C-Knokke-Heist-FH06;19897;FTTH-Cu;;29312621;20200306134143;;33860000;2643
2758128;Zoning;7578283;20200227093120;W03-C-Knokke-Heist-FH06;7578283;20200227093120;W03-C-Knokke-Heist-FH06;19897;FTTH-Cu;;29312317;20200306134146;;33860000;2643
337850;Zoning;7578283;20200227093120;W03-C-Knokke-Heist-FH06;7578283;20200227093120;W03-C-Knokke-Heist-FH06;19897;FTTH-Cu;;29312669;20200306134151;;33860000;2643
319304;Zoning;7578283;20200227093120;W03-C-Knokke-Heist-FH06;7578283;20200227093120;W03-C-Knokke-Heist-FH06;19897;FTTH-Cu;;29312584;20200306134140;;33860000;4877
5579297;Zoning;7578283;20200227093120;W03-C-Knokke-Heist-FH06;7578283;20200227093120;W03-C-Knokke-Heist-FH06;19897;FTTH-Cu;;29312700;20200306134155;;33860000;4877
2758591;Zoning;7578283;20200227093120;W03-C-Knokke-Heist-FH06;7578283;20200227093120;W03-C-Knokke-Heist-FH06;19897;FTTH-Cu;;29312319;20200306134146;;33860000;4877
2758593;Zoning;7578283;20200227093120;W03-C-Knokke-Heist-FH06;7578283;20200227093120;W03-C-Knokke-Heist-FH06;19897;FTTH-Cu;;29312320;20200306134146;;33860000;4877
2758594;Zoning;7578283;20200227093120;W03-C-Knokke-Heist-FH06;7578283;20200227093120;W03-C-Knokke-Heist-FH06;19897;FTTH-Cu;;31239014;20200306134131;;33860000;4877
2758595;Zoning;7578283;20200227093120;W03-C-Knokke-Heist-FH06;7578283;20200227093120;W03-C-Knokke-Heist-FH06;19897;FTTH-Cu;;29312322;20200306134146;;33860000;4877
319249;Zoning;7578283;20200227093120;W03-C-Knokke-Heist-FH06;7578283;20200227093120;W03-C-Knokke-Heist-FH06;19897;FTTH-Cu;;29312582;20200306134140;;33860000;4877
6307183;Zoning;7578283;20200227093120;W03-C-Knokke-Heist-FH06;7578283;20200227093120;W03-C-Knokke-Heist-FH06;19897;FTTH-Cu;;31239015;20200306134131;;33860000;4877
5437537;Zoning;7578283;20200227093120;W03-C-Knokke-Heist-FH06;7578283;20200227093120;W03-C-Knokke-Heist-FH06;19897;FTTH-Cu;;29312698;20200306134155;;33860000;4877
5579298;Zoning;7578283;20200227093120;W03-C-Knokke-Heist-FH06;7578283;20200227093120;W03-C-Knokke-Heist-FH06;19897;FTTH-Cu;;29312701;20200306134155;;33860000;4877
318442;Zoning;7578283;20200227093120;W03-C-Knokke-Heist-FH06;7578283;20200227093120;W03-C-Knokke-Heist-FH06;19897;FTTH-Cu;;29312578;20200322101124;;33860000;4877
5579299;Zoning;7578283;20200227093120;W03-C-Knokke-Heist-FH06;7578283;20200227093120;W03-C-Knokke-Heist-FH06;19897;FTTH-Cu;;31239016;20200306134131;;33860000;4877
318441;Zoning;7578283;20200227093120;W03-C-Knokke-Heist-FH06;7578283;20200227093120;W03-C-Knokke-Heist-FH06;19897;FTTH-Cu;;31239017;20200322101132;;33860000;4877
5579300;Zoning;7578283;20200227093120;W03-C-Knokke-Heist-FH06;7578283;20200227093120;W03-C-Knokke-Heist-FH06;19897;FTTH-Cu;;31239018;20200322101234;;33860000;4877
318440;Zoning;7578283;20200227093120;W03-C-Knokke-Heist-FH06;7578283;20200227093120;W03-C-Knokke-Heist-FH06;19897;FTTH-Cu;;31239019;20200306134131;;33860000;4877
5579301;Zoning;7578283;20200227093120;W03-C-Knokke-Heist-FH06;7578283;20200227093120;W03-C-Knokke-Heist-FH06;19897;FTTH-Cu;;31239020;20200322101228;;33860000;4877
318439;Zoning;7578283;20200227093120;W03-C-Knokke-Heist-FH06;7578283;20200227093120;W03-C-Knokke-Heist-FH06;19897;FTTH-Cu;;29312577;20200306134140;;33860000;4877
337329;Zoning;7578283;20200227093120;W03-C-Knokke-Heist-FH06;7578283;20200227093120;W03-C-Knokke-Heist-FH06;19897;FTTH-Cu;;29312642;20200306134144;;33860000;13098
337328;Zoning;7578283;20200227093120;W03-C-Knokke-Heist-FH06;7578283;20200227093120;W03-C-Knokke-Heist-FH06;19897;FTTH-Cu;;29312641;20200306134144;;33860000;13098
5377687;Zoning;7578283;20200227093120;W03-C-Knokke-Heist-FH06;7578283;20200227093120;W03-C-Knokke-Heist-FH06;19897;FTTH-Cu;;29312696;20200306134155;;33860000;13098
2760502;Zoning;7578283;20200227093120;W03-C-Knokke-Heist-FH06;7578283;20200227093120;W03-C-Knokke-Heist-FH06;19897;FTTH-Cu;;29312343;20200306134147;;33860000;13098
5432872;Zoning;7578283;20200227093120;W03-C-Knokke-Heist-FH06;7578283;20200227093120;W03-C-Knokke-Heist-FH06;19897;FTTH-Cu;;29312697;20200306134155;;33860000;13098
5368122;Zoning;7578283;20200227093120;W03-C-Knokke-Heist-FH06;7578283;20200227093120;W03-C-Knokke-Heist-FH06;19897;FTTH-Cu;;29312695;20200306134155;;33860000;13098
5579380;Zoning;7578283;20200227093120;W03-C-Knokke-Heist-FH06;7578283;20200227093120;W03-C-Knokke-Heist-FH06;19897;FTTH-Cu;;31239021;20200306134132;;33860000;13098
4344208;Zoning;7578283;20200227093120;W03-C-Knokke-Heist-FH06;7578283;20200227093120;W03-C-Knokke-Heist-FH06;19897;FTTH-Cu;;29312685;20200306134154;;33860000;13098
4344203;Zoning;7578283;20200227093120;W03-C-Knokke-Heist-FH06;7578283;20200227093120;W03-C-Knokke-Heist-FH06;19897;FTTH-Cu;;31239022;20200322113325;;33860000;13098
4344210;Zoning;7578283;20200227093120;W03-C-Knokke-Heist-FH06;7578283;20200227093120;W03-C-Knokke-Heist-FH06;19897;FTTH-Cu;;29312686;20200306134154;;33860000;13098
337441;Zoning;7578283;20200227093120;W03-C-Knokke-Heist-FH06;7578283;20200227093120;W03-C-Knokke-Heist-FH06;19897;FTTH-Cu;;31239024;20200322113317;;33860000;13098
4344211;Zoning;7578283;20200227093120;W03-C-Knokke-Heist-FH06;7578283;20200227093120;W03-C-Knokke-Heist-FH06;19897;FTTH-Cu;;29312687;20200306134154;;33860000;13098
2760506;Zoning;7578283;20200227093120;W03-C-Knokke-Heist-FH06;7578283;20200227093120;W03-C-Knokke-Heist-FH06;19897;FTTH-Cu;;29312344;20200306134147;;33860000;13098
2760507;Zoning;7578283;20200227093120;W03-C-Knokke-Heist-FH06;7578283;20200227093120;W03-C-Knokke-Heist-FH06;19897;FTTH-Cu;;29312345;20200306134147;;33860000;13098
337331;Zoning;7578283;20200227093120;W03-C-Knokke-Heist-FH06;7578283;20200227093120;W03-C-Knokke-Heist-FH06;19897;FTTH-Cu;;29312644;20200306134144;;33860000;13098
4344215;Zoning;7578283;20200227093120;W03-C-Knokke-Heist-FH06;7578283;20200227093120;W03-C-Knokke-Heist-FH06;19897;FTTH-Cu;;29312688;20200306134154;;33860000;13098
337330;Zoning;7578283;20200227093120;W03-C-Knokke-Heist-FH06;7578283;20200227093120;W03-C-Knokke-Heist-FH06;19897;FTTH-Cu;;29312643;20200306134144;;33860000;13098
317805;Zoning;7578283;20200227093120;W03-C-Knokke-Heist-FH06;7578283;20200227093120;W03-C-Knokke-Heist-FH06;19897;FTTH-Cu;;29312563;20200306134140;;33860000;22183
317806;Zoning;7578283;20200227093120;W03-C-Knokke-Heist-FH06;7578283;20200227093120;W03-C-Knokke-Heist-FH06;19897;FTTH-Cu;;29312575;20200306134140;;33860000;22183
2764161;Zoning;7578283;20200227093120;W03-C-Knokke-Heist-FH06;7578283;20200227093120;W03-C-Knokke-Heist-FH06;19897;FTTH-Cu;;29312434;20200306134154;;33860000;22183
2764164;Zoning;7578283;20200227093120;W03-C-Knokke-Heist-FH06;7578283;20200227093120;W03-C-Knokke-Heist-FH06;19897;FTTH-Cu;;29312435;20200306134154;;33860000;22183
2764167;Zoning;7578283;20200227093120;W03-C-Knokke-Heist-FH06;7578283;20200227093120;W03-C-Knokke-Heist-FH06;19897;FTTH-Cu;;29312436;20200306134156;;33860000;22183
2764171;Zoning;7578283;20200227093120;W03-C-Knokke-Heist-FH06;7578283;20200227093120;W03-C-Knokke-Heist-FH06;19897;FTTH-Cu;;29312437;20200306134156;;33860000;22183
2764173;Zoning;7578283;20200227093120;W03-C-Knokke-Heist-FH06;7578283;20200227093120;W03-C-Knokke-Heist-FH06;19897;FTTH-Cu;;29312438;20200306134156;;33860000;22183
2764175;Zoning;7578283;20200227093120;W03-C-Knokke-Heist-FH06;7578283;20200227093120;W03-C-Knokke-Heist-FH06;19897;FTTH-Cu;;29312439;20200306134156;;33860000;22183
2764179;Zoning;7578283;20200227093120;W03-C-Knokke-Heist-FH06;7578283;20200227093120;W03-C-Knokke-Heist-FH06;19897;FTTH-Cu;;29312440;20200306134156;;33860000;22183
2764180;Zoning;7578283;20200227093120;W03-C-Knokke-Heist-FH06;7578283;20200227093120;W03-C-Knokke-Heist-FH06;19897;FTTH-Cu;;29312441;20200306134156;;33860000;22183
2764181;Zoning;7578283;20200227093120;W03-C-Knokke-Heist-FH06;7578283;20200227093120;W03-C-Knokke-Heist-FH06;19897;FTTH-Cu;;29312442;20200306134156;;33860000;22183
3939626;Zoning;7578283;20200227093120;W03-C-Knokke-Heist-FH06;7578283;20200227093120;W03-C-Knokke-Heist-FH06;19897;FTTH-Cu;;29312674;20200306134151;;33860000;22183
1470497;Zoning;7578283;20200227093120;W03-C-Knokke-Heist-FH06;7578283;20200227093120;W03-C-Knokke-Heist-FH06;19897;FTTH-Cu;;29312305;20200306134145;;33860000;22183
317808;Zoning;7578283;20200227093120;W03-C-Knokke-Heist-FH06;7578283;20200227093120;W03-C-Knokke-Heist-FH06;19897;FTTH-Cu;;29312576;20200306134140;;33860000;22183
2764189;Zoning;7578283;20200227093120;W03-C-Knokke-Heist-FH06;7578283;20200227093120;W03-C-Knokke-Heist-FH06;19897;FTTH-Cu;;31239025;20200306134132;;33860000;22183
5579516;Zoning;7578283;20200227093120;W03-C-Knokke-Heist-FH06;7578283;20200227093120;W03-C-Knokke-Heist-FH06;19897;FTTH-Cu;;29312705;20200306134155;;33860000;22183
318448;Zoning;7578283;20200227093120;W03-C-Knokke-Heist-FH06;7578283;20200227093120;W03-C-Knokke-Heist-FH06;19897;FTTH-Cu;;29312579;20200306134140;;33860000;22183
6524223;Zoning;7578283;20200227093120;W03-C-Knokke-Heist-FH06;7578283;20200227093120;W03-C-Knokke-Heist-FH06;19897;FTTH-Cu;;31239028;20200306134132;;33860000;22183
319255;Zoning;7578283;20200227093120;W03-C-Knokke-Heist-FH06;7578283;20200227093120;W03-C-Knokke-Heist-FH06;19897;FTTH-Cu;;31239030;20200306134132;;33860000;22183
5579517;Zoning;7578283;20200227093120;W03-C-Knokke-Heist-FH06;7578283;20200227093120;W03-C-Knokke-Heist-FH06;19897;FTTH-Cu;;31239031;20200306134132;;33860000;22183
320307;Zoning;7578283;20200227093120;W03-C-Knokke-Heist-FH06;7578283;20200227093120;W03-C-Knokke-Heist-FH06;19897;FTTH-Cu;;29312605;20200306134142;;33860000;22183
319252;Zoning;7578283;20200227093120;W03-C-Knokke-Heist-FH06;7578283;20200227093120;W03-C-Knokke-Heist-FH06;19897;FTTH-Cu;;29312583;20200306134140;;33860000;22183
2764203;Zoning;7578283;20200227093120;W03-C-Knokke-Heist-FH06;7578283;20200227093120;W03-C-Knokke-Heist-FH06;19897;FTTH-Cu;;29312443;20200306134156;;33860000;22183
2764205;Zoning;7578283;20200227093120;W03-C-Knokke-Heist-FH06;7578283;20200227093120;W03-C-Knokke-Heist-FH06;19897;FTTH-Cu;;29312444;20200306134156;;33860000;22183
2764206;Zoning;7578283;20200227093120;W03-C-Knokke-Heist-FH06;7578283;20200227093120;W03-C-Knokke-Heist-FH06;19897;FTTH-Cu;;29312445;20200306134156;;33860000;22183
320281;Zoning;7578283;20200227093120;W03-C-Knokke-Heist-FH06;7578283;20200227093120;W03-C-Knokke-Heist-FH06;19897;FTTH-Cu;;29312597;20200306134141;;33860000;22183
320309;Zoning;7578283;20200227093120;W03-C-Knokke-Heist-FH06;7578283;20200227093120;W03-C-Knokke-Heist-FH06;19897;FTTH-Cu;;29312607;20200306134142;;33860000;22183
2764212;Zoning;7578283;20200227093120;W03-C-Knokke-Heist-FH06;7578283;20200227093120;W03-C-Knokke-Heist-FH06;19897;FTTH-Cu;;29312446;20200306134156;;33860000;22183
320308;Zoning;7578283;20200227093120;W03-C-Knokke-Heist-FH06;7578283;20200227093120;W03-C-Knokke-Heist-FH06;19897;FTTH-Cu;;29312606;20200306134142;;33860000;22183
5299093;Zoning;7578283;20200227093120;W03-C-Knokke-Heist-FH06;7578283;20200227093120;W03-C-Knokke-Heist-FH06;19897;FTTH-Cu;;31239032;20200322124322;;33860000;22183
319308;Zoning;7578283;20200227093120;W03-C-Knokke-Heist-FH06;7578283;20200227093120;W03-C-Knokke-Heist-FH06;19897;FTTH-Cu;;29312585;20200306134141;;33860000;22183
2764214;Zoning;7578283;20200227093120;W03-C-Knokke-Heist-FH06;7578283;20200227093120;W03-C-Knokke-Heist-FH06;19897;FTTH-Cu;;29312447;20200322124329;;33860000;22183
319309;Zoning;7578283;20200227093120;W03-C-Knokke-Heist-FH06;7578283;20200227093120;W03-C-Knokke-Heist-FH06;19897;FTTH-Cu;;29312586;20200306134141;;33860000;22183
2764218;Zoning;7578283;20200227093120;W03-C-Knokke-Heist-FH06;7578283;20200227093120;W03-C-Knokke-Heist-FH06;19897;FTTH-Cu;;29312448;20200306134156;;33860000;22183
320310;Zoning;7578283;20200227093120;W03-C-Knokke-Heist-FH06;7578283;20200227093120;W03-C-Knokke-Heist-FH06;19897;FTTH-Cu;;29312608;20200322123440;;33860000;22183
2764220;Zoning;7578283;20200227093120;W03-C-Knokke-Heist-FH06;7578283;20200227093120;W03-C-Knokke-Heist-FH06;19897;FTTH-Cu;;29312449;20200306134156;;33860000;22183
5579519;Zoning;7578283;20200227093120;W03-C-Knokke-Heist-FH06;7578283;20200227093120;W03-C-Knokke-Heist-FH06;19897;FTTH-Cu;;31239034;20200306134132;;33860000;22183
319312;Zoning;7578283;20200227093120;W03-C-Knokke-Heist-FH06;7578283;20200227093120;W03-C-Knokke-Heist-FH06;19897;FTTH-Cu;;29312587;20200306134141;;33860000;22183
2764222;Zoning;7578283;20200227093120;W03-C-Knokke-Heist-FH06;7578283;20200227093120;W03-C-Knokke-Heist-FH06;19897;FTTH-Cu;;29312450;20200306134156;;33860000;22183
2764225;Zoning;7578283;20200227093120;W03-C-Knokke-Heist-FH06;7578283;20200227093120;W03-C-Knokke-Heist-FH06;19897;FTTH-Cu;;29312451;20200306134156;;33860000;22183
2764226;Zoning;7578283;20200227093120;W03-C-Knokke-Heist-FH06;7578283;20200227093120;W03-C-Knokke-Heist-FH06;19897;FTTH-Cu;;29312452;20200306134156;;33860000;22183
2764229;Zoning;7578283;20200227093120;W03-C-Knokke-Heist-FH06;7578283;20200227093120;W03-C-Knokke-Heist-FH06;19897;FTTH-Cu;;29312453;20200306134157;;33860000;22183
319362;Zoning;7578283;20200227093120;W03-C-Knokke-Heist-FH06;7578283;20200227093120;W03-C-Knokke-Heist-FH06;19897;FTTH-Cu;;29312596;20200306134141;;33860000;22183
5579520;Zoning;7578283;20200227093120;W03-C-Knokke-Heist-FH06;7578283;20200227093120;W03-C-Knokke-Heist-FH06;19897;FTTH-Cu;;31239036;20200322104123;;33860000;22183
6386928;Zoning;7578283;20200227093120;W03-C-Knokke-Heist-FH06;7578283;20200227093120;W03-C-Knokke-Heist-FH06;19897;FTTH-Cu;;31239039;20200306134132;;33860000;22183
4344142;Zoning;7578283;20200227093120;W03-C-Knokke-Heist-FH06;7578283;20200227093120;W03-C-Knokke-Heist-FH06;19897;FTTH-Cu;;29312684;20200306134154;;33860000;22183
2764235;Zoning;7578283;20200227093120;W03-C-Knokke-Heist-FH06;7578283;20200227093120;W03-C-Knokke-Heist-FH06;19897;FTTH-Cu;;29312454;20200322123215;;33860000;22183
2764238;Zoning;7578283;20200227093120;W03-C-Knokke-Heist-FH06;7578283;20200227093120;W03-C-Knokke-Heist-FH06;19897;FTTH-Cu;;31239041;20200322123222;;33860000;22183
2764239;Zoning;7578283;20200227093120;W03-C-Knokke-Heist-FH06;7578283;20200227093120;W03-C-Knokke-Heist-FH06;19897;FTTH-Cu;;31239044;20200322123229;;33860000;22183
2764240;Zoning;7578283;20200227093120;W03-C-Knokke-Heist-FH06;7578283;20200227093120;W03-C-Knokke-Heist-FH06;19897;FTTH-Cu;;29312455;20200306134157;;33860000;22183
4026877;Zoning;7578283;20200227093120;W03-C-Knokke-Heist-FH06;7578283;20200227093120;W03-C-Knokke-Heist-FH06;19897;FTTH-Cu;;31239045;20200306134132;;33860000;22183
2764242;Zoning;7578283;20200227093120;W03-C-Knokke-Heist-FH06;7578283;20200227093120;W03-C-Knokke-Heist-FH06;19897;FTTH-Cu;;29312456;20200306134157;;33860000;22183
1327501;Zoning;7578283;20200227093120;W03-C-Knokke-Heist-FH06;7578283;20200227093120;W03-C-Knokke-Heist-FH06;19897;FTTH-Cu;;29312296;20200306134144;;33860000;22183
2764244;Zoning;7578283;20200227093120;W03-C-Knokke-Heist-FH06;7578283;20200227093120;W03-C-Knokke-Heist-FH06;19897;FTTH-Cu;;29312457;20200306134157;;33860000;22183
4344145;Zoning;7578283;20200227093120;W03-C-Knokke-Heist-FH06;7578283;20200227093120;W03-C-Knokke-Heist-FH06;19897;FTTH-Cu;;31239049;20200306134132;;33860000;22183
337755;Zoning;7578283;20200227093120;W03-C-Knokke-Heist-FH06;7578283;20200227093120;W03-C-Knokke-Heist-FH06;19897;FTTH-Cu;;29312657;20200306134150;;33860000;22183
337756;Zoning;7578283;20200227093120;W03-C-Knokke-Heist-FH06;7578283;20200227093120;W03-C-Knokke-Heist-FH06;19897;FTTH-Cu;;31239051;20200306134132;;33860000;22183
337815;Zoning;7578283;20200227093120;W03-C-Knokke-Heist-FH06;7578283;20200227093120;W03-C-Knokke-Heist-FH06;19897;FTTH-Cu;;29312663;20200322115354;;33860000;13349
320326;Zoning;7578283;20200227093120;W03-C-Knokke-Heist-FH06;7578283;20200227093120;W03-C-Knokke-Heist-FH06;19897;FTTH-Cu;;29312616;20200322124456;;33860000;13349
5579381;Zoning;7578283;20200227093120;W03-C-Knokke-Heist-FH06;7578283;20200227093120;W03-C-Knokke-Heist-FH06;19897;FTTH-Cu;;31239052;20200306134132;;33860000;13349
3939568;Zoning;7578283;20200227093120;W03-C-Knokke-Heist-FH06;7578283;20200227093120;W03-C-Knokke-Heist-FH06;19897;FTTH-Cu;;31239054;20200306134132;;33860000;13349
2760512;Zoning;7578283;20200227093120;W03-C-Knokke-Heist-FH06;7578283;20200227093120;W03-C-Knokke-Heist-FH06;19897;FTTH-Cu;;29312346;20200306134147;;33860000;13349
2760514;Zoning;7578283;20200227093120;W03-C-Knokke-Heist-FH06;7578283;20200227093120;W03-C-Knokke-Heist-FH06;19897;FTTH-Cu;;29312347;20200322115115;;33860000;13349
4344108;Zoning;7578283;20200227093120;W03-C-Knokke-Heist-FH06;7578283;20200227093120;W03-C-Knokke-Heist-FH06;19897;FTTH-Cu;;29312681;20200322115108;;33860000;13349
2760516;Zoning;7578283;20200227093120;W03-C-Knokke-Heist-FH06;7578283;20200227093120;W03-C-Knokke-Heist-FH06;19897;FTTH-Cu;;29312348;20200306134147;;33860000;13349
2760517;Zoning;7578283;20200227093120;W03-C-Knokke-Heist-FH06;7578283;20200227093120;W03-C-Knokke-Heist-FH06;19897;FTTH-Cu;;29312350;20200306134147;;33860000;13349
337816;Zoning;7578283;20200227093120;W03-C-Knokke-Heist-FH06;7578283;20200227093120;W03-C-Knokke-Heist-FH06;19897;FTTH-Cu;;29312664;20200306134151;;33860000;13349
320302;Zoning;7578283;20200227093120;W03-C-Knokke-Heist-FH06;7578283;20200227093120;W03-C-Knokke-Heist-FH06;19897;FTTH-Cu;;29312601;20200306134141;;33860000;16639
320300;Zoning;7578283;20200227093120;W03-C-Knokke-Heist-FH06;7578283;20200227093120;W03-C-Knokke-Heist-FH06;19897;FTTH-Cu;;29312599;20200306134141;;33860000;16639
2761866;Zoning;7578283;20200227093120;W03-C-Knokke-Heist-FH06;7578283;20200227093120;W03-C-Knokke-Heist-FH06;19897;FTTH-Cu;;29312371;20200306134149;;33860000;16639
2761869;Zoning;7578283;20200227093120;W03-C-Knokke-Heist-FH06;7578283;20200227093120;W03-C-Knokke-Heist-FH06;19897;FTTH-Cu;;29312372;20200306134149;;33860000;16639
2761871;Zoning;7578283;20200227093120;W03-C-Knokke-Heist-FH06;7578283;20200227093120;W03-C-Knokke-Heist-FH06;19897;FTTH-Cu;;31239064;20200322123816;;33860000;16639
2761873;Zoning;7578283;20200227093120;W03-C-Knokke-Heist-FH06;7578283;20200227093120;W03-C-Knokke-Heist-FH06;19897;FTTH-Cu;;29312373;20200322123805;;33860000;16639
4345484;Zoning;7578283;20200227093120;W03-C-Knokke-Heist-FH06;7578283;20200227093120;W03-C-Knokke-Heist-FH06;19897;FTTH-Cu;;29312694;20200306134155;;33860000;16639
2761879;Zoning;7578283;20200227093120;W03-C-Knokke-Heist-FH06;7578283;20200227093120;W03-C-Knokke-Heist-FH06;19897;FTTH-Cu;;29312374;20200306134149;;33860000;16639
2761884;Zoning;7578283;20200227093120;W03-C-Knokke-Heist-FH06;7578283;20200227093120;W03-C-Knokke-Heist-FH06;19897;FTTH-Cu;;29312375;20200306134149;;33860000;16639
2761886;Zoning;7578283;20200227093120;W03-C-Knokke-Heist-FH06;7578283;20200227093120;W03-C-Knokke-Heist-FH06;19897;FTTH-Cu;;29312376;20200322123735;;33860000;16639
4094814;Zoning;7578283;20200227093120;W03-C-Knokke-Heist-FH06;7578283;20200227093120;W03-C-Knokke-Heist-FH06;19897;FTTH-Cu;;31239072;20200306134133;;33860000;16639
2761889;Zoning;7578283;20200227093120;W03-C-Knokke-Heist-FH06;7578283;20200227093120;W03-C-Knokke-Heist-FH06;19897;FTTH-Cu;;29312377;20200306134149;;33860000;16639
2761891;Zoning;7578283;20200227093120;W03-C-Knokke-Heist-FH06;7578283;20200227093120;W03-C-Knokke-Heist-FH06;19897;FTTH-Cu;;31239074;20200306134133;;33860000;16639
2761893;Zoning;7578283;20200227093120;W03-C-Knokke-Heist-FH06;7578283;20200227093120;W03-C-Knokke-Heist-FH06;19897;FTTH-Cu;;29312378;20200306134149;;33860000;16639
320301;Zoning;7578283;20200227093120;W03-C-Knokke-Heist-FH06;7578283;20200227093120;W03-C-Knokke-Heist-FH06;19897;FTTH-Cu;;29312600;20200322123629;;33860000;16639
320298;Zoning;7578283;20200227093120;W03-C-Knokke-Heist-FH06;7578283;20200227093120;W03-C-Knokke-Heist-FH06;19897;FTTH-Cu;;31239075;20200306134133;;33860000;16639
13074;Zoning;7578283;20200227093120;W03-C-Knokke-Heist-FH06;7578283;20200227093120;W03-C-Knokke-Heist-FH06;19897;FTTH-Cu;;29312294;20200306134144;;33860000;16639
1475884;Zoning;7578283;20200227093120;W03-C-Knokke-Heist-FH06;7578283;20200227093120;W03-C-Knokke-Heist-FH06;19897;FTTH-Cu;;31239077;20200306134133;;33860000;16639
320299;Zoning;7578283;20200227093120;W03-C-Knokke-Heist-FH06;7578283;20200227093120;W03-C-Knokke-Heist-FH06;19897;FTTH-Cu;;31239082;20200306134133;;33860000;16639
337753;Zoning;7578283;20200227093120;W03-C-Knokke-Heist-FH06;7578283;20200227093120;W03-C-Knokke-Heist-FH06;19897;FTTH-Cu;;29312656;20200306134150;;33860000;16639
6455780;Zoning;7578283;20200227093120;W03-C-Knokke-Heist-FH06;7578283;20200227093120;W03-C-Knokke-Heist-FH06;19897;FTTH-Cu;;31239083;20200306134133;;33860000;16639
2761904;Zoning;7578283;20200227093120;W03-C-Knokke-Heist-FH06;7578283;20200227093120;W03-C-Knokke-Heist-FH06;19897;FTTH-Cu;;29312379;20200306134149;;33860000;16639
337751;Zoning;7578283;20200227093120;W03-C-Knokke-Heist-FH06;7578283;20200227093120;W03-C-Knokke-Heist-FH06;19897;FTTH-Cu;;29312655;20200306134150;;33860000;16639
5579410;Zoning;7578283;20200227093120;W03-C-Knokke-Heist-FH06;7578283;20200227093120;W03-C-Knokke-Heist-FH06;19897;FTTH-Cu;;31239085;20200306134133;;33860000;16639
2761907;Zoning;7578283;20200227093120;W03-C-Knokke-Heist-FH06;7578283;20200227093120;W03-C-Knokke-Heist-FH06;19897;FTTH-Cu;;29312380;20200306134149;;33860000;16639
337752;Zoning;7578283;20200227093120;W03-C-Knokke-Heist-FH06;7578283;20200227093120;W03-C-Knokke-Heist-FH06;19897;FTTH-Cu;;31239091;20200322115935;;33860000;16639
2761910;Zoning;7578283;20200227093120;W03-C-Knokke-Heist-FH06;7578283;20200227093120;W03-C-Knokke-Heist-FH06;19897;FTTH-Cu;;31239096;20200322120054;;33860000;16639
2761913;Zoning;7578283;20200227093120;W03-C-Knokke-Heist-FH06;7578283;20200227093120;W03-C-Knokke-Heist-FH06;19897;FTTH-Cu;;29312381;20200322120027;;33860000;16639
2761916;Zoning;7578283;20200227093120;W03-C-Knokke-Heist-FH06;7578283;20200227093120;W03-C-Knokke-Heist-FH06;19897;FTTH-Cu;;31239097;20200322120044;;33860000;16639
5579411;Zoning;7578283;20200227093120;W03-C-Knokke-Heist-FH06;7578283;20200227093120;W03-C-Knokke-Heist-FH06;19897;FTTH-Cu;;29312703;20200322115924;;33860000;16639
320321;Zoning;7578283;20200227093120;W03-C-Knokke-Heist-FH06;7578283;20200227093120;W03-C-Knokke-Heist-FH06;19897;FTTH-Cu;;29312612;20200322124905;;33860000;16639
2761949;Zoning;7578283;20200227093120;W03-C-Knokke-Heist-FH06;7578283;20200227093120;W03-C-Knokke-Heist-FH06;19897;FTTH-Cu;;29312382;20200322124845;;33860000;16639
2761950;Zoning;7578283;20200227093120;W03-C-Knokke-Heist-FH06;7578283;20200227093120;W03-C-Knokke-Heist-FH06;19897;FTTH-Cu;;29312383;20200322124836;;33860000;16639
2761952;Zoning;7578283;20200227093120;W03-C-Knokke-Heist-FH06;7578283;20200227093120;W03-C-Knokke-Heist-FH06;19897;FTTH-Cu;;29312384;20200322124818;;33860000;16639
2761953;Zoning;7578283;20200227093120;W03-C-Knokke-Heist-FH06;7578283;20200227093120;W03-C-Knokke-Heist-FH06;19897;FTTH-Cu;;31239099;20200322124809;;33860000;16639
2761955;Zoning;7578283;20200227093120;W03-C-Knokke-Heist-FH06;7578283;20200227093120;W03-C-Knokke-Heist-FH06;19897;FTTH-Cu;;29312385;20200322124711;;33860000;16639
2761956;Zoning;7578283;20200227093120;W03-C-Knokke-Heist-FH06;7578283;20200227093120;W03-C-Knokke-Heist-FH06;19897;FTTH-Cu;;29312386;20200322124658;;33860000;16639
2761958;Zoning;7578283;20200227093120;W03-C-Knokke-Heist-FH06;7578283;20200227093120;W03-C-Knokke-Heist-FH06;19897;FTTH-Cu;;29312387;20200322124704;;33860000;16639
2761961;Zoning;7578283;20200227093120;W03-C-Knokke-Heist-FH06;7578283;20200227093120;W03-C-Knokke-Heist-FH06;19897;FTTH-Cu;;29312388;20200306134150;;33860000;16639
2761962;Zoning;7578283;20200227093120;W03-C-Knokke-Heist-FH06;7578283;20200227093120;W03-C-Knokke-Heist-FH06;19897;FTTH-Cu;;29312389;20200322124620;;33860000;16639
2761964;Zoning;7578283;20200227093120;W03-C-Knokke-Heist-FH06;7578283;20200227093120;W03-C-Knokke-Heist-FH06;19897;FTTH-Cu;;29312390;20200322124612;;33860000;16639
2761966;Zoning;7578283;20200227093120;W03-C-Knokke-Heist-FH06;7578283;20200227093120;W03-C-Knokke-Heist-FH06;19897;FTTH-Cu;;29312391;20200306134150;;33860000;16639
2761968;Zoning;7578283;20200227093120;W03-C-Knokke-Heist-FH06;7578283;20200227093120;W03-C-Knokke-Heist-FH06;19897;FTTH-Cu;;29312392;20200322124540;;33860000;16639
2761969;Zoning;7578283;20200227093120;W03-C-Knokke-Heist-FH06;7578283;20200227093120;W03-C-Knokke-Heist-FH06;19897;FTTH-Cu;;29312393;20200322124533;;33860000;16639
2761970;Zoning;7578283;20200227093120;W03-C-Knokke-Heist-FH06;7578283;20200227093120;W03-C-Knokke-Heist-FH06;19897;FTTH-Cu;;29312394;20200322124514;;33860000;16639
320322;Zoning;7578283;20200227093120;W03-C-Knokke-Heist-FH06;7578283;20200227093120;W03-C-Knokke-Heist-FH06;19897;FTTH-Cu;;31239100;20200322124503;;33860000;16639
1473385;Zoning;7578283;20200227093120;W03-C-Knokke-Heist-FH06;7578283;20200227093120;W03-C-Knokke-Heist-FH06;19897;FTTH-Cu;;29312306;20200322115402;;33860000;16639
1448395;Zoning;7578283;20200227093120;W03-C-Knokke-Heist-FH06;7578283;20200227093120;W03-C-Knokke-Heist-FH06;19897;FTTH-Cu;;29312303;20200322115620;;33860000;16639
1389366;Zoning;7578283;20200227093120;W03-C-Knokke-Heist-FH06;7578283;20200227093120;W03-C-Knokke-Heist-FH06;19897;FTTH-Cu;;29312300;20200306134145;;33860000;16639
2761976;Zoning;7578283;20200227093120;W03-C-Knokke-Heist-FH06;7578283;20200227093120;W03-C-Knokke-Heist-FH06;19897;FTTH-Cu;;29312395;20200306134150;;33860000;16639
2761978;Zoning;7578283;20200227093120;W03-C-Knokke-Heist-FH06;7578283;20200227093120;W03-C-Knokke-Heist-FH06;19897;FTTH-Cu;;29312396;20200306134150;;33860000;16639
2761979;Zoning;7578283;20200227093120;W03-C-Knokke-Heist-FH06;7578283;20200227093120;W03-C-Knokke-Heist-FH06;19897;FTTH-Cu;;29312397;20200306134151;;33860000;16639
2761981;Zoning;7578283;20200227093120;W03-C-Knokke-Heist-FH06;7578283;20200227093120;W03-C-Knokke-Heist-FH06;19897;FTTH-Cu;;29312398;20200306134152;;33860000;16639
2761983;Zoning;7578283;20200227093120;W03-C-Knokke-Heist-FH06;7578283;20200227093120;W03-C-Knokke-Heist-FH06;19897;FTTH-Cu;;29312399;20200306134152;;33860000;16639
2761986;Zoning;7578283;20200227093120;W03-C-Knokke-Heist-FH06;7578283;20200227093120;W03-C-Knokke-Heist-FH06;19897;FTTH-Cu;;31239109;20200306134133;;33860000;16639
337812;Zoning;7578283;20200227093120;W03-C-Knokke-Heist-FH06;7578283;20200227093120;W03-C-Knokke-Heist-FH06;19897;FTTH-Cu;;29312660;20200306134150;;33860000;16639
320329;Zoning;7578283;20200227093120;W03-C-Knokke-Heist-FH06;7578283;20200227093120;W03-C-Knokke-Heist-FH06;19897;FTTH-Cu;;1805003;20200306134129;;33860000;18533
2762804;Zoning;7578283;20200227093120;W03-C-Knokke-Heist-FH06;7578283;20200227093120;W03-C-Knokke-Heist-FH06;19897;FTTH-Cu;;29312400;20200306134152;;33860000;18533
6210672;Zoning;7578283;20200227093120;W03-C-Knokke-Heist-FH06;7578283;20200227093120;W03-C-Knokke-Heist-FH06;19897;FTTH-Cu;;8860380;20200322130013;;33860000;18533
2762809;Zoning;7578283;20200227093120;W03-C-Knokke-Heist-FH06;7578283;20200227093120;W03-C-Knokke-Heist-FH06;19897;FTTH-Cu;;29312401;20200306134152;;33860000;18533
2762811;Zoning;7578283;20200227093120;W03-C-Knokke-Heist-FH06;7578283;20200227093120;W03-C-Knokke-Heist-FH06;19897;FTTH-Cu;;29312402;20200306134152;;33860000;18533
3939602;Zoning;7578283;20200227093120;W03-C-Knokke-Heist-FH06;7578283;20200227093120;W03-C-Knokke-Heist-FH06;19897;FTTH-Cu;;29312673;20200322125949;;33860000;18533
3976701;Zoning;7578283;20200227093120;W03-C-Knokke-Heist-FH06;7578283;20200227093120;W03-C-Knokke-Heist-FH06;19897;FTTH-Cu;;29312677;20200306134151;;33860000;18533
4344932;Zoning;7578283;20200227093120;W03-C-Knokke-Heist-FH06;7578283;20200227093120;W03-C-Knokke-Heist-FH06;19897;FTTH-Cu;;29312693;20200322125919;;33860000;18533
2762816;Zoning;7578283;20200227093120;W03-C-Knokke-Heist-FH06;7578283;20200227093120;W03-C-Knokke-Heist-FH06;19897;FTTH-Cu;;29312403;20200322125929;;33860000;18533
320331;Zoning;7578283;20200227093120;W03-C-Knokke-Heist-FH06;7578283;20200227093120;W03-C-Knokke-Heist-FH06;19897;FTTH-Cu;;29312618;20200322125847;;33860000;18533
5579462;Zoning;7578283;20200227093120;W03-C-Knokke-Heist-FH06;7578283;20200227093120;W03-C-Knokke-Heist-FH06;19897;FTTH-Cu;;31239111;20200322125839;;33860000;18533
320330;Zoning;7578283;20200227093120;W03-C-Knokke-Heist-FH06;7578283;20200227093120;W03-C-Knokke-Heist-FH06;19897;FTTH-Cu;;29312617;20200322125831;;33860000;18533
2762830;Zoning;7578283;20200227093120;W03-C-Knokke-Heist-FH06;7578283;20200227093120;W03-C-Knokke-Heist-FH06;19897;FTTH-Cu;;29312404;20200322125822;;33860000;18533
2762833;Zoning;7578283;20200227093120;W03-C-Knokke-Heist-FH06;7578283;20200227093120;W03-C-Knokke-Heist-FH06;19897;FTTH-Cu;;29312405;20200322125810;;33860000;18533
320332;Zoning;7578283;20200227093120;W03-C-Knokke-Heist-FH06;7578283;20200227093120;W03-C-Knokke-Heist-FH06;19897;FTTH-Cu;;29312619;20200306134142;;33860000;18533
4263458;Zoning;7578283;20200227093120;W03-C-Knokke-Heist-FH06;7578283;20200227093120;W03-C-Knokke-Heist-FH06;19897;FTTH-Cu;;31239112;20200306134133;;33860000;18533
337846;Zoning;7578283;20200227093120;W03-C-Knokke-Heist-FH06;7578283;20200227093120;W03-C-Knokke-Heist-FH06;19897;FTTH-Cu;;29312666;20200322113935;;33860000;18533
2762842;Zoning;7578283;20200227093120;W03-C-Knokke-Heist-FH06;7578283;20200227093120;W03-C-Knokke-Heist-FH06;19897;FTTH-Cu;;29312406;20200306134152;;33860000;18533
2762843;Zoning;7578283;20200227093120;W03-C-Knokke-Heist-FH06;7578283;20200227093120;W03-C-Knokke-Heist-FH06;19897;FTTH-Cu;;29312407;20200322114014;;33860000;18533
2762847;Zoning;7578283;20200227093120;W03-C-Knokke-Heist-FH06;7578283;20200227093120;W03-C-Knokke-Heist-FH06;19897;FTTH-Cu;;31239113;20200306134133;;33860000;18533
2762851;Zoning;7578283;20200227093120;W03-C-Knokke-Heist-FH06;7578283;20200227093120;W03-C-Knokke-Heist-FH06;19897;FTTH-Cu;;29312408;20200306134152;;33860000;18533
2762852;Zoning;7578283;20200227093120;W03-C-Knokke-Heist-FH06;7578283;20200227093120;W03-C-Knokke-Heist-FH06;19897;FTTH-Cu;;29312409;20200306134152;;33860000;18533
2762856;Zoning;7578283;20200227093120;W03-C-Knokke-Heist-FH06;7578283;20200227093120;W03-C-Knokke-Heist-FH06;19897;FTTH-Cu;;29312410;20200322114139;;33860000;18533
2762858;Zoning;7578283;20200227093120;W03-C-Knokke-Heist-FH06;7578283;20200227093120;W03-C-Knokke-Heist-FH06;19897;FTTH-Cu;;31239118;20200322114202;;33860000;18533
2762861;Zoning;7578283;20200227093120;W03-C-Knokke-Heist-FH06;7578283;20200227093120;W03-C-Knokke-Heist-FH06;19897;FTTH-Cu;;29312411;20200306134152;;33860000;18533
2762866;Zoning;7578283;20200227093120;W03-C-Knokke-Heist-FH06;7578283;20200227093120;W03-C-Knokke-Heist-FH06;19897;FTTH-Cu;;29312412;20200306134152;;33860000;18533
337845;Zoning;7578283;20200227093120;W03-C-Knokke-Heist-FH06;7578283;20200227093120;W03-C-Knokke-Heist-FH06;19897;FTTH-Cu;;29312665;20200306134151;;33860000;18533
337326;Zoning;7578283;20200227093120;W03-C-Knokke-Heist-FH06;7578283;20200227093120;W03-C-Knokke-Heist-FH06;19897;FTTH-Cu;;29312639;20200306134144;;33860000;18533
2762870;Zoning;7578283;20200227093120;W03-C-Knokke-Heist-FH06;7578283;20200227093120;W03-C-Knokke-Heist-FH06;19897;FTTH-Cu;;29312413;20200306134152;;33860000;18533
337327;Zoning;7578283;20200227093120;W03-C-Knokke-Heist-FH06;7578283;20200227093120;W03-C-Knokke-Heist-FH06;19897;FTTH-Cu;;29312640;20200306134144;;33860000;18533
337325;Zoning;7578283;20200227093120;W03-C-Knokke-Heist-FH06;7578283;20200227093120;W03-C-Knokke-Heist-FH06;19897;FTTH-Cu;;29312638;20200306134143;;33860000;18533
2762875;Zoning;7578283;20200227093120;W03-C-Knokke-Heist-FH06;7578283;20200227093120;W03-C-Knokke-Heist-FH06;19897;FTTH-Cu;;29312414;20200306134152;;33860000;18533
2762878;Zoning;7578283;20200227093120;W03-C-Knokke-Heist-FH06;7578283;20200227093120;W03-C-Knokke-Heist-FH06;19897;FTTH-Cu;;29312415;20200322113439;;33860000;18533
2762883;Zoning;7578283;20200227093120;W03-C-Knokke-Heist-FH06;7578283;20200227093120;W03-C-Knokke-Heist-FH06;19897;FTTH-Cu;;29312416;20200322113424;;33860000;18533
2762886;Zoning;7578283;20200227093120;W03-C-Knokke-Heist-FH06;7578283;20200227093120;W03-C-Knokke-Heist-FH06;19897;FTTH-Cu;;31239121;20200322113432;;33860000;18533
337324;Zoning;7578283;20200227093120;W03-C-Knokke-Heist-FH06;7578283;20200227093120;W03-C-Knokke-Heist-FH06;19897;FTTH-Cu;;31239125;20200322113414;;33860000;18533
12838;Zoning;7578283;20200227093120;W03-C-Knokke-Heist-FH06;7578283;20200227093120;W03-C-Knokke-Heist-FH06;19897;FTTH-Cu;;29312288;20200306134144;;33860000;20211
2763665;Zoning;7578283;20200227093120;W03-C-Knokke-Heist-FH06;7578283;20200227093120;W03-C-Knokke-Heist-FH06;19897;FTTH-Cu;;29312417;20200306134153;;33860000;20211
2763667;Zoning;7578283;20200227093120;W03-C-Knokke-Heist-FH06;7578283;20200227093120;W03-C-Knokke-Heist-FH06;19897;FTTH-Cu;;29312418;20200306134153;;33860000;20211
2763669;Zoning;7578283;20200227093120;W03-C-Knokke-Heist-FH06;7578283;20200227093120;W03-C-Knokke-Heist-FH06;19897;FTTH-Cu;;29312419;20200306134153;;33860000;20211
320303;Zoning;7578283;20200227093120;W03-C-Knokke-Heist-FH06;7578283;20200227093120;W03-C-Knokke-Heist-FH06;19897;FTTH-Cu;;29312602;20200322124047;;33860000;20214
320304;Zoning;7578283;20200227093120;W03-C-Knokke-Heist-FH06;7578283;20200227093120;W03-C-Knokke-Heist-FH06;19897;FTTH-Cu;;29312603;20200322124054;;33860000;20214
2763702;Zoning;7578283;20200227093120;W03-C-Knokke-Heist-FH06;7578283;20200227093120;W03-C-Knokke-Heist-FH06;19897;FTTH-Cu;;29312420;20200306134153;;33860000;20214
2763705;Zoning;7578283;20200227093120;W03-C-Knokke-Heist-FH06;7578283;20200227093120;W03-C-Knokke-Heist-FH06;19897;FTTH-Cu;;29312421;20200306134153;;33860000;20214
12846;Zoning;7578283;20200227093120;W03-C-Knokke-Heist-FH06;7578283;20200227093120;W03-C-Knokke-Heist-FH06;19897;FTTH-Cu;;31239128;20200322104058;;33860000;20214
2763706;Zoning;7578283;20200227093120;W03-C-Knokke-Heist-FH06;7578283;20200227093120;W03-C-Knokke-Heist-FH06;19897;FTTH-Cu;;29312422;20200322124104;;33860000;20214
319351;Zoning;7578283;20200227093120;W03-C-Knokke-Heist-FH06;7578283;20200227093120;W03-C-Knokke-Heist-FH06;19897;FTTH-Cu;;29312593;20200322104028;;33860000;20214
2763708;Zoning;7578283;20200227093120;W03-C-Knokke-Heist-FH06;7578283;20200227093120;W03-C-Knokke-Heist-FH06;19897;FTTH-Cu;;29312423;20200322124111;;33860000;20214
5579494;Zoning;7578283;20200227093120;W03-C-Knokke-Heist-FH06;7578283;20200227093120;W03-C-Knokke-Heist-FH06;19897;FTTH-Cu;;31239129;20200322104021;;33860000;20214
2763710;Zoning;7578283;20200227093120;W03-C-Knokke-Heist-FH06;7578283;20200227093120;W03-C-Knokke-Heist-FH06;19897;FTTH-Cu;;29312424;20200306134153;;33860000;20214
2763712;Zoning;7578283;20200227093120;W03-C-Knokke-Heist-FH06;7578283;20200227093120;W03-C-Knokke-Heist-FH06;19897;FTTH-Cu;;29312425;20200322124133;;33860000;20214
5579495;Zoning;7578283;20200227093120;W03-C-Knokke-Heist-FH06;7578283;20200227093120;W03-C-Knokke-Heist-FH06;19897;FTTH-Cu;;29312704;20200306134155;;33860000;20214
2763714;Zoning;7578283;20200227093120;W03-C-Knokke-Heist-FH06;7578283;20200227093120;W03-C-Knokke-Heist-FH06;19897;FTTH-Cu;;29312426;20200306134153;;33860000;20214
2763715;Zoning;7578283;20200227093120;W03-C-Knokke-Heist-FH06;7578283;20200227093120;W03-C-Knokke-Heist-FH06;19897;FTTH-Cu;;29312427;20200322124153;;33860000;20214
2763716;Zoning;7578283;20200227093120;W03-C-Knokke-Heist-FH06;7578283;20200227093120;W03-C-Knokke-Heist-FH06;19897;FTTH-Cu;;29312428;20200322124207;;33860000;20214
2763717;Zoning;7578283;20200227093120;W03-C-Knokke-Heist-FH06;7578283;20200227093120;W03-C-Knokke-Heist-FH06;19897;FTTH-Cu;;29312429;20200322124200;;33860000;20214
1481972;Zoning;7578283;20200227093120;W03-C-Knokke-Heist-FH06;7578283;20200227093120;W03-C-Knokke-Heist-FH06;19897;FTTH-Cu;;29312308;20200306134145;;33860000;20214
2763719;Zoning;7578283;20200227093120;W03-C-Knokke-Heist-FH06;7578283;20200227093120;W03-C-Knokke-Heist-FH06;19897;FTTH-Cu;;29312430;20200306134153;;33860000;20214
2763720;Zoning;7578283;20200227093120;W03-C-Knokke-Heist-FH06;7578283;20200227093120;W03-C-Knokke-Heist-FH06;19897;FTTH-Cu;;29312431;20200322123134;;33860000;20214
2763722;Zoning;7578283;20200227093120;W03-C-Knokke-Heist-FH06;7578283;20200227093120;W03-C-Knokke-Heist-FH06;19897;FTTH-Cu;;29312432;20200322123055;;33860000;20214
337748;Zoning;7578283;20200227093120;W03-C-Knokke-Heist-FH06;7578283;20200227093120;W03-C-Knokke-Heist-FH06;19897;FTTH-Cu;;31239224;20200306134134;;33860000;20214
2763723;Zoning;7578283;20200227093120;W03-C-Knokke-Heist-FH06;7578283;20200227093120;W03-C-Knokke-Heist-FH06;19897;FTTH-Cu;;29312433;20200322123004;;33860000;20214
4344147;Zoning;7578283;20200227093120;W03-C-Knokke-Heist-FH06;7578283;20200227093120;W03-C-Knokke-Heist-FH06;19897;FTTH-Cu;;31239225;20200322123014;;33860000;20214
337749;Zoning;7578283;20200227093120;W03-C-Knokke-Heist-FH06;7578283;20200227093120;W03-C-Knokke-Heist-FH06;19897;FTTH-Cu;;29312654;20200322122950;;33860000;20214
320318;Zoning;7578283;20200227093120;W03-C-Knokke-Heist-FH06;7578283;20200227093120;W03-C-Knokke-Heist-FH06;19897;FTTH-Cu;;1804997;20200322130146;;33860000;24010
320333;Zoning;7578283;20200227093120;W03-C-Knokke-Heist-FH06;7578283;20200227093120;W03-C-Knokke-Heist-FH06;19897;FTTH-Cu;;29312620;20200322130233;;33860000;24010
2765232;Zoning;7578283;20200227093120;W03-C-Knokke-Heist-FH06;7578283;20200227093120;W03-C-Knokke-Heist-FH06;19897;FTTH-Cu;;29312458;20200322130239;;33860000;24010
2765235;Zoning;7578283;20200227093120;W03-C-Knokke-Heist-FH06;7578283;20200227093120;W03-C-Knokke-Heist-FH06;19897;FTTH-Cu;;1801950;20200322130247;;33860000;24010
2765237;Zoning;7578283;20200227093120;W03-C-Knokke-Heist-FH06;7578283;20200227093120;W03-C-Knokke-Heist-FH06;19897;FTTH-Cu;;29312459;20200322130306;;33860000;24010
2765240;Zoning;7578283;20200227093120;W03-C-Knokke-Heist-FH06;7578283;20200227093120;W03-C-Knokke-Heist-FH06;19897;FTTH-Cu;;29312460;20200322130312;;33860000;24010
2765247;Zoning;7578283;20200227093120;W03-C-Knokke-Heist-FH06;7578283;20200227093120;W03-C-Knokke-Heist-FH06;19897;FTTH-Cu;;29312461;20200322130319;;33860000;24010
2765254;Zoning;7578283;20200227093120;W03-C-Knokke-Heist-FH06;7578283;20200227093120;W03-C-Knokke-Heist-FH06;19897;FTTH-Cu;;29312462;20200322130326;;33860000;24010
2765258;Zoning;7578283;20200227093120;W03-C-Knokke-Heist-FH06;7578283;20200227093120;W03-C-Knokke-Heist-FH06;19897;FTTH-Cu;;29312463;20200322130332;;33860000;24010
2765261;Zoning;7578283;20200227093120;W03-C-Knokke-Heist-FH06;7578283;20200227093120;W03-C-Knokke-Heist-FH06;19897;FTTH-Cu;;29312464;20200322130339;;33860000;24010
2765263;Zoning;7578283;20200227093120;W03-C-Knokke-Heist-FH06;7578283;20200227093120;W03-C-Knokke-Heist-FH06;19897;FTTH-Cu;;29312465;20200322130357;;33860000;24010
2765268;Zoning;7578283;20200227093120;W03-C-Knokke-Heist-FH06;7578283;20200227093120;W03-C-Knokke-Heist-FH06;19897;FTTH-Cu;;29312466;20200322130403;;33860000;24010
2765271;Zoning;7578283;20200227093120;W03-C-Knokke-Heist-FH06;7578283;20200227093120;W03-C-Knokke-Heist-FH06;19897;FTTH-Cu;;29312467;20200322130445;;33860000;24010
320317;Zoning;7578283;20200227093120;W03-C-Knokke-Heist-FH06;7578283;20200227093120;W03-C-Knokke-Heist-FH06;19897;FTTH-Cu;;29312609;20200322125116;;33860000;24010
2765275;Zoning;7578283;20200227093120;W03-C-Knokke-Heist-FH06;7578283;20200227093120;W03-C-Knokke-Heist-FH06;19897;FTTH-Cu;;29312468;20200322130417;;33860000;24010
1494837;Zoning;7578283;20200227093120;W03-C-Knokke-Heist-FH06;7578283;20200227093120;W03-C-Knokke-Heist-FH06;19897;FTTH-Cu;;29312309;20200322125346;;33860000;24010
320319;Zoning;7578283;20200227093120;W03-C-Knokke-Heist-FH06;7578283;20200227093120;W03-C-Knokke-Heist-FH06;19897;FTTH-Cu;;29312610;20200322130432;;33860000;24010
2765277;Zoning;7578283;20200227093120;W03-C-Knokke-Heist-FH06;7578283;20200227093120;W03-C-Knokke-Heist-FH06;19897;FTTH-Cu;;29312469;20200322125338;;33860000;24010
2765279;Zoning;7578283;20200227093120;W03-C-Knokke-Heist-FH06;7578283;20200227093120;W03-C-Knokke-Heist-FH06;19897;FTTH-Cu;;29312470;20200306134158;;33860000;24010
2765281;Zoning;7578283;20200227093120;W03-C-Knokke-Heist-FH06;7578283;20200227093120;W03-C-Knokke-Heist-FH06;19897;FTTH-Cu;;29312472;20200322125331;;33860000;24010
2765285;Zoning;7578283;20200227093120;W03-C-Knokke-Heist-FH06;7578283;20200227093120;W03-C-Knokke-Heist-FH06;19897;FTTH-Cu;;29312473;20200306134158;;33860000;24010
1357249;Zoning;7578283;20200227093120;W03-C-Knokke-Heist-FH06;7578283;20200227093120;W03-C-Knokke-Heist-FH06;19897;FTTH-Cu;;29312298;20200322125316;;33860000;24010
1454526;Zoning;7578283;20200227093120;W03-C-Knokke-Heist-FH06;7578283;20200227093120;W03-C-Knokke-Heist-FH06;19897;FTTH-Cu;;29312304;20200306134145;;33860000;24010
2765289;Zoning;7578283;20200227093120;W03-C-Knokke-Heist-FH06;7578283;20200227093120;W03-C-Knokke-Heist-FH06;19897;FTTH-Cu;;29312474;20200322125300;;33860000;24010
2765290;Zoning;7578283;20200227093120;W03-C-Knokke-Heist-FH06;7578283;20200227093120;W03-C-Knokke-Heist-FH06;19897;FTTH-Cu;;29312475;20200306134158;;33860000;24010
2765291;Zoning;7578283;20200227093120;W03-C-Knokke-Heist-FH06;7578283;20200227093120;W03-C-Knokke-Heist-FH06;19897;FTTH-Cu;;29312476;20200322125309;;33860000;24010
2765292;Zoning;7578283;20200227093120;W03-C-Knokke-Heist-FH06;7578283;20200227093120;W03-C-Knokke-Heist-FH06;19897;FTTH-Cu;;29312477;20200306134158;;33860000;24010
2765293;Zoning;7578283;20200227093120;W03-C-Knokke-Heist-FH06;7578283;20200227093120;W03-C-Knokke-Heist-FH06;19897;FTTH-Cu;;29312478;20200306134158;;33860000;24010
2765294;Zoning;7578283;20200227093120;W03-C-Knokke-Heist-FH06;7578283;20200227093120;W03-C-Knokke-Heist-FH06;19897;FTTH-Cu;;29312479;20200306134158;;33860000;24010
2765295;Zoning;7578283;20200227093120;W03-C-Knokke-Heist-FH06;7578283;20200227093120;W03-C-Knokke-Heist-FH06;19897;FTTH-Cu;;29312480;20200322125415;;33860000;24010
2765296;Zoning;7578283;20200227093120;W03-C-Knokke-Heist-FH06;7578283;20200227093120;W03-C-Knokke-Heist-FH06;19897;FTTH-Cu;;29312481;20200306134158;;33860000;24010
2765297;Zoning;7578283;20200227093120;W03-C-Knokke-Heist-FH06;7578283;20200227093120;W03-C-Knokke-Heist-FH06;19897;FTTH-Cu;;29312482;20200322125403;;33860000;24010
1327502;Zoning;7578283;20200227093120;W03-C-Knokke-Heist-FH06;7578283;20200227093120;W03-C-Knokke-Heist-FH06;19897;FTTH-Cu;;29312297;20200306134144;;33860000;24010
2765299;Zoning;7578283;20200227093120;W03-C-Knokke-Heist-FH06;7578283;20200227093120;W03-C-Knokke-Heist-FH06;19897;FTTH-Cu;;29312483;20200306134158;;33860000;24010
3939641;Zoning;7578283;20200227093120;W03-C-Knokke-Heist-FH06;7578283;20200227093120;W03-C-Knokke-Heist-FH06;19897;FTTH-Cu;;29312675;20200322125424;;33860000;24010
1288479;Zoning;7578283;20200227093120;W03-C-Knokke-Heist-FH06;7578283;20200227093120;W03-C-Knokke-Heist-FH06;19897;FTTH-Cu;;29312291;20200322113815;;33860000;24010
2765301;Zoning;7578283;20200227093120;W03-C-Knokke-Heist-FH06;7578283;20200227093120;W03-C-Knokke-Heist-FH06;19897;FTTH-Cu;;29312484;20200322125433;;33860000;24010
2765302;Zoning;7578283;20200227093120;W03-C-Knokke-Heist-FH06;7578283;20200227093120;W03-C-Knokke-Heist-FH06;19897;FTTH-Cu;;29312485;20200322113805;;33860000;24010
1442660;Zoning;7578283;20200227093120;W03-C-Knokke-Heist-FH06;7578283;20200227093120;W03-C-Knokke-Heist-FH06;19897;FTTH-Cu;;29312302;20200322125506;;33860000;24010
2765306;Zoning;7578283;20200227093120;W03-C-Knokke-Heist-FH06;7578283;20200227093120;W03-C-Knokke-Heist-FH06;19897;FTTH-Cu;;29312486;20200306134158;;33860000;24010
2765308;Zoning;7578283;20200227093120;W03-C-Knokke-Heist-FH06;7578283;20200227093120;W03-C-Knokke-Heist-FH06;19897;FTTH-Cu;;29312488;20200322125459;;33860000;24010
1024246;Zoning;7578283;20200227093120;W03-C-Knokke-Heist-FH06;7578283;20200227093120;W03-C-Knokke-Heist-FH06;19897;FTTH-Cu;;29312285;20200322113736;;33860000;24010
337340;Zoning;7578283;20200227093120;W03-C-Knokke-Heist-FH06;7578283;20200227093120;W03-C-Knokke-Heist-FH06;19897;FTTH-Cu;;29312648;20200306134148;;33860000;24010
2765310;Zoning;7578283;20200227093120;W03-C-Knokke-Heist-FH06;7578283;20200227093120;W03-C-Knokke-Heist-FH06;19897;FTTH-Cu;;29312490;20200322125451;;33860000;24010
337334;Zoning;7578283;20200227093120;W03-C-Knokke-Heist-FH06;7578283;20200227093120;W03-C-Knokke-Heist-FH06;19897;FTTH-Cu;;1807188;20200322112858;;33860000;24010
2765313;Zoning;7578283;20200227093120;W03-C-Knokke-Heist-FH06;7578283;20200227093120;W03-C-Knokke-Heist-FH06;19897;FTTH-Cu;;29312491;20200306134159;;33860000;24010
337813;Zoning;7578283;20200227093120;W03-C-Knokke-Heist-FH06;7578283;20200227093120;W03-C-Knokke-Heist-FH06;19897;FTTH-Cu;;29312661;20200306134150;;33860000;24010
2765316;Zoning;7578283;20200227093120;W03-C-Knokke-Heist-FH06;7578283;20200227093120;W03-C-Knokke-Heist-FH06;19897;FTTH-Cu;;29312493;20200322112753;;33860000;24010
2765318;Zoning;7578283;20200227093120;W03-C-Knokke-Heist-FH06;7578283;20200227093120;W03-C-Knokke-Heist-FH06;19897;FTTH-Cu;;29312494;20200306134159;;33860000;24010
2765319;Zoning;7578283;20200227093120;W03-C-Knokke-Heist-FH06;7578283;20200227093120;W03-C-Knokke-Heist-FH06;19897;FTTH-Cu;;31239226;20200322112745;;33860000;24010
6459808;Zoning;7578283;20200227093120;W03-C-Knokke-Heist-FH06;7578283;20200227093120;W03-C-Knokke-Heist-FH06;19897;FTTH-Cu;;31239235;20200322112617;;33860000;24010
2765322;Zoning;7578283;20200227093120;W03-C-Knokke-Heist-FH06;7578283;20200227093120;W03-C-Knokke-Heist-FH06;19897;FTTH-Cu;;29312495;20200306134159;;33860000;24010
337338;Zoning;7578283;20200227093120;W03-C-Knokke-Heist-FH06;7578283;20200227093120;W03-C-Knokke-Heist-FH06;19897;FTTH-Cu;;29312647;20200306134148;;33860000;24010
1389323;Zoning;7578283;20200227093120;W03-C-Knokke-Heist-FH06;7578283;20200227093120;W03-C-Knokke-Heist-FH06;19897;FTTH-Cu;;29312299;20200306134145;;33860000;24010
5579537;Zoning;7578283;20200227093120;W03-C-Knokke-Heist-FH06;7578283;20200227093120;W03-C-Knokke-Heist-FH06;19897;FTTH-Cu;;31239238;20200322112440;;33860000;24010
2765331;Zoning;7578283;20200227093120;W03-C-Knokke-Heist-FH06;7578283;20200227093120;W03-C-Knokke-Heist-FH06;19897;FTTH-Cu;;29312496;20200306134159;;33860000;24010
2765332;Zoning;7578283;20200227093120;W03-C-Knokke-Heist-FH06;7578283;20200227093120;W03-C-Knokke-Heist-FH06;19897;FTTH-Cu;;29312497;20200322114958;;33860000;24010
2765333;Zoning;7578283;20200227093120;W03-C-Knokke-Heist-FH06;7578283;20200227093120;W03-C-Knokke-Heist-FH06;19897;FTTH-Cu;;29312498;20200306134159;;33860000;24010
4344129;Zoning;7578283;20200227093120;W03-C-Knokke-Heist-FH06;7578283;20200227093120;W03-C-Knokke-Heist-FH06;19897;FTTH-Cu;;31239241;20200322114947;;33860000;24010
2765335;Zoning;7578283;20200227093120;W03-C-Knokke-Heist-FH06;7578283;20200227093120;W03-C-Knokke-Heist-FH06;19897;FTTH-Cu;;29312499;20200306134159;;33860000;24010
2765336;Zoning;7578283;20200227093120;W03-C-Knokke-Heist-FH06;7578283;20200227093120;W03-C-Knokke-Heist-FH06;19897;FTTH-Cu;;29312500;20200322115005;;33860000;24010
2765338;Zoning;7578283;20200227093120;W03-C-Knokke-Heist-FH06;7578283;20200227093120;W03-C-Knokke-Heist-FH06;19897;FTTH-Cu;;29312501;20200306134159;;33860000;24010
3939642;Zoning;7578283;20200227093120;W03-C-Knokke-Heist-FH06;7578283;20200227093120;W03-C-Knokke-Heist-FH06;19897;FTTH-Cu;;29312676;20200306134151;;33860000;24010
2765340;Zoning;7578283;20200227093120;W03-C-Knokke-Heist-FH06;7578283;20200227093120;W03-C-Knokke-Heist-FH06;19897;FTTH-Cu;;29312502;20200306134159;;33860000;24010
2765342;Zoning;7578283;20200227093120;W03-C-Knokke-Heist-FH06;7578283;20200227093120;W03-C-Knokke-Heist-FH06;19897;FTTH-Cu;;29312503;20200322114920;;33860000;24010
337336;Zoning;7578283;20200227093120;W03-C-Knokke-Heist-FH06;7578283;20200227093120;W03-C-Knokke-Heist-FH06;19897;FTTH-Cu;;29312646;20200306134147;;33860000;24010
2765352;Zoning;7578283;20200227093120;W03-C-Knokke-Heist-FH06;7578283;20200227093120;W03-C-Knokke-Heist-FH06;19897;FTTH-Cu;;29312504;20200306134159;;33860000;24010
337333;Zoning;7578283;20200227093120;W03-C-Knokke-Heist-FH06;7578283;20200227093120;W03-C-Knokke-Heist-FH06;19897;FTTH-Cu;;31239339;20200322112231;;33860000;24010
2765353;Zoning;7578283;20200227093120;W03-C-Knokke-Heist-FH06;7578283;20200227093120;W03-C-Knokke-Heist-FH06;19897;FTTH-Cu;;29312505;20200306134159;;33860000;24010
2765355;Zoning;7578283;20200227093120;W03-C-Knokke-Heist-FH06;7578283;20200227093120;W03-C-Knokke-Heist-FH06;19897;FTTH-Cu;;29312506;20200306134159;;33860000;24010
4032032;Zoning;7578283;20200227093120;W03-C-Knokke-Heist-FH06;7578283;20200227093120;W03-C-Knokke-Heist-FH06;19897;FTTH-Cu;;29312678;20200306134151;;33860000;24010
337814;Zoning;7578283;20200227093120;W03-C-Knokke-Heist-FH06;7578283;20200227093120;W03-C-Knokke-Heist-FH06;19897;FTTH-Cu;;29312662;20200306134150;;33860000;24010
6436632;Zoning;7578283;20200227093120;W03-C-Knokke-Heist-FH06;7578283;20200227093120;W03-C-Knokke-Heist-FH06;19897;FTTH-Cu;;31239340;20200322110820;;33860000;24010
13070;Zoning;7578283;20200227093120;W03-C-Knokke-Heist-FH06;7578283;20200227093120;W03-C-Knokke-Heist-FH06;19897;FTTH-Cu;;29312292;20200322110357;;33860000;24010
2765356;Zoning;7578283;20200227093120;W03-C-Knokke-Heist-FH06;7578283;20200227093120;W03-C-Knokke-Heist-FH06;19897;FTTH-Cu;;29312507;20200322110337;;33860000;24010
2765360;Zoning;7578283;20200227093120;W03-C-Knokke-Heist-FH06;7578283;20200227093120;W03-C-Knokke-Heist-FH06;19897;FTTH-Cu;;29312508;20200322110316;;33860000;24010
337228;Zoning;7578283;20200227093120;W03-C-Knokke-Heist-FH06;7578283;20200227093120;W03-C-Knokke-Heist-FH06;19897;FTTH-Cu;;29312629;20200306134143;;33860000;24010
2765366;Zoning;7578283;20200227093120;W03-C-Knokke-Heist-FH06;7578283;20200227093120;W03-C-Knokke-Heist-FH06;19897;FTTH-Cu;;1801998;20200322110258;;33860000;24010
2765371;Zoning;7578283;20200227093120;W03-C-Knokke-Heist-FH06;7578283;20200227093120;W03-C-Knokke-Heist-FH06;19897;FTTH-Cu;;29312509;20200306134200;;33860000;24010
2765372;Zoning;7578283;20200227093120;W03-C-Knokke-Heist-FH06;7578283;20200227093120;W03-C-Knokke-Heist-FH06;19897;FTTH-Cu;;29312510;20200306134200;;33860000;24010
2765377;Zoning;7578283;20200227093120;W03-C-Knokke-Heist-FH06;7578283;20200227093120;W03-C-Knokke-Heist-FH06;19897;FTTH-Cu;;29312511;20200322110159;;33860000;24010
6025621;Zoning;7578283;20200227093120;W03-C-Knokke-Heist-FH06;7578283;20200227093120;W03-C-Knokke-Heist-FH06;19897;FTTH-Cu;;31239341;20200306134134;;33860000;24010
2765380;Zoning;7578283;20200227093120;W03-C-Knokke-Heist-FH06;7578283;20200227093120;W03-C-Knokke-Heist-FH06;19897;FTTH-Cu;;1802002;20200322110148;;33860000;24010
2765856;Zoning;7578283;20200227093120;W03-C-Knokke-Heist-FH06;7578283;20200227093120;W03-C-Knokke-Heist-FH06;19897;FTTH-Cu;;29312512;20200306134200;;33860000;26805
2766723;Zoning;7578283;20200227093120;W03-C-Knokke-Heist-FH06;7578283;20200227093120;W03-C-Knokke-Heist-FH06;19897;FTTH-Cu;;29312514;20200306134200;;33860000;29712
317798;Zoning;7578283;20200227093120;W03-C-Knokke-Heist-FH06;7578283;20200227093120;W03-C-Knokke-Heist-FH06;19897;FTTH-Cu;;29312541;20200306134140;;33860000;29712
5579558;Zoning;7578283;20200227093120;W03-C-Knokke-Heist-FH06;7578283;20200227093120;W03-C-Knokke-Heist-FH06;19897;FTTH-Cu;;29312706;20200306134155;;33860000;29712
2766730;Zoning;7578283;20200227093120;W03-C-Knokke-Heist-FH06;7578283;20200227093120;W03-C-Knokke-Heist-FH06;19897;FTTH-Cu;;29312515;20200306134138;;33860000;29712
2766733;Zoning;7578283;20200227093120;W03-C-Knokke-Heist-FH06;7578283;20200227093120;W03-C-Knokke-Heist-FH06;19897;FTTH-Cu;;29312516;20200306134138;;33860000;29712
1320090;Zoning;7578283;20200227093120;W03-C-Knokke-Heist-FH06;7578283;20200227093120;W03-C-Knokke-Heist-FH06;19897;FTTH-Cu;;29312295;20200306134144;;33860000;29712
2766736;Zoning;7578283;20200227093120;W03-C-Knokke-Heist-FH06;7578283;20200227093120;W03-C-Knokke-Heist-FH06;19897;FTTH-Cu;;29312518;20200306134139;;33860000;29712
2766738;Zoning;7578283;20200227093120;W03-C-Knokke-Heist-FH06;7578283;20200227093120;W03-C-Knokke-Heist-FH06;19897;FTTH-Cu;;29312519;20200306134139;;33860000;29712
2766742;Zoning;7578283;20200227093120;W03-C-Knokke-Heist-FH06;7578283;20200227093120;W03-C-Knokke-Heist-FH06;19897;FTTH-Cu;;29312520;20200306134139;;33860000;29712
2766744;Zoning;7578283;20200227093120;W03-C-Knokke-Heist-FH06;7578283;20200227093120;W03-C-Knokke-Heist-FH06;19897;FTTH-Cu;;29312521;20200306134139;;33860000;29712
2766746;Zoning;7578283;20200227093120;W03-C-Knokke-Heist-FH06;7578283;20200227093120;W03-C-Knokke-Heist-FH06;19897;FTTH-Cu;;29312522;20200306134139;;33860000;29712
2766747;Zoning;7578283;20200227093120;W03-C-Knokke-Heist-FH06;7578283;20200227093120;W03-C-Knokke-Heist-FH06;19897;FTTH-Cu;;31239344;20200306134134;;33860000;29712
2766748;Zoning;7578283;20200227093120;W03-C-Knokke-Heist-FH06;7578283;20200227093120;W03-C-Knokke-Heist-FH06;19897;FTTH-Cu;;29312523;20200306134139;;33860000;29712
317799;Zoning;7578283;20200227093120;W03-C-Knokke-Heist-FH06;7578283;20200227093120;W03-C-Knokke-Heist-FH06;19897;FTTH-Cu;;29312544;20200306134140;;33860000;29712
337226;Zoning;7578283;20200227093120;W03-C-Knokke-Heist-FH06;7578283;20200227093120;W03-C-Knokke-Heist-FH06;19897;FTTH-Cu;;29312627;20200322111243;;33860000;7893
337810;Zoning;7578283;20200227093120;W03-C-Knokke-Heist-FH06;7578283;20200227093120;W03-C-Knokke-Heist-FH06;19897;FTTH-Cu;;29312659;20200322121636;;33860000;7893
5579349;Zoning;7578283;20200227093120;W03-C-Knokke-Heist-FH06;7578283;20200227093120;W03-C-Knokke-Heist-FH06;19897;FTTH-Cu;;31239346;20200322111252;;33860000;7893
5579350;Zoning;7578283;20200227093120;W03-C-Knokke-Heist-FH06;7578283;20200227093120;W03-C-Knokke-Heist-FH06;19897;FTTH-Cu;;29312702;20200322121627;;33860000;7893
4344279;Zoning;7578283;20200227093120;W03-C-Knokke-Heist-FH06;7578283;20200227093120;W03-C-Knokke-Heist-FH06;19897;FTTH-Cu;;29312690;20200322111050;;33860000;7893
2759385;Zoning;7578283;20200227093120;W03-C-Knokke-Heist-FH06;7578283;20200227093120;W03-C-Knokke-Heist-FH06;19897;FTTH-Cu;;29312323;20200306134146;;33860000;7893
2759387;Zoning;7578283;20200227093120;W03-C-Knokke-Heist-FH06;7578283;20200227093120;W03-C-Knokke-Heist-FH06;19897;FTTH-Cu;;29312324;20200322110948;;33860000;7893
2759388;Zoning;7578283;20200227093120;W03-C-Knokke-Heist-FH06;7578283;20200227093120;W03-C-Knokke-Heist-FH06;19897;FTTH-Cu;;29312325;20200306134146;;33860000;7893
337227;Zoning;7578283;20200227093120;W03-C-Knokke-Heist-FH06;7578283;20200227093120;W03-C-Knokke-Heist-FH06;19897;FTTH-Cu;;29312628;20200322110956;;33860000;7893
2759389;Zoning;7578283;20200227093120;W03-C-Knokke-Heist-FH06;7578283;20200227093120;W03-C-Knokke-Heist-FH06;19897;FTTH-Cu;;29312326;20200322121719;;33860000;7893
4344281;Zoning;7578283;20200227093120;W03-C-Knokke-Heist-FH06;7578283;20200227093120;W03-C-Knokke-Heist-FH06;19897;FTTH-Cu;;29312691;20200322110931;;33860000;7893
4344119;Zoning;7578283;20200227093120;W03-C-Knokke-Heist-FH06;7578283;20200227093120;W03-C-Knokke-Heist-FH06;19897;FTTH-Cu;;31239349;20200322121654;;33860000;7893
2759391;Zoning;7578283;20200227093120;W03-C-Knokke-Heist-FH06;7578283;20200227093120;W03-C-Knokke-Heist-FH06;19897;FTTH-Cu;;31239351;20200322111118;;33860000;7893
2759392;Zoning;7578283;20200227093120;W03-C-Knokke-Heist-FH06;7578283;20200227093120;W03-C-Knokke-Heist-FH06;19897;FTTH-Cu;;29312327;20200306134146;;33860000;7893
2759395;Zoning;7578283;20200227093120;W03-C-Knokke-Heist-FH06;7578283;20200227093120;W03-C-Knokke-Heist-FH06;19897;FTTH-Cu;;29312328;20200306134146;;33860000;7893
2759396;Zoning;7578283;20200227093120;W03-C-Knokke-Heist-FH06;7578283;20200227093120;W03-C-Knokke-Heist-FH06;19897;FTTH-Cu;;31239441;20200306134134;;33860000;7893
2759397;Zoning;7578283;20200227093120;W03-C-Knokke-Heist-FH06;7578283;20200227093120;W03-C-Knokke-Heist-FH06;19897;FTTH-Cu;;29312329;20200306134146;;33860000;7893
2759398;Zoning;7578283;20200227093120;W03-C-Knokke-Heist-FH06;7578283;20200227093120;W03-C-Knokke-Heist-FH06;19897;FTTH-Cu;;29312330;20200306134146;;33860000;7893
2759400;Zoning;7578283;20200227093120;W03-C-Knokke-Heist-FH06;7578283;20200227093120;W03-C-Knokke-Heist-FH06;19897;FTTH-Cu;;29312331;20200306134146;;33860000;7893
2759401;Zoning;7578283;20200227093120;W03-C-Knokke-Heist-FH06;7578283;20200227093120;W03-C-Knokke-Heist-FH06;19897;FTTH-Cu;;29312332;20200306134146;;33860000;7893
4344284;Zoning;7578283;20200227093120;W03-C-Knokke-Heist-FH06;7578283;20200227093120;W03-C-Knokke-Heist-FH06;19897;FTTH-Cu;;29312692;20200306134154;;33860000;7893
2759402;Zoning;7578283;20200227093120;W03-C-Knokke-Heist-FH06;7578283;20200227093120;W03-C-Knokke-Heist-FH06;19897;FTTH-Cu;;29312333;20200322121848;;33860000;7893
2759404;Zoning;7578283;20200227093120;W03-C-Knokke-Heist-FH06;7578283;20200227093120;W03-C-Knokke-Heist-FH06;19897;FTTH-Cu;;29312334;20200306134146;;33860000;7893
4344120;Zoning;7578283;20200227093120;W03-C-Knokke-Heist-FH06;7578283;20200227093120;W03-C-Knokke-Heist-FH06;19897;FTTH-Cu;;31239444;20200322121948;;33860000;7893
2759405;Zoning;7578283;20200227093120;W03-C-Knokke-Heist-FH06;7578283;20200227093120;W03-C-Knokke-Heist-FH06;19897;FTTH-Cu;;29312335;20200306134147;;33860000;7893
2759406;Zoning;7578283;20200227093120;W03-C-Knokke-Heist-FH06;7578283;20200227093120;W03-C-Knokke-Heist-FH06;19897;FTTH-Cu;;29312336;20200306134147;;33860000;7893
2759407;Zoning;7578283;20200227093120;W03-C-Knokke-Heist-FH06;7578283;20200227093120;W03-C-Knokke-Heist-FH06;19897;FTTH-Cu;;31239446;20200306134135;;33860000;7893
2759408;Zoning;7578283;20200227093120;W03-C-Knokke-Heist-FH06;7578283;20200227093120;W03-C-Knokke-Heist-FH06;19897;FTTH-Cu;;29312337;20200306134147;;33860000;7893
2759409;Zoning;7578283;20200227093120;W03-C-Knokke-Heist-FH06;7578283;20200227093120;W03-C-Knokke-Heist-FH06;19897;FTTH-Cu;;31239451;20200306134135;;33860000;7893
2759410;Zoning;7578283;20200227093120;W03-C-Knokke-Heist-FH06;7578283;20200227093120;W03-C-Knokke-Heist-FH06;19897;FTTH-Cu;;29312338;20200306134147;;33860000;7893
4344121;Zoning;7578283;20200227093120;W03-C-Knokke-Heist-FH06;7578283;20200227093120;W03-C-Knokke-Heist-FH06;19897;FTTH-Cu;;31239453;20200306134135;;33860000;7893
2759412;Zoning;7578283;20200227093120;W03-C-Knokke-Heist-FH06;7578283;20200227093120;W03-C-Knokke-Heist-FH06;19897;FTTH-Cu;;29312339;20200306134147;;33860000;7893
1389515;Zoning;7578283;20200227093120;W03-C-Knokke-Heist-FH06;7578283;20200227093120;W03-C-Knokke-Heist-FH06;19897;FTTH-Cu;;29312301;20200306134145;;33860000;7893
2759415;Zoning;7578283;20200227093120;W03-C-Knokke-Heist-FH06;7578283;20200227093120;W03-C-Knokke-Heist-FH06;19897;FTTH-Cu;;31239455;20200306134135;;33860000;7893
2759416;Zoning;7578283;20200227093120;W03-C-Knokke-Heist-FH06;7578283;20200227093120;W03-C-Knokke-Heist-FH06;19897;FTTH-Cu;;31239456;20200322122003;;33860000;7893
2759417;Zoning;7578283;20200227093120;W03-C-Knokke-Heist-FH06;7578283;20200227093120;W03-C-Knokke-Heist-FH06;19897;FTTH-Cu;;29312340;20200306134147;;33860000;7893
337809;Zoning;7578283;20200227093120;W03-C-Knokke-Heist-FH06;7578283;20200227093120;W03-C-Knokke-Heist-FH06;19897;FTTH-Cu;;29312658;20200306134150;;33860000;7893
337225;Zoning;7578283;20200227093120;W03-C-Knokke-Heist-FH06;7578283;20200227093120;W03-C-Knokke-Heist-FH06;19897;FTTH-Cu;;29312626;20200306134143;;33860000;7893
4344124;Zoning;7578283;20200227093120;W03-C-Knokke-Heist-FH06;7578283;20200227093120;W03-C-Knokke-Heist-FH06;19897;FTTH-Cu;;29312683;20200322122011;;33860000;7893
337332;Zoning;7578283;20200227093120;W03-C-Knokke-Heist-FH06;7578283;20200227093120;W03-C-Knokke-Heist-FH06;19897;FTTH-Cu;;29312645;20200322112851;;33860000;7893
5831123;Zoning;7578283;20200227093120;W03-C-Knokke-Heist-FH06;7578283;20200227093120;W03-C-Knokke-Heist-FH06;19897;FTTH-Cu;;29312711;20200322112844;;33860000;7893
2759423;Zoning;7578283;20200227093120;W03-C-Knokke-Heist-FH06;7578283;20200227093120;W03-C-Knokke-Heist-FH06;19897;FTTH-Cu;;29312341;20200306134147;;33860000;7893
337848;Zoning;7578283;20200227093120;W03-C-Knokke-Heist-FH06;7578283;20200227093120;W03-C-Knokke-Heist-FH06;19897;FTTH-Cu;;1807209;20200322113707;;33860000;7893
2759428;Zoning;7578283;20200227093120;W03-C-Knokke-Heist-FH06;7578283;20200227093120;W03-C-Knokke-Heist-FH06;19897;FTTH-Cu;;1798948;20200306134129;;33860000;7893
2759429;Zoning;7578283;20200227093120;W03-C-Knokke-Heist-FH06;7578283;20200227093120;W03-C-Knokke-Heist-FH06;19897;FTTH-Cu;;29312342;20200306134147;;33860000;7893
5697759;Zoning;7578283;20200227093120;W03-C-Knokke-Heist-FH06;7578283;20200227093120;W03-C-Knokke-Heist-FH06;19897;FTTH-Cu;;29312709;20200306134155;;33860000;7893
13072;Zoning;7578283;20200227093120;W03-C-Knokke-Heist-FH06;7578283;20200227093120;W03-C-Knokke-Heist-FH06;19897;FTTH-Cu;;29312293;20200306134144;;33860000;7893
4257228;Zoning;7578283;20200227093120;W03-C-Knokke-Heist-FH06;7578283;20200227093120;W03-C-Knokke-Heist-FH06;19897;FTTH-Cu;;29312679;20200322114504;;33860000;7893
2759434;Zoning;7578283;20200227093120;W03-C-Knokke-Heist-FH06;7578283;20200227093120;W03-C-Knokke-Heist-FH06;19897;FTTH-Cu;;31239459;20200322114449;;33860000;7893
4344096;Zoning;7578283;20200227093120;W03-C-Knokke-Heist-FH06;7578283;20200227093120;W03-C-Knokke-Heist-FH06;19897;FTTH-Cu;;31239465;20200322114440;;33860000;7893
337849;Zoning;7578283;20200227093120;W03-C-Knokke-Heist-FH06;7578283;20200227093120;W03-C-Knokke-Heist-FH06;19897;FTTH-Cu;;29312668;20200322114327;;33860000;7893
337847;Zoning;7578283;20200227093120;W03-C-Knokke-Heist-FH06;7578283;20200227093120;W03-C-Knokke-Heist-FH06;19897;FTTH-Cu;;29312667;20200322114338;;33860000;7893
2757656;Zoning;7578283;20200227093120;W03-C-Knokke-Heist-FH06;7578283;20200227093120;W03-C-Knokke-Heist-FH06;19897;FTTH-Cu;;31238999;20200306134131;;33860000;453
317824;Zoning;7578283;20200227093120;W03-C-Knokke-Heist-FH06;7578283;20200227093120;W03-C-Knokke-Heist-FH06;19897;FTTH-Cu;;31239003;20200306134131;;33860000;453
317823;Zoning;7578283;20200227093120;W03-C-Knokke-Heist-FH06;7578283;20200227093120;W03-C-Knokke-Heist-FH06;19897;FTTH-Cu;;31239004;20200306134131;;33860000;453
2757657;Zoning;7578283;20200227093120;W03-C-Knokke-Heist-FH06;7578283;20200227093120;W03-C-Knokke-Heist-FH06;19897;FTTH-Cu;;31239008;20200306134131;;33860000;453
317822;Zoning;7578283;20200227093120;W03-C-Knokke-Heist-FH06;7578283;20200227093120;W03-C-Knokke-Heist-FH06;19897;FTTH-Cu;;31239544;20200306134135;;33860000;453
5579247;Zoning;7578283;20200227093120;W03-C-Knokke-Heist-FH06;7578283;20200227093120;W03-C-Knokke-Heist-FH06;19897;FTTH-Cu;;31239548;20200306134135;;33860000;453
317821;Zoning;7578283;20200227093120;W03-C-Knokke-Heist-FH06;7578283;20200227093120;W03-C-Knokke-Heist-FH06;19897;FTTH-Cu;;31239549;20200306134135;;33860000;453
5579248;Zoning;7578283;20200227093120;W03-C-Knokke-Heist-FH06;7578283;20200227093120;W03-C-Knokke-Heist-FH06;19897;FTTH-Cu;;31239550;20200306134135;;33860000;453
317828;Zoning;7578283;20200227093120;W03-C-Knokke-Heist-FH06;7578283;20200227093120;W03-C-Knokke-Heist-FH06;19897;FTTH-Cu;;31240644;20200306134131;;33860000;453
317826;Zoning;7578283;20200227093120;W03-C-Knokke-Heist-FH06;7578283;20200227093120;W03-C-Knokke-Heist-FH06;19897;FTTH-Cu;;31239013;20200306134131;;33860000;453
317827;Zoning;7578283;20200227093120;W03-C-Knokke-Heist-FH06;7578283;20200227093120;W03-C-Knokke-Heist-FH06;19897;FTTH-Cu;;31239551;20200306134135;;33860000;453
5579249;Zoning;7578283;20200227093120;W03-C-Knokke-Heist-FH06;7578283;20200227093120;W03-C-Knokke-Heist-FH06;19897;FTTH-Cu;;31239552;20200322100625;;33860000;453
2757666;Zoning;7578283;20200227093120;W03-C-Knokke-Heist-FH06;7578283;20200227093120;W03-C-Knokke-Heist-FH06;19897;FTTH-Cu;;31239553;20200306134136;;33860000;453
2757667;Zoning;7578283;20200227093120;W03-C-Knokke-Heist-FH06;7578283;20200227093120;W03-C-Knokke-Heist-FH06;19897;FTTH-Cu;;31239555;20200306134136;;33860000;453
317829;Zoning;7578283;20200227093120;W03-C-Knokke-Heist-FH06;7578283;20200227093120;W03-C-Knokke-Heist-FH06;19897;FTTH-Cu;;31239572;20200306134136;;33860000;453
318435;Zoning;7578283;20200227093120;W03-C-Knokke-Heist-FH06;7578283;20200227093120;W03-C-Knokke-Heist-FH06;19897;FTTH-Cu;;31239593;20200306134136;;33860000;453
318437;Zoning;7578283;20200227093120;W03-C-Knokke-Heist-FH06;7578283;20200227093120;W03-C-Knokke-Heist-FH06;19897;FTTH-Cu;;31239594;20200306134136;;33860000;453
1320279;Zoning;7578283;20200227093120;W03-C-Knokke-Heist-FH06;7578283;20200227093120;W03-C-Knokke-Heist-FH06;19897;FTTH-Cu;;31239598;20200306134136;;33860000;453
6389864;Zoning;7578283;20200227093120;W03-C-Knokke-Heist-FH06;7578283;20200227093120;W03-C-Knokke-Heist-FH06;19897;FTTH-Cu;;31239603;20200306134136;;33860000;453
2757670;Zoning;7578283;20200227093120;W03-C-Knokke-Heist-FH06;7578283;20200227093120;W03-C-Knokke-Heist-FH06;19897;FTTH-Cu;;31239605;20200306134136;;33860000;453
318436;Zoning;7578283;20200227093120;W03-C-Knokke-Heist-FH06;7578283;20200227093120;W03-C-Knokke-Heist-FH06;19897;FTTH-Cu;;31239611;20200306134136;;33860000;453
2757672;Zoning;7578283;20200227093120;W03-C-Knokke-Heist-FH06;7578283;20200227093120;W03-C-Knokke-Heist-FH06;19897;FTTH-Cu;;31239663;20200322101037;;33860000;453
5579250;Zoning;7578283;20200227093120;W03-C-Knokke-Heist-FH06;7578283;20200227093120;W03-C-Knokke-Heist-FH06;19897;FTTH-Cu;;31239668;20200322101028;;33860000;453
318438;Zoning;7578283;20200227093120;W03-C-Knokke-Heist-FH06;7578283;20200227093120;W03-C-Knokke-Heist-FH06;19897;FTTH-Cu;;31239674;20200306134136;;33860000;453
1519814;Zoning;7578283;20200227093120;W03-C-Knokke-Heist-FH06;7578283;20200227093120;W03-C-Knokke-Heist-FH06;19897;FTTH-Cu;;31239676;20200322101548;;33860000;453
5579253;Zoning;7578283;20200227093120;W03-C-Knokke-Heist-FH06;7578283;20200227093120;W03-C-Knokke-Heist-FH06;19897;FTTH-Cu;;31239678;20200322101536;;33860000;453
319261;Zoning;7578283;20200227093120;W03-C-Knokke-Heist-FH06;7578283;20200227093120;W03-C-Knokke-Heist-FH06;19897;FTTH-Cu;;31239680;20200306134136;;33860000;453
2757680;Zoning;7578283;20200227093120;W03-C-Knokke-Heist-FH06;7578283;20200227093120;W03-C-Knokke-Heist-FH06;19897;FTTH-Cu;;31239689;20200322101813;;33860000;453
2757682;Zoning;7578283;20200227093120;W03-C-Knokke-Heist-FH06;7578283;20200227093120;W03-C-Knokke-Heist-FH06;19897;FTTH-Cu;;31239841;20200322101720;;33860000;453
4347398;Zoning;7578283;20200227093120;W03-C-Knokke-Heist-FH06;7578283;20200227093120;W03-C-Knokke-Heist-FH06;19897;FTTH-Cu;;31239843;20200322101752;;33860000;453
319260;Zoning;7578283;20200227093120;W03-C-Knokke-Heist-FH06;7578283;20200227093120;W03-C-Knokke-Heist-FH06;19897;FTTH-Cu;;31239845;20200322102521;;33860000;453
2757685;Zoning;7578283;20200227093120;W03-C-Knokke-Heist-FH06;7578283;20200227093120;W03-C-Knokke-Heist-FH06;19897;FTTH-Cu;;31239862;20200322102509;;33860000;453
2757686;Zoning;7578283;20200227093120;W03-C-Knokke-Heist-FH06;7578283;20200227093120;W03-C-Knokke-Heist-FH06;19897;FTTH-Cu;;31239878;20200322102351;;33860000;453
2757687;Zoning;7578283;20200227093120;W03-C-Knokke-Heist-FH06;7578283;20200227093120;W03-C-Knokke-Heist-FH06;19897;FTTH-Cu;;31239881;20200322102341;;33860000;453
1438861;Zoning;7578283;20200227093120;W03-C-Knokke-Heist-FH06;7578283;20200227093120;W03-C-Knokke-Heist-FH06;19897;FTTH-Cu;;31239883;20200322102330;;33860000;453
5579254;Zoning;7578283;20200227093120;W03-C-Knokke-Heist-FH06;7578283;20200227093120;W03-C-Knokke-Heist-FH06;19897;FTTH-Cu;;31240666;20200322102314;;33860000;453
2757689;Zoning;7578283;20200227093120;W03-C-Knokke-Heist-FH06;7578283;20200227093120;W03-C-Knokke-Heist-FH06;19897;FTTH-Cu;;31239890;20200306134137;;33860000;453
2757690;Zoning;7578283;20200227093120;W03-C-Knokke-Heist-FH06;7578283;20200227093120;W03-C-Knokke-Heist-FH06;19897;FTTH-Cu;;31239893;20200306134137;;33860000;453
319259;Zoning;7578283;20200227093120;W03-C-Knokke-Heist-FH06;7578283;20200227093120;W03-C-Knokke-Heist-FH06;19897;FTTH-Cu;;31239917;20200306134137;;33860000;453
4347417;Zoning;7578283;20200227093120;W03-C-Knokke-Heist-FH06;7578283;20200227093120;W03-C-Knokke-Heist-FH06;19897;FTTH-Cu;;31240640;20200306134131;;33860000;453
5579255;Zoning;7578283;20200227093120;W03-C-Knokke-Heist-FH06;7578283;20200227093120;W03-C-Knokke-Heist-FH06;19897;FTTH-Cu;;31239926;20200306134137;;33860000;453
1168840;Zoning;7578283;20200227093120;W03-C-Knokke-Heist-FH06;7578283;20200227093120;W03-C-Knokke-Heist-FH06;19897;FTTH-Cu;;31239929;20200322103352;;33860000;453
319305;Zoning;7578283;20200227093120;W03-C-Knokke-Heist-FH06;7578283;20200227093120;W03-C-Knokke-Heist-FH06;19897;FTTH-Cu;;31239937;20200322103338;;33860000;453
319363;Zoning;7578283;20200227093120;W03-C-Knokke-Heist-FH06;7578283;20200227093120;W03-C-Knokke-Heist-FH06;19897;FTTH-Cu;;31239947;20200306134137;;33860000;453
319364;Zoning;7578283;20200227093120;W03-C-Knokke-Heist-FH06;7578283;20200227093120;W03-C-Knokke-Heist-FH06;19897;FTTH-Cu;;31239949;20200306134137;;33860000;453
5579257;Zoning;7578283;20200227093120;W03-C-Knokke-Heist-FH06;7578283;20200227093120;W03-C-Knokke-Heist-FH06;19897;FTTH-Cu;;31239950;20200322103651;;33860000;453
2757705;Zoning;7578283;20200227093120;W03-C-Knokke-Heist-FH06;7578283;20200227093120;W03-C-Knokke-Heist-FH06;19897;FTTH-Cu;;31239953;20200322103718;;33860000;453
2757707;Zoning;7578283;20200227093120;W03-C-Knokke-Heist-FH06;7578283;20200227093120;W03-C-Knokke-Heist-FH06;19897;FTTH-Cu;;31239955;20200306134137;;33860000;453
2757709;Zoning;7578283;20200227093120;W03-C-Knokke-Heist-FH06;7578283;20200227093120;W03-C-Knokke-Heist-FH06;19897;FTTH-Cu;;31239960;20200322103751;;33860000;453
2757710;Zoning;7578283;20200227093120;W03-C-Knokke-Heist-FH06;7578283;20200227093120;W03-C-Knokke-Heist-FH06;19897;FTTH-Cu;;31239980;20200322103742;;33860000;453
2757711;Zoning;7578283;20200227093120;W03-C-Knokke-Heist-FH06;7578283;20200227093120;W03-C-Knokke-Heist-FH06;19897;FTTH-Cu;;31240017;20200306134138;;33860000;453
2757712;Zoning;7578283;20200227093120;W03-C-Knokke-Heist-FH06;7578283;20200227093120;W03-C-Knokke-Heist-FH06;19897;FTTH-Cu;;31240074;20200322103835;;33860000;453
2757713;Zoning;7578283;20200227093120;W03-C-Knokke-Heist-FH06;7578283;20200227093120;W03-C-Knokke-Heist-FH06;19897;FTTH-Cu;;31240075;20200322103828;;33860000;453
2757714;Zoning;7578283;20200227093120;W03-C-Knokke-Heist-FH06;7578283;20200227093120;W03-C-Knokke-Heist-FH06;19897;FTTH-Cu;;31240083;20200322103848;;33860000;453
2757715;Zoning;7578283;20200227093120;W03-C-Knokke-Heist-FH06;7578283;20200227093120;W03-C-Knokke-Heist-FH06;19897;FTTH-Cu;;31240114;20200322103859;;33860000;453
2757718;Zoning;7578283;20200227093120;W03-C-Knokke-Heist-FH06;7578283;20200227093120;W03-C-Knokke-Heist-FH06;19897;FTTH-Cu;;31240116;20200322103933;;33860000;453
5579258;Zoning;7578283;20200227093120;W03-C-Knokke-Heist-FH06;7578283;20200227093120;W03-C-Knokke-Heist-FH06;19897;FTTH-Cu;;31240123;20200322103943;;33860000;453
337758;Zoning;7578283;20200227093120;W03-C-Knokke-Heist-FH06;7578283;20200227093120;W03-C-Knokke-Heist-FH06;19897;FTTH-Cu;;31240130;20200322122839;;33860000;453
2757723;Zoning;7578283;20200227093120;W03-C-Knokke-Heist-FH06;7578283;20200227093120;W03-C-Knokke-Heist-FH06;19897;FTTH-Cu;;31240132;20200322122827;;33860000;453
6389863;Zoning;7578283;20200227093120;W03-C-Knokke-Heist-FH06;7578283;20200227093120;W03-C-Knokke-Heist-FH06;19897;FTTH-Cu;;31240134;20200306134138;;33860000;453
6407944;Zoning;7578283;20200227093120;W03-C-Knokke-Heist-FH06;7578283;20200227093120;W03-C-Knokke-Heist-FH06;19897;FTTH-Cu;;31240136;20200322122918;;33860000;453
6380609;Zoning;7578283;20200227093120;W03-C-Knokke-Heist-FH06;7578283;20200227093120;W03-C-Knokke-Heist-FH06;19897;FTTH-Cu;;31240138;20200322122924;;33860000;453
2757724;Zoning;7578283;20200227093120;W03-C-Knokke-Heist-FH06;7578283;20200227093120;W03-C-Knokke-Heist-FH06;19897;FTTH-Cu;;31240139;20200322122707;;33860000;453
2757725;Zoning;7578283;20200227093120;W03-C-Knokke-Heist-FH06;7578283;20200227093120;W03-C-Knokke-Heist-FH06;19897;FTTH-Cu;;31240141;20200322122652;;33860000;453
337759;Zoning;7578283;20200227093120;W03-C-Knokke-Heist-FH06;7578283;20200227093120;W03-C-Knokke-Heist-FH06;19897;FTTH-Cu;;31240144;20200306134138;;33860000;453
337760;Zoning;7578283;20200227093120;W03-C-Knokke-Heist-FH06;7578283;20200227093120;W03-C-Knokke-Heist-FH06;19897;FTTH-Cu;;31240154;20200306134129;;33860000;453
5579260;Zoning;7578283;20200227093120;W03-C-Knokke-Heist-FH06;7578283;20200227093120;W03-C-Knokke-Heist-FH06;19897;FTTH-Cu;;31240156;20200322122512;;33860000;453
2757730;Zoning;7578283;20200227093120;W03-C-Knokke-Heist-FH06;7578283;20200227093120;W03-C-Knokke-Heist-FH06;19897;FTTH-Cu;;31240167;20200322122446;;33860000;453
2757732;Zoning;7578283;20200227093120;W03-C-Knokke-Heist-FH06;7578283;20200227093120;W03-C-Knokke-Heist-FH06;19897;FTTH-Cu;;31240220;20200322122437;;33860000;453
2757733;Zoning;7578283;20200227093120;W03-C-Knokke-Heist-FH06;7578283;20200227093120;W03-C-Knokke-Heist-FH06;19897;FTTH-Cu;;31240227;20200306134129;;33860000;453
2757737;Zoning;7578283;20200227093120;W03-C-Knokke-Heist-FH06;7578283;20200227093120;W03-C-Knokke-Heist-FH06;19897;FTTH-Cu;;31240229;20200306134130;;33860000;453
337761;Zoning;7578283;20200227093120;W03-C-Knokke-Heist-FH06;7578283;20200227093120;W03-C-Knokke-Heist-FH06;19897;FTTH-Cu;;31240232;20200306134130;;33860000;453
5579261;Zoning;7578283;20200227093120;W03-C-Knokke-Heist-FH06;7578283;20200227093120;W03-C-Knokke-Heist-FH06;19897;FTTH-Cu;;31240236;20200322120504;;33860000;453
4344133;Zoning;7578283;20200227093120;W03-C-Knokke-Heist-FH06;7578283;20200227093120;W03-C-Knokke-Heist-FH06;19897;FTTH-Cu;;31240345;20200306134130;;33860000;453
2757741;Zoning;7578283;20200227093120;W03-C-Knokke-Heist-FH06;7578283;20200227093120;W03-C-Knokke-Heist-FH06;19897;FTTH-Cu;;31240348;20200322120456;;33860000;453
337762;Zoning;7578283;20200227093120;W03-C-Knokke-Heist-FH06;7578283;20200227093120;W03-C-Knokke-Heist-FH06;19897;FTTH-Cu;;31240356;20200322120449;;33860000;453
5579262;Zoning;7578283;20200227093120;W03-C-Knokke-Heist-FH06;7578283;20200227093120;W03-C-Knokke-Heist-FH06;19897;FTTH-Cu;;31240382;20200322120441;;33860000;453
337763;Zoning;7578283;20200227093120;W03-C-Knokke-Heist-FH06;7578283;20200227093120;W03-C-Knokke-Heist-FH06;19897;FTTH-Cu;;31240383;20200322120328;;33860000;453
2757748;Zoning;7578283;20200227093120;W03-C-Knokke-Heist-FH06;7578283;20200227093120;W03-C-Knokke-Heist-FH06;19897;FTTH-Cu;;31240434;20200322120336;;33860000;453
337764;Zoning;7578283;20200227093120;W03-C-Knokke-Heist-FH06;7578283;20200227093120;W03-C-Knokke-Heist-FH06;19897;FTTH-Cu;;31240462;20200322120009;;33860000;453
5579265;Zoning;7578283;20200227093120;W03-C-Knokke-Heist-FH06;7578283;20200227093120;W03-C-Knokke-Heist-FH06;19897;FTTH-Cu;;31240463;20200322111334;;33860000;453
5573000;Zoning;7578283;20200227093120;W03-C-Knokke-Heist-FH06;7578283;20200227093120;W03-C-Knokke-Heist-FH06;19897;FTTH-Cu;;31240474;20200322111556;;33860000;453
5564766;Zoning;7578283;20200227093120;W03-C-Knokke-Heist-FH06;7578283;20200227093120;W03-C-Knokke-Heist-FH06;19897;FTTH-Cu;;31240502;20200322111946;;33860000;453
6525366;Zoning;7578283;20200227093120;W03-C-Knokke-Heist-FH06;7578283;20200227093120;W03-C-Knokke-Heist-FH06;19897;FTTH-Cu;;31240519;20200322111859;;33860000;453
2757756;Zoning;7578283;20200227093120;W03-C-Knokke-Heist-FH06;7578283;20200227093120;W03-C-Knokke-Heist-FH06;19897;FTTH-Cu;;31240522;20200322111927;;33860000;453
2757757;Zoning;7578283;20200227093120;W03-C-Knokke-Heist-FH06;7578283;20200227093120;W03-C-Knokke-Heist-FH06;19897;FTTH-Cu;;31240539;20200322111920;;33860000;453
2757759;Zoning;7578283;20200227093120;W03-C-Knokke-Heist-FH06;7578283;20200227093120;W03-C-Knokke-Heist-FH06;19897;FTTH-Cu;;31240559;20200322112040;;33860000;453
2757760;Zoning;7578283;20200227093120;W03-C-Knokke-Heist-FH06;7578283;20200227093120;W03-C-Knokke-Heist-FH06;19897;FTTH-Cu;;31240571;20200322112033;;33860000;453
2757762;Zoning;7578283;20200227093120;W03-C-Knokke-Heist-FH06;7578283;20200227093120;W03-C-Knokke-Heist-FH06;19897;FTTH-Cu;;31240576;20200306134130;;33860000;453
5579266;Zoning;7578283;20200227093120;W03-C-Knokke-Heist-FH06;7578283;20200227093120;W03-C-Knokke-Heist-FH06;19897;FTTH-Cu;;31240614;20200322105034;;33860000;453
337238;Zoning;7578283;20200227093120;W03-C-Knokke-Heist-FH06;7578283;20200227093120;W03-C-Knokke-Heist-FH06;19897;FTTH-Cu;;31240633;20200322105024;;33860000;453
337229;Zoning;7578283;20200227093120;W03-C-Knokke-Heist-FH06;7578283;20200227093120;W03-C-Knokke-Heist-FH06;19897;FTTH-Cu;;31239468;20200322104711;;33860000;16385
337230;Zoning;7578283;20200227093120;W03-C-Knokke-Heist-FH06;7578283;20200227093120;W03-C-Knokke-Heist-FH06;19897;FTTH-Cu;;29312630;20200322104849;;33860000;16385
337231;Zoning;7578283;20200227093120;W03-C-Knokke-Heist-FH06;7578283;20200227093120;W03-C-Knokke-Heist-FH06;19897;FTTH-Cu;;29312631;20200306134143;;33860000;16385
337232;Zoning;7578283;20200227093120;W03-C-Knokke-Heist-FH06;7578283;20200227093120;W03-C-Knokke-Heist-FH06;19897;FTTH-Cu;;29312633;20200306134143;;33860000;16385
1351483;Zoning;7578283;20200227093120;W03-C-Knokke-Heist-FH06;7578283;20200227093120;W03-C-Knokke-Heist-FH06;19897;FTTH-Cu;;31239480;20200306134135;;33860000;16385
2761403;Zoning;7578283;20200227093120;W03-C-Knokke-Heist-FH06;7578283;20200227093120;W03-C-Knokke-Heist-FH06;19897;FTTH-Cu;;29312354;20200322105103;;33860000;16385
2761404;Zoning;7578283;20200227093120;W03-C-Knokke-Heist-FH06;7578283;20200227093120;W03-C-Knokke-Heist-FH06;19897;FTTH-Cu;;29312357;20200306134147;;33860000;16385
2761405;Zoning;7578283;20200227093120;W03-C-Knokke-Heist-FH06;7578283;20200227093120;W03-C-Knokke-Heist-FH06;19897;FTTH-Cu;;29312358;20200306134148;;33860000;16385
2761407;Zoning;7578283;20200227093120;W03-C-Knokke-Heist-FH06;7578283;20200227093120;W03-C-Knokke-Heist-FH06;19897;FTTH-Cu;;29312359;20200322105251;;33860000;16385
2761408;Zoning;7578283;20200227093120;W03-C-Knokke-Heist-FH06;7578283;20200227093120;W03-C-Knokke-Heist-FH06;19897;FTTH-Cu;;31239485;20200322105159;;33860000;16385
2761410;Zoning;7578283;20200227093120;W03-C-Knokke-Heist-FH06;7578283;20200227093120;W03-C-Knokke-Heist-FH06;19897;FTTH-Cu;;29312360;20200322105145;;33860000;16385
2761411;Zoning;7578283;20200227093120;W03-C-Knokke-Heist-FH06;7578283;20200227093120;W03-C-Knokke-Heist-FH06;19897;FTTH-Cu;;29312361;20200322105342;;33860000;16385
2761412;Zoning;7578283;20200227093120;W03-C-Knokke-Heist-FH06;7578283;20200227093120;W03-C-Knokke-Heist-FH06;19897;FTTH-Cu;;31239488;20200322105312;;33860000;16385
2761413;Zoning;7578283;20200227093120;W03-C-Knokke-Heist-FH06;7578283;20200227093120;W03-C-Knokke-Heist-FH06;19897;FTTH-Cu;;29312362;20200322105403;;33860000;16385
4344269;Zoning;7578283;20200227093120;W03-C-Knokke-Heist-FH06;7578283;20200227093120;W03-C-Knokke-Heist-FH06;19897;FTTH-Cu;;31239537;20200306134135;;33860000;16385
337236;Zoning;7578283;20200227093120;W03-C-Knokke-Heist-FH06;7578283;20200227093120;W03-C-Knokke-Heist-FH06;19897;FTTH-Cu;;29312636;20200322105415;;33860000;16385
337237;Zoning;7578283;20200227093120;W03-C-Knokke-Heist-FH06;7578283;20200227093120;W03-C-Knokke-Heist-FH06;19897;FTTH-Cu;;29312637;20200322105422;;33860000;16385
2761415;Zoning;7578283;20200227093120;W03-C-Knokke-Heist-FH06;7578283;20200227093120;W03-C-Knokke-Heist-FH06;19897;FTTH-Cu;;29312363;20200306134148;;33860000;16385
2761416;Zoning;7578283;20200227093120;W03-C-Knokke-Heist-FH06;7578283;20200227093120;W03-C-Knokke-Heist-FH06;19897;FTTH-Cu;;29312364;20200322105442;;33860000;16385
4344251;Zoning;7578283;20200227093120;W03-C-Knokke-Heist-FH06;7578283;20200227093120;W03-C-Knokke-Heist-FH06;19897;FTTH-Cu;;29312689;20200310135208;;33860000;16385
2761418;Zoning;7578283;20200227093120;W03-C-Knokke-Heist-FH06;7578283;20200227093120;W03-C-Knokke-Heist-FH06;19897;FTTH-Cu;;31239539;20200306134135;;33860000;16385
2761423;Zoning;7578283;20200227093120;W03-C-Knokke-Heist-FH06;7578283;20200227093120;W03-C-Knokke-Heist-FH06;19897;FTTH-Cu;;29312365;20200306134148;;33860000;16385
337234;Zoning;7578283;20200227093120;W03-C-Knokke-Heist-FH06;7578283;20200227093120;W03-C-Knokke-Heist-FH06;19897;FTTH-Cu;;29312635;20200322110034;;33860000;16385
2761426;Zoning;7578283;20200227093120;W03-C-Knokke-Heist-FH06;7578283;20200227093120;W03-C-Knokke-Heist-FH06;19897;FTTH-Cu;;29312366;20200322110022;;33860000;16385
2761427;Zoning;7578283;20200227093120;W03-C-Knokke-Heist-FH06;7578283;20200227093120;W03-C-Knokke-Heist-FH06;19897;FTTH-Cu;;29312367;20200306134148;;33860000;16385
2761433;Zoning;7578283;20200227093120;W03-C-Knokke-Heist-FH06;7578283;20200227093120;W03-C-Knokke-Heist-FH06;19897;FTTH-Cu;;29312368;20200322110047;;33860000;16385
2761434;Zoning;7578283;20200227093120;W03-C-Knokke-Heist-FH06;7578283;20200227093120;W03-C-Knokke-Heist-FH06;19897;FTTH-Cu;;29312369;20200306134149;;33860000;16385
337233;Zoning;7578283;20200227093120;W03-C-Knokke-Heist-FH06;7578283;20200227093120;W03-C-Knokke-Heist-FH06;19897;FTTH-Cu;;29312634;20200322110115;;33860000;16385
5805836;Zoning;7578283;20200227093120;W03-C-Knokke-Heist-FH06;7578283;20200227093120;W03-C-Knokke-Heist-FH06;19897;FTTH-Cu;;29312710;20200322110059;;33860000;16385
337342;Zoning;7578283;20200227093120;W03-C-Knokke-Heist-FH06;7578283;20200227093120;W03-C-Knokke-Heist-FH06;19897;FTTH-Cu;;29312649;20200322112218;;33860000;16385
2761443;Zoning;7578283;20200227093120;W03-C-Knokke-Heist-FH06;7578283;20200227093120;W03-C-Knokke-Heist-FH06;19897;FTTH-Cu;;29312370;20200322112241;;33860000;16385
337344;Zoning;7578283;20200227093120;W03-C-Knokke-Heist-FH06;7578283;20200227093120;W03-C-Knokke-Heist-FH06;19897;FTTH-Cu;;31239541;20200322112248;;33860000;16385
337350;Zoning;7578283;20200227093120;W03-C-Knokke-Heist-FH06;7578283;20200227093120;W03-C-Knokke-Heist-FH06;19897;FTTH-Cu;;29312652;20200306134148;;33860000;16385
337352;Zoning;7578283;20200227093120;W03-C-Knokke-Heist-FH06;7578283;20200227093120;W03-C-Knokke-Heist-FH06;19897;FTTH-Cu;;29312653;20200306134151;;33860000;16385
337346;Zoning;7578283;20200227093120;W03-C-Knokke-Heist-FH06;7578283;20200227093120;W03-C-Knokke-Heist-FH06;19897;FTTH-Cu;;29312650;20200306134148;;33860000;16385
337348;Zoning;7578283;20200227093120;W03-C-Knokke-Heist-FH06;7578283;20200227093120;W03-C-Knokke-Heist-FH06;19897;FTTH-Cu;;29312651;20200306134148;;33860000;16385
319239;Zoning;7578283;20200227093120;W03-C-Knokke-Heist-FH06;7578283;20200227093120;W03-C-Knokke-Heist-FH06;19897;FTTH-Cu;;29312580;20200306134140;;33860000;35675
2767920;Zoning;7578283;20200227093120;W03-C-Knokke-Heist-FH06;7578283;20200227093120;W03-C-Knokke-Heist-FH06;19897;FTTH-Cu;;29312524;20200306134139;;33860000;35675
12854;Zoning;7578283;20200227093120;W03-C-Knokke-Heist-FH06;7578283;20200227093120;W03-C-Knokke-Heist-FH06;19897;FTTH-Cu;;29312289;20200306134144;;33860000;35675
320285;Zoning;7578283;20200227093120;W03-C-Knokke-Heist-FH06;7578283;20200227093120;W03-C-Knokke-Heist-FH06;19897;FTTH-Cu;;29312598;20200306134141;;33860000;35675
2767925;Zoning;7578283;20200227093120;W03-C-Knokke-Heist-FH06;7578283;20200227093120;W03-C-Knokke-Heist-FH06;19897;FTTH-Cu;;29312525;20200306134139;;33860000;35675
319246;Zoning;7578283;20200227093120;W03-C-Knokke-Heist-FH06;7578283;20200227093120;W03-C-Knokke-Heist-FH06;19897;FTTH-Cu;;1804849;20200306134129;;33860000;35675
4343356;Zoning;7578283;20200227093120;W03-C-Knokke-Heist-FH06;7578283;20200227093120;W03-C-Knokke-Heist-FH06;19897;FTTH-Cu;;29312680;20200306134154;;33860000;35675
2767928;Zoning;7578283;20200227093120;W03-C-Knokke-Heist-FH06;7578283;20200227093120;W03-C-Knokke-Heist-FH06;19897;FTTH-Cu;;29312526;20200306134139;;33860000;35675
319247;Zoning;7578283;20200227093120;W03-C-Knokke-Heist-FH06;7578283;20200227093120;W03-C-Knokke-Heist-FH06;19897;FTTH-Cu;;29312581;20200306134140;;33860000;35675
2767930;Zoning;7578283;20200227093120;W03-C-Knokke-Heist-FH06;7578283;20200227093120;W03-C-Knokke-Heist-FH06;19897;FTTH-Cu;;29312527;20200306134139;;33860000;35675
2767931;Zoning;7578283;20200227093120;W03-C-Knokke-Heist-FH06;7578283;20200227093120;W03-C-Knokke-Heist-FH06;19897;FTTH-Cu;;29312528;20200306134139;;33860000;35675
2767932;Zoning;7578283;20200227093120;W03-C-Knokke-Heist-FH06;7578283;20200227093120;W03-C-Knokke-Heist-FH06;19897;FTTH-Cu;;29312529;20200306134139;;33860000;35675
319318;Zoning;7578283;20200227093120;W03-C-Knokke-Heist-FH06;7578283;20200227093120;W03-C-Knokke-Heist-FH06;19897;FTTH-Cu;;29312592;20200306134141;;33860000;35675
319317;Zoning;7578283;20200227093120;W03-C-Knokke-Heist-FH06;7578283;20200227093120;W03-C-Knokke-Heist-FH06;19897;FTTH-Cu;;29312591;20200306134141;;33860000;35675
2767934;Zoning;7578283;20200227093120;W03-C-Knokke-Heist-FH06;7578283;20200227093120;W03-C-Knokke-Heist-FH06;19897;FTTH-Cu;;29312530;20200306134139;;33860000;35675
2767935;Zoning;7578283;20200227093120;W03-C-Knokke-Heist-FH06;7578283;20200227093120;W03-C-Knokke-Heist-FH06;19897;FTTH-Cu;;29312531;20200306134139;;33860000;35675
5579584;Zoning;7578283;20200227093120;W03-C-Knokke-Heist-FH06;7578283;20200227093120;W03-C-Knokke-Heist-FH06;19897;FTTH-Cu;;29312707;20200306134155;;33860000;35675
319355;Zoning;7578283;20200227093120;W03-C-Knokke-Heist-FH06;7578283;20200227093120;W03-C-Knokke-Heist-FH06;19897;FTTH-Cu;;29312595;20200306134141;;33860000;35836
319313;Zoning;7578283;20200227093120;W03-C-Knokke-Heist-FH06;7578283;20200227093120;W03-C-Knokke-Heist-FH06;19897;FTTH-Cu;;29312588;20200306134141;;33860000;35836
2768367;Zoning;7578283;20200227093120;W03-C-Knokke-Heist-FH06;7578283;20200227093120;W03-C-Knokke-Heist-FH06;19897;FTTH-Cu;;29312532;20200306134139;;33860000;35836
2768369;Zoning;7578283;20200227093120;W03-C-Knokke-Heist-FH06;7578283;20200227093120;W03-C-Knokke-Heist-FH06;19897;FTTH-Cu;;29312533;20200306134139;;33860000;35836
2768371;Zoning;7578283;20200227093120;W03-C-Knokke-Heist-FH06;7578283;20200227093120;W03-C-Knokke-Heist-FH06;19897;FTTH-Cu;;29312534;20200306134139;;33860000;35836
2768373;Zoning;7578283;20200227093120;W03-C-Knokke-Heist-FH06;7578283;20200227093120;W03-C-Knokke-Heist-FH06;19897;FTTH-Cu;;29312535;20200306134140;;33860000;35836
2768374;Zoning;7578283;20200227093120;W03-C-Knokke-Heist-FH06;7578283;20200227093120;W03-C-Knokke-Heist-FH06;19897;FTTH-Cu;;29312536;20200306134140;;33860000;35836
2768375;Zoning;7578283;20200227093120;W03-C-Knokke-Heist-FH06;7578283;20200227093120;W03-C-Knokke-Heist-FH06;19897;FTTH-Cu;;29312537;20200306134140;;33860000;35836
2768381;Zoning;7578283;20200227093120;W03-C-Knokke-Heist-FH06;7578283;20200227093120;W03-C-Knokke-Heist-FH06;19897;FTTH-Cu;;29312538;20200306134140;;33860000;35836
2768382;Zoning;7578283;20200227093120;W03-C-Knokke-Heist-FH06;7578283;20200227093120;W03-C-Knokke-Heist-FH06;19897;FTTH-Cu;;29312539;20200306134140;;33860000;35836
319354;Zoning;7578283;20200227093120;W03-C-Knokke-Heist-FH06;7578283;20200227093120;W03-C-Knokke-Heist-FH06;19897;FTTH-Cu;;29312594;20200306134141;;33860000;35836
319316;Zoning;7578283;20200227093120;W03-C-Knokke-Heist-FH06;7578283;20200227093120;W03-C-Knokke-Heist-FH06;19897;FTTH-Cu;;29312590;20200306134141;;33860000;35836
5579600;Zoning;7578283;20200227093120;W03-C-Knokke-Heist-FH06;7578283;20200227093120;W03-C-Knokke-Heist-FH06;19897;FTTH-Cu;;29312708;20200306134155;;33860000;35836
319314;Zoning;7578283;20200227093120;W03-C-Knokke-Heist-FH06;7578283;20200227093120;W03-C-Knokke-Heist-FH06;19897;FTTH-Cu;;29312589;20200306134141;;33860000;35836
