LAM MK;Area Type;Area FID;Area Version;Area Name;Zoning FID;Zoning Version;Zoning Name;Zoning Id;Zoning Tech;BG Version;Building FID;Building Version;BG Id;LAM City Code;LAM Street Code
2758098;Zoning;7577476;20191109094845;W03-C-Knokke-Heist-FH05;7577476;20191109094845;W03-C-Knokke-Heist-FH05;19896;FTTH-Cu;;29311931;20200323150923;;33860000;2358
4345831;Zoning;7577476;20191109094845;W03-C-Knokke-Heist-FH05;7577476;20191109094845;W03-C-Knokke-Heist-FH05;19896;FTTH-Cu;;29312183;20200218122733;;33860000;2358
337213;Zoning;7577476;20191109094845;W03-C-Knokke-Heist-FH05;7577476;20191109094845;W03-C-Knokke-Heist-FH05;19896;FTTH-Cu;;29312157;20200218122732;;33860000;2358
337212;Zoning;7577476;20191109094845;W03-C-Knokke-Heist-FH05;7577476;20191109094845;W03-C-Knokke-Heist-FH05;19896;FTTH-Cu;;29312156;20200323150923;;33860000;2358
337210;Zoning;7577476;20191109094845;W03-C-Knokke-Heist-FH05;7577476;20191109094845;W03-C-Knokke-Heist-FH05;19896;FTTH-Cu;;29312155;20200218122731;;33860000;2358
2758779;Zoning;7577476;20191109094845;W03-C-Knokke-Heist-FH05;7577476;20191109094845;W03-C-Knokke-Heist-FH05;19896;FTTH-Cu;;29311955;20200218122720;;33860000;6597
2758780;Zoning;7577476;20191109094845;W03-C-Knokke-Heist-FH05;7577476;20191109094845;W03-C-Knokke-Heist-FH05;19896;FTTH-Cu;;29311956;20200218122720;;33860000;6597
2758781;Zoning;7577476;20191109094845;W03-C-Knokke-Heist-FH05;7577476;20191109094845;W03-C-Knokke-Heist-FH05;19896;FTTH-Cu;;29311957;20200218122720;;33860000;6597
2758782;Zoning;7577476;20191109094845;W03-C-Knokke-Heist-FH05;7577476;20191109094845;W03-C-Knokke-Heist-FH05;19896;FTTH-Cu;;29311958;20200218122720;;33860000;6597
2758784;Zoning;7577476;20191109094845;W03-C-Knokke-Heist-FH05;7577476;20191109094845;W03-C-Knokke-Heist-FH05;19896;FTTH-Cu;;29311959;20200218122720;;33860000;6597
2758785;Zoning;7577476;20191109094845;W03-C-Knokke-Heist-FH05;7577476;20191109094845;W03-C-Knokke-Heist-FH05;19896;FTTH-Cu;;29311960;20200218122720;;33860000;6597
72445;Zoning;7577476;20191109094845;W03-C-Knokke-Heist-FH05;7577476;20191109094845;W03-C-Knokke-Heist-FH05;19896;FTTH-Cu;;29312211;20200218122735;;33860000;6597
72444;Zoning;7577476;20191109094845;W03-C-Knokke-Heist-FH05;7577476;20191109094845;W03-C-Knokke-Heist-FH05;19896;FTTH-Cu;;29312210;20200218122735;;33860000;6597
76545;Zoning;7577476;20191109094845;W03-C-Knokke-Heist-FH05;7577476;20191109094845;W03-C-Knokke-Heist-FH05;19896;FTTH-Cu;;29312214;20200323151219;;33860000;6597
2758790;Zoning;7577476;20191109094845;W03-C-Knokke-Heist-FH05;7577476;20191109094845;W03-C-Knokke-Heist-FH05;19896;FTTH-Cu;;29311961;20200218122720;;33860000;6597
76547;Zoning;7577476;20191109094845;W03-C-Knokke-Heist-FH05;7577476;20191109094845;W03-C-Knokke-Heist-FH05;19896;FTTH-Cu;;29312215;20200218122735;;33860000;6597
76544;Zoning;7577476;20191109094845;W03-C-Knokke-Heist-FH05;7577476;20191109094845;W03-C-Knokke-Heist-FH05;19896;FTTH-Cu;;29312213;20200218122735;;33860000;6597
335722;Zoning;7577476;20191109094845;W03-C-Knokke-Heist-FH05;7577476;20191109094845;W03-C-Knokke-Heist-FH05;19896;FTTH-Cu;;29312104;20200218122728;;33860000;6597
335721;Zoning;7577476;20191109094845;W03-C-Knokke-Heist-FH05;7577476;20191109094845;W03-C-Knokke-Heist-FH05;19896;FTTH-Cu;;29312103;20200218122728;;33860000;6597
1488876;Zoning;7577476;20191109094845;W03-C-Knokke-Heist-FH05;7577476;20191109094845;W03-C-Knokke-Heist-FH05;19896;FTTH-Cu;;29311930;20200218122736;;33860000;6597
335719;Zoning;7577476;20191109094845;W03-C-Knokke-Heist-FH05;7577476;20191109094845;W03-C-Knokke-Heist-FH05;19896;FTTH-Cu;;29312101;20200218122728;;33860000;6597
76549;Zoning;7577476;20191109094845;W03-C-Knokke-Heist-FH05;7577476;20191109094845;W03-C-Knokke-Heist-FH05;19896;FTTH-Cu;;29312216;20200218122735;;33860000;6597
335718;Zoning;7577476;20191109094845;W03-C-Knokke-Heist-FH05;7577476;20191109094845;W03-C-Knokke-Heist-FH05;19896;FTTH-Cu;;29312100;20200218122728;;33860000;6597
2758799;Zoning;7577476;20191109094845;W03-C-Knokke-Heist-FH05;7577476;20191109094845;W03-C-Knokke-Heist-FH05;19896;FTTH-Cu;;29311962;20200218122720;;33860000;6597
1343714;Zoning;7577476;20191109094845;W03-C-Knokke-Heist-FH05;7577476;20191109094845;W03-C-Knokke-Heist-FH05;19896;FTTH-Cu;;29311927;20200218122736;;33860000;6597
1327495;Zoning;7577476;20191109094845;W03-C-Knokke-Heist-FH05;7577476;20191109094845;W03-C-Knokke-Heist-FH05;19896;FTTH-Cu;;29311924;20200218122736;;33860000;6597
2758800;Zoning;7577476;20191109094845;W03-C-Knokke-Heist-FH05;7577476;20191109094845;W03-C-Knokke-Heist-FH05;19896;FTTH-Cu;;29311963;20200218122720;;33860000;6597
2758802;Zoning;7577476;20191109094845;W03-C-Knokke-Heist-FH05;7577476;20191109094845;W03-C-Knokke-Heist-FH05;19896;FTTH-Cu;;29311964;20200323151626;;33860000;6597
2758803;Zoning;7577476;20191109094845;W03-C-Knokke-Heist-FH05;7577476;20191109094845;W03-C-Knokke-Heist-FH05;19896;FTTH-Cu;;29311965;20200218122720;;33860000;6597
5579323;Zoning;7577476;20191109094845;W03-C-Knokke-Heist-FH05;7577476;20191109094845;W03-C-Knokke-Heist-FH05;19896;FTTH-Cu;;29312191;20200218122734;;33860000;6597
337041;Zoning;7577476;20191109094845;W03-C-Knokke-Heist-FH05;7577476;20191109094845;W03-C-Knokke-Heist-FH05;19896;FTTH-Cu;;1807125;20200323151638;;33860000;6597
335720;Zoning;7577476;20191109094845;W03-C-Knokke-Heist-FH05;7577476;20191109094845;W03-C-Knokke-Heist-FH05;19896;FTTH-Cu;;29312102;20200323151804;;33860000;6597
2758806;Zoning;7577476;20191109094845;W03-C-Knokke-Heist-FH05;7577476;20191109094845;W03-C-Knokke-Heist-FH05;19896;FTTH-Cu;;29311966;20200323151236;;33860000;6597
4197377;Zoning;7577476;20191109094845;W03-C-Knokke-Heist-FH05;7577476;20191109094845;W03-C-Knokke-Heist-FH05;19896;FTTH-Cu;;29312179;20200218122733;;33860000;6597
2758808;Zoning;7577476;20191109094845;W03-C-Knokke-Heist-FH05;7577476;20191109094845;W03-C-Knokke-Heist-FH05;19896;FTTH-Cu;;29311967;20200218122720;;33860000;6597
5579324;Zoning;7577476;20191109094845;W03-C-Knokke-Heist-FH05;7577476;20191109094845;W03-C-Knokke-Heist-FH05;19896;FTTH-Cu;;29312192;20200323151649;;33860000;6597
335716;Zoning;7577476;20191109094845;W03-C-Knokke-Heist-FH05;7577476;20191109094845;W03-C-Knokke-Heist-FH05;19896;FTTH-Cu;;29312099;20200323151659;;33860000;6597
335121;Zoning;7577476;20191109094845;W03-C-Knokke-Heist-FH05;7577476;20191109094845;W03-C-Knokke-Heist-FH05;19896;FTTH-Cu;;29312091;20200323151338;;33860000;7508
4275251;Zoning;7577476;20191109094845;W03-C-Knokke-Heist-FH05;7577476;20191109094845;W03-C-Knokke-Heist-FH05;19896;FTTH-Cu;;29312180;20200218122733;;33860000;7508
2758933;Zoning;7577476;20191109094845;W03-C-Knokke-Heist-FH05;7577476;20191109094845;W03-C-Knokke-Heist-FH05;19896;FTTH-Cu;;29311968;20200218122720;;33860000;7508
2758934;Zoning;7577476;20191109094845;W03-C-Knokke-Heist-FH05;7577476;20191109094845;W03-C-Knokke-Heist-FH05;19896;FTTH-Cu;;29311969;20200218122720;;33860000;7508
4345064;Zoning;7577476;20191109094845;W03-C-Knokke-Heist-FH05;7577476;20191109094845;W03-C-Knokke-Heist-FH05;19896;FTTH-Cu;;29312182;20200218122733;;33860000;7508
335122;Zoning;7577476;20191109094845;W03-C-Knokke-Heist-FH05;7577476;20191109094845;W03-C-Knokke-Heist-FH05;19896;FTTH-Cu;;29312092;20200218122728;;33860000;7508
337084;Zoning;7577476;20191109094845;W03-C-Knokke-Heist-FH05;7577476;20191109094845;W03-C-Knokke-Heist-FH05;19896;FTTH-Cu;;29312143;20200323151852;;33860000;7508
4347395;Zoning;7577476;20191109094845;W03-C-Knokke-Heist-FH05;7577476;20191109094845;W03-C-Knokke-Heist-FH05;19896;FTTH-Cu;;29312188;20200323151917;;33860000;7508
336625;Zoning;7577476;20191109094845;W03-C-Knokke-Heist-FH05;7577476;20191109094845;W03-C-Knokke-Heist-FH05;19896;FTTH-Cu;;29312115;20200218122729;;33860000;7810
1024244;Zoning;7577476;20191109094845;W03-C-Knokke-Heist-FH05;7577476;20191109094845;W03-C-Knokke-Heist-FH05;19896;FTTH-Cu;;29311917;20200218122718;;33860000;7810
336632;Zoning;7577476;20191109094845;W03-C-Knokke-Heist-FH05;7577476;20191109094845;W03-C-Knokke-Heist-FH05;19896;FTTH-Cu;;29312121;20200218122729;;33860000;7810
2759171;Zoning;7577476;20191109094845;W03-C-Knokke-Heist-FH05;7577476;20191109094845;W03-C-Knokke-Heist-FH05;19896;FTTH-Cu;;29311970;20200218122721;;33860000;7810
2759174;Zoning;7577476;20191109094845;W03-C-Knokke-Heist-FH05;7577476;20191109094845;W03-C-Knokke-Heist-FH05;19896;FTTH-Cu;;29311971;20200218122721;;33860000;7810
336633;Zoning;7577476;20191109094845;W03-C-Knokke-Heist-FH05;7577476;20191109094845;W03-C-Knokke-Heist-FH05;19896;FTTH-Cu;;29312122;20200218122730;;33860000;7810
336626;Zoning;7577476;20191109094845;W03-C-Knokke-Heist-FH05;7577476;20191109094845;W03-C-Knokke-Heist-FH05;19896;FTTH-Cu;;29312116;20200218122729;;33860000;7810
1273698;Zoning;7577476;20191109094845;W03-C-Knokke-Heist-FH05;7577476;20191109094845;W03-C-Knokke-Heist-FH05;19896;FTTH-Cu;;29311919;20200218122718;;33860000;7810
5567532;Zoning;7577476;20191109094845;W03-C-Knokke-Heist-FH05;7577476;20191109094845;W03-C-Knokke-Heist-FH05;19896;FTTH-Cu;;1809035;20190110011009;;33860000;7810
336629;Zoning;7577476;20191109094845;W03-C-Knokke-Heist-FH05;7577476;20191109094845;W03-C-Knokke-Heist-FH05;19896;FTTH-Cu;;29312118;20200218122729;;33860000;7810
2759182;Zoning;7577476;20191109094845;W03-C-Knokke-Heist-FH05;7577476;20191109094845;W03-C-Knokke-Heist-FH05;19896;FTTH-Cu;;29311972;20200218122721;;33860000;7810
2759183;Zoning;7577476;20191109094845;W03-C-Knokke-Heist-FH05;7577476;20191109094845;W03-C-Knokke-Heist-FH05;19896;FTTH-Cu;;29311973;20200218122721;;33860000;7810
4344963;Zoning;7577476;20191109094845;W03-C-Knokke-Heist-FH05;7577476;20191109094845;W03-C-Knokke-Heist-FH05;19896;FTTH-Cu;;29312181;20200218122733;;33860000;7810
336628;Zoning;7577476;20191109094845;W03-C-Knokke-Heist-FH05;7577476;20191109094845;W03-C-Knokke-Heist-FH05;19896;FTTH-Cu;;29312117;20200218122729;;33860000;7810
336630;Zoning;7577476;20191109094845;W03-C-Knokke-Heist-FH05;7577476;20191109094845;W03-C-Knokke-Heist-FH05;19896;FTTH-Cu;;29312119;20200218122729;;33860000;7810
336631;Zoning;7577476;20191109094845;W03-C-Knokke-Heist-FH05;7577476;20191109094845;W03-C-Knokke-Heist-FH05;19896;FTTH-Cu;;29312120;20200218122729;;33860000;7810
336809;Zoning;7577476;20191109094845;W03-C-Knokke-Heist-FH05;7577476;20191109094845;W03-C-Knokke-Heist-FH05;19896;FTTH-Cu;;29312134;20200218122730;;33860000;7810
2759193;Zoning;7577476;20191109094845;W03-C-Knokke-Heist-FH05;7577476;20191109094845;W03-C-Knokke-Heist-FH05;19896;FTTH-Cu;;29311974;20200218122721;;33860000;7810
336810;Zoning;7577476;20191109094845;W03-C-Knokke-Heist-FH05;7577476;20191109094845;W03-C-Knokke-Heist-FH05;19896;FTTH-Cu;;29312135;20200218122730;;33860000;7810
2759194;Zoning;7577476;20191109094845;W03-C-Knokke-Heist-FH05;7577476;20191109094845;W03-C-Knokke-Heist-FH05;19896;FTTH-Cu;;29311975;20200218122721;;33860000;7810
2759196;Zoning;7577476;20191109094845;W03-C-Knokke-Heist-FH05;7577476;20191109094845;W03-C-Knokke-Heist-FH05;19896;FTTH-Cu;;29311976;20200218122721;;33860000;7810
1327499;Zoning;7577476;20191109094845;W03-C-Knokke-Heist-FH05;7577476;20191109094845;W03-C-Knokke-Heist-FH05;19896;FTTH-Cu;;29311925;20200218122736;;33860000;7810
2759197;Zoning;7577476;20191109094845;W03-C-Knokke-Heist-FH05;7577476;20191109094845;W03-C-Knokke-Heist-FH05;19896;FTTH-Cu;;29311977;20200218122721;;33860000;7810
336808;Zoning;7577476;20191109094845;W03-C-Knokke-Heist-FH05;7577476;20191109094845;W03-C-Knokke-Heist-FH05;19896;FTTH-Cu;;29312133;20200218122730;;33860000;7810
336814;Zoning;7577476;20191109094845;W03-C-Knokke-Heist-FH05;7577476;20191109094845;W03-C-Knokke-Heist-FH05;19896;FTTH-Cu;;29312137;20200218122730;;33860000;7878
2759224;Zoning;7577476;20191109094845;W03-C-Knokke-Heist-FH05;7577476;20191109094845;W03-C-Knokke-Heist-FH05;19896;FTTH-Cu;;29311978;20200218122721;;33860000;7878
2759226;Zoning;7577476;20191109094845;W03-C-Knokke-Heist-FH05;7577476;20191109094845;W03-C-Knokke-Heist-FH05;19896;FTTH-Cu;;29311979;20200218122721;;33860000;7878
2759229;Zoning;7577476;20191109094845;W03-C-Knokke-Heist-FH05;7577476;20191109094845;W03-C-Knokke-Heist-FH05;19896;FTTH-Cu;;29311980;20200218122721;;33860000;7878
2759233;Zoning;7577476;20191109094845;W03-C-Knokke-Heist-FH05;7577476;20191109094845;W03-C-Knokke-Heist-FH05;19896;FTTH-Cu;;29311981;20200218122721;;33860000;7878
2759236;Zoning;7577476;20191109094845;W03-C-Knokke-Heist-FH05;7577476;20191109094845;W03-C-Knokke-Heist-FH05;19896;FTTH-Cu;;29311982;20200218122721;;33860000;7878
336815;Zoning;7577476;20191109094845;W03-C-Knokke-Heist-FH05;7577476;20191109094845;W03-C-Knokke-Heist-FH05;19896;FTTH-Cu;;29312138;20200218122730;;33860000;7878
2759240;Zoning;7577476;20191109094845;W03-C-Knokke-Heist-FH05;7577476;20191109094845;W03-C-Knokke-Heist-FH05;19896;FTTH-Cu;;29311983;20200218122721;;33860000;7878
2759249;Zoning;7577476;20191109094845;W03-C-Knokke-Heist-FH05;7577476;20191109094845;W03-C-Knokke-Heist-FH05;19896;FTTH-Cu;;29311984;20200218122721;;33860000;7878
2759255;Zoning;7577476;20191109094845;W03-C-Knokke-Heist-FH05;7577476;20191109094845;W03-C-Knokke-Heist-FH05;19896;FTTH-Cu;;29311985;20200218122721;;33860000;7878
336816;Zoning;7577476;20191109094845;W03-C-Knokke-Heist-FH05;7577476;20191109094845;W03-C-Knokke-Heist-FH05;19896;FTTH-Cu;;29312139;20200218122731;;33860000;7878
3923032;Zoning;7577476;20191109094845;W03-C-Knokke-Heist-FH05;7577476;20191109094845;W03-C-Knokke-Heist-FH05;19896;FTTH-Cu;;29312167;20200218122732;;33860000;7878
76555;Zoning;7577476;20191109094845;W03-C-Knokke-Heist-FH05;7577476;20191109094845;W03-C-Knokke-Heist-FH05;19896;FTTH-Cu;;29312222;20200218122736;;33860000;7878
2759279;Zoning;7577476;20191109094845;W03-C-Knokke-Heist-FH05;7577476;20191109094845;W03-C-Knokke-Heist-FH05;19896;FTTH-Cu;;29311986;20200218122721;;33860000;7878
2759281;Zoning;7577476;20191109094845;W03-C-Knokke-Heist-FH05;7577476;20191109094845;W03-C-Knokke-Heist-FH05;19896;FTTH-Cu;;29311987;20200218122722;;33860000;7878
2759284;Zoning;7577476;20191109094845;W03-C-Knokke-Heist-FH05;7577476;20191109094845;W03-C-Knokke-Heist-FH05;19896;FTTH-Cu;;29311988;20200218122722;;33860000;7878
2759287;Zoning;7577476;20191109094845;W03-C-Knokke-Heist-FH05;7577476;20191109094845;W03-C-Knokke-Heist-FH05;19896;FTTH-Cu;;29311989;20200218122722;;33860000;7878
1327500;Zoning;7577476;20191109094845;W03-C-Knokke-Heist-FH05;7577476;20191109094845;W03-C-Knokke-Heist-FH05;19896;FTTH-Cu;;29311926;20200218122736;;33860000;7878
2759288;Zoning;7577476;20191109094845;W03-C-Knokke-Heist-FH05;7577476;20191109094845;W03-C-Knokke-Heist-FH05;19896;FTTH-Cu;;29311990;20200218122722;;33860000;7878
2759290;Zoning;7577476;20191109094845;W03-C-Knokke-Heist-FH05;7577476;20191109094845;W03-C-Knokke-Heist-FH05;19896;FTTH-Cu;;29311991;20200218122722;;33860000;7878
2759294;Zoning;7577476;20191109094845;W03-C-Knokke-Heist-FH05;7577476;20191109094845;W03-C-Knokke-Heist-FH05;19896;FTTH-Cu;;29311992;20200218122722;;33860000;7878
76556;Zoning;7577476;20191109094845;W03-C-Knokke-Heist-FH05;7577476;20191109094845;W03-C-Knokke-Heist-FH05;19896;FTTH-Cu;;29312223;20200218122736;;33860000;7878
76557;Zoning;7577476;20191109094845;W03-C-Knokke-Heist-FH05;7577476;20191109094845;W03-C-Knokke-Heist-FH05;19896;FTTH-Cu;;29312224;20200218122736;;33860000;7878
2759308;Zoning;7577476;20191109094845;W03-C-Knokke-Heist-FH05;7577476;20191109094845;W03-C-Knokke-Heist-FH05;19896;FTTH-Cu;;29311993;20200218122722;;33860000;7878
2759310;Zoning;7577476;20191109094845;W03-C-Knokke-Heist-FH05;7577476;20191109094845;W03-C-Knokke-Heist-FH05;19896;FTTH-Cu;;29311994;20200218122722;;33860000;7878
2759312;Zoning;7577476;20191109094845;W03-C-Knokke-Heist-FH05;7577476;20191109094845;W03-C-Knokke-Heist-FH05;19896;FTTH-Cu;;29311995;20200218122722;;33860000;7878
335870;Zoning;7577476;20191109094845;W03-C-Knokke-Heist-FH05;7577476;20191109094845;W03-C-Knokke-Heist-FH05;19896;FTTH-Cu;;29312113;20200218122729;;33860000;7878
337048;Zoning;7577476;20191109094845;W03-C-Knokke-Heist-FH05;7577476;20191109094845;W03-C-Knokke-Heist-FH05;19896;FTTH-Cu;;29312142;20200323151745;;33860000;7878
2759320;Zoning;7577476;20191109094845;W03-C-Knokke-Heist-FH05;7577476;20191109094845;W03-C-Knokke-Heist-FH05;19896;FTTH-Cu;;29311996;20200218122722;;33860000;7878
2759327;Zoning;7577476;20191109094845;W03-C-Knokke-Heist-FH05;7577476;20191109094845;W03-C-Knokke-Heist-FH05;19896;FTTH-Cu;;29311997;20200218122722;;33860000;7878
2759329;Zoning;7577476;20191109094845;W03-C-Knokke-Heist-FH05;7577476;20191109094845;W03-C-Knokke-Heist-FH05;19896;FTTH-Cu;;29311998;20200323151745;;33860000;7878
2759333;Zoning;7577476;20191109094845;W03-C-Knokke-Heist-FH05;7577476;20191109094845;W03-C-Knokke-Heist-FH05;19896;FTTH-Cu;;29311999;20200323151745;;33860000;7878
2759336;Zoning;7577476;20191109094845;W03-C-Knokke-Heist-FH05;7577476;20191109094845;W03-C-Knokke-Heist-FH05;19896;FTTH-Cu;;29312000;20200323151745;;33860000;7878
2759338;Zoning;7577476;20191109094845;W03-C-Knokke-Heist-FH05;7577476;20191109094845;W03-C-Knokke-Heist-FH05;19896;FTTH-Cu;;29312001;20200218122722;;33860000;7878
2759340;Zoning;7577476;20191109094845;W03-C-Knokke-Heist-FH05;7577476;20191109094845;W03-C-Knokke-Heist-FH05;19896;FTTH-Cu;;29312002;20200323151745;;33860000;7878
335869;Zoning;7577476;20191109094845;W03-C-Knokke-Heist-FH05;7577476;20191109094845;W03-C-Knokke-Heist-FH05;19896;FTTH-Cu;;29312112;20200218122729;;33860000;7878
2759341;Zoning;7577476;20191109094845;W03-C-Knokke-Heist-FH05;7577476;20191109094845;W03-C-Knokke-Heist-FH05;19896;FTTH-Cu;;29312003;20200323151745;;33860000;7878
335867;Zoning;7577476;20191109094845;W03-C-Knokke-Heist-FH05;7577476;20191109094845;W03-C-Knokke-Heist-FH05;19896;FTTH-Cu;;29312110;20200218122729;;33860000;7878
2759346;Zoning;7577476;20191109094845;W03-C-Knokke-Heist-FH05;7577476;20191109094845;W03-C-Knokke-Heist-FH05;19896;FTTH-Cu;;1798921;20200218130140;;33860000;7878
3993747;Zoning;7577476;20191109094845;W03-C-Knokke-Heist-FH05;7577476;20191109094845;W03-C-Knokke-Heist-FH05;19896;FTTH-Cu;;29312175;20200218122733;;33860000;7878
335725;Zoning;7577476;20191109094845;W03-C-Knokke-Heist-FH05;7577476;20191109094845;W03-C-Knokke-Heist-FH05;19896;FTTH-Cu;;29312105;20200323151756;;33860000;7878
2759350;Zoning;7577476;20191109094845;W03-C-Knokke-Heist-FH05;7577476;20191109094845;W03-C-Knokke-Heist-FH05;19896;FTTH-Cu;;29312004;20200218122723;;33860000;7878
2759352;Zoning;7577476;20191109094845;W03-C-Knokke-Heist-FH05;7577476;20191109094845;W03-C-Knokke-Heist-FH05;19896;FTTH-Cu;;29312005;20200323151722;;33860000;7878
335868;Zoning;7577476;20191109094845;W03-C-Knokke-Heist-FH05;7577476;20191109094845;W03-C-Knokke-Heist-FH05;19896;FTTH-Cu;;29312111;20200218122729;;33860000;7878
2759353;Zoning;7577476;20191109094845;W03-C-Knokke-Heist-FH05;7577476;20191109094845;W03-C-Knokke-Heist-FH05;19896;FTTH-Cu;;29312006;20200323151722;;33860000;7878
2759358;Zoning;7577476;20191109094845;W03-C-Knokke-Heist-FH05;7577476;20191109094845;W03-C-Knokke-Heist-FH05;19896;FTTH-Cu;;29312007;20200323151722;;33860000;7878
2759360;Zoning;7577476;20191109094845;W03-C-Knokke-Heist-FH05;7577476;20191109094845;W03-C-Knokke-Heist-FH05;19896;FTTH-Cu;;29312008;20200218122723;;33860000;7878
2759362;Zoning;7577476;20191109094845;W03-C-Knokke-Heist-FH05;7577476;20191109094845;W03-C-Knokke-Heist-FH05;19896;FTTH-Cu;;29312009;20200323151722;;33860000;7878
337088;Zoning;7577476;20191109094845;W03-C-Knokke-Heist-FH05;7577476;20191109094845;W03-C-Knokke-Heist-FH05;19896;FTTH-Cu;;29312146;20200323151840;;33860000;7878
3939550;Zoning;7577476;20191109094845;W03-C-Knokke-Heist-FH05;7577476;20191109094845;W03-C-Knokke-Heist-FH05;19896;FTTH-Cu;;29312170;20200323151840;;33860000;7878
2759365;Zoning;7577476;20191109094845;W03-C-Knokke-Heist-FH05;7577476;20191109094845;W03-C-Knokke-Heist-FH05;19896;FTTH-Cu;;29312010;20200323151840;;33860000;7878
5579346;Zoning;7577476;20191109094845;W03-C-Knokke-Heist-FH05;7577476;20191109094845;W03-C-Knokke-Heist-FH05;19896;FTTH-Cu;;29312193;20200323151840;;33860000;7878
5579347;Zoning;7577476;20191109094845;W03-C-Knokke-Heist-FH05;7577476;20191109094845;W03-C-Knokke-Heist-FH05;19896;FTTH-Cu;;29312194;20200323151840;;33860000;7878
2759374;Zoning;7577476;20191109094845;W03-C-Knokke-Heist-FH05;7577476;20191109094845;W03-C-Knokke-Heist-FH05;19896;FTTH-Cu;;29312011;20200323151840;;33860000;7878
337089;Zoning;7577476;20191109094845;W03-C-Knokke-Heist-FH05;7577476;20191109094845;W03-C-Knokke-Heist-FH05;19896;FTTH-Cu;;29312147;20200323151847;;33860000;7878
2759377;Zoning;7577476;20191109094845;W03-C-Knokke-Heist-FH05;7577476;20191109094845;W03-C-Knokke-Heist-FH05;19896;FTTH-Cu;;29312012;20200323151901;;33860000;7878
5579348;Zoning;7577476;20191109094845;W03-C-Knokke-Heist-FH05;7577476;20191109094845;W03-C-Knokke-Heist-FH05;19896;FTTH-Cu;;29312195;20200323151819;;33860000;7878
336811;Zoning;7577476;20191109094845;W03-C-Knokke-Heist-FH05;7577476;20191109094845;W03-C-Knokke-Heist-FH05;19896;FTTH-Cu;;29312136;20200218122730;;33860000;21665
4346599;Zoning;7577476;20191109094845;W03-C-Knokke-Heist-FH05;7577476;20191109094845;W03-C-Knokke-Heist-FH05;19896;FTTH-Cu;;29312187;20200218122733;;33860000;21665
2763870;Zoning;7577476;20191109094845;W03-C-Knokke-Heist-FH05;7577476;20191109094845;W03-C-Knokke-Heist-FH05;19896;FTTH-Cu;;29312049;20200218122725;;33860000;21665
4153963;Zoning;7577476;20191109094845;W03-C-Knokke-Heist-FH05;7577476;20191109094845;W03-C-Knokke-Heist-FH05;19896;FTTH-Cu;;29312178;20200218122733;;33860000;21665
2763876;Zoning;7577476;20191109094845;W03-C-Knokke-Heist-FH05;7577476;20191109094845;W03-C-Knokke-Heist-FH05;19896;FTTH-Cu;;29312050;20200218122725;;33860000;21665
2763877;Zoning;7577476;20191109094845;W03-C-Knokke-Heist-FH05;7577476;20191109094845;W03-C-Knokke-Heist-FH05;19896;FTTH-Cu;;29312051;20200218122725;;33860000;21665
336636;Zoning;7577476;20191109094845;W03-C-Knokke-Heist-FH05;7577476;20191109094845;W03-C-Knokke-Heist-FH05;19896;FTTH-Cu;;29312124;20200218122730;;33860000;21665
336635;Zoning;7577476;20191109094845;W03-C-Knokke-Heist-FH05;7577476;20191109094845;W03-C-Knokke-Heist-FH05;19896;FTTH-Cu;;29312123;20200218122730;;33860000;21665
2763881;Zoning;7577476;20191109094845;W03-C-Knokke-Heist-FH05;7577476;20191109094845;W03-C-Knokke-Heist-FH05;19896;FTTH-Cu;;29312052;20200323151001;;33860000;21665
2763882;Zoning;7577476;20191109094845;W03-C-Knokke-Heist-FH05;7577476;20191109094845;W03-C-Knokke-Heist-FH05;19896;FTTH-Cu;;29312053;20200323151001;;33860000;21665
2763885;Zoning;7577476;20191109094845;W03-C-Knokke-Heist-FH05;7577476;20191109094845;W03-C-Knokke-Heist-FH05;19896;FTTH-Cu;;29312054;20200323150952;;33860000;21665
76560;Zoning;7577476;20191109094845;W03-C-Knokke-Heist-FH05;7577476;20191109094845;W03-C-Knokke-Heist-FH05;19896;FTTH-Cu;;29312227;20200218122736;;33860000;11452
72436;Zoning;7577476;20191109094845;W03-C-Knokke-Heist-FH05;7577476;20191109094845;W03-C-Knokke-Heist-FH05;19896;FTTH-Cu;;29312208;20200218122735;;33860000;11452
76559;Zoning;7577476;20191109094845;W03-C-Knokke-Heist-FH05;7577476;20191109094845;W03-C-Knokke-Heist-FH05;19896;FTTH-Cu;;29312226;20200323151220;;33860000;11452
72437;Zoning;7577476;20191109094845;W03-C-Knokke-Heist-FH05;7577476;20191109094845;W03-C-Knokke-Heist-FH05;19896;FTTH-Cu;;1809257;20190110011008;;33860000;11452
2760061;Zoning;7577476;20191109094845;W03-C-Knokke-Heist-FH05;7577476;20191109094845;W03-C-Knokke-Heist-FH05;19896;FTTH-Cu;;29312013;20200323151219;;33860000;11452
76558;Zoning;7577476;20191109094845;W03-C-Knokke-Heist-FH05;7577476;20191109094845;W03-C-Knokke-Heist-FH05;19896;FTTH-Cu;;29312225;20200323151219;;33860000;11452
337085;Zoning;7577476;20191109094845;W03-C-Knokke-Heist-FH05;7577476;20191109094845;W03-C-Knokke-Heist-FH05;19896;FTTH-Cu;;29312144;20200218122731;;33860000;13718
335715;Zoning;7577476;20191109094845;W03-C-Knokke-Heist-FH05;7577476;20191109094845;W03-C-Knokke-Heist-FH05;19896;FTTH-Cu;;29312098;20200218122728;;33860000;13718
2760529;Zoning;7577476;20191109094845;W03-C-Knokke-Heist-FH05;7577476;20191109094845;W03-C-Knokke-Heist-FH05;19896;FTTH-Cu;;29312014;20200218122723;;33860000;13718
2760531;Zoning;7577476;20191109094845;W03-C-Knokke-Heist-FH05;7577476;20191109094845;W03-C-Knokke-Heist-FH05;19896;FTTH-Cu;;29312015;20200218122723;;33860000;13718
2760532;Zoning;7577476;20191109094845;W03-C-Knokke-Heist-FH05;7577476;20191109094845;W03-C-Knokke-Heist-FH05;19896;FTTH-Cu;;29312016;20200218122723;;33860000;13718
2760534;Zoning;7577476;20191109094845;W03-C-Knokke-Heist-FH05;7577476;20191109094845;W03-C-Knokke-Heist-FH05;19896;FTTH-Cu;;29312017;20200218122723;;33860000;13718
337086;Zoning;7577476;20191109094845;W03-C-Knokke-Heist-FH05;7577476;20191109094845;W03-C-Knokke-Heist-FH05;19896;FTTH-Cu;;29312145;20200218122731;;33860000;13718
13066;Zoning;7577476;20191109094845;W03-C-Knokke-Heist-FH05;7577476;20191109094845;W03-C-Knokke-Heist-FH05;19896;FTTH-Cu;;29311923;20200218122718;;33860000;13718
2760538;Zoning;7577476;20191109094845;W03-C-Knokke-Heist-FH05;7577476;20191109094845;W03-C-Knokke-Heist-FH05;19896;FTTH-Cu;;29312018;20200218122723;;33860000;13718
2760539;Zoning;7577476;20191109094845;W03-C-Knokke-Heist-FH05;7577476;20191109094845;W03-C-Knokke-Heist-FH05;19896;FTTH-Cu;;29312019;20200218122723;;33860000;13718
2760541;Zoning;7577476;20191109094845;W03-C-Knokke-Heist-FH05;7577476;20191109094845;W03-C-Knokke-Heist-FH05;19896;FTTH-Cu;;29312020;20200218122724;;33860000;13718
335873;Zoning;7577476;20191109094845;W03-C-Knokke-Heist-FH05;7577476;20191109094845;W03-C-Knokke-Heist-FH05;19896;FTTH-Cu;;29312114;20200218122729;;33860000;13718
2760542;Zoning;7577476;20191109094845;W03-C-Knokke-Heist-FH05;7577476;20191109094845;W03-C-Knokke-Heist-FH05;19896;FTTH-Cu;;29312021;20200218122724;;33860000;13718
2760544;Zoning;7577476;20191109094845;W03-C-Knokke-Heist-FH05;7577476;20191109094845;W03-C-Knokke-Heist-FH05;19896;FTTH-Cu;;29312022;20200218122724;;33860000;13718
2760546;Zoning;7577476;20191109094845;W03-C-Knokke-Heist-FH05;7577476;20191109094845;W03-C-Knokke-Heist-FH05;19896;FTTH-Cu;;29312023;20200218122724;;33860000;13718
2760547;Zoning;7577476;20191109094845;W03-C-Knokke-Heist-FH05;7577476;20191109094845;W03-C-Knokke-Heist-FH05;19896;FTTH-Cu;;29312025;20200218122724;;33860000;13718
4346441;Zoning;7577476;20191109094845;W03-C-Knokke-Heist-FH05;7577476;20191109094845;W03-C-Knokke-Heist-FH05;19896;FTTH-Cu;;29312186;20200218122733;;33860000;13718
4009567;Zoning;7577476;20191109094845;W03-C-Knokke-Heist-FH05;7577476;20191109094845;W03-C-Knokke-Heist-FH05;19896;FTTH-Cu;;29312176;20200218122733;;33860000;13718
13052;Zoning;7577476;20191109094845;W03-C-Knokke-Heist-FH05;7577476;20191109094845;W03-C-Knokke-Heist-FH05;19896;FTTH-Cu;;29311922;20200218122718;;33860000;13718
76554;Zoning;7577476;20191109094845;W03-C-Knokke-Heist-FH05;7577476;20191109094845;W03-C-Knokke-Heist-FH05;19896;FTTH-Cu;;29312221;20200218122736;;33860000;20492
5579499;Zoning;7577476;20191109094845;W03-C-Knokke-Heist-FH05;7577476;20191109094845;W03-C-Knokke-Heist-FH05;19896;FTTH-Cu;;29312197;20200218122734;;33860000;20492
813983;Zoning;7577476;20191109094845;W03-C-Knokke-Heist-FH05;7577476;20191109094845;W03-C-Knokke-Heist-FH05;19896;FTTH-Cu;;29312228;20200218122736;;33860000;20492
2763782;Zoning;7577476;20191109094845;W03-C-Knokke-Heist-FH05;7577476;20191109094845;W03-C-Knokke-Heist-FH05;19896;FTTH-Cu;;29312043;20200218122725;;33860000;20492
3939621;Zoning;7577476;20191109094845;W03-C-Knokke-Heist-FH05;7577476;20191109094845;W03-C-Knokke-Heist-FH05;19896;FTTH-Cu;;29312171;20200218122732;;33860000;20492
336639;Zoning;7577476;20191109094845;W03-C-Knokke-Heist-FH05;7577476;20191109094845;W03-C-Knokke-Heist-FH05;19896;FTTH-Cu;;29312127;20200218122730;;33860000;20492
336638;Zoning;7577476;20191109094845;W03-C-Knokke-Heist-FH05;7577476;20191109094845;W03-C-Knokke-Heist-FH05;19896;FTTH-Cu;;29312126;20200218122732;;33860000;20492
2763784;Zoning;7577476;20191109094845;W03-C-Knokke-Heist-FH05;7577476;20191109094845;W03-C-Knokke-Heist-FH05;19896;FTTH-Cu;;29312044;20200218122725;;33860000;20492
2763785;Zoning;7577476;20191109094845;W03-C-Knokke-Heist-FH05;7577476;20191109094845;W03-C-Knokke-Heist-FH05;19896;FTTH-Cu;;29312045;20200218122725;;33860000;20492
336640;Zoning;7577476;20191109094845;W03-C-Knokke-Heist-FH05;7577476;20191109094845;W03-C-Knokke-Heist-FH05;19896;FTTH-Cu;;29312128;20200323151056;;33860000;20492
336637;Zoning;7577476;20191109094845;W03-C-Knokke-Heist-FH05;7577476;20191109094845;W03-C-Knokke-Heist-FH05;19896;FTTH-Cu;;29312125;20200218122730;;33860000;20492
2763790;Zoning;7577476;20191109094845;W03-C-Knokke-Heist-FH05;7577476;20191109094845;W03-C-Knokke-Heist-FH05;19896;FTTH-Cu;;29312046;20200218122725;;33860000;20492
2763791;Zoning;7577476;20191109094845;W03-C-Knokke-Heist-FH05;7577476;20191109094845;W03-C-Knokke-Heist-FH05;19896;FTTH-Cu;;29312047;20200218122725;;33860000;20492
3939623;Zoning;7577476;20191109094845;W03-C-Knokke-Heist-FH05;7577476;20191109094845;W03-C-Knokke-Heist-FH05;19896;FTTH-Cu;;29312172;20200218122733;;33860000;20492
2763793;Zoning;7577476;20191109094845;W03-C-Knokke-Heist-FH05;7577476;20191109094845;W03-C-Knokke-Heist-FH05;19896;FTTH-Cu;;29312048;20200218122725;;33860000;20492
72441;Zoning;7577476;20191109094845;W03-C-Knokke-Heist-FH05;7577476;20191109094845;W03-C-Knokke-Heist-FH05;19896;FTTH-Cu;;29312209;20200218122735;;33860000;20492
335854;Zoning;7577476;20191109094845;W03-C-Knokke-Heist-FH05;7577476;20191109094845;W03-C-Knokke-Heist-FH05;19896;FTTH-Cu;;29312108;20200218122729;;33860000;15183
2761150;Zoning;7577476;20191109094845;W03-C-Knokke-Heist-FH05;7577476;20191109094845;W03-C-Knokke-Heist-FH05;19896;FTTH-Cu;;29312026;20200218122724;;33860000;15183
2761151;Zoning;7577476;20191109094845;W03-C-Knokke-Heist-FH05;7577476;20191109094845;W03-C-Knokke-Heist-FH05;19896;FTTH-Cu;;29312027;20200323151346;;33860000;15183
335855;Zoning;7577476;20191109094845;W03-C-Knokke-Heist-FH05;7577476;20191109094845;W03-C-Knokke-Heist-FH05;19896;FTTH-Cu;;29312109;20200218122729;;33860000;15183
335123;Zoning;7577476;20191109094845;W03-C-Knokke-Heist-FH05;7577476;20191109094845;W03-C-Knokke-Heist-FH05;19896;FTTH-Cu;;29312093;20200323151346;;33860000;15183
335711;Zoning;7577476;20191109094845;W03-C-Knokke-Heist-FH05;7577476;20191109094845;W03-C-Knokke-Heist-FH05;19896;FTTH-Cu;;29312095;20200323151452;;33860000;17524
2762276;Zoning;7577476;20191109094845;W03-C-Knokke-Heist-FH05;7577476;20191109094845;W03-C-Knokke-Heist-FH05;19896;FTTH-Cu;;29312028;20200323151549;;33860000;17524
4346088;Zoning;7577476;20191109094845;W03-C-Knokke-Heist-FH05;7577476;20191109094845;W03-C-Knokke-Heist-FH05;19896;FTTH-Cu;;29312185;20200323151543;;33860000;17524
2762282;Zoning;7577476;20191109094845;W03-C-Knokke-Heist-FH05;7577476;20191109094845;W03-C-Knokke-Heist-FH05;19896;FTTH-Cu;;29312029;20200323151523;;33860000;17524
2762285;Zoning;7577476;20191109094845;W03-C-Knokke-Heist-FH05;7577476;20191109094845;W03-C-Knokke-Heist-FH05;19896;FTTH-Cu;;29312030;20200323151509;;33860000;17524
1148172;Zoning;7577476;20191109094845;W03-C-Knokke-Heist-FH05;7577476;20191109094845;W03-C-Knokke-Heist-FH05;19896;FTTH-Cu;;29311918;20200323151535;;33860000;17524
2762288;Zoning;7577476;20191109094845;W03-C-Knokke-Heist-FH05;7577476;20191109094845;W03-C-Knokke-Heist-FH05;19896;FTTH-Cu;;29312031;20200323151502;;33860000;17524
2762290;Zoning;7577476;20191109094845;W03-C-Knokke-Heist-FH05;7577476;20191109094845;W03-C-Knokke-Heist-FH05;19896;FTTH-Cu;;29312032;20200323151458;;33860000;17524
13048;Zoning;7577476;20191109094845;W03-C-Knokke-Heist-FH05;7577476;20191109094845;W03-C-Knokke-Heist-FH05;19896;FTTH-Cu;;29311921;20200218122718;;33860000;17524
2762295;Zoning;7577476;20191109094845;W03-C-Knokke-Heist-FH05;7577476;20191109094845;W03-C-Knokke-Heist-FH05;19896;FTTH-Cu;;29312033;20200323151707;;33860000;17524
2762297;Zoning;7577476;20191109094845;W03-C-Knokke-Heist-FH05;7577476;20191109094845;W03-C-Knokke-Heist-FH05;19896;FTTH-Cu;;29312034;20200218122724;;33860000;17524
335712;Zoning;7577476;20191109094845;W03-C-Knokke-Heist-FH05;7577476;20191109094845;W03-C-Knokke-Heist-FH05;19896;FTTH-Cu;;29312096;20200218122728;;33860000;17524
335713;Zoning;7577476;20191109094845;W03-C-Knokke-Heist-FH05;7577476;20191109094845;W03-C-Knokke-Heist-FH05;19896;FTTH-Cu;;29312097;20200218122728;;33860000;17524
2762302;Zoning;7577476;20191109094845;W03-C-Knokke-Heist-FH05;7577476;20191109094845;W03-C-Knokke-Heist-FH05;19896;FTTH-Cu;;29312035;20200218122724;;33860000;17524
2762304;Zoning;7577476;20191109094845;W03-C-Knokke-Heist-FH05;7577476;20191109094845;W03-C-Knokke-Heist-FH05;19896;FTTH-Cu;;29312036;20200218122724;;33860000;17524
2762306;Zoning;7577476;20191109094845;W03-C-Knokke-Heist-FH05;7577476;20191109094845;W03-C-Knokke-Heist-FH05;19896;FTTH-Cu;;29312037;20200218122724;;33860000;17524
337104;Zoning;7577476;20191109094845;W03-C-Knokke-Heist-FH05;7577476;20191109094845;W03-C-Knokke-Heist-FH05;19896;FTTH-Cu;;29312149;20200218122731;;33860000;17524
337105;Zoning;7577476;20191109094845;W03-C-Knokke-Heist-FH05;7577476;20191109094845;W03-C-Knokke-Heist-FH05;19896;FTTH-Cu;;29312150;20200218122731;;33860000;17524
337106;Zoning;7577476;20191109094845;W03-C-Knokke-Heist-FH05;7577476;20191109094845;W03-C-Knokke-Heist-FH05;19896;FTTH-Cu;;29312151;20200218122731;;33860000;17524
2762315;Zoning;7577476;20191109094845;W03-C-Knokke-Heist-FH05;7577476;20191109094845;W03-C-Knokke-Heist-FH05;19896;FTTH-Cu;;29312038;20200218122725;;33860000;17524
2762317;Zoning;7577476;20191109094845;W03-C-Knokke-Heist-FH05;7577476;20191109094845;W03-C-Knokke-Heist-FH05;19896;FTTH-Cu;;29312039;20200218122725;;33860000;17524
2762320;Zoning;7577476;20191109094845;W03-C-Knokke-Heist-FH05;7577476;20191109094845;W03-C-Knokke-Heist-FH05;19896;FTTH-Cu;;29312040;20200218122725;;33860000;17524
2762321;Zoning;7577476;20191109094845;W03-C-Knokke-Heist-FH05;7577476;20191109094845;W03-C-Knokke-Heist-FH05;19896;FTTH-Cu;;29312041;20200218122725;;33860000;17524
2762323;Zoning;7577476;20191109094845;W03-C-Knokke-Heist-FH05;7577476;20191109094845;W03-C-Knokke-Heist-FH05;19896;FTTH-Cu;;29312042;20200218122725;;33860000;17524
337093;Zoning;7577476;20191109094845;W03-C-Knokke-Heist-FH05;7577476;20191109094845;W03-C-Knokke-Heist-FH05;19896;FTTH-Cu;;29312148;20200323151923;;33860000;17524
5579423;Zoning;7577476;20191109094845;W03-C-Knokke-Heist-FH05;7577476;20191109094845;W03-C-Knokke-Heist-FH05;19896;FTTH-Cu;;29312196;20200323151910;;33860000;17524
337193;Zoning;7577476;20191109094845;W03-C-Knokke-Heist-FH05;7577476;20191109094845;W03-C-Knokke-Heist-FH05;19896;FTTH-Cu;;29312154;20200218122731;;33860000;21539
337192;Zoning;7577476;20191109094845;W03-C-Knokke-Heist-FH05;7577476;20191109094845;W03-C-Knokke-Heist-FH05;19896;FTTH-Cu;;29312153;20200218122731;;33860000;21539
2763887;Zoning;7577476;20191109094845;W03-C-Knokke-Heist-FH05;7577476;20191109094845;W03-C-Knokke-Heist-FH05;19896;FTTH-Cu;;29312055;20200323150642;;33860000;21861
2763889;Zoning;7577476;20191109094845;W03-C-Knokke-Heist-FH05;7577476;20191109094845;W03-C-Knokke-Heist-FH05;19896;FTTH-Cu;;29312056;20200218122726;;33860000;21861
2763891;Zoning;7577476;20191109094845;W03-C-Knokke-Heist-FH05;7577476;20191109094845;W03-C-Knokke-Heist-FH05;19896;FTTH-Cu;;29312057;20200323150723;;33860000;21861
338540;Zoning;7577476;20191109094845;W03-C-Knokke-Heist-FH05;7577476;20191109094845;W03-C-Knokke-Heist-FH05;19896;FTTH-Cu;;29312162;20200218122732;;33860000;21861
2763892;Zoning;7577476;20191109094845;W03-C-Knokke-Heist-FH05;7577476;20191109094845;W03-C-Knokke-Heist-FH05;19896;FTTH-Cu;;29312058;20200323150714;;33860000;21861
338541;Zoning;7577476;20191109094845;W03-C-Knokke-Heist-FH05;7577476;20191109094845;W03-C-Knokke-Heist-FH05;19896;FTTH-Cu;;29312163;20200218122732;;33860000;21861
72448;Zoning;7577476;20191109094845;W03-C-Knokke-Heist-FH05;7577476;20191109094845;W03-C-Knokke-Heist-FH05;19896;FTTH-Cu;;29312212;20200323151133;;33860000;22386
2764308;Zoning;7577476;20191109094845;W03-C-Knokke-Heist-FH05;7577476;20191109094845;W03-C-Knokke-Heist-FH05;19896;FTTH-Cu;;29312059;20200323151151;;33860000;22386
2764312;Zoning;7577476;20191109094845;W03-C-Knokke-Heist-FH05;7577476;20191109094845;W03-C-Knokke-Heist-FH05;19896;FTTH-Cu;;29312060;20200218122726;;33860000;22386
4347728;Zoning;7577476;20191109094845;W03-C-Knokke-Heist-FH05;7577476;20191109094845;W03-C-Knokke-Heist-FH05;19896;FTTH-Cu;;29312189;20200218122734;;33860000;22386
2764315;Zoning;7577476;20191109094845;W03-C-Knokke-Heist-FH05;7577476;20191109094845;W03-C-Knokke-Heist-FH05;19896;FTTH-Cu;;29312061;20200218122726;;33860000;22386
4070898;Zoning;7577476;20191109094845;W03-C-Knokke-Heist-FH05;7577476;20191109094845;W03-C-Knokke-Heist-FH05;19896;FTTH-Cu;;29312177;20200218122733;;33860000;22386
335845;Zoning;7577476;20191109094845;W03-C-Knokke-Heist-FH05;7577476;20191109094845;W03-C-Knokke-Heist-FH05;19896;FTTH-Cu;;29312106;20200218122729;;33860000;22386
2764322;Zoning;7577476;20191109094845;W03-C-Knokke-Heist-FH05;7577476;20191109094845;W03-C-Knokke-Heist-FH05;19896;FTTH-Cu;;29312062;20200323151303;;33860000;22386
2764326;Zoning;7577476;20191109094845;W03-C-Knokke-Heist-FH05;7577476;20191109094845;W03-C-Knokke-Heist-FH05;19896;FTTH-Cu;;29312063;20200323151303;;33860000;22386
2764327;Zoning;7577476;20191109094845;W03-C-Knokke-Heist-FH05;7577476;20191109094845;W03-C-Knokke-Heist-FH05;19896;FTTH-Cu;;29312064;20200323151303;;33860000;22386
2764329;Zoning;7577476;20191109094845;W03-C-Knokke-Heist-FH05;7577476;20191109094845;W03-C-Knokke-Heist-FH05;19896;FTTH-Cu;;29312065;20200323151303;;33860000;22386
2764332;Zoning;7577476;20191109094845;W03-C-Knokke-Heist-FH05;7577476;20191109094845;W03-C-Knokke-Heist-FH05;19896;FTTH-Cu;;29312066;20200323151313;;33860000;22386
2764336;Zoning;7577476;20191109094845;W03-C-Knokke-Heist-FH05;7577476;20191109094845;W03-C-Knokke-Heist-FH05;19896;FTTH-Cu;;29312067;20200323151313;;33860000;22386
2764337;Zoning;7577476;20191109094845;W03-C-Knokke-Heist-FH05;7577476;20191109094845;W03-C-Knokke-Heist-FH05;19896;FTTH-Cu;;29312068;20200323151313;;33860000;22386
335846;Zoning;7577476;20191109094845;W03-C-Knokke-Heist-FH05;7577476;20191109094845;W03-C-Knokke-Heist-FH05;19896;FTTH-Cu;;29312107;20200218122729;;33860000;22386
335125;Zoning;7577476;20191109094845;W03-C-Knokke-Heist-FH05;7577476;20191109094845;W03-C-Knokke-Heist-FH05;19896;FTTH-Cu;;29312094;20200323151327;;33860000;22386
6148072;Zoning;7577476;20191109094845;W03-C-Knokke-Heist-FH05;7577476;20191109094845;W03-C-Knokke-Heist-FH05;19896;FTTH-Cu;;6908898;20180316102239;;33860000;24494
338488;Zoning;7577476;20191109094845;W03-C-Knokke-Heist-FH05;7577476;20191109094845;W03-C-Knokke-Heist-FH05;19896;FTTH-Cu;;29312159;20200218122732;;33860000;24494
2765562;Zoning;7577476;20191109094845;W03-C-Knokke-Heist-FH05;7577476;20191109094845;W03-C-Knokke-Heist-FH05;19896;FTTH-Cu;;29312069;20200218122726;;33860000;24494
2765569;Zoning;7577476;20191109094845;W03-C-Knokke-Heist-FH05;7577476;20191109094845;W03-C-Knokke-Heist-FH05;19896;FTTH-Cu;;29312070;20200323150650;;33860000;24494
338491;Zoning;7577476;20191109094845;W03-C-Knokke-Heist-FH05;7577476;20191109094845;W03-C-Knokke-Heist-FH05;19896;FTTH-Cu;;29312160;20200323150650;;33860000;24494
337043;Zoning;7577476;20191109094845;W03-C-Knokke-Heist-FH05;7577476;20191109094845;W03-C-Knokke-Heist-FH05;19896;FTTH-Cu;;29312140;20200218122731;;33860000;4656
2758482;Zoning;7577476;20191109094845;W03-C-Knokke-Heist-FH05;7577476;20191109094845;W03-C-Knokke-Heist-FH05;19896;FTTH-Cu;;29311932;20200218122737;;33860000;4656
1360225;Zoning;7577476;20191109094845;W03-C-Knokke-Heist-FH05;7577476;20191109094845;W03-C-Knokke-Heist-FH05;19896;FTTH-Cu;;29311928;20200218122736;;33860000;4656
2758491;Zoning;7577476;20191109094845;W03-C-Knokke-Heist-FH05;7577476;20191109094845;W03-C-Knokke-Heist-FH05;19896;FTTH-Cu;;29311933;20200218122737;;33860000;4656
2758494;Zoning;7577476;20191109094845;W03-C-Knokke-Heist-FH05;7577476;20191109094845;W03-C-Knokke-Heist-FH05;19896;FTTH-Cu;;29311934;20200218122718;;33860000;4656
2758499;Zoning;7577476;20191109094845;W03-C-Knokke-Heist-FH05;7577476;20191109094845;W03-C-Knokke-Heist-FH05;19896;FTTH-Cu;;29311935;20200218122718;;33860000;4656
2758503;Zoning;7577476;20191109094845;W03-C-Knokke-Heist-FH05;7577476;20191109094845;W03-C-Knokke-Heist-FH05;19896;FTTH-Cu;;29311936;20200218122719;;33860000;4656
2758506;Zoning;7577476;20191109094845;W03-C-Knokke-Heist-FH05;7577476;20191109094845;W03-C-Knokke-Heist-FH05;19896;FTTH-Cu;;29311937;20200218122719;;33860000;4656
2758510;Zoning;7577476;20191109094845;W03-C-Knokke-Heist-FH05;7577476;20191109094845;W03-C-Knokke-Heist-FH05;19896;FTTH-Cu;;29311938;20200218122719;;33860000;4656
1453096;Zoning;7577476;20191109094845;W03-C-Knokke-Heist-FH05;7577476;20191109094845;W03-C-Knokke-Heist-FH05;19896;FTTH-Cu;;29311929;20200218122736;;33860000;4656
4346075;Zoning;7577476;20191109094845;W03-C-Knokke-Heist-FH05;7577476;20191109094845;W03-C-Knokke-Heist-FH05;19896;FTTH-Cu;;29312184;20200218122733;;33860000;4656
337045;Zoning;7577476;20191109094845;W03-C-Knokke-Heist-FH05;7577476;20191109094845;W03-C-Knokke-Heist-FH05;19896;FTTH-Cu;;29312141;20200218122731;;33860000;4656
76551;Zoning;7577476;20191109094845;W03-C-Knokke-Heist-FH05;7577476;20191109094845;W03-C-Knokke-Heist-FH05;19896;FTTH-Cu;;29312218;20200218122735;;33860000;4656
76552;Zoning;7577476;20191109094845;W03-C-Knokke-Heist-FH05;7577476;20191109094845;W03-C-Knokke-Heist-FH05;19896;FTTH-Cu;;29312219;20200218122735;;33860000;4656
76553;Zoning;7577476;20191109094845;W03-C-Knokke-Heist-FH05;7577476;20191109094845;W03-C-Knokke-Heist-FH05;19896;FTTH-Cu;;29312220;20200218122736;;33860000;4656
76550;Zoning;7577476;20191109094845;W03-C-Knokke-Heist-FH05;7577476;20191109094845;W03-C-Knokke-Heist-FH05;19896;FTTH-Cu;;29312217;20200218122735;;33860000;4656
72433;Zoning;7577476;20191109094845;W03-C-Knokke-Heist-FH05;7577476;20191109094845;W03-C-Knokke-Heist-FH05;19896;FTTH-Cu;;29312205;20200218122735;;33860000;4656
72430;Zoning;7577476;20191109094845;W03-C-Knokke-Heist-FH05;7577476;20191109094845;W03-C-Knokke-Heist-FH05;19896;FTTH-Cu;;29312202;20200218122734;;33860000;4656
72431;Zoning;7577476;20191109094845;W03-C-Knokke-Heist-FH05;7577476;20191109094845;W03-C-Knokke-Heist-FH05;19896;FTTH-Cu;;29312203;20200218122734;;33860000;4656
2758528;Zoning;7577476;20191109094845;W03-C-Knokke-Heist-FH05;7577476;20191109094845;W03-C-Knokke-Heist-FH05;19896;FTTH-Cu;;29311939;20200218122719;;33860000;4656
3939531;Zoning;7577476;20191109094845;W03-C-Knokke-Heist-FH05;7577476;20191109094845;W03-C-Knokke-Heist-FH05;19896;FTTH-Cu;;29312168;20200218122732;;33860000;4656
4347755;Zoning;7577476;20191109094845;W03-C-Knokke-Heist-FH05;7577476;20191109094845;W03-C-Knokke-Heist-FH05;19896;FTTH-Cu;;29312190;20200218122734;;33860000;4656
2758531;Zoning;7577476;20191109094845;W03-C-Knokke-Heist-FH05;7577476;20191109094845;W03-C-Knokke-Heist-FH05;19896;FTTH-Cu;;29311940;20200218122719;;33860000;4656
2758533;Zoning;7577476;20191109094845;W03-C-Knokke-Heist-FH05;7577476;20191109094845;W03-C-Knokke-Heist-FH05;19896;FTTH-Cu;;29311941;20200218122719;;33860000;4656
2758534;Zoning;7577476;20191109094845;W03-C-Knokke-Heist-FH05;7577476;20191109094845;W03-C-Knokke-Heist-FH05;19896;FTTH-Cu;;29311943;20200218122719;;33860000;4656
72435;Zoning;7577476;20191109094845;W03-C-Knokke-Heist-FH05;7577476;20191109094845;W03-C-Knokke-Heist-FH05;19896;FTTH-Cu;;29312207;20200218122735;;33860000;4656
72432;Zoning;7577476;20191109094845;W03-C-Knokke-Heist-FH05;7577476;20191109094845;W03-C-Knokke-Heist-FH05;19896;FTTH-Cu;;29312204;20200218122735;;33860000;4656
72428;Zoning;7577476;20191109094845;W03-C-Knokke-Heist-FH05;7577476;20191109094845;W03-C-Knokke-Heist-FH05;19896;FTTH-Cu;;29312201;20200218122734;;33860000;4656
1297112;Zoning;7577476;20191109094845;W03-C-Knokke-Heist-FH05;7577476;20191109094845;W03-C-Knokke-Heist-FH05;19896;FTTH-Cu;;29311920;20200218122718;;33860000;4656
72434;Zoning;7577476;20191109094845;W03-C-Knokke-Heist-FH05;7577476;20191109094845;W03-C-Knokke-Heist-FH05;19896;FTTH-Cu;;29312206;20200323151129;;33860000;4656
2758547;Zoning;7577476;20191109094845;W03-C-Knokke-Heist-FH05;7577476;20191109094845;W03-C-Knokke-Heist-FH05;19896;FTTH-Cu;;29311944;20200218122719;;33860000;4656
2758549;Zoning;7577476;20191109094845;W03-C-Knokke-Heist-FH05;7577476;20191109094845;W03-C-Knokke-Heist-FH05;19896;FTTH-Cu;;29311945;20200218122719;;33860000;4656
289;Zoning;7577476;20191109094845;W03-C-Knokke-Heist-FH05;7577476;20191109094845;W03-C-Knokke-Heist-FH05;19896;FTTH-Cu;;1803434;20180316102239;;33860000;5174
2758620;Zoning;7577476;20191109094845;W03-C-Knokke-Heist-FH05;7577476;20191109094845;W03-C-Knokke-Heist-FH05;19896;FTTH-Cu;;29311946;20200323150626;;33860000;5174
338555;Zoning;7577476;20191109094845;W03-C-Knokke-Heist-FH05;7577476;20191109094845;W03-C-Knokke-Heist-FH05;19896;FTTH-Cu;;29312164;20200323150642;;33860000;5174
338556;Zoning;7577476;20191109094845;W03-C-Knokke-Heist-FH05;7577476;20191109094845;W03-C-Knokke-Heist-FH05;19896;FTTH-Cu;;29312165;20200218122732;;33860000;5174
338557;Zoning;7577476;20191109094845;W03-C-Knokke-Heist-FH05;7577476;20191109094845;W03-C-Knokke-Heist-FH05;19896;FTTH-Cu;;29312166;20200323150642;;33860000;5174
2758627;Zoning;7577476;20191109094845;W03-C-Knokke-Heist-FH05;7577476;20191109094845;W03-C-Knokke-Heist-FH05;19896;FTTH-Cu;;29311947;20200323150642;;33860000;5174
3939533;Zoning;7577476;20191109094845;W03-C-Knokke-Heist-FH05;7577476;20191109094845;W03-C-Knokke-Heist-FH05;19896;FTTH-Cu;;29312169;20200218122732;;33860000;5174
2758629;Zoning;7577476;20191109094845;W03-C-Knokke-Heist-FH05;7577476;20191109094845;W03-C-Knokke-Heist-FH05;19896;FTTH-Cu;;29311948;20200323150642;;33860000;5174
2758631;Zoning;7577476;20191109094845;W03-C-Knokke-Heist-FH05;7577476;20191109094845;W03-C-Knokke-Heist-FH05;19896;FTTH-Cu;;29311949;20200323150845;;33860000;5174
2758634;Zoning;7577476;20191109094845;W03-C-Knokke-Heist-FH05;7577476;20191109094845;W03-C-Knokke-Heist-FH05;19896;FTTH-Cu;;29311950;20200323150845;;33860000;5174
2758635;Zoning;7577476;20191109094845;W03-C-Knokke-Heist-FH05;7577476;20191109094845;W03-C-Knokke-Heist-FH05;19896;FTTH-Cu;;29311951;20200218122719;;33860000;5174
2758640;Zoning;7577476;20191109094845;W03-C-Knokke-Heist-FH05;7577476;20191109094845;W03-C-Knokke-Heist-FH05;19896;FTTH-Cu;;29311952;20200218122719;;33860000;5174
2758641;Zoning;7577476;20191109094845;W03-C-Knokke-Heist-FH05;7577476;20191109094845;W03-C-Knokke-Heist-FH05;19896;FTTH-Cu;;29311953;20200323150855;;33860000;5174
337187;Zoning;7577476;20191109094845;W03-C-Knokke-Heist-FH05;7577476;20191109094845;W03-C-Knokke-Heist-FH05;19896;FTTH-Cu;;29312152;20200218122731;;33860000;5174
2758642;Zoning;7577476;20191109094845;W03-C-Knokke-Heist-FH05;7577476;20191109094845;W03-C-Knokke-Heist-FH05;19896;FTTH-Cu;;29311954;20200323150855;;33860000;5174
338535;Zoning;7577476;20191109094845;W03-C-Knokke-Heist-FH05;7577476;20191109094845;W03-C-Knokke-Heist-FH05;19896;FTTH-Cu;;29312161;20200218122732;;33860000;35712
2768180;Zoning;7577476;20191109094845;W03-C-Knokke-Heist-FH05;7577476;20191109094845;W03-C-Knokke-Heist-FH05;19896;FTTH-Cu;;29312071;20200218122727;;33860000;35712
2768183;Zoning;7577476;20191109094845;W03-C-Knokke-Heist-FH05;7577476;20191109094845;W03-C-Knokke-Heist-FH05;19896;FTTH-Cu;;29312072;20200218122727;;33860000;35712
2768185;Zoning;7577476;20191109094845;W03-C-Knokke-Heist-FH05;7577476;20191109094845;W03-C-Knokke-Heist-FH05;19896;FTTH-Cu;;29312073;20200323150655;;33860000;35712
336642;Zoning;7577476;20191109094845;W03-C-Knokke-Heist-FH05;7577476;20191109094845;W03-C-Knokke-Heist-FH05;19896;FTTH-Cu;;29312129;20200323150946;;33860000;35712
3939677;Zoning;7577476;20191109094845;W03-C-Knokke-Heist-FH05;7577476;20191109094845;W03-C-Knokke-Heist-FH05;19896;FTTH-Cu;;29312173;20200323150946;;33860000;35712
2768190;Zoning;7577476;20191109094845;W03-C-Knokke-Heist-FH05;7577476;20191109094845;W03-C-Knokke-Heist-FH05;19896;FTTH-Cu;;29312074;20200323150945;;33860000;35712
2768192;Zoning;7577476;20191109094845;W03-C-Knokke-Heist-FH05;7577476;20191109094845;W03-C-Knokke-Heist-FH05;19896;FTTH-Cu;;29312075;20200323150946;;33860000;35712
3939678;Zoning;7577476;20191109094845;W03-C-Knokke-Heist-FH05;7577476;20191109094845;W03-C-Knokke-Heist-FH05;19896;FTTH-Cu;;29312174;20200218122733;;33860000;35712
2768196;Zoning;7577476;20191109094845;W03-C-Knokke-Heist-FH05;7577476;20191109094845;W03-C-Knokke-Heist-FH05;19896;FTTH-Cu;;29312076;20200323150946;;33860000;35712
2768198;Zoning;7577476;20191109094845;W03-C-Knokke-Heist-FH05;7577476;20191109094845;W03-C-Knokke-Heist-FH05;19896;FTTH-Cu;;29312077;20200323150946;;33860000;35712
2768199;Zoning;7577476;20191109094845;W03-C-Knokke-Heist-FH05;7577476;20191109094845;W03-C-Knokke-Heist-FH05;19896;FTTH-Cu;;29312078;20200323150946;;33860000;35712
2768203;Zoning;7577476;20191109094845;W03-C-Knokke-Heist-FH05;7577476;20191109094845;W03-C-Knokke-Heist-FH05;19896;FTTH-Cu;;29312079;20200323150710;;33860000;35712
2768204;Zoning;7577476;20191109094845;W03-C-Knokke-Heist-FH05;7577476;20191109094845;W03-C-Knokke-Heist-FH05;19896;FTTH-Cu;;29312080;20200323150705;;33860000;35712
5579597;Zoning;7577476;20191109094845;W03-C-Knokke-Heist-FH05;7577476;20191109094845;W03-C-Knokke-Heist-FH05;19896;FTTH-Cu;;29312198;20200323150946;;33860000;35712
336645;Zoning;7577476;20191109094845;W03-C-Knokke-Heist-FH05;7577476;20191109094845;W03-C-Knokke-Heist-FH05;19896;FTTH-Cu;;29312131;20200323151050;;33860000;35712
336646;Zoning;7577476;20191109094845;W03-C-Knokke-Heist-FH05;7577476;20191109094845;W03-C-Knokke-Heist-FH05;19896;FTTH-Cu;;29312132;20200323151027;;33860000;35712
336644;Zoning;7577476;20191109094845;W03-C-Knokke-Heist-FH05;7577476;20191109094845;W03-C-Knokke-Heist-FH05;19896;FTTH-Cu;;29312130;20200323151037;;33860000;35712
2768208;Zoning;7577476;20191109094845;W03-C-Knokke-Heist-FH05;7577476;20191109094845;W03-C-Knokke-Heist-FH05;19896;FTTH-Cu;;29312081;20200218122727;;33860000;35712
2768211;Zoning;7577476;20191109094845;W03-C-Knokke-Heist-FH05;7577476;20191109094845;W03-C-Knokke-Heist-FH05;19896;FTTH-Cu;;29312082;20200218122727;;33860000;35712
72419;Zoning;7577476;20191109094845;W03-C-Knokke-Heist-FH05;7577476;20191109094845;W03-C-Knokke-Heist-FH05;19896;FTTH-Cu;;29312199;20200323151124;;33860000;35712
2768215;Zoning;7577476;20191109094845;W03-C-Knokke-Heist-FH05;7577476;20191109094845;W03-C-Knokke-Heist-FH05;19896;FTTH-Cu;;29312083;20200218122727;;33860000;35712
2768218;Zoning;7577476;20191109094845;W03-C-Knokke-Heist-FH05;7577476;20191109094845;W03-C-Knokke-Heist-FH05;19896;FTTH-Cu;;29312084;20200218122727;;33860000;35712
337216;Zoning;7577476;20191109094845;W03-C-Knokke-Heist-FH05;7577476;20191109094845;W03-C-Knokke-Heist-FH05;19896;FTTH-Cu;;29312158;20200218122732;;33860000;35712
72423;Zoning;7577476;20191109094845;W03-C-Knokke-Heist-FH05;7577476;20191109094845;W03-C-Knokke-Heist-FH05;19896;FTTH-Cu;;29312200;20200218122734;;33860000;35712
2768221;Zoning;7577476;20191109094845;W03-C-Knokke-Heist-FH05;7577476;20191109094845;W03-C-Knokke-Heist-FH05;19896;FTTH-Cu;;29312085;20200218122727;;33860000;35712
2768223;Zoning;7577476;20191109094845;W03-C-Knokke-Heist-FH05;7577476;20191109094845;W03-C-Knokke-Heist-FH05;19896;FTTH-Cu;;29312086;20200323151142;;33860000;35712
2768225;Zoning;7577476;20191109094845;W03-C-Knokke-Heist-FH05;7577476;20191109094845;W03-C-Knokke-Heist-FH05;19896;FTTH-Cu;;29312087;20200218122727;;33860000;35712
2768227;Zoning;7577476;20191109094845;W03-C-Knokke-Heist-FH05;7577476;20191109094845;W03-C-Knokke-Heist-FH05;19896;FTTH-Cu;;29312088;20200218122727;;33860000;35712
2768229;Zoning;7577476;20191109094845;W03-C-Knokke-Heist-FH05;7577476;20191109094845;W03-C-Knokke-Heist-FH05;19896;FTTH-Cu;;29312089;20200218122728;;33860000;35712
2768231;Zoning;7577476;20191109094845;W03-C-Knokke-Heist-FH05;7577476;20191109094845;W03-C-Knokke-Heist-FH05;19896;FTTH-Cu;;29312090;20200218122728;;33860000;35712
