LAM MK;xPos;yPos;Street;Nr;Suffix
1287403;134232,041;206157,122;Ankerstraat;1;
3484793;134239,683;206159,068;Ankerstraat;3;
3484795;134245,985;206162,327;Ankerstraat;5;
76381;134257,893;206167,581;Ankerstraat;11;
76246;134264,08;206169,39;Ankerstraat;13;
5487710;134305,932;206206,743;Ankerstraat;18;
68420;134311,791;206212,486;Ankerstraat;20;
3484804;134286,44;206180,704;Ankerstraat;21;
3484805;134314,859;206211,121;Ankerstraat;22;
68414;134290,522;206182,265;Ankerstraat;23;
4082341;134320,411;206210,928;Ankerstraat;24;
1508777;134293,909;206185,854;Ankerstraat;25;
6456861;134297,053;206182,486;Ankerstraat;25;A
6329472;134297,85;206186,963;Ankerstraat;25;B
3484806;134322,936;206213,325;Ankerstraat;26;
3484807;134302,299;206185,913;Ankerstraat;27;
3484808;134306,776;206189,182;Ankerstraat;29;
3484809;134330,514;206216,905;Ankerstraat;30;
4444925;134336,022;206216,788;Ankerstraat;32;
3484810;134340,944;206220,395;Ankerstraat;34;
1372300;134328,913;206191,905;Ankerstraat;35;
3484813;134350,86;206222,34;Ankerstraat;36;
3484814;134333,607;206193,785;Ankerstraat;37;
3484816;134336,108;206196,282;Ankerstraat;39;
3484817;134359,229;206224,851;Ankerstraat;40;
3484819;134340,704;206199,331;Ankerstraat;41;
3484820;134366,819;206226,651;Ankerstraat;42;
3484821;134346,682;206199,957;Ankerstraat;43;
3484822;134375,303;206228,882;Ankerstraat;44;
68417;134350,844;206202,085;Ankerstraat;45;
4444935;134383,257;206231,371;Ankerstraat;46;
3484823;134362,564;206204,06;Ankerstraat;49;A
68410;134388,477;206233,786;Ankerstraat;50;
3484826;134394,958;206236,636;Ankerstraat;52;
3484829;134400,674;206242,236;Ankerstraat;54;
6116209;134401,373;206235,815;Ankerstraat;54;A
6347287;134405,697;206237,164;Ankerstraat;54;B
68415;134380,197;206209,962;Ankerstraat;55;
3484831;134411,761;206240,304;Ankerstraat;56;
68421;134385,883;206211,231;Ankerstraat;57;
3484834;134391,367;206214,109;Ankerstraat;59;
5817466;134397,611;206211,941;Ankerstraat;61;A
3484837;134399,137;206208,487;Ankerstraat;61;B
4444883;134432,131;206245,51;Ankerstraat;62;
3484838;134410,979;206220,094;Ankerstraat;63;
3484839;134439,005;206250,395;Ankerstraat;64;
3484840;134429,406;206224,311;Ankerstraat;65;
3484841;134442,324;206250,336;Ankerstraat;66;
4444763;134436,738;206226,028;Ankerstraat;67;
4054548;134449,27;206250,856;Ankerstraat;68;
3484842;134441,814;206228,888;Ankerstraat;69;
3484845;134448,682;206229,661;Ankerstraat;71;
68418;134459,942;206253,452;Ankerstraat;72;
3484846;134455,308;206231,088;Ankerstraat;73;
68396;134465,294;206254,598;Ankerstraat;74;
3484847;134460,665;206233,154;Ankerstraat;75;
3484848;134471,173;206257,335;Ankerstraat;76;
3484849;134466,396;206236,788;Ankerstraat;77;
3484850;134475,294;206259,531;Ankerstraat;78;
3484851;134473,954;206239,866;Ankerstraat;79;
4444854;134477,887;206263,3;Ankerstraat;80;
3484852;134480,306;206242,752;Ankerstraat;81;
3484853;134548,741;206177,804;Ankerstraat;83;
3484855;134482,176;206272,472;Ankerstraat;84;
4444769;134500,992;206259,063;Ankerstraat;87;
4242235;134484,842;206280,143;Ankerstraat;88;
68432;134765,486;206300,135;Ankerstraat;91;
3484858;134490,536;206292,975;Ankerstraat;92;
4444862;134492,374;206298,79;Ankerstraat;94;
68435;134534,699;206352,062;Ankerstraat;95;
3484859;134492,486;206306,02;Ankerstraat;96;
3484860;134535,986;206357,463;Ankerstraat;97;
3484861;134541,723;206363,638;Ankerstraat;99;
3484862;134495,633;206317,156;Ankerstraat;100;
3484864;134543,701;206369,784;Ankerstraat;101;A
3484863;134549,952;206366,62;Ankerstraat;101;B
3484867;134499,811;206329,787;Ankerstraat;104;
3948543;134548,624;206381,504;Ankerstraat;105;
3484868;134506,801;206334,55;Ankerstraat;106;
3484869;134551,593;206387,212;Ankerstraat;107;
3484870;134509,277;206341,935;Ankerstraat;108;
3484871;134555,257;206392,557;Ankerstraat;109;
3484872;134511,974;206353,183;Ankerstraat;110;
3484873;134558,141;206398,037;Ankerstraat;111;
68437;134560,973;206408,274;Ankerstraat;113;
68436;134519,836;206370,072;Ankerstraat;114;
68438;134565,23;206420,043;Ankerstraat;115;
3484877;134566,974;206422,717;Ankerstraat;117;
3484878;134524,479;206376,805;Ankerstraat;118;
4444760;134567,248;206424,681;Ankerstraat;119;
3484880;134521,388;206384,855;Ankerstraat;120;
5943423;134526,854;206382,782;Ankerstraat;120;A
3484881;134528,632;206386,192;Ankerstraat;120;B
3484882;134570,093;206431,128;Ankerstraat;121;
3484884;134571,894;206438,224;Ankerstraat;123;
3484885;134526,995;206390,238;Ankerstraat;124;
3484887;134574,917;206444,726;Ankerstraat;125;
3484889;134529,573;206398,722;Ankerstraat;126;
3484890;134577,375;206450,156;Ankerstraat;127;
4444821;134532,872;206406,046;Ankerstraat;128;
68440;134578,496;206455,727;Ankerstraat;129;
3484892;134535,25;206410,049;Ankerstraat;130;
3484895;134537,02;206414,689;Ankerstraat;132;
3484896;134538,146;206419,457;Ankerstraat;134;
3484898;134539,471;206424,475;Ankerstraat;136;
3484899;134541,952;206429,649;Ankerstraat;138;
4444826;134544,199;206435,047;Ankerstraat;140;
3484901;134546,955;206437,647;Ankerstraat;142;
4215489;134548,533;206440,704;Ankerstraat;144;
3484902;134549,999;206443,412;Ankerstraat;146;
68439;134550,625;206447,165;Ankerstraat;148;
5999565;134551,836;206451,661;Ankerstraat;150;
63267;134846,487;206380,913;Antwerpse Steenweg;2;
3484913;134852,144;206380,626;Antwerpse Steenweg;4;
3484914;134858,442;206382,633;Antwerpse Steenweg;6;
3484917;134864,717;206384,533;Antwerpse Steenweg;8;
3484919;134868,306;206387,057;Antwerpse Steenweg;10;
3484920;134872,588;206396,004;Antwerpse Steenweg;12;
3484925;134881,813;206403,341;Antwerpse Steenweg;18;
4447772;134887,758;206407,503;Antwerpse Steenweg;20;
3484926;134890,772;206410,013;Antwerpse Steenweg;22;
4447774;134893,556;206412,625;Antwerpse Steenweg;24;
3484928;134895,739;206416,461;Antwerpse Steenweg;26;
4447775;134898,914;206418,775;Antwerpse Steenweg;28;
4447777;134902,258;206421,756;Antwerpse Steenweg;30;
3484932;134904,089;206427,736;Antwerpse Steenweg;32;
3484934;134912,107;206430,61;Antwerpse Steenweg;34;
4187860;134914,944;206434,144;Antwerpse Steenweg;36;
4447780;134915,983;206436,56;Antwerpse Steenweg;38;
6041312;134923,025;206444,72;Antwerpse Steenweg;42;
91083;134371,692;205706,181;August Nobelsstraat;1;
96648;134417,662;205672,445;August Nobelsstraat;2;
91082;134366,479;205696,548;August Nobelsstraat;3;
3508919;134411,214;205662,446;August Nobelsstraat;4;
3508926;134361,303;205687,141;August Nobelsstraat;5;
3508928;134404,863;205654,141;August Nobelsstraat;6;
3508932;134353,714;205679,213;August Nobelsstraat;7;
1325900;134399,979;205646,205;August Nobelsstraat;8;
91081;134342,364;205664,348;August Nobelsstraat;11;
3508956;134419,064;205628,417;August Nobelsstraat;12;
3508960;134424,073;205624,158;August Nobelsstraat;14;
91086;134341,903;205643,485;August Nobelsstraat;15;
3508965;134431,094;205617,58;August Nobelsstraat;16;
3508968;134353,012;205635,991;August Nobelsstraat;17;
3508969;134437,017;205612,837;August Nobelsstraat;18;
3508973;134360,131;205629,418;August Nobelsstraat;19;
3508981;134444,258;205605,937;August Nobelsstraat;20;
3508984;134368,728;205622,9;August Nobelsstraat;21;
4206750;134451,912;205598,845;August Nobelsstraat;22;
3508987;134379,741;205613,346;August Nobelsstraat;23;
3508990;134457,973;205594,062;August Nobelsstraat;24;
3508993;134389,018;205605,859;August Nobelsstraat;25;
3508994;134462,765;205589,713;August Nobelsstraat;26;
4173650;134394,652;205600,127;August Nobelsstraat;27;
3508997;134467,655;205584,882;August Nobelsstraat;28;
3508999;134400,584;205594,067;August Nobelsstraat;29;
4260188;134472,588;205581,679;August Nobelsstraat;30;
91087;134406,132;205588,126;August Nobelsstraat;31;
3509005;134478,186;205575,997;August Nobelsstraat;32;
91088;134415,478;205580,41;August Nobelsstraat;33;
3509007;134484,221;205570,131;August Nobelsstraat;34;
3509010;134420,185;205575,824;August Nobelsstraat;35;
3509012;134426,227;205571,34;August Nobelsstraat;37;
3509013;134432,02;205567,361;August Nobelsstraat;39;
4468852;134437,526;205563,626;August Nobelsstraat;41;
3509014;134444,574;205557,923;August Nobelsstraat;43;
3509018;134452,899;205549,968;August Nobelsstraat;45;
91085;134474,931;205531,459;August Nobelsstraat;47;
54660;134935,159;205712,958;Azalealaan;1;
54661;134941,699;205750,234;Azalealaan;2;
5577918;134988,271;205781,65;Azalealaan;4;
60756;134950,144;205724,402;Azalealaan;5;
4466228;134960,322;205731,656;Azalealaan;7;
3485227;134966,396;205733,713;Azalealaan;9;
3485228;135079,352;205904,641;Azalealaan;10;
3485230;134969,714;205735,741;Azalealaan;11;
60749;134972,997;205738,553;Azalealaan;13;
60750;134977,572;205740,126;Azalealaan;15;
3485232;134981,674;205742,01;Azalealaan;17;
3485235;134985,105;205744,681;Azalealaan;19;
3485237;134988,45;205747,174;Azalealaan;21;
4127783;134991,987;205750,098;Azalealaan;23;
3485239;134996,132;205754,382;Azalealaan;25;
60747;135002,249;205756,802;Azalealaan;27;
60748;135017,772;205765,18;Azalealaan;29;
3486960;134946,539;205705,167;Brugsken;6;
3486962;134950,057;205702,52;Brugsken;8;
3486963;134952,872;205700,478;Brugsken;10;
3486966;134957,648;205696,733;Brugsken;12;
4466371;134961,67;205696,578;Brugsken;14;
3486967;134965,166;205693,798;Brugsken;16;
3486969;134968,799;205691,147;Brugsken;18;
4178967;134972,456;205688,644;Brugsken;20;
4466379;134976,079;205686,359;Brugsken;22;
3486970;134980,878;205684,956;Brugsken;24;
3486975;134991,081;205681,206;Brugsken;30;
3486976;134995,814;205677,278;Brugsken;32;
3486978;135003,198;205670,353;Brugsken;34;
3486980;135007,296;205668,463;Brugsken;36;
1513567;135013,526;205664,91;Brugsken;38;
3486982;135017,615;205662,479;Brugsken;42;
3486983;135021,173;205660,311;Brugsken;44;
4466402;135029,992;205677,675;Brugsken;46;
3486986;135027,397;205657,674;Brugsken;48;
4466405;135047,163;205647,256;Brugsken;52;
60743;135060,628;205637,712;Brugsken;56;
5401800;134446,677;206755,611;De Gravestraat;3;A
5411617;134451,792;206754,402;De Gravestraat;3;B
3490686;134456,303;206753,326;De Gravestraat;3;C
4448728;134471;206749;De Gravestraat;7;
4448730;134482,35;206745,418;De Gravestraat;11;
3490691;134489,133;206743,256;De Gravestraat;15;
6326922;134492,288;206720,185;De Gravestraat;17;A
6320575;134496,976;206732,02;De Gravestraat;17;B
3948650;134513,094;206737,186;De Gravestraat;21;
61730;134520,094;206735,534;De Gravestraat;23;
61651;134527,511;206733,074;De Gravestraat;25;
4190925;134532,399;206731,842;De Gravestraat;27;
3490700;134536,214;206730,92;De Gravestraat;29;
3490702;134540,3;206730,167;De Gravestraat;31;
3490703;134544,091;206728,833;De Gravestraat;33;
4448914;134548,119;206727,856;De Gravestraat;35;
4448916;134551,959;206726,807;De Gravestraat;37;
3490709;134555,335;206726,213;De Gravestraat;39;
3490711;134559,93;206724,455;De Gravestraat;41;
4448919;134564,025;206723,457;De Gravestraat;43;
61652;134568,169;206722,474;De Gravestraat;45;
62537;134572,662;206721,449;De Gravestraat;47;
3490714;134577,429;206720,14;De Gravestraat;49;
4448302;134581,297;206719,191;De Gravestraat;51;
4448304;134585,644;206717,95;De Gravestraat;53;
4448305;134590,075;206716,389;De Gravestraat;55;
3490718;134598,829;206695,59;De Gravestraat;57;
3490721;134604,073;206711,903;De Gravestraat;59;
3490723;134608,939;206710,787;De Gravestraat;61;
4448310;134613,267;206710,001;De Gravestraat;63;
4448313;134617,732;206708,901;De Gravestraat;65;
4448315;134624,984;206707,304;De Gravestraat;67;
9433;134180,657;205921,19;Grote Peperstraat;1;
4454590;134186,48;205923,583;Grote Peperstraat;3;
3511268;134192,848;205925,878;Grote Peperstraat;5;
4454591;134197,148;205928,213;Grote Peperstraat;7;
3511278;134205,01;205930,218;Grote Peperstraat;11;
3511280;134212,525;205932,778;Grote Peperstraat;13;
72518;134225,709;205936,392;Grote Peperstraat;15;
72529;134287,023;205866,648;Grote Peperstraat;17;
3511292;134283,407;205876,246;Grote Peperstraat;19;
4215963;134278,884;205885,134;Grote Peperstraat;21;
4454573;134277,139;205890,51;Grote Peperstraat;23;
72530;134253,097;205925,791;Grote Peperstraat;27;
72519;134240,986;205944,275;Grote Peperstraat;29;
1513901;134245,257;205945,828;Grote Peperstraat;31;
1513903;134249,216;205947,71;Grote Peperstraat;33;
1513907;134257,97;205951,226;Grote Peperstraat;37;
1513908;134263,858;205953,999;Grote Peperstraat;39;
1513909;134272,513;205957,423;Grote Peperstraat;41;
1513911;134328,867;205903,11;Grote Peperstraat;43;
1513913;134284,262;205962,486;Grote Peperstraat;45;
1513915;134292,931;205966,709;Grote Peperstraat;47;
1513917;134295,658;205970,009;Grote Peperstraat;49;
4098446;134299,245;205972,99;Grote Peperstraat;51;
4454587;134302,778;205975,704;Grote Peperstraat;53;
75753;134602,503;205883,514;Hospitaalstraat;1;
75488;134641,255;205886,52;Hospitaalstraat;2;
1514093;134682,28;205856,463;Hospitaalstraat;6;
1514095;134689,614;205854,151;Hospitaalstraat;8;
1514098;134625,061;205868,209;Hospitaalstraat;11;
75758;134910,116;205744,097;Hospitaalstraat;12;
1514100;134637,041;205860,038;Hospitaalstraat;15;
75756;134742,149;205782,449;Hospitaalstraat;23;
3504588;134231,083;206153,847;Houtbriel;15;
3504590;134234,532;206149,177;Houtbriel;16;
76231;134237,192;206143,596;Houtbriel;17;
6161014;134243,134;206146,87;Houtbriel;17;A
6166544;134247,245;206149,303;Houtbriel;17;B
3497443;134252,139;206133,053;Kalkstraat;6;
76251;134263,11;206130,448;Kalkstraat;8;
3497453;134269,842;206127,138;Kalkstraat;12;
3497460;134274,729;206123,799;Kalkstraat;14;
3497462;134281,87;206120,515;Kalkstraat;18;
4460287;134287,997;206118,346;Kalkstraat;20;
4460288;134291,68;206117,803;Kalkstraat;22;
4460290;134296,792;206115,5;Kalkstraat;24;
3497477;134303,868;206107,402;Kalkstraat;26;
3497487;134340,75;206088,232;Kalkstraat;30;
4460294;134348,115;206083,401;Kalkstraat;32;
977878;134372,424;206048,05;Kalkstraat;33;
3497490;134357,231;206080,731;Kalkstraat;34;
75561;134378,845;206039,992;Kalkstraat;35;
4460295;134362,746;206077,45;Kalkstraat;36;
3497496;134383,056;206036,036;Kalkstraat;37;
3497498;134387,95;206033,598;Kalkstraat;39;
3948682;134372,481;206075,389;Kalkstraat;40;
4455418;134391,254;206031,886;Kalkstraat;41;
76247;134380,91;206068,828;Kalkstraat;42;
3497499;134402,14;206023,474;Kalkstraat;45;
3497503;134406,835;206020,835;Kalkstraat;47;
3497508;134409,385;206018,729;Kalkstraat;49;
3497514;134414,156;206015,301;Kalkstraat;51;
75565;134515,605;205994,385;Kalkstraat;52;
1514012;134422,525;206010,497;Kalkstraat;53;
75563;134519,899;205991,966;Kalkstraat;54;
1514013;134525,286;205988,635;Kalkstraat;56;
75567;134437,792;206004,718;Kalkstraat;57;
1514015;134445,26;206001,094;Kalkstraat;59;
1514016;134537,69;205980,507;Kalkstraat;60;
1514017;134449,541;205999,054;Kalkstraat;61;
1514018;134540,593;205977,631;Kalkstraat;62;
6320653;134552,233;205981,814;Kalkstraat;62;A
6331902;134563,233;205989,814;Kalkstraat;62;B
6331900;134575,338;205996,876;Kalkstraat;62;C
1514019;134453,638;205997,694;Kalkstraat;63;
1514020;134545,31;205971,795;Kalkstraat;64;
1514021;134457,047;205996,723;Kalkstraat;65;
1514022;134547,815;205967,955;Kalkstraat;66;
1514024;134550,617;205963,619;Kalkstraat;68;
1514025;134472,098;205990,856;Kalkstraat;69;
75744;134555,972;205956,288;Kalkstraat;70;
75743;134559,02;205953,031;Kalkstraat;72;
1514027;134483,661;205988,084;Kalkstraat;73;
1514028;134564,611;205944,852;Kalkstraat;74;
75560;134488,356;205985,875;Kalkstraat;75;
1514029;134568,211;205939,162;Kalkstraat;76;
75739;134492,723;205979,678;Kalkstraat;77;
1514031;134502,791;205977,853;Kalkstraat;79;
1514032;134577,647;205932,905;Kalkstraat;80;
1514033;134514,461;205973,414;Kalkstraat;81;
1514036;134584,065;205925,076;Kalkstraat;84;
1514038;134588,719;205916,904;Kalkstraat;86;
1514040;134591,503;205914,437;Kalkstraat;88;
1514041;134530,439;205957,814;Kalkstraat;89;
75742;134598,917;205910,891;Kalkstraat;90;
3497552;134535,256;205953,838;Kalkstraat;91;
75740;134561;205925;Kalkstraat;101;
75738;134562,154;205919,41;Kalkstraat;103;
75741;134566,185;205914,082;Kalkstraat;105;
3500067;134589,771;206458,607;Klein-Hulststraat;3;
3500070;134594,528;206457,292;Klein-Hulststraat;5;
9407;134597,471;206477,138;Klein-Hulststraat;6;
3500071;134598,598;206456,228;Klein-Hulststraat;7;
4444729;134602,479;206454,851;Klein-Hulststraat;9;
3500075;134613,497;206450,343;Klein-Hulststraat;13;
4406684;134618,255;206474,195;Klein-Hulststraat;14;
4037770;134619,069;206448,403;Klein-Hulststraat;15;
3500078;134624,954;206471,503;Klein-Hulststraat;16;
3500079;134624,328;206446,399;Klein-Hulststraat;17;
56055;134631,465;206466,245;Klein-Hulststraat;18;
4444733;134630,713;206444,083;Klein-Hulststraat;19;
56056;134636,16;206464,367;Klein-Hulststraat;20;
4004165;134640,605;206462,614;Klein-Hulststraat;22;
3500081;134639,04;206440,202;Klein-Hulststraat;23;
1332094;134644,549;206461,737;Klein-Hulststraat;24;
3500084;134644,799;206438,449;Klein-Hulststraat;25;
3500085;134650,308;206459,922;Klein-Hulststraat;26;
3925969;134648,055;206431,5;Klein-Hulststraat;27;
4449052;134657,195;206455,226;Klein-Hulststraat;28;
3500086;134654,816;206431,562;Klein-Hulststraat;29;
4444739;134660,325;206432,501;Klein-Hulststraat;31;
4449057;134670;206478;Klein-Hulststraat;32;
4057353;134664,394;206430,811;Klein-Hulststraat;33;
4444740;134668,338;206428,495;Klein-Hulststraat;35;
3500087;134672,908;206426,304;Klein-Hulststraat;37;
4444741;134679,607;206423,987;Klein-Hulststraat;39;
4027354;134682,862;206423,111;Klein-Hulststraat;41;
3500088;134683,926;206418,916;Klein-Hulststraat;43;
4444743;134689,185;206420,043;Klein-Hulststraat;45;
3500089;134692,879;206418,478;Klein-Hulststraat;47;
3500090;134696,635;206416,725;Klein-Hulststraat;49;
3500091;134703,021;206414,409;Klein-Hulststraat;51;
3500092;134710,283;206411,905;Klein-Hulststraat;53;
3500093;134665,396;206452,096;Klein-Hulststraat;54;
68427;134712,814;206406,395;Klein-Hulststraat;55;
3500094;134669,966;206450,531;Klein-Hulststraat;56;
68430;134715,252;206410,216;Klein-Hulststraat;57;
3500095;134673,722;206448,716;Klein-Hulststraat;58;
68428;134731,13;206402,452;Klein-Hulststraat;59;
3500097;134738,963;206400,039;Klein-Hulststraat;61;
4449077;134680,796;206444,02;Klein-Hulststraat;62;
3500098;134742,837;206398,382;Klein-Hulststraat;63;
3500100;134746,718;206396,504;Klein-Hulststraat;65;
3500102;134695,907;206440,915;Klein-Hulststraat;68;
3500105;134762,992;206383,851;Klein-Hulststraat;71;
3500111;134715,917;206431,875;Klein-Hulststraat;74;
56057;134721,363;206428,683;Klein-Hulststraat;76;
4444810;134772,488;206381,83;Klein-Hulststraat;77;
63260;134725,746;206426,617;Klein-Hulststraat;78;
4263214;134781,973;206379,079;Klein-Hulststraat;79;
4444813;134791,709;206375,273;Klein-Hulststraat;81;
4447871;134735,324;206423,111;Klein-Hulststraat;82;
68429;134801,571;206371,688;Klein-Hulststraat;83;
3500117;134745,842;206422,485;Klein-Hulststraat;86;
3500119;134754,043;206414,972;Klein-Hulststraat;90;
4447875;134759,489;206411,654;Klein-Hulststraat;92;
4447876;134763,558;206409,901;Klein-Hulststraat;94;
4447877;134767,44;206408,274;Klein-Hulststraat;96;
4447878;134770,883;206406,396;Klein-Hulststraat;98;
3500123;134775,015;206404,831;Klein-Hulststraat;100;
3500125;134779,084;206404,705;Klein-Hulststraat;102;
3500127;134783,592;206401,513;Klein-Hulststraat;104;
4069906;134787,598;206399,76;Klein-Hulststraat;106;
4447882;134797,552;206397,443;Klein-Hulststraat;110;
3500130;134799,608;206401,046;Klein-Hulststraat;112;
4447884;134805,428;206392,968;Klein-Hulststraat;114;
4447887;134814,204;206389,565;Klein-Hulststraat;118;
4447888;134817,448;206388,047;Klein-Hulststraat;120;
63261;134804,694;206423,125;Klein-Hulststraat;124;
63275;134841,048;206398,266;Klein-Hulststraat;126;
3500136;134844,348;206403,364;Klein-Hulststraat;128;
3500139;134846,928;206407,572;Klein-Hulststraat;130;
63317;134850;206411;Klein-Hulststraat;132;
977887;134329,707;205999,302;Kleine Peperstraat;1;
1513894;134335,002;206004,214;Kleine Peperstraat;3;
1193302;134339,156;206010,249;Kleine Peperstraat;5;
1513896;134343,227;206018,47;Kleine Peperstraat;7;
1513899;134348,813;206023,848;Kleine Peperstraat;11;
3511361;134352,643;206027,36;Kleine Peperstraat;13;
977891;134357,924;206030,934;Kleine Peperstraat;15;
1193081;134361,868;206037,243;Kleine Peperstraat;17;
3500227;134211,48;205660,348;Knaptandstraat;2;
3500230;134213,44;205661,416;Knaptandstraat;4;
3500234;134215,874;205652,802;Knaptandstraat;6;
91075;134219,375;205643,003;Knaptandstraat;8;
3500240;134220,602;205638,267;Knaptandstraat;10;
3500245;134223,72;205632,656;Knaptandstraat;12;
4260305;134226,247;205627,017;Knaptandstraat;14;
3500256;134228,857;205618,821;Knaptandstraat;18;
3500258;134230,401;205614,254;Knaptandstraat;20;
4468650;134232,25;205610,263;Knaptandstraat;22;
3500263;134233,91;205605,989;Knaptandstraat;24;
3500269;134240,828;205593,938;Knaptandstraat;28;
3948699;134244,836;205586,055;Knaptandstraat;30;
3500276;134246,614;205578,439;Knaptandstraat;32;
3500281;134248,615;205574,659;Knaptandstraat;34;
3500286;134250,68;205570,782;Knaptandstraat;36;
3500289;134252,935;205566,542;Knaptandstraat;38;
4260505;134254,787;205562,675;Knaptandstraat;40;
4468665;134257,187;205559,544;Knaptandstraat;42;
3500291;134258,978;205555,085;Knaptandstraat;44;
3500293;134262,224;205550,494;Knaptandstraat;46;
91076;134265,385;205542,347;Knaptandstraat;48;
91077;134268,431;205536,905;Knaptandstraat;50;
4153860;134271,017;205532,007;Knaptandstraat;52;
3500299;134273,782;205525,946;Knaptandstraat;54;
3500301;134276,852;205518,044;Knaptandstraat;56;
3500305;134279,609;205513,77;Knaptandstraat;58;
4468682;134279,567;205508,993;Knaptandstraat;60;
3500310;134289,945;205497,335;Knaptandstraat;70;
3500313;134292,374;205492,756;Knaptandstraat;72;
4157932;134295,79;205487,025;Knaptandstraat;74;
3500316;134298,535;205483,326;Knaptandstraat;76;
3500325;134302,548;205478,084;Knaptandstraat;80;
3500328;134304,917;205471,71;Knaptandstraat;82;
3500331;134306,702;205468,89;Knaptandstraat;84;
4468716;134309,395;205466,1;Knaptandstraat;86;
9483;134312,449;205460,118;Knaptandstraat;88;
91073;134313,671;205456,338;Knaptandstraat;90;
96954;134141,016;205868,297;Kokkelbeekstraat;2;
3500513;134157,273;205853,457;Kokkelbeekstraat;6;
4140440;134143,577;205832,204;Kokkelbeekstraat;8;
3500522;134144,084;205826,575;Kokkelbeekstraat;10;
96721;134146,404;205820,413;Kokkelbeekstraat;12;
3500532;134148,672;205814,309;Kokkelbeekstraat;14;
3500539;134149,899;205810,487;Kokkelbeekstraat;16;
3500545;134151,087;205807,482;Kokkelbeekstraat;18;
3500548;134153,278;205803,447;Kokkelbeekstraat;20;
3500559;134155,144;205794,471;Kokkelbeekstraat;24;
4462476;134156,272;205791,041;Kokkelbeekstraat;26;
3500563;134157,785;205787,567;Kokkelbeekstraat;28;
6449270;134162,024;205776,977;Kokkelbeekstraat;32;A
5729092;134164,813;205776,954;Kokkelbeekstraat;32;B
3500573;134163,107;205773,524;Kokkelbeekstraat;34;
3500578;134165,8;205769,784;Kokkelbeekstraat;36;
3948701;134200,713;205766,504;Kokkelbeekstraat;38;
3500582;134171,437;205758,382;Kokkelbeekstraat;40;
96722;134175,545;205749,433;Kokkelbeekstraat;42;
3500596;134179,341;205738,799;Kokkelbeekstraat;46;
1288254;134226,84;205739,317;Kokkelbeekstraat;48;
3500599;134181,281;205734,056;Kokkelbeekstraat;50;
3500604;134185,903;205721,24;Kokkelbeekstraat;52;
4468253;134188,399;205715,651;Kokkelbeekstraat;54;
3500613;134195,495;205700,318;Kokkelbeekstraat;60;
3500616;134198,224;205691,413;Kokkelbeekstraat;62;
3500620;134202,252;205679,56;Kokkelbeekstraat;66;
3500626;134204,197;205673,962;Kokkelbeekstraat;68;
96957;134207,04;205667,662;Kokkelbeekstraat;70;
68441;134883,28;206205,377;Lamstraat;2;
3501705;134818;206355;Lamstraat;2;B
75457;134906,784;206186,309;Lamstraat;4;
3501708;134918,45;206171,979;Lamstraat;6;
75456;134927,16;206164,422;Lamstraat;8;
5424647;134940,251;206135,246;Lamstraat;10;A
5380521;134942,773;206130,194;Lamstraat;10;B
3501710;134945,744;206125,391;Lamstraat;12;
4464758;134948,138;206120,907;Lamstraat;14;
4464760;134949,755;206117,117;Lamstraat;16;
3501711;134952,01;206113,306;Lamstraat;18;
75454;134953,565;206107,071;Lamstraat;20;
75453;134961,957;206091,555;Lamstraat;22;
3501717;134964,664;206086,777;Lamstraat;24;
3501720;134966,22;206082,878;Lamstraat;26;
3501721;134969,298;206078,402;Lamstraat;28;
4464716;134971,353;206074,427;Lamstraat;30;
3501726;134974,323;206065,643;Lamstraat;34;
3501729;134977,02;206062,061;Lamstraat;36;
3501731;134979,041;206057,576;Lamstraat;38;
3501733;134981,443;206052,117;Lamstraat;38;A
4464722;134985,329;206046,238;Lamstraat;40;
3501737;134987,689;206041,921;Lamstraat;42;
75450;135030,767;205961,745;Lamstraat;46;
3501742;135033,694;205957,822;Lamstraat;48;
60772;135036,602;205954,919;Lamstraat;50;
3501744;135039,59;205952,039;Lamstraat;52;
4466415;135042,095;205948,968;Lamstraat;54;
4466418;135044,549;205945,74;Lamstraat;56;
3501747;135046,982;205942,458;Lamstraat;58;
3501751;135049,57;205939,666;Lamstraat;60;
3501755;135052,26;205936,653;Lamstraat;62;
3501759;135058,214;205931,045;Lamstraat;64;
3501761;135064,287;205924,747;Lamstraat;66;
3948710;135067,344;205920,215;Lamstraat;68;
60771;135072,089;205915,915;Lamstraat;70;
75477;134690,371;205926,743;Lodewijk De Meesterstraat;1;
75478;134605,979;205906,056;Lodewijk De Meesterstraat;2;
1514043;134784,355;205955,417;Lodewijk De Meesterstraat;3;
1514044;134613,189;205916,326;Lodewijk De Meesterstraat;4;
75494;134866,458;205972,912;Lodewijk De Meesterstraat;5;
1514048;134622,501;205920,96;Lodewijk De Meesterstraat;10;
1514050;134626,751;205923,963;Lodewijk De Meesterstraat;12;
1514052;134630,859;205927,136;Lodewijk De Meesterstraat;14;
1514054;134635,539;205929,69;Lodewijk De Meesterstraat;16;
1514056;134639,656;205932,998;Lodewijk De Meesterstraat;18;
1514058;134643,206;205939,227;Lodewijk De Meesterstraat;20;
1514062;134642,633;205987,192;Lodewijk De Meesterstraat;24;
75475;134666,37;205945,996;Lodewijk De Meesterstraat;28;
1514068;134690,99;205950,157;Lodewijk De Meesterstraat;32;
1514070;134695,233;205951,348;Lodewijk De Meesterstraat;34;
1514071;134699,849;205952,789;Lodewijk De Meesterstraat;36;
1514072;134703,815;205954,09;Lodewijk De Meesterstraat;38;
1514073;134708,007;205955,066;Lodewijk De Meesterstraat;40;
1514074;134712,152;205956,504;Lodewijk De Meesterstraat;42;
1514075;134716,138;205957,598;Lodewijk De Meesterstraat;44;
1514076;134720,303;205958,9;Lodewijk De Meesterstraat;46;
1514077;134724,26;205960,175;Lodewijk De Meesterstraat;48;
1514078;134727,95;205961,181;Lodewijk De Meesterstraat;50;
1514079;134731,848;205962,255;Lodewijk De Meesterstraat;52;
1514080;134737,259;205963,979;Lodewijk De Meesterstraat;54;
1514081;134744,944;205966,263;Lodewijk De Meesterstraat;56;
1514084;134780,554;205977,759;Lodewijk De Meesterstraat;62;
1514085;134786,384;205979,26;Lodewijk De Meesterstraat;64;
1514087;134796,973;205981,995;Lodewijk De Meesterstraat;68;
1514088;134802,931;205986,86;Lodewijk De Meesterstraat;70;
1514089;134806,219;205985,028;Lodewijk De Meesterstraat;72;
75474;134812,537;205986,01;Lodewijk De Meesterstraat;74;
4464877;134840,528;205994,133;Lodewijk De Meesterstraat;80;
3529850;134850,149;205997,536;Lodewijk De Meesterstraat;82;
4464881;134857,233;205997,91;Lodewijk De Meesterstraat;86;
1357212;134863,666;205999,743;Lodewijk De Meesterstraat;88;
3529855;134869,863;206001,74;Lodewijk De Meesterstraat;90;
3529859;134874,158;206003,527;Lodewijk De Meesterstraat;92;
3948890;134879,125;206006,871;Lodewijk De Meesterstraat;96;
3529861;134886,798;206007,158;Lodewijk De Meesterstraat;98;
75481;134890,853;206009,081;Lodewijk De Meesterstraat;100;
75483;134898,775;206013,299;Lodewijk De Meesterstraat;102;
4464745;134908,238;206013,563;Lodewijk De Meesterstraat;108;
3529866;134912,552;206015,159;Lodewijk De Meesterstraat;110;
3529867;134921,154;206017,302;Lodewijk De Meesterstraat;114;
4464751;134925,61;206019,61;Lodewijk De Meesterstraat;116;
3529869;134929,093;206032,968;Lodewijk De Meesterstraat;118;
6443191;134928,792;206022,001;Lodewijk De Meesterstraat;118;A
6434275;134933,395;206022,21;Lodewijk De Meesterstraat;118;B
3529870;134937,811;206024,704;Lodewijk De Meesterstraat;120;
3529873;134942,799;206024,061;Lodewijk De Meesterstraat;122;
3529875;134956,222;206027,873;Lodewijk De Meesterstraat;128;
3529877;134960,757;206029,113;Lodewijk De Meesterstraat;130;
3529880;134964,687;206030,869;Lodewijk De Meesterstraat;132;
3529883;134968,823;206032,161;Lodewijk De Meesterstraat;134;
75484;134973,642;206033,5;Lodewijk De Meesterstraat;136;
1287307;134988,093;206037,873;Lodewijk De Meesterstraat;138;
60781;135069,424;205645,229;Magnolialaan;2;
56089;134244,627;206737,269;Mercatorstraat;1;
56090;134261,058;206752,708;Mercatorstraat;2;
4449122;134250,784;206733,721;Mercatorstraat;3;
4462001;134269,234;206750,178;Mercatorstraat;4;
1465072;134256,137;206731,597;Mercatorstraat;5;
3925975;134261,166;206728,744;Mercatorstraat;7;
5785361;134279,195;206720,929;Mercatorstraat;9;C
4462006;134277,018;206744,272;Mercatorstraat;10;
4449124;134283,887;206717,986;Mercatorstraat;11;
6424446;134287;206742;Mercatorstraat;12;A
6448058;134289,177;206751,063;Mercatorstraat;12;B
6448059;134288,53;206746,002;Mercatorstraat;12;C
3504327;134291,682;206714,036;Mercatorstraat;13;
56091;134292,192;206739,773;Mercatorstraat;14;
56088;134303,132;206709,481;Mercatorstraat;15;
56092;134301,169;206737,065;Mercatorstraat;16;
56093;134314,069;206705,113;Mercatorstraat;17;
3504329;134309,2;206734,081;Mercatorstraat;18;
3504332;134320,699;206702,509;Mercatorstraat;19;
3504334;134315,187;206727,611;Mercatorstraat;20;
1449708;134325,451;206699,584;Mercatorstraat;21;
4449107;134332,793;206696,72;Mercatorstraat;23;
3504335;134329,942;206726,745;Mercatorstraat;24;
4449109;134338,438;206694,034;Mercatorstraat;25;
56085;134338,779;206722,968;Mercatorstraat;26;
3504339;134342,367;206689,534;Mercatorstraat;27;
3948735;134347,182;206719,943;Mercatorstraat;28;
3504340;134347,464;206688,959;Mercatorstraat;29;
3504343;134352,478;206714,319;Mercatorstraat;30;
3948736;134351,074;206686,783;Mercatorstraat;31;
3504344;134357,94;206712,534;Mercatorstraat;32;
3504346;134357,349;206686,39;Mercatorstraat;33;
3504348;134364,154;206709,792;Mercatorstraat;34;
3504349;134365,208;206684,187;Mercatorstraat;35;
56086;134371,32;206706,228;Mercatorstraat;36;
3948737;134376,174;206703,708;Mercatorstraat;36;B
3504351;134380,559;206702,375;Mercatorstraat;36;C
56087;134370,58;206676,291;Mercatorstraat;37;
61718;134397,41;206694,472;Mercatorstraat;38;
9375;134399,618;206669,269;Mercatorstraat;39;
6432344;134392,697;206673,396;Mercatorstraat;39;A
6474362;134396,933;206671,999;Mercatorstraat;39;B
5985181;134406,676;206667,163;Mercatorstraat;39;C
4448718;134405,536;206691,433;Mercatorstraat;40;
4220328;134411,622;206663,794;Mercatorstraat;41;
4448720;134409,881;206689,397;Mercatorstraat;42;
3504355;134417,395;206660,857;Mercatorstraat;43;
3504357;134416,473;206687,413;Mercatorstraat;44;
3504359;134423,141;206657,805;Mercatorstraat;45;
61719;134424,117;206683,901;Mercatorstraat;46;
61720;134431,045;206681,564;Mercatorstraat;48;
3504363;134431,382;206684,183;Mercatorstraat;48;A
6179005;134435,102;206685,671;Mercatorstraat;48;B
3504364;134434,32;206654,322;Mercatorstraat;49;
61721;134438,071;206674,367;Mercatorstraat;50;
3504367;134441,631;206651,627;Mercatorstraat;51;
3504368;134442,353;206672,732;Mercatorstraat;52;
61717;134446,545;206648,929;Mercatorstraat;53;
61722;134450,482;206673,463;Mercatorstraat;54;
62530;134454,977;206644,843;Mercatorstraat;55;
4017159;134457,941;206669,871;Mercatorstraat;56;
3504374;134461,144;206641,711;Mercatorstraat;57;
4028785;134466,299;206639,272;Mercatorstraat;59;
6347298;134473,278;206639,346;Mercatorstraat;61;A
6347303;134471,744;206633,394;Mercatorstraat;61;B
61723;134475,26;206661,757;Mercatorstraat;62;
4448196;134478,002;206632,51;Mercatorstraat;63;
3504381;134481,978;206631,349;Mercatorstraat;65;
61725;134497,862;206653,784;Mercatorstraat;66;
4448199;134486,957;206628,85;Mercatorstraat;67;
61726;134508,559;206648,492;Mercatorstraat;68;
3504387;134513,176;206646,269;Mercatorstraat;70;
4188104;134498,306;206624,28;Mercatorstraat;71;
62532;134520,477;206644,164;Mercatorstraat;72;
62531;134501,913;206622,378;Mercatorstraat;73;
62533;134496,714;206595,702;Mercatorstraat;75;
62534;134525,999;206614,069;Mercatorstraat;77;
3504395;134535,746;206637,227;Mercatorstraat;78;
3948738;134540,84;206608,797;Mercatorstraat;79;A
4448206;134545,869;206633,049;Mercatorstraat;80;
3504398;134568,32;206595,904;Mercatorstraat;81;
3504399;134551,995;206630,999;Mercatorstraat;82;
4448276;134575,561;206592,421;Mercatorstraat;83;
3504401;134555,674;206628,108;Mercatorstraat;84;
3504405;134587,772;206586,826;Mercatorstraat;87;
4448281;134590,894;206585,334;Mercatorstraat;89;
3504409;134568,308;206618,967;Mercatorstraat;90;
62536;134602,024;206583,884;Mercatorstraat;91;
3504412;134575,567;206620,07;Mercatorstraat;92;
56061;134624,175;206572,596;Mercatorstraat;93;
3504422;134640,507;206565,11;Mercatorstraat;97;
3504424;134592,711;206610,211;Mercatorstraat;98;
4448944;134644,324;206563,544;Mercatorstraat;99;
62535;134600,124;206607,694;Mercatorstraat;100;
3504425;134648,158;206561,465;Mercatorstraat;101;
9379;134611,826;206603,155;Mercatorstraat;102;
3504429;134651,89;206559,666;Mercatorstraat;103;
3504432;134656,369;206558,234;Mercatorstraat;105;
4448949;134660,579;206555,971;Mercatorstraat;107;
4015932;134666,136;206553,183;Mercatorstraat;109;
3504439;134672,286;206550,785;Mercatorstraat;111;
4448953;134677,452;206548,202;Mercatorstraat;113;
3504445;134682,474;206545,645;Mercatorstraat;115;
4448956;134686,979;206544,134;Mercatorstraat;117;
4216890;134691,314;206541,969;Mercatorstraat;119;
3504453;134694,539;206540,66;Mercatorstraat;121;
3504456;134698,738;206538,99;Mercatorstraat;123;
3504458;134701,948;206537,446;Mercatorstraat;125;
3504463;134705,382;206536,123;Mercatorstraat;127;
3504464;134708,892;206534,615;Mercatorstraat;129;
4448961;134712,239;206532,953;Mercatorstraat;131;
3504468;134715,585;206531,567;Mercatorstraat;133;
3504471;134719,152;206530,006;Mercatorstraat;135;
3504476;134722,748;206528,512;Mercatorstraat;137;
4448965;134726,367;206527,114;Mercatorstraat;139;
3504482;134729,822;206525,441;Mercatorstraat;141;
3504484;134733,805;206523,861;Mercatorstraat;143;
3504485;134738,003;206522,114;Mercatorstraat;145;
56065;134741,874;206520,239;Mercatorstraat;147;
63264;134746,094;206519,092;Mercatorstraat;149;
3504491;134750,387;206516,829;Mercatorstraat;151;
4447928;134747,913;206509,542;Mercatorstraat;153;
4447930;134763,945;206511,583;Mercatorstraat;155;
3504502;134767,838;206509,969;Mercatorstraat;157;
3504503;134771,676;206508,148;Mercatorstraat;159;
4447935;134775,352;206506,532;Mercatorstraat;161;
3504506;134779,024;206504,834;Mercatorstraat;163;
4447937;134782,759;206503,535;Mercatorstraat;165;
4058959;134787,008;206501,946;Mercatorstraat;167;
3504510;134790,443;206500,011;Mercatorstraat;169;
3504514;134794,291;206498,322;Mercatorstraat;171;
3504516;134797,818;206496,534;Mercatorstraat;173;
4447941;134805,326;206493,058;Mercatorstraat;177;
4447944;134809,51;206491,658;Mercatorstraat;179;
4447946;134812,983;206490,194;Mercatorstraat;181;
63262;134816,661;206488,42;Mercatorstraat;183;
4234722;134820,438;206486,883;Mercatorstraat;185;
63263;134824,303;206484,985;Mercatorstraat;187;
3504532;134830,813;206482,093;Mercatorstraat;189;
4447787;134837,586;206479,322;Mercatorstraat;191;
3504538;134841,047;206477,382;Mercatorstraat;193;
3504542;134844,835;206475,701;Mercatorstraat;195;
3504544;134848,586;206473,908;Mercatorstraat;197;
4447790;134852,628;206472,04;Mercatorstraat;199;
3504549;134856,57;206470,2;Mercatorstraat;201;
3504553;134860,394;206468,513;Mercatorstraat;203;
3504554;134864,225;206466,855;Mercatorstraat;205;
4223737;134868,065;206465,186;Mercatorstraat;207;
4447795;134872,122;206463,503;Mercatorstraat;209;
4447798;134876,442;206461,723;Mercatorstraat;211;
3504559;134881,416;206459,662;Mercatorstraat;213;
4447801;134886,037;206457,566;Mercatorstraat;215;
4447803;134889,742;206456,077;Mercatorstraat;217;
4447805;134893,499;206454,392;Mercatorstraat;219;
3504563;134898,135;206451,371;Mercatorstraat;221;
9489;134540,666;205567,835;Moerlandstraat;1;
3504996;134525,005;205568,132;Moerlandstraat;3;
3504998;134528,152;205564,173;Moerlandstraat;3;A
3505000;134524,375;205562,489;Moerlandstraat;3;B
3505003;134521,455;205560,012;Moerlandstraat;5;
4457104;134518,496;205557,472;Moerlandstraat;7;
3505006;134515,145;205546,072;Moerlandstraat;9;
3505009;134508,663;205542,864;Moerlandstraat;11;
4457106;134501,128;205539,226;Moerlandstraat;13;
4457107;134496,092;205537,044;Moerlandstraat;15;
96640;134490,063;205537,912;Moerlandstraat;17;
91057;134469,863;205527,637;Moerlandstraat;19;
3505019;134464,337;205523,148;Moerlandstraat;21;
4000870;134458,695;205520,267;Moerlandstraat;23;
4188065;134454,269;205518,708;Moerlandstraat;25;
91060;134450,125;205516,356;Moerlandstraat;27;
91061;134445,928;205514,514;Moerlandstraat;29;
3505030;134441,954;205512,681;Moerlandstraat;31;
4468941;134438,008;205510,596;Moerlandstraat;33;
3505033;134434,005;205508,699;Moerlandstraat;35;
91055;134429,456;205506,602;Moerlandstraat;37;
91053;134423,656;205506,304;Moerlandstraat;39;
3505037;134417,908;205501,176;Moerlandstraat;41;
3505040;134414,01;205499,391;Moerlandstraat;43;
4468726;134410,25;205497,341;Moerlandstraat;45;
3505043;134405,776;205495,302;Moerlandstraat;47;
3505044;134401,836;205493,604;Moerlandstraat;49;
3505046;134396,418;205491,121;Moerlandstraat;51;
4468734;134389,813;205487,986;Moerlandstraat;55;
3505047;134384,934;205485,996;Moerlandstraat;57;
91058;134380,86;205484,011;Moerlandstraat;59;
91059;134374,842;205481,141;Moerlandstraat;61;
3505052;134370,216;205478,909;Moerlandstraat;63;
3505053;134366,347;205477,119;Moerlandstraat;65;
3505054;134359,149;205475,913;Moerlandstraat;67;
4468745;134355,811;205472,934;Moerlandstraat;69;
3505057;134352,164;205470,374;Moerlandstraat;71;
1325897;134348,219;205468,583;Moerlandstraat;73;
3505061;134343,138;205468,023;Moerlandstraat;75;
3505063;134335,44;205464,499;Moerlandstraat;77;
91051;134317,088;205454,861;Moerlandstraat;79;
68443;134554,376;206349,669;Papenakkerstraat;1;
4444748;134608;206318;Papenakkerstraat;2;
68444;134574,495;206360,82;Papenakkerstraat;3;
3509864;134596,093;206352,243;Papenakkerstraat;7;
68445;134586,515;206370,148;Papenakkerstraat;8;
3948761;134599,599;206349,301;Papenakkerstraat;9;
4444753;134592,588;206372,715;Papenakkerstraat;10;
3509868;134606,173;206355,374;Papenakkerstraat;11;
68449;134596,845;206370,336;Papenakkerstraat;12;
68446;134616,291;206356,585;Papenakkerstraat;13;
4163806;134621,826;206357,969;Papenakkerstraat;15;
3509870;134638,038;206393,249;Papenakkerstraat;25;
68448;134708,795;206402,969;Papenakkerstraat;37;
96726;134143,66;205871,919;Parklaan;1;
72526;134172,63;205918,156;Parklaan;2;
72543;134168,362;205915,826;Parklaan;2;A
96727;134152,084;205866,431;Parklaan;3;
3509885;134158,465;205869,255;Parklaan;3;A
6464947;134155,187;205870,72;Parklaan;3;B
4454518;134172,391;205906,472;Parklaan;4;
3509906;134180,461;205857,743;Parklaan;9;
3509909;134196,716;205841,623;Parklaan;11;
3509921;134199,951;205888,455;Parklaan;12;
96728;134215,841;205826,958;Parklaan;13;
5572099;134220,237;205824,024;Parklaan;13;A
5886425;134223,584;205821,885;Parklaan;13;B
72528;134206,723;205884,628;Parklaan;14;
6169027;134212,768;205880;Parklaan;14;A
6419364;134218,696;205877,28;Parklaan;14;B
3509931;134228,906;205820,847;Parklaan;15;
6449599;134231,396;205815,467;Parklaan;15;A
6199956;134233,418;205818,396;Parklaan;15;B
3509935;134227,889;205871,885;Parklaan;16;
3509937;134237,247;205817,054;Parklaan;17;
3509941;134236,866;205865,635;Parklaan;18;
3509946;134249,665;205793,599;Parklaan;19;
3509953;134261,453;205785,765;Parklaan;21;
3509957;134273,125;205778,237;Parklaan;23;
4462457;134287,96;205767,858;Parklaan;25;
3509966;134299,753;205763,25;Parklaan;27;
3509968;134307,615;205756,939;Parklaan;29;
3509971;134315,413;205751,092;Parklaan;31;
96729;134322,769;205745,458;Parklaan;33;
3509974;134333,257;205739,547;Parklaan;35;
3509976;134342,876;205733,739;Parklaan;37;
96730;134352,019;205728,989;Parklaan;39;
96731;134360,079;205722,798;Parklaan;41;
96641;134365,834;205722,64;Parklaan;43;
96642;134427,186;205678,465;Parklaan;45;
6417126;134440;205665;Parklaan;47;A
6422309;134435,048;205665,07;Parklaan;47;B
3510002;134445,888;205662,332;Parklaan;49;
3510008;134451,705;205655,718;Parklaan;51;
96646;134466,686;205643,71;Parklaan;55;
96647;134476,053;205635,901;Parklaan;57;
3510026;134484,496;205630,019;Parklaan;59;
3510039;134492,471;205624,135;Parklaan;61;
3510046;134499,483;205616,112;Parklaan;63;
4457121;134508,983;205608,133;Parklaan;65;
96643;134516,081;205600,573;Parklaan;67;
96644;134530,489;205587,062;Parklaan;69;
96645;134544,756;205579,539;Parklaan;71;
5495076;134549;206176;Philippus Neridreef;3;
75468;134831,067;206041,567;Polderstraat;1;
75570;134825,966;206054,952;Polderstraat;2;
3512063;134843,28;206044,473;Polderstraat;3;
4455368;134838,52;206060,095;Polderstraat;4;
4464796;134848,135;206046,373;Polderstraat;5;
75467;134842,273;206061,903;Polderstraat;6;
4464798;134853,16;206048,07;Polderstraat;7;
75469;134845,819;206065,542;Polderstraat;8;
3512067;134856,398;206049,368;Polderstraat;9;
4191442;134851,936;206066,422;Polderstraat;10;
3512069;134856,138;206068,035;Polderstraat;12;
3512071;134866,763;206052,663;Polderstraat;13;
3512072;134860,292;206069,715;Polderstraat;14;
4464803;134871,173;206054,372;Polderstraat;15;
3512076;134875,316;206056,12;Polderstraat;17;
4464734;134868,509;206073,363;Polderstraat;18;
3512078;134879,518;206057,863;Polderstraat;19;
4464736;134872,856;206074,883;Polderstraat;20;
4464808;134884,354;206059,012;Polderstraat;21;
3512081;134879,434;206077,624;Polderstraat;22;
3512083;134888,769;206060,359;Polderstraat;23;
3512089;134892,788;206061,865;Polderstraat;25;
3512093;134885,331;206080,151;Polderstraat;26;
75470;134897,036;206063,695;Polderstraat;27;
75471;134889,673;206081,911;Polderstraat;28;
75466;134900,911;206065,274;Polderstraat;29;
75472;134892,98;206084,766;Polderstraat;30;
4464766;134905,16;206067,205;Polderstraat;31;
3512105;134891,516;206088,379;Polderstraat;32;
3512108;134910,818;206069,814;Polderstraat;33;
3512111;134897,235;206090,58;Polderstraat;34;
3512115;134916,578;206071,903;Polderstraat;35;
4204297;134898,755;206086,862;Polderstraat;36;
4275435;134903,947;206097,84;Polderstraat;38;
3512117;134906,325;206089,498;Polderstraat;38;A
3512120;134905,654;206093,115;Polderstraat;38;B
3512126;134912,769;206092,092;Polderstraat;40;A
5390736;134911,119;206095,585;Polderstraat;40;B
3512133;134921,505;206093,726;Polderstraat;42;
4259654;134933,467;206079,291;Polderstraat;43;
4464774;134937,538;206081,104;Polderstraat;45;
3512136;134927,285;206096,297;Polderstraat;46;
4004389;134941,746;206082,738;Polderstraat;47;
4227995;134930,909;206098,95;Polderstraat;48;
9449;134946,08;206084,501;Polderstraat;49;
3512139;134935,654;206099,444;Polderstraat;50;
3512142;134939,144;206101,302;Polderstraat;52;
75473;134942,119;206103,693;Polderstraat;54;
3512145;134947,625;206104,195;Polderstraat;56;
56083;134232,865;206723,197;Prins Albertstraat;2;
3484720;134240,77;206713,676;Prins Albertstraat;4;
3484723;134245,236;206707,008;Prins Albertstraat;6;
3484725;134248,862;206700,548;Prins Albertstraat;8;
3484727;134251,764;206695,04;Prins Albertstraat;10;
3484729;134256,025;206687,302;Prins Albertstraat;12;
56082;134258,695;206683,283;Prins Albertstraat;14;
56081;134261,89;206677,678;Prins Albertstraat;16;
3484736;134264,221;206673,458;Prins Albertstraat;18;
3484737;134266,954;206668,658;Prins Albertstraat;20;
3484738;134271,108;206662,086;Prins Albertstraat;22;
3484740;134274,626;206654,866;Prins Albertstraat;24;
4449177;134276,934;206649,813;Prins Albertstraat;26;
3484743;134279,318;206645,545;Prins Albertstraat;28;
56075;134283,976;206642,956;Prins Albertstraat;30;
6466017;134280,42;206640,163;Prins Albertstraat;30;B
56074;134284,867;206636,084;Prins Albertstraat;32;
3484747;134288,87;206630,08;Prins Albertstraat;34;
3484749;134292,01;206625,447;Prins Albertstraat;36;
3948535;134294,126;206621,487;Prins Albertstraat;38;
4153361;134299,465;206612,079;Prins Albertstraat;42;
3484757;134303,164;206607,426;Prins Albertstraat;44;A
56077;134306,497;206602,211;Prins Albertstraat;44;B
3484759;134310,13;206596,48;Prins Albertstraat;46;
3484762;134312,744;206591,583;Prins Albertstraat;48;
3484768;134325,155;206570,202;Prins Albertstraat;56;
3484771;134326,27;206565,554;Prins Albertstraat;58;
56079;134332,08;206555,702;Prins Albertstraat;62;
4449144;134333,799;206551,937;Prins Albertstraat;64;
3484780;134336,727;206544,686;Prins Albertstraat;68;
56080;134340,074;206540,457;Prins Albertstraat;70;
69271;134354,517;206463,604;Regentieplein;1;
3512806;134360,315;206467,09;Regentieplein;2;
3512809;134364,771;206469,314;Regentieplein;3;
3512810;134369,386;206472,102;Regentieplein;4;
4444643;134373,715;206475,843;Regentieplein;5;
4444645;134379,798;206480,179;Regentieplein;6;
69270;134387,841;206488,017;Regentieplein;8;
61729;134387,893;206507,994;Regentieplein;9;
3948785;134386,034;206510,923;Regentieplein;10;
3512817;134384,174;206513,946;Regentieplein;11;
3512820;134382,267;206516,828;Regentieplein;12;
3512823;134391,799;206510,551;Regentieplein;13;
3512826;134389,893;206513,388;Regentieplein;14;
3512828;134387,986;206516,456;Regentieplein;15;
3512830;134386,126;206519,479;Regentieplein;16;
3512832;134390,358;206522,129;Regentieplein;17;
3512840;134371,156;206532,561;Regentieplein;30;
3512842;134369,233;206535,769;Regentieplein;31;
3512848;134366,331;206543,981;Regentieplein;33;
3512852;134375,335;206534,945;Regentieplein;34;
3512854;134373,091;206537,972;Regentieplein;35;
3512855;134373,731;206540,881;Regentieplein;36;
3512856;134372,784;206542,648;Regentieplein;37;
3512858;134371,729;206544,415;Regentieplein;38;
61728;134376,657;206541,439;Regentieplein;39;
62526;134402,947;206503,23;Regentiestraat;34;
3512923;134408,53;206502,243;Regentiestraat;36;
68478;134392,248;206485,494;Regentiestraat;37;
3512925;134413,871;206501,879;Regentiestraat;38;
3512927;134396,422;206484,038;Regentiestraat;39;
3948787;134423,978;206500,092;Regentiestraat;40;
4156366;134399,278;206483,079;Regentiestraat;41;
3512928;134434,437;206499,659;Regentiestraat;42;
3995016;134406,21;206481,306;Regentiestraat;43;
3512932;134413,483;206479,964;Regentiestraat;45;
62527;134447,582;206496,069;Regentiestraat;46;
3512936;134419,721;206478,91;Regentiestraat;47;
3512944;134462,952;206492,988;Regentiestraat;52;
3512952;134433,757;206476,507;Regentiestraat;53;
3512954;134467,992;206492,05;Regentiestraat;54;
4262398;134440,107;206474,549;Regentiestraat;55;
3512957;134473,004;206491,094;Regentiestraat;56;
3948789;134446,598;206474,473;Regentiestraat;57;
3512964;134490,133;206487,906;Regentiestraat;58;
5380502;134485,162;206488,871;Regentiestraat;58;A
3512966;134480,111;206489,734;Regentiestraat;58;B
5446952;134476,496;206490,36;Regentiestraat;58;C
3512968;134495,115;206486,878;Regentiestraat;60;
3512970;134474,743;206468,066;Regentiestraat;61;
3512972;134498,704;206486,161;Regentiestraat;62;
3512975;134492,013;206463,169;Regentiestraat;63;
3512977;134502,301;206485,488;Regentiestraat;64;
3512979;134503,891;206465,712;Regentiestraat;65;
3512982;134505,956;206484,655;Regentiestraat;66;
3512984;134510,038;206463,659;Regentiestraat;67;
4030709;134509,746;206483,807;Regentiestraat;68;
3512986;134517,27;206460,815;Regentiestraat;69;
3512988;134514,132;206483,096;Regentiestraat;70;
3512990;134518,854;206482,843;Regentiestraat;72;
3512992;134529,287;206459,338;Regentiestraat;73;
5577989;134524,83;206478,185;Regentiestraat;74;
3512999;134541,626;206456,383;Regentiestraat;75;
62528;134534,23;206476,66;Regentiestraat;76;
68477;134551,845;206456,072;Regentiestraat;77;
6518490;134546,721;206491,559;Regentiestraat;78;A
6518502;134538,817;206493,559;Regentiestraat;78;B
62529;134557,952;206472,609;Regentiestraat;82;
4447894;134708,464;206446,811;Sint-Rochushof;2;
4447897;134707,487;206449,275;Sint-Rochushof;3;
4447899;134709,208;206449,461;Sint-Rochushof;4;
4447902;134711,067;206450,53;Sint-Rochushof;5;
4447904;134709,161;206451,786;Sint-Rochushof;6;
4447905;134721,05;206446,204;Sint-Rochushof;7;
4447907;134719,669;206444,207;Sint-Rochushof;8;
4447909;134718,553;206442,161;Sint-Rochushof;9;
5577829;134716,672;206439,933;Sint-Rochushof;10;
5695242;134707;206503;Sint-Rochushof;18;B
1372940;134778,948;206483,048;Sint-Rochushof;19;
5577830;134713,606;206434,584;Sint-Rochushof;30;
1372937;134711,791;206431,628;Sint-Rochushof;31;
75568;134795,762;206090,684;Sint-Vincentiusstraat;1;
3518559;134808,235;206102,678;Sint-Vincentiusstraat;2;
4455444;134796,383;206072,349;Sint-Vincentiusstraat;3;
75465;134814,545;206090,625;Sint-Vincentiusstraat;4;
3518562;134800,643;206062,911;Sint-Vincentiusstraat;5;
3518565;134816,079;206086,515;Sint-Vincentiusstraat;6;
3518567;134816,951;206082,111;Sint-Vincentiusstraat;8;
6427374;134806,487;206048,558;Sint-Vincentiusstraat;9;A
3518571;134817,877;206078,269;Sint-Vincentiusstraat;10;
5730450;134807,115;206045,743;Sint-Vincentiusstraat;11;A
4455374;134818,615;206074,735;Sint-Vincentiusstraat;12;
3518574;134819,558;206071,567;Sint-Vincentiusstraat;14;
75462;134807,475;206032,354;Sint-Vincentiusstraat;15;
3518576;134821,317;206066,687;Sint-Vincentiusstraat;16;
4267573;134808,405;206027,739;Sint-Vincentiusstraat;17;
75464;134822,907;206060,069;Sint-Vincentiusstraat;18;
3518579;134809,355;206023,106;Sint-Vincentiusstraat;19;
75463;134829,773;206034,929;Sint-Vincentiusstraat;20;
3518581;134810,553;206018,71;Sint-Vincentiusstraat;21;
3518583;134831,071;206030,952;Sint-Vincentiusstraat;22;
3518584;134832,674;206026,904;Sint-Vincentiusstraat;24;
75461;134811,915;206012,744;Sint-Vincentiusstraat;25;
3518586;134813,707;206006,024;Sint-Vincentiusstraat;27;
3518588;134838,159;206023,691;Sint-Vincentiusstraat;28;
3518590;134815,609;206002,103;Sint-Vincentiusstraat;29;
3518592;134833,658;206013,552;Sint-Vincentiusstraat;30;
4151248;134816,654;205997,137;Sint-Vincentiusstraat;31;
4464787;134836,415;206007,919;Sint-Vincentiusstraat;32;
75459;134817,937;205992,893;Sint-Vincentiusstraat;33;
4206418;134837,419;206003,548;Sint-Vincentiusstraat;34;
5913021;134819,932;205988,976;Sint-Vincentiusstraat;35;
75458;134837,231;206000,106;Sint-Vincentiusstraat;36;
6004501;134401,291;206839,472;Stationsplein;19;A
6004510;134395,879;206836,824;Stationsplein;19;B
69849;134376,454;206826,082;Stationsplein;21;
4462014;134368,169;206821,647;Stationsplein;22;
3515263;134361,389;206818,902;Stationsplein;23;
4045039;134354,385;206814,959;Stationsplein;24;
4462017;134339,967;206806,131;Stationsplein;26;
3515268;134326,019;206798,01;Stationsplein;28;
6051618;134319,586;206795,12;Stationsplein;29;B
5920356;134312,051;206790,411;Stationsplein;29;C
5899322;134298,356;206783,536;Stationsplein;30;B
6453188;134282,177;206774,474;Stationsplein;30;C
6453187;134265,411;206765,589;Stationsplein;30;D
56049;134589,645;206481,645;Truweelstraat;1;
62522;134562,155;206476,432;Truweelstraat;2;
56050;134589,958;206489,659;Truweelstraat;3;
4449011;134592;206495;Truweelstraat;5;
3516636;134593,542;206502,335;Truweelstraat;7;
3516638;134599,415;206514,631;Truweelstraat;9;
3516640;134572,805;206501,966;Truweelstraat;10;
3516642;134601,46;206519,653;Truweelstraat;11;
4448220;134574,379;206506,482;Truweelstraat;12;
4449017;134603,32;206523,186;Truweelstraat;13;
4448222;134571,326;206514,441;Truweelstraat;14;
4449019;134604,727;206528,115;Truweelstraat;15;
3516645;134576,224;206514,458;Truweelstraat;16;
3516646;134606,659;206533,391;Truweelstraat;17;
3516648;134573,154;206524,014;Truweelstraat;18;
3516652;134613,192;206546,697;Truweelstraat;21;
3516655;134615,843;206553,462;Truweelstraat;23;
3516656;134587,021;206538,903;Truweelstraat;24;
4240773;134616,888;206557,81;Truweelstraat;25;
4058464;134590,02;206542,87;Truweelstraat;26;
3516658;134620,536;206561,241;Truweelstraat;27;
3516659;134591,579;206550,142;Truweelstraat;28;
56051;134621,808;206565,857;Truweelstraat;29;
3516660;134594,165;206556,085;Truweelstraat;30;
3516668;134600,187;206568,247;Truweelstraat;34;
4448232;134602,197;206573,755;Truweelstraat;36;
4448284;134602,954;206578,434;Truweelstraat;40;
3516679;134616,195;206607,152;Truweelstraat;42;
3516682;134619,675;206618,348;Truweelstraat;46;
3516685;134621,455;206622,585;Truweelstraat;48;
3516688;134622,774;206626,874;Truweelstraat;50;
3516690;134625,155;206632,639;Truweelstraat;52;
3516693;134627,452;206641,046;Truweelstraat;54;
3948821;134629,848;206657,812;Truweelstraat;58;
3516699;134626,644;206666,107;Truweelstraat;60;B
3516701;134639,015;206673,747;Truweelstraat;62;
3516705;134640,635;206678,006;Truweelstraat;64;
3516708;134642,215;206682,62;Truweelstraat;66;
4448298;134645,314;206691,904;Truweelstraat;70;
4448300;134646,732;206696,568;Truweelstraat;72;
75541;134525,414;206000,353;Veldstraat;1;
3517615;134530,195;206004,305;Veldstraat;3;
3948829;134537,434;206008,152;Veldstraat;5;
3517618;134543,855;206012,486;Veldstraat;7;
3517622;134552,756;206017,353;Veldstraat;9;
3517625;134570,498;206046,845;Veldstraat;12;
3517627;134568,777;206027,056;Veldstraat;13;
3517629;134576,907;206049,632;Veldstraat;14;
3517631;134575,332;206029,134;Veldstraat;15;
75545;134579,146;206030,357;Veldstraat;17;
3517633;134599,845;206058,491;Veldstraat;18;
75543;134585,398;206033,347;Veldstraat;19;
75544;134603,858;206059,853;Veldstraat;20;
3517636;134591,574;206034,982;Veldstraat;21;
75546;134606,275;206062,092;Veldstraat;22;
4046985;134595,554;206036,379;Veldstraat;23;
3517638;134611,297;206062,285;Veldstraat;24;
3517640;134600,06;206037,714;Veldstraat;25;
3517642;134614,959;206063,157;Veldstraat;26;
3517644;134603,814;206039,157;Veldstraat;27;
4455357;134618,927;206065,047;Veldstraat;28;
3517646;134607,744;206040,345;Veldstraat;29;
3517647;134622,944;206065,601;Veldstraat;30;
3517649;134611,812;206041,794;Veldstraat;31;
3517651;134629,175;206068,128;Veldstraat;32;
3517654;134624,413;206045,26;Veldstraat;33;
4261387;134628,936;206046,142;Veldstraat;35;
4188538;134637,328;206069;Veldstraat;36;
4455363;134643,856;206071,498;Veldstraat;38;
3517655;134637,466;206048,185;Veldstraat;39;
3517656;134647,627;206072,476;Veldstraat;40;
3517659;134651,958;206073,873;Veldstraat;42;
3517660;134654,82;206055,13;Veldstraat;43;
3517662;134656,286;206075,825;Veldstraat;44;
3517664;134660,954;206056,695;Veldstraat;45;
3517665;134660,119;206076,777;Veldstraat;46;
3517667;134665,18;206057,672;Veldstraat;47;
3517670;134664,731;206078,486;Veldstraat;48;
75549;134669,105;206059,04;Veldstraat;49;
4250563;134669,369;206079,639;Veldstraat;50;
75550;134673,271;206060,942;Veldstraat;51;
75548;134676,908;206063,285;Veldstraat;53;
75552;134681,731;206084,107;Veldstraat;54;
75553;134687,519;206065,374;Veldstraat;55;
3517677;134691,228;206086,049;Veldstraat;56;
5401757;134695,975;206067,734;Veldstraat;57;
3517679;134698,32;206089,038;Veldstraat;58;
3517682;134707,385;206092,54;Veldstraat;60;
4455459;134740,174;206103,655;Veldstraat;68;
3517686;134744,403;206104,868;Veldstraat;70;
75554;134710,552;206072,239;Veldstraat;71;
3517687;134748,744;206105,986;Veldstraat;72;
3517689;134753,087;206106,84;Veldstraat;74;
3517692;134722,03;206075,797;Veldstraat;75;
3517695;134757,581;206107,783;Veldstraat;76;
3517697;134728,538;206077,144;Veldstraat;77;
3517701;134732,861;206078,092;Veldstraat;79;
3517702;134766,359;206110,474;Veldstraat;80;
3517704;134737,547;206079,546;Veldstraat;81;
3517705;134770,819;206111,376;Veldstraat;82;
4455426;134742,28;206080,62;Veldstraat;83;
3517707;134774,797;206112,342;Veldstraat;84;
3517709;134746,361;206081,882;Veldstraat;85;
75547;134781,009;206114,206;Veldstraat;86;
3517712;134750,769;206083,558;Veldstraat;87;
75571;134793,294;206120,425;Veldstraat;88;
4455427;134755,562;206085,064;Veldstraat;89;
75556;134804,061;206123,244;Veldstraat;90;
3925998;134759,251;206086,759;Veldstraat;91;
3517721;134809,242;206124,351;Veldstraat;92;
3517723;134765,071;206087,35;Veldstraat;93;
4455474;134814,314;206125,343;Veldstraat;94;
3517725;134769,059;206088,612;Veldstraat;95;
4202146;134818,885;206126,713;Veldstraat;96;
4455431;134772,65;206089,968;Veldstraat;97;
3517727;134776,646;206091,457;Veldstraat;99;
3517732;134781,385;206092,572;Veldstraat;101;
3517734;134831,376;206131,349;Veldstraat;102;
3517736;134786,221;206093,727;Veldstraat;103;
9451;134790,341;206094,719;Veldstraat;105;
4455481;134848,498;206135,252;Veldstraat;106;
75557;134812,415;206104,657;Veldstraat;107;
4036732;134856,143;206136,814;Veldstraat;108;
4455391;134816,734;206105,694;Veldstraat;109;
4165443;134861,164;206140,798;Veldstraat;110;
3517741;134821,201;206106,822;Veldstraat;111;
4455485;134867,224;206143,597;Veldstraat;112;
3517742;134825,525;206107,841;Veldstraat;113;
75558;134873,413;206146,117;Veldstraat;114;
4455393;134829,943;206109,103;Veldstraat;115;
75486;134878,904;206146,97;Veldstraat;116;
4260351;134834,326;206110,516;Veldstraat;117;
3517747;134884,221;206147,816;Veldstraat;118;
3517749;134889,334;206148,859;Veldstraat;120;
4004334;134843,216;206112,843;Veldstraat;121;
3517750;134893,78;206150,273;Veldstraat;122;
3517752;134846,996;206114,278;Veldstraat;123;
3517756;134851,236;206115,748;Veldstraat;125;
3517759;134902,363;206153,268;Veldstraat;126;
3517761;134855,835;206116,767;Veldstraat;127;
4084623;134906,33;206153,973;Veldstraat;128;
3517763;134860,157;206118,253;Veldstraat;129;
3517765;134909,21;206154,367;Veldstraat;130;
4455397;134864,314;206119,578;Veldstraat;131;
3517767;134913,343;206155,641;Veldstraat;132;
3517769;134869,689;206121,387;Veldstraat;133;
3517771;134917,788;206157,808;Veldstraat;134;
3517773;134874,998;206123,546;Veldstraat;135;
3517775;134923,813;206158,457;Veldstraat;136;
3517777;134877,779;206123,595;Veldstraat;137;
3517780;134881,304;206124,302;Veldstraat;139;
4262029;134883,966;206124,782;Veldstraat;141;
4455400;134886,387;206126,641;Veldstraat;143;
3517782;134892,057;206128,702;Veldstraat;145;
3517784;134895,102;206129,098;Veldstraat;147;
3517786;134898,35;206130,069;Veldstraat;149;
4080623;134901,18;206130,26;Veldstraat;151;
4455405;134906,249;206132,944;Veldstraat;153;
4455406;134909,245;206133,066;Veldstraat;155;
4455408;134912,489;206133,488;Veldstraat;157;
3517789;134915,114;206134,72;Veldstraat;159;
3517791;134918,63;206136,313;Veldstraat;161;
3517794;134922,807;206137,975;Veldstraat;163;
4045793;134925,908;206141,232;Veldstraat;165;
5380519;134930,099;206142,383;Veldstraat;165;A
5401758;134929,914;206137,669;Veldstraat;165;B
61715;134370,228;206553,673;Vermorgenstraat;1;
56094;134351,738;206556,281;Vermorgenstraat;2;
3518025;134372,318;206560,267;Vermorgenstraat;3;
56095;134354,623;206559,979;Vermorgenstraat;4;
3518028;134373,212;206565,354;Vermorgenstraat;5;
4449154;134355,186;206563,695;Vermorgenstraat;6;
3518031;134374,024;206571,208;Vermorgenstraat;7;
4449157;134354,49;206568,231;Vermorgenstraat;8;
61716;134376,595;206581,154;Vermorgenstraat;9;
3518034;134355,405;206575,683;Vermorgenstraat;10;
3518036;134377,348;206589,11;Vermorgenstraat;11;
3518039;134356,922;206584,187;Vermorgenstraat;12;
3925999;134378,435;206594,785;Vermorgenstraat;13;
3518041;134357,808;206590,675;Vermorgenstraat;14;
3518043;134380,971;206605,856;Vermorgenstraat;15;
4232008;134360,902;206596,787;Vermorgenstraat;16;
3518045;134361,988;206603,016;Vermorgenstraat;18;
3518047;134362,29;206609,47;Vermorgenstraat;20;
3518049;134383,522;206618,428;Vermorgenstraat;21;
3518052;134364,451;206614,457;Vermorgenstraat;22;
3518054;134385,676;206625,083;Vermorgenstraat;23;
3518056;134365,317;206619,124;Vermorgenstraat;24;
4448694;134384,652;206631,79;Vermorgenstraat;25;
56098;134366,52;206624,576;Vermorgenstraat;26;
3518059;134386,653;206636,218;Vermorgenstraat;27;
56097;134366,675;206633,95;Vermorgenstraat;28;
5804176;134370,745;206658,836;Vermorgenstraat;28;D
5720112;134369,257;206648,558;Vermorgenstraat;28;E
5714642;134368,024;206640,908;Vermorgenstraat;28;F
3518061;134387,312;206641,011;Vermorgenstraat;29;
56096;134377,685;206679,095;Vermorgenstraat;30;
5820396;134376,325;206673,977;Vermorgenstraat;30;B
3518064;134388,919;206644,869;Vermorgenstraat;31;
4448700;134389,045;206649,42;Vermorgenstraat;33;
4448701;134388,85;206653,452;Vermorgenstraat;35;
61714;134390,558;206663,931;Vermorgenstraat;39;
4448859;134385,717;206721,137;Vermorgenstraat;40;
61713;134397,293;206703,179;Vermorgenstraat;43;
4146045;134387,227;206729,049;Vermorgenstraat;44;
4448705;134402,044;206708,307;Vermorgenstraat;45;
4448864;134388,258;206733,025;Vermorgenstraat;46;
5422266;134400,291;206713,905;Vermorgenstraat;47;A
3518077;134404,529;206713,14;Vermorgenstraat;47;B
3518080;134389,107;206736,887;Vermorgenstraat;48;
61712;134403,849;206718,276;Vermorgenstraat;49;
3518082;134389,926;206740,784;Vermorgenstraat;50;
61711;134404,268;206722,073;Vermorgenstraat;51;
3518084;134390,707;206744,779;Vermorgenstraat;52;
3518086;134404,947;206726,658;Vermorgenstraat;53;
4448723;134405,63;206731,068;Vermorgenstraat;55;
3518091;134406,331;206734,987;Vermorgenstraat;57;
4448867;134392,294;206756,647;Vermorgenstraat;58;
3518093;134393,256;206760,956;Vermorgenstraat;60;
4009597;134408,546;206746,286;Vermorgenstraat;61;
4208001;134394,367;206764,303;Vermorgenstraat;62;
3948842;134409,395;206756,895;Vermorgenstraat;63;
3518095;134394,754;206768,392;Vermorgenstraat;64;
61710;134411,624;206764,617;Vermorgenstraat;65;
4448868;134394,997;206772,871;Vermorgenstraat;66;
4448869;134395,89;206776,969;Vermorgenstraat;68;
4448874;134396,993;206785,592;Vermorgenstraat;72;
3518104;134397,246;206795,017;Vermorgenstraat;74;
3518105;134398,042;206799,714;Vermorgenstraat;76;
3518109;134400,269;206806,283;Vermorgenstraat;78;
3518110;134401,564;206816,006;Vermorgenstraat;80;
977885;134324,743;205994,787;Walburgstraat;2;
1513939;134316,038;205982,935;Walburgstraat;3;
1513940;134337,989;205991,349;Walburgstraat;4;
1513941;134321,291;205980,771;Walburgstraat;5;
1513942;134344,177;205989,864;Walburgstraat;6;
1513943;134327,671;205978,124;Walburgstraat;7;
1513944;134350,67;205987,963;Walburgstraat;8;
1513945;134333,699;205975,992;Walburgstraat;9;
1513947;134341,766;205973,108;Walburgstraat;11;
1513948;134364,131;205984,627;Walburgstraat;12;
1513949;134351,138;205969,617;Walburgstraat;13;
1513950;134370,169;205982,798;Walburgstraat;14;
1513952;134376,863;205980,527;Walburgstraat;16;
1513953;134360,74;205966,876;Walburgstraat;17;
1357427;134382,865;205977,903;Walburgstraat;18;
1513954;134367;205965;Walburgstraat;19;
1513956;134378,071;205960,939;Walburgstraat;21;
977884;134397,181;205973,714;Walburgstraat;22;
1513957;134388,469;205957,009;Walburgstraat;23;
1513959;134414,964;205966,245;Walburgstraat;26;
1513960;134405,716;205951,216;Walburgstraat;27;
1513961;134425,13;205962,827;Walburgstraat;28;
1513962;134414,24;205948,129;Walburgstraat;29;
1513963;134429,843;205962,569;Walburgstraat;30;
72532;134423,579;205945,813;Walburgstraat;31;
1513964;134436,521;205959,923;Walburgstraat;32;
75747;134428,949;205943,624;Walburgstraat;33;
1513965;134442,592;205957,971;Walburgstraat;34;
1513966;134413,412;205897,835;Walburgstraat;35;
1513967;134448,153;205956,993;Walburgstraat;36;
1513968;134469,335;205908,342;Walburgstraat;37;
1513969;134454,376;205955,408;Walburgstraat;38;
1513970;134453,791;205923,907;Walburgstraat;39;
1513971;134456,762;205934,325;Walburgstraat;41;
1513972;134465,402;205953,155;Walburgstraat;42;
5427126;134470,208;205951,927;Walburgstraat;42;B
1513975;134464,024;205932,322;Walburgstraat;45;
1513868;134469,562;205929,69;Walburgstraat;47;
3948865;134485,306;205947,648;Walburgstraat;48;A
75752;134492,164;205943,915;Walburgstraat;48;B
1513877;134473,797;205927,823;Walburgstraat;49;
1513977;134496,341;205943,227;Walburgstraat;50;
1513980;134481,03;205925,699;Walburgstraat;53;
1513981;134513,267;205936,576;Walburgstraat;54;
1513982;134491,678;205922,044;Walburgstraat;55;
1513983;134518,861;205934,475;Walburgstraat;56;
1513984;134499,01;205919,504;Walburgstraat;57;
1513985;134523,393;205933,262;Walburgstraat;58;
1513986;134507,157;205917,371;Walburgstraat;59;
1513987;134529,4;205930,638;Walburgstraat;60;
1513988;134514,246;205915,053;Walburgstraat;61;
1513989;134533,797;205929,113;Walburgstraat;62;
1513990;134521,648;205912,992;Walburgstraat;63;
1513991;134539,796;205926,89;Walburgstraat;64;
1513992;134528,757;205910,784;Walburgstraat;65;
1513993;134546,171;205924,381;Walburgstraat;66;
1513994;134533,948;205908,467;Walburgstraat;67;
1513995;134551,51;205922,462;Walburgstraat;68;
1513996;134538,726;205906,265;Walburgstraat;69;
75750;134555,23;205920,128;Walburgstraat;70;
1513997;134543,151;205904,756;Walburgstraat;71;
1513998;134547,906;205903,206;Walburgstraat;73;
1514000;134567,437;205896,128;Walburgstraat;81;
3521564;134572,639;205894,526;Walburgstraat;83;
3948866;134578,872;205892,404;Walburgstraat;85;
68400;134297,764;206206,379;Zamanstraat;1;
4444843;134298,048;206211,675;Zamanstraat;3;
3525056;134299,874;206220,233;Zamanstraat;5;
3525075;134303,82;206233,936;Zamanstraat;9;B
4444846;134304,623;206237,884;Zamanstraat;11;
3525081;134306,111;206244,844;Zamanstraat;13;
3525097;134308,242;206249,904;Zamanstraat;15;
3525101;134309,426;206253,517;Zamanstraat;17;
68399;134316,516;206286,692;Zamanstraat;31;
3525116;134318,126;206291,399;Zamanstraat;33;
3525125;134318,774;206298,121;Zamanstraat;35;
3525138;134320,95;206304,583;Zamanstraat;37;
3525145;134322,632;206308,758;Zamanstraat;39;
3525148;134323,386;206316,518;Zamanstraat;41;
4269924;134324,237;206321,334;Zamanstraat;43;
68398;134325,274;206327,457;Zamanstraat;45;
68467;134327,009;206331,8;Zamanstraat;47;
3525162;134337,875;206393,43;Zamanstraat;49;
3525168;134345,709;206424,444;Zamanstraat;51;
3525173;134347,45;206435,437;Zamanstraat;53;
3525179;134348,463;206440,867;Zamanstraat;55;
3525182;134350,663;206444,871;Zamanstraat;57;
3948883;134351,182;206451,407;Zamanstraat;59;
1514001;134580,021;205869,86;Zeildoekstraat;3;
1514002;134578,488;205865,242;Zeildoekstraat;5;
1514003;134576,993;205860,223;Zeildoekstraat;7;
1514004;134575,333;205856,132;Zeildoekstraat;9;
1514005;134573,212;205851,549;Zeildoekstraat;11;
1514006;134571,369;205846,661;Zeildoekstraat;13;
1514008;134567,444;205837,582;Zeildoekstraat;17;
1514009;134565,439;205833,033;Zeildoekstraat;19;
1514010;134563,859;205828,219;Zeildoekstraat;21;
1514011;134562,015;205823,856;Zeildoekstraat;23;
75736;134560,023;205819,28;Zeildoekstraat;25;
4230163;134578,752;205823,778;Zeildoekstraat;29;
3525267;134580,53;205826,87;Zeildoekstraat;31;
4443051;134582,239;205831,177;Zeildoekstraat;33;
3525271;134583,357;205835,102;Zeildoekstraat;35;
3525277;134586,111;205839,999;Zeildoekstraat;37;
4443052;134588,086;205846,87;Zeildoekstraat;39;
4443055;134589,749;205852,84;Zeildoekstraat;43;
3525280;134591,268;205857,577;Zeildoekstraat;45;
3525284;134592,814;205860,975;Zeildoekstraat;47;
9455;134594,997;205866,829;Zeildoekstraat;49;
5982284;134323;206244;Zwijgershoek;1;
3948529;134325,539;206286,324;Zwijgershoek;2;
68405;134331,188;206246,277;Zwijgershoek;3;
6388618;134346;206290;Zwijgershoek;8;
854102;134383,54;206309,176;Zwijgershoek;10;
68406;134350,621;206273,348;Zwijgershoek;11;
4157611;134361,536;206276,093;Zwijgershoek;13;
6383957;134458;206394;Zwijgershoek;14;
4032571;134369,391;206278,137;Zwijgershoek;15;
4444833;134377,905;206279,928;Zwijgershoek;17;
3483874;134390,117;206284,636;Zwijgershoek;21;
68404;134395,445;206285,722;Zwijgershoek;23;
68403;134404,789;206288,169;Zwijgershoek;25;
6528337;134398,375;206287,164;Zwijgershoek;25;B
5435251;134423,217;206298,214;Zwijgershoek;27;
3925931;134251,235;206165,041;Ankerstraat;7;
3948541;134271,958;206171,68;Ankerstraat;15;
3484802;134279,89;206178,194;Ankerstraat;17;
68419;134326,709;206214,825;Ankerstraat;28;
4444907;134314,223;206189,791;Ankerstraat;31;
4444909;134324,111;206191,643;Ankerstraat;33;
3484815;134354,786;206223,802;Ankerstraat;38;
68416;134356,628;206203,317;Ankerstraat;47;
68409;134381,139;206235,886;Ankerstraat;48;
68411;134362,52;206204,435;Ankerstraat;49;
5411572;134365,177;206205,634;Ankerstraat;49;B
3484825;134369,258;206207,349;Ankerstraat;51;
3484827;134374,642;206208,14;Ankerstraat;53;
3484833;134418,245;206241,612;Ankerstraat;58;
3484835;134425,81;206246,006;Ankerstraat;60;
68431;134396,667;206215,34;Ankerstraat;61;
3484844;134453,88;206252,633;Ankerstraat;70;
3484856;134487,453;206286,689;Ankerstraat;90;
3484865;134546,327;206375,115;Ankerstraat;103;
63268;134919,144;206443,255;Antwerpse Steenweg;40;
3508947;134347,858;205672,195;August Nobelsstraat;9;
91080;134326,228;205669,274;August Nobelsstraat;13;
5705661;134999,859;205798,449;Azalealaan;6;
60744;134938,263;205710,818;Brugsken;2;
3948579;134942,308;205708,101;Brugsken;4;
4466385;134984,409;205683,021;Brugsken;26;
3486988;135037,95;205652,559;Brugsken;50;
61731;134437,216;206758,233;De Gravestraat;1;
4448729;134476,12;206747,732;De Gravestraat;9;
3490693;134498,657;206741,581;De Gravestraat;17;
3490696;134508,213;206739,031;De Gravestraat;19;
1505687;134630,266;206700,934;De Gravestraat;69;
5411555;134631,899;206705,238;De Gravestraat;69;C
4448317;134647,585;206702,279;De Gravestraat;71;
3511273;134199,283;205929,2;Grote Peperstraat;9;
3511301;134264,429;205909,042;Grote Peperstraat;25;
1513905;134253,467;205949,541;Grote Peperstraat;35;
72520;134305,329;205979,305;Grote Peperstraat;55;
1514090;134607,462;205879,103;Hospitaalstraat;3;
1514092;134612,891;205874,303;Hospitaalstraat;5;
1514096;134618,823;205870,372;Hospitaalstraat;9;
1514099;134629,002;205864,729;Hospitaalstraat;13;
75759;134645,335;205830,475;Hospitaalstraat;17;
75755;134697,826;205805,237;Hospitaalstraat;19;
76250;134248,046;206137,484;Kalkstraat;4;
3497483;134329,58;206094,404;Kalkstraat;28;
3948683;134396,204;206027,457;Kalkstraat;43;
75562;134492,099;206119,296;Kalkstraat;46;
3497507;134421,674;206036,825;Kalkstraat;48;
75564;134482,957;206006,425;Kalkstraat;50;
1514014;134531,628;205984,259;Kalkstraat;58;
4205873;134540,466;205948,804;Kalkstraat;93;
3497555;134544,782;205942,56;Kalkstraat;95;
3497559;134549,426;205936,834;Kalkstraat;97;
4210065;134553,26;205931,691;Kalkstraat;99;
68426;134584,363;206461,573;Klein-Hulststraat;1;
3500072;134603,042;206475,635;Klein-Hulststraat;8;
4449038;134607,362;206474,008;Klein-Hulststraat;10;
3500073;134608,176;206452,597;Klein-Hulststraat;11;
4449040;134612,057;206472,192;Klein-Hulststraat;12;
3500096;134676,101;206446,274;Klein-Hulststraat;60;
3500099;134690,062;206462,989;Klein-Hulststraat;64;
3500113;134730,065;206425,928;Klein-Hulststraat;80;
3948696;134791,104;206399,822;Klein-Hulststraat;108;
4447886;134810,108;206390,961;Klein-Hulststraat;116;
3500132;134822,426;206387,389;Klein-Hulststraat;122;
3500266;134235,327;205602,14;Knaptandstraat;26;
5904901;134236,226;205600,072;Knaptandstraat;26;A
4059929;134154,668;205798,151;Kokkelbeekstraat;22;
4462478;134161,599;205780,461;Kokkelbeekstraat;32;
3500592;134180,776;205750,131;Kokkelbeekstraat;44;
3500609;134189,866;205712,373;Kokkelbeekstraat;56;
3948702;134191,472;205706,978;Kokkelbeekstraat;58;
4464718;134972,547;206071,268;Lamstraat;32;
75452;134999,766;205998,264;Lamstraat;44;
1514064;134654,4;205940,744;Lodewijk De Meesterstraat;26;
75479;134681,056;205949,278;Lodewijk De Meesterstraat;30;
1514082;134759,709;205973,749;Lodewijk De Meesterstraat;58;
1514086;134790,95;205981,573;Lodewijk De Meesterstraat;66;
4464749;134917,106;206016,218;Lodewijk De Meesterstraat;112;
4365033;134948,527;206027,003;Lodewijk De Meesterstraat;124;
3504323;134268,777;206725,623;Mercatorstraat;9;
3504325;134281,956;206742,614;Mercatorstraat;12;
56084;134321,045;206725,532;Mercatorstraat;22;
4448714;134428,791;206656,599;Mercatorstraat;47;
3504376;134468,876;206664,402;Mercatorstraat;60;
3504378;134468,893;206629,581;Mercatorstraat;61;
61724;134484,681;206657,612;Mercatorstraat;64;
3504386;134493,564;206626,806;Mercatorstraat;69;
3504396;134557,949;206600,466;Mercatorstraat;79;
3504404;134580,451;206589,75;Mercatorstraat;85;
4448210;134559,742;206626,373;Mercatorstraat;86;
3504407;134564,18;206624,612;Mercatorstraat;88;
3504414;134582,943;206613,208;Mercatorstraat;94;
3504417;134633,376;206568,179;Mercatorstraat;95;
3504419;134586,784;206611,424;Mercatorstraat;96;
9385;134912,919;206448,864;Mercatorstraat;227;
4103518;134589,332;206352,995;Papenakkerstraat;5;
4444789;134681,513;206382,394;Papenakkerstraat;29;
3509887;134161,884;205866,262;Parklaan;5;
3509892;134180,415;205899,991;Parklaan;6;
3509897;134169,245;205863,276;Parklaan;7;
3509900;134185,716;205896,538;Parklaan;8;
3948762;134193,304;205892,301;Parklaan;10;
3509950;134244,575;205861,043;Parklaan;20;
72525;134251,24;205856,427;Parklaan;22;
3509961;134256,332;205852,173;Parklaan;24;
3509995;134437,005;205669,11;Parklaan;47;
3948763;134459,077;205650,211;Parklaan;53;
3512075;134863,206;206074,264;Polderstraat;16;
5390734;134920,567;206073,971;Polderstraat;39;A
4464772;134926,82;206076,568;Polderstraat;39;B
3948537;134296,497;206616,781;Prins Albertstraat;40;
3484763;134315,401;206585,298;Prins Albertstraat;50;
3484765;134319,055;206580,565;Prins Albertstraat;52;
3948538;134321,615;206576,01;Prins Albertstraat;54;
56078;134329,117;206560,416;Prins Albertstraat;60;
3948539;134334,335;206548,712;Prins Albertstraat;66;
3512835;134378,012;206528,574;Regentieplein;18;
3512844;134366,524;206539,821;Regentieplein;32;
56071;134349,206;206546,86;Regentieplein;40;
61732;134394,085;206506,221;Regentiestraat;32;
62541;134457,776;206494,131;Regentiestraat;50;
3512942;134425,042;206478,293;Regentiestraat;51;
4030312;134540,491;206475,784;Regentiestraat;78;
4026885;134547,69;206474,594;Regentiestraat;80;
1372936;134702,01;206438,563;Sint-Rochushof;1;
1372938;134713,1;206458,858;Sint-Rochushof;11;
4447912;134716,668;206463,553;Sint-Rochushof;12;
4447914;134720,237;206468,373;Sint-Rochushof;13;
4447915;134723,993;206472,505;Sint-Rochushof;14;
4447918;134727,999;206477,513;Sint-Rochushof;15;
4447920;134733,386;206482,271;Sint-Rochushof;16;
4447922;134737,009;206487,479;Sint-Rochushof;17;
1372939;134760,258;206491,198;Sint-Rochushof;18;
1372942;134781,693;206471,067;Sint-Rochushof;20;
4447749;134780,019;206466,417;Sint-Rochushof;21;
4447752;134777,973;206462,046;Sint-Rochushof;22;
1372947;134776,02;206458,048;Sint-Rochushof;23;
1372944;134774,253;206453,677;Sint-Rochushof;24;
1372949;134772,3;206449,027;Sint-Rochushof;25;
1372946;134770,719;206444,936;Sint-Rochushof;26;
1517821;134769,046;206440,286;Sint-Rochushof;27;
1517820;134765,233;206432,475;Sint-Rochushof;28;
1372950;134763,187;206428,755;Sint-Rochushof;29;
5479783;134798,395;206056,389;Sint-Vincentiusstraat;7;A
5467975;134799,674;206052,235;Sint-Vincentiusstraat;7;B
3518569;134800,591;206048,048;Sint-Vincentiusstraat;9;
4455450;134801,739;206043,919;Sint-Vincentiusstraat;11;
4274491;134802,765;206039,759;Sint-Vincentiusstraat;13;A
4275265;134804,03;206035,964;Sint-Vincentiusstraat;13;B
4448854;134228,125;206733,672;Stationsplein;10;
9373;134399,641;206829,06;Stationsplein;19;
3515258;134384,693;206829,142;Stationsplein;20;
3515266;134347,382;206810,839;Stationsplein;25;
69848;134333,493;206802,777;Stationsplein;27;
4033568;134563,283;206483,15;Truweelstraat;4;
3516630;134567,678;206492,494;Truweelstraat;6;
3948819;134569,935;206498,772;Truweelstraat;8;
3516650;134608,209;206538,038;Truweelstraat;19;
3516651;134578,739;206523,372;Truweelstraat;20;
3516654;134583,648;206531,653;Truweelstraat;22;
3516663;134596,058;206562,135;Truweelstraat;32;
62524;134616,611;206614,391;Truweelstraat;44;
4448292;134629,379;206649,24;Truweelstraat;56;
3516697;134635,43;206663,742;Truweelstraat;60;
3516709;134642,293;206688,035;Truweelstraat;68;
4455378;134543,964;206035,262;Veldstraat;4;
3517617;134553,681;206039,25;Veldstraat;6;
3517620;134556,714;206043,137;Veldstraat;8;
3517623;134563,642;206043,182;Veldstraat;10;
3948830;134561,724;206023,229;Veldstraat;11;
3948831;134587,99;206054,982;Veldstraat;16;
3948832;134632,518;206047,444;Veldstraat;37;
3517657;134642,313;206050,604;Veldstraat;41;
75551;134674,892;206081,312;Veldstraat;52;
3948833;134721,546;206096,533;Veldstraat;64;
3948834;134730,756;206099,727;Veldstraat;66;
75555;134716,497;206074,036;Veldstraat;73;
3517699;134761,953;206109,332;Veldstraat;78;
3517729;134823,873;206130,324;Veldstraat;100;
3517738;134839,382;206134,163;Veldstraat;104;
3948835;134838,033;206111,674;Veldstraat;119;
3517754;134897,041;206153,749;Veldstraat;124;
75487;134927,119;206160,362;Veldstraat;138;
75559;134935,542;206143,604;Veldstraat;167;
5458181;134304,496;206655,637;Vermorgenstraat;28;A
5714641;134322,862;206673,492;Vermorgenstraat;28;B
5720110;134342,019;206669,772;Vermorgenstraat;28;C
3518066;134382,158;206714,001;Vermorgenstraat;32;
3518069;134389,901;206658,371;Vermorgenstraat;37;
4448861;134386,504;206725,146;Vermorgenstraat;42;
3518088;134391,509;206748,509;Vermorgenstraat;54;
3518090;134391,743;206752,756;Vermorgenstraat;56;
4448725;134406,464;206739,769;Vermorgenstraat;59;
61661;134405,821;206842,175;Vermorgenstraat;82;
72531;134309,344;205985,296;Walburgstraat;1;
1513946;134356,105;205987,051;Walburgstraat;10;
1513955;134390,165;205976,12;Walburgstraat;20;
75749;134402,313;205968,418;Walburgstraat;24;
5411570;134405,362;205967,633;Walburgstraat;24;A
1513958;134398,113;205954,17;Walburgstraat;25;
3521507;134400,642;205953,135;Walburgstraat;25;A
1513974;134474,504;205951,042;Walburgstraat;44;
1513976;134480,016;205949,468;Walburgstraat;46;
1513979;134502,571;205938,53;Walburgstraat;52;
75748;134552,833;205901,371;Walburgstraat;75;
75745;134558,937;205898,325;Walburgstraat;77;
3521565;134584,71;205890,802;Walburgstraat;87;
3525068;134302,44;206224,369;Zamanstraat;7;
3948878;134302,94;206230,619;Zamanstraat;9;
3948880;134309,777;206258,761;Zamanstraat;19;
9405;134310,423;206263,757;Zamanstraat;21;
75735;134580,862;205876,56;Zeildoekstraat;1;
5722714;134583,597;205885,264;Zeildoekstraat;1;A
5904903;134582,926;205880,129;Zeildoekstraat;1;B
1514007;134569,616;205842,551;Zeildoekstraat;15;
