Projectnummer;Blok;LAM MK;Straat;Huisnummer;Huisnummer Toevoeging;Huisnr;xPos;yPos;BT;VC Method;LU;BU;SU;TOTAAL;Wall Mount;SS Reason;Number Floors;Building comment;Building exists;Opdrachttemplate
KNOKKE-HEIST - FH04;BL0401;2758570;Van Bunnenplein;18;;;74850,151;227583,778;MDU;;7;1;0;8;N;IRREG;8;_;Y;BUILDING template
KNOKKE-HEIST - FH04;BL0414;2768078;Zeedijk-Het Zoute;815;;;75914,352;227957,426;MDU;;7;0;1;8;Y;NA;7;_;Y;BUILDING template
KNOKKE-HEIST - FH04;BL0407;2759116;Duindistelstraat;5;;;75276,424;227736,626;MDU;;7;0;1;8;Y;NA;7;_;Y;BUILDING template
KNOKKE-HEIST - FH04;BL0414;2768081;Zeedijk-Het Zoute;817;;;75923,605;227962,504;SDU;;0;1;0;1;Y;NA;9;_;Y;BUILDING template
KNOKKE-HEIST - FH04;BL0407;2759118;Duindistelstraat;7;;;75274,165;227729,376;MDU;;10;0;0;10;Y;NA;6;_;Y;BUILDING template
KNOKKE-HEIST - FH04;BL0414;2768082;Zeedijk-Het Zoute;818;;;75928,368;227964,504;SDU;;0;1;0;1;Y;NA;9;_;Y;BUILDING template
KNOKKE-HEIST - FH04;BL0407;2759119;Duindistelstraat;9;;;75272,146;227722,01;SDU;;0;1;0;1;Y;NA;7;_;Y;BUILDING template
KNOKKE-HEIST - FH04;BL0408;3923027;Antoine Breartstraat;16;;;75324,189;227761,203;MDU;;12;0;1;13;N;IRREG;8;_;Y;BUILDING template
KNOKKE-HEIST - FH04;BL0407;2759121;Duindistelstraat;11;;;75270,594;227717,123;MDU;;12;1;0;13;Y;NA;7;_;Y;BUILDING template
KNOKKE-HEIST - FH04;BL0405;3939667;Zandstraat;16;;;75183,319;227681,096;MDU;;8;0;0;8;Y;NA;5;_;Y;BUILDING template
KNOKKE-HEIST - FH04;BL0406;2759123;Duindistelstraat;12;;;75239,3;227703,597;MDU;;15;1;0;16;Y;NA;6;_;Y;BUILDING template
KNOKKE-HEIST - FH04;BL0411;3954195;Kustlaan;213;;;75657,632;227792,457;SDU;;0;1;0;1;Y;NA;7;_;Y;BUILDING template
KNOKKE-HEIST - FH04;BL0407;2759125;Duindistelstraat;15;;;75267,97;227712,401;MDU;;16;0;1;17;Y;NA;7;_;Y;BUILDING template
KNOKKE-HEIST - FH04;BL0408;4067471;Zeedijk-Het Zoute;723;;;75326,818;227776,888;MDU;;17;0;0;17;N;IRREG;9;_;Y;BUILDING template
KNOKKE-HEIST - FH04;BL0413;2759447;Ebbestraat;3;;;75850,946;227892,983;MDU;;10;0;1;11;Y;NA;6;_;Y;BUILDING template
KNOKKE-HEIST - FH04;BL0411;4070277;Strandstraat;10;;;75677,94;227836,707;MDU;;2;0;0;2;Y;NA;4;;N;BUILDING template
KNOKKE-HEIST - FH04;BL0414;2759448;Ebbestraat;4;;;75884,421;227889,628;SDU;;0;1;0;1;Y;NA;7;_;Y;BUILDING template
KNOKKE-HEIST - FH04;BL0406;4073573;Duindistelstraat;14;;;75239,135;227694,885;SDU;;1;0;0;1;Y;NA;2;;N;BUILDING template
KNOKKE-HEIST - FH04;BL0413;2759449;Ebbestraat;5;;;75848,174;227900,537;MDU;;6;0;1;7;Y;NA;7;_;Y;BUILDING template
KNOKKE-HEIST - FH04;BL0406;4091179;Zandstraat;11;;;75207,434;227687,764;MDU;;13;0;0;13;Y;NA;7;_;Y;BUILDING template
KNOKKE-HEIST - FH04;BL0414;2759451;Ebbestraat;8;;;75878,971;227901,695;MDU;;10;0;1;11;Y;NA;6;_;Y;BUILDING template
KNOKKE-HEIST - FH04;BL0408;4128652;Zeedijk-Het Zoute;741;;;75410,059;227783,905;SDU;;0;1;0;1;Y;NA;9;_;Y;BUILDING template
KNOKKE-HEIST - FH04;BL0410;2760023;Golvenstraat;4;;;75583,939;227796,435;MDU;;23;0;1;24;N;IRREG;10;_;Y;BUILDING template
KNOKKE-HEIST - FH04;BL0408;4342854;Zeedijk-Het Zoute;753;;;75535,475;227810,71;SDU;;0;1;0;1;Y;NA;7;_;Y;BUILDING template
KNOKKE-HEIST - FH04;BL0411;2760024;Golvenstraat;5;;;75609,045;227810,586;MDU;;6;0;1;7;Y;NA;8;_;Y;BUILDING template
KNOKKE-HEIST - FH04;BL0408;4343060;Zeedijk-Het Zoute;725;;;75332,411;227777,524;SDU;;0;1;0;1;Y;NA;7;_;Y;BUILDING template
KNOKKE-HEIST - FH04;BL0411;2760025;Golvenstraat;7;;;75605,105;227809,441;SDU;;0;1;0;1;Y;NA;8;_;Y;BUILDING template
KNOKKE-HEIST - FH04;BL0411;4343871;Strandstraat;16;;;75687,138;227827,39;SDU;;0;1;0;1;Y;NA;4;_;Y;BUILDING template
KNOKKE-HEIST - FH04;BL0411;2760027;Golvenstraat;9;;;75610,754;227805,363;MDU;;8;0;1;9;Y;NA;8;Review Required;Y;BUILDING template
KNOKKE-HEIST - FH04;BL0411;4343877;Kustlaan;191;;;75625,681;227783,768;MDU;;6;1;2;9;Y;NA;7;_;Y;BUILDING template
KNOKKE-HEIST - FH04;BL0411;2760029;Golvenstraat;11;;;75606,906;227804,337;SDU;;0;1;0;1;Y;NA;8;_;Y;BUILDING template
KNOKKE-HEIST - FH04;BL0411;4343880;Kustlaan;223;;;75678,373;227802,902;MDU;;6;0;1;7;N;ORN;7;_;Y;BUILDING template
KNOKKE-HEIST - FH04;BL0411;2760031;Golvenstraat;13;;;75606,863;227798,902;SDU;;0;1;0;1;Y;NA;7;_;Y;BUILDING template
KNOKKE-HEIST - FH04;BL0407;4345021;Kustlaan;69;;;75270,139;227691,114;SDU;;1;0;0;1;Y;NA;2;;N;BUILDING template
KNOKKE-HEIST - FH04;BL0411;2760032;Golvenstraat;15;;;75608,591;227793,647;MDU;;17;0;1;18;Y;NA;7;_;Y;BUILDING template
KNOKKE-HEIST - FH04;BL0406;4345048;Zeedijk-Het Zoute;710;;;75242,335;227755,245;SDU;;1;0;0;1;Y;NA;2;;N;BUILDING template
KNOKKE-HEIST - FH04;BL0401;NB-830011A1466;Kustlaan;11;A;;74876,07;227565,26;SDU;;0;1;0;1;N;IRREG;8;_;;BUILDING template
KNOKKE-HEIST - FH04;BL0411;2760033;Golvenstraat;17;;;75610,425;227789,293;SDU;;1;0;0;1;Y;NA;7;_;Y;BUILDING template
KNOKKE-HEIST - FH04;BL0407;4345065;Zeedijk-Het Zoute;717;;;75287,009;227771,641;SDU;;0;1;0;1;Y;NA;9;_;Y;BUILDING template
KNOKKE-HEIST - FH04;BL0401;2761457;Zeedijk-Knokke;648;A;;74837,053;227628,715;SDU;;0;1;0;1;N;IRREG;8;_;Y;BUILDING template
KNOKKE-HEIST - FH04;BL0407;4345067;Antoine Breartstraat;11;;;75314,547;227730,565;SDU;;0;1;0;1;Y;NA;6;_;Y;BUILDING template
KNOKKE-HEIST - FH04;BL0401;2761459;Zeedijk-Knokke;651;;;74851,905;227628,673;MDU;;18;0;0;18;N;IRREG;7;_;Y;BUILDING template
KNOKKE-HEIST - FH04;BL0414;4345256;Kustlaan;329;;;75928,785;227900,604;SDU;;;1;;1;Y;NA;2;;N;BUILDING template
KNOKKE-HEIST - FH04;BL0401;2761461;Zeedijk-Knokke;653;;;74861,92;227634,18;MDU;;16;0;0;16;N;IRREG;9;_;Y;BUILDING template
KNOKKE-HEIST - FH04;BL0414;4345257;Kustlaan;333;;;75939,492;227899,819;MDU;;6;0;1;7;Y;NA;7;_;Y;BUILDING template
KNOKKE-HEIST - FH04;BL0401;2761464;Zeedijk-Knokke;654;;;74868,272;227636,38;SDU;;0;1;0;1;N;IRREG;9;_;Y;BUILDING template
KNOKKE-HEIST - FH04;BL0403;4346484;Zeedijk-Knokke;665;;;74978,132;227669,828;SDU;;0;1;0;1;N;IRREG;9;_;Y;BUILDING template
KNOKKE-HEIST - FH04;BL0401;2761466;Zeedijk-Knokke;657;;;74874,768;227639,816;MDU;;8;0;0;8;N;IRREG;9;_;Y;BUILDING template
KNOKKE-HEIST - FH04;BL0401;4346486;Kustlaan;3;;;74870,158;227555,833;SDU;;1;;;1;Y;NA;2;;N;BUILDING template
KNOKKE-HEIST - FH04;BL0401;2761468;Zeedijk-Knokke;658;;;74877,024;227640,609;SDU;;0;1;0;1;N;IRREG;9;_;Y;BUILDING template
KNOKKE-HEIST - FH04;BL0401;4346487;Kustlaan;7;;;74886,606;227560,823;SDU;;1;;;1;Y;NA;2;;N;BUILDING template
KNOKKE-HEIST - FH04;BL0402;2761472;Zeedijk-Knokke;660;;;74922,484;227641,85;SDU;;0;1;0;1;N;IRREG;2;_;Y;BUILDING template
KNOKKE-HEIST - FH04;BL0401;4346488;Kustlaan;9;;;74890,822;227562,233;SDU;;1;;;1;Y;NA;2;;N;BUILDING template
KNOKKE-HEIST - FH04;BL0403;2761475;Zeedijk-Knokke;662;;;74961,546;227665,172;MDU;;8;1;0;9;N;IRREG;9;_;Y;BUILDING template
KNOKKE-HEIST - FH04;BL0404;4347674;Kustlaan;33;;;75100,994;227631,225;SDU;;0;1;0;1;N;IRREG;6;_;Y;BUILDING template
KNOKKE-HEIST - FH04;BL0403;2761477;Zeedijk-Knokke;663;;;74970,408;227668,27;SDU;;0;1;0;1;N;IRREG;4;_;Y;BUILDING template
KNOKKE-HEIST - FH04;BL0404;4347685;Zeedijk-Knokke;674;;;75039,538;227691,145;SDU;;0;1;0;1;Y;NA;8;Review Required;Y;BUILDING template
KNOKKE-HEIST - FH04;BL0403;2761479;Zeedijk-Knokke;666;;;74984,999;227673,046;MDU;;8;1;0;9;N;IRREG;9;_;Y;BUILDING template
KNOKKE-HEIST - FH04;BL0404;4347699;Zeedijk-Knokke;683;;;75083,076;227704,582;SDU;;0;1;0;1;Y;NA;9;_;Y;BUILDING template
KNOKKE-HEIST - FH04;BL0403;2761482;Zeedijk-Knokke;667;;;74990,991;227674,538;SDU;;0;1;0;1;Y;NA;9;_;Y;BUILDING template
KNOKKE-HEIST - FH04;BL0404;4347702;Marie-Josestraat;3;;;75036,57;227679,7;SDU;;1;0;0;1;Y;NA;8;Review Required;Y;BUILDING template
KNOKKE-HEIST - FH04;BL0403;2761483;Zeedijk-Knokke;668;;;74997;227677;MDU;;16;0;0;16;Y;NA;9;_;Y;BUILDING template
KNOKKE-HEIST - FH04;BL0404;4347703;Marie-Josestraat;5;;;75038,45;227674,86;SDU;;1;0;0;1;Y;NA;8;Review Required;Y;BUILDING template
KNOKKE-HEIST - FH04;BL0403;2761485;Zeedijk-Knokke;669;;;75001,454;227678,574;MDU;;8;1;0;9;N;ORN;9;_;Y;BUILDING template
KNOKKE-HEIST - FH04;BL0412;4348169;Zeedijk-Het Zoute;783;;;75713,823;227871,498;SDU;;0;1;0;1;N;ORN;8;_;Y;BUILDING template
KNOKKE-HEIST - FH04;BL0403;2761490;Zeedijk-Knokke;672;;;75014,12;227682,249;SDU;;0;1;0;1;N;IRREG;9;_;Y;BUILDING template
KNOKKE-HEIST - FH04;BL0412;4348172;Zeewindstraat;10;;;75768,573;227857,142;SDU;;;1;;1;Y;NA;2;;N;BUILDING template
KNOKKE-HEIST - FH04;BL0404;2761492;Zeedijk-Knokke;675;;;75044,07;227692,714;SDU;;0;1;0;1;Y;NA;8;Review Required;Y;BUILDING template
KNOKKE-HEIST - FH04;BL0412;4348174;Kustlaan;247;;;75735,071;227823,358;SDU;;1;;;1;Y;NA;2;;N;BUILDING template
KNOKKE-HEIST - FH04;BL0404;2761494;Zeedijk-Knokke;676;;;75050,45;227694,801;MDU;;15;0;0;15;Y;NA;8;Review Required;Y;BUILDING template
KNOKKE-HEIST - FH04;BL0412;4348177;Kustlaan;253;;;75738,887;227828,42;SDU;;0;1;0;1;N;ORN;7;_;Y;BUILDING template
KNOKKE-HEIST - FH04;BL0401;NB-830065996b686;Zeedijk-Knokke;659;;;74883,7617;227636,0848;SDU;;0;1;0;1;N;IRREG;9;_;;BUILDING template
KNOKKE-HEIST - FH04;BL0401;NB-83002148a433;Van Bunnenplein;21;;;74858,00;227563,00;SDU;;0;1;0;1;Y;NA;8;_;;BUILDING template
KNOKKE-HEIST - FH04;BL0404;2761501;Zeedijk-Knokke;682;;;75078,413;227702,708;MDU;;7;1;0;8;N;IRREG;8;_;Y;BUILDING template
KNOKKE-HEIST - FH04;BL0413;4348188;Zeedijk-Het Zoute;801;;;75819,9;227917,082;MDU;;8;0;1;9;N;ORN;9;_;Y;BUILDING template
KNOKKE-HEIST - FH04;BL0404;2761502;Zeedijk-Knokke;684;;;75084,095;227701,08;MDU;;8;0;0;8;Y;NA;9;_;Y;BUILDING template
KNOKKE-HEIST - FH04;BL0413;4348190;Ebbestraat;7;;;75846,804;227904;SDU;;0;1;0;1;Y;NA;7;_;Y;BUILDING template
KNOKKE-HEIST - FH04;BL0404;2761504;Zeedijk-Knokke;686;;;75092,28;227707,457;MDU;;14;0;0;16;N;IRREG;8;_;Y;BUILDING template
KNOKKE-HEIST - FH04;BL0413;4348192;Ebbestraat;11;;;75840,133;227919,12;SDU;;1;;;1;Y;NA;2;;N;BUILDING template
KNOKKE-HEIST - FH04;BL0405;2761505;Zeedijk-Knokke;689;;;75119,69;227716,601;SDU;;0;1;0;1;N;IRREG;7;_;Y;BUILDING template
KNOKKE-HEIST - FH04;BL0408;4348200;Zeedijk-Het Zoute;745;;;75429,427;227787,288;SDU;;0;1;0;1;Y;NA;8;_;Y;BUILDING template
KNOKKE-HEIST - FH04;BL0405;2761506;Zeedijk-Knokke;690;;;75120,943;227713,05;MDU;;6;0;0;6;N;IRREG;7;_;Y;BUILDING template
KNOKKE-HEIST - FH04;BL0408;4348202;Albertplein;9;;;75442,06;227766,374;SDU;;0;1;0;1;Y;NA;2;;N;BUILDING template
KNOKKE-HEIST - FH04;BL0405;2761507;Zeedijk-Knokke;691;;;75124,88;227718,696;SDU;;0;1;0;1;N;ORN;9;_;Y;BUILDING template
KNOKKE-HEIST - FH04;BL0401;5446596;Lichttorenplein;6;A;;74879,764;227558,821;SDU;;;1;;1;Y;NA;2;;N;BUILDING template
KNOKKE-HEIST - FH04;BL0405;2761510;Zeedijk-Knokke;692;;;75125,8;227714,924;MDU;;8;1;0;9;N;IRREG;9;_;Y;BUILDING template
KNOKKE-HEIST - FH04;BL0413;5567537;Zeewindstraat;9;;;75794,268;227869,198;SDU;;0;1;0;1;Y;NA;7;_;Y;BUILDING template
KNOKKE-HEIST - FH04;BL0405;2761511;Zeedijk-Knokke;693;;;75130,212;227720,458;SDU;;0;1;0;1;Y;NA;9;_;Y;BUILDING template
KNOKKE-HEIST - FH04;BL0408;5579236;Albertplein;4;;;75445,292;227744,853;SDU;;0;1;1;2;Y;NA;9;_;Y;BUILDING template
KNOKKE-HEIST - FH04;BL0405;2761513;Zeedijk-Knokke;694;;;75130,443;227716,451;MDU;;8;0;0;8;Y;NA;9;_;Y;BUILDING template
KNOKKE-HEIST - FH04;BL0408;5579237;Albertplein;6;;;75444,049;227752,643;MDU;;8;0;1;9;N;IRREG;9;_;Y;BUILDING template
KNOKKE-HEIST - FH04;BL0405;2761514;Zeedijk-Knokke;695;;;75135,117;227722,338;SDU;;0;1;0;1;N;IRREG;9;_;Y;BUILDING template
KNOKKE-HEIST - FH04;BL0408;5579238;Albertplein;11;;;75441,294;227775,788;MDU;;36;0;3;39;Y;NA;8;_;Y;BUILDING template
KNOKKE-HEIST - FH04;BL0405;2761516;Zeedijk-Knokke;696;;;75140,157;227724,041;MDU;;8;0;0;8;N;IRREG;9;_;Y;BUILDING template
KNOKKE-HEIST - FH04;BL0410;5579240;Albertplein;17;;;75512,831;227761,841;SDU;;0;1;0;1;Y;NA;9;_;Y;BUILDING template
KNOKKE-HEIST - FH04;BL0405;2761517;Zeedijk-Knokke;697;;;75145,182;227725,146;MDU;;29;0;0;29;N;IRREG;9;_;Y;BUILDING template
KNOKKE-HEIST - FH04;BL0407;5579288;Antoine Breartstraat;3;;;75328,491;227723,351;SDU;;0;1;0;1;Y;NA;7;_;Y;BUILDING template
KNOKKE-HEIST - FH04;BL0405;2761519;Zeedijk-Knokke;699;;;75166,096;227732,198;SDU;;0;1;0;1;N;IRREG;9;_;Y;BUILDING template
KNOKKE-HEIST - FH04;BL0407;5579289;Antoine Breartstraat;5;;;75323,824;227724,621;MDU;;27;0;1;28;Y;NA;7;_;Y;BUILDING template
KNOKKE-HEIST - FH04;BL0401;2762273;Kustlaan;5;;;74873,786;227556,741;SDU;;0;1;0;1;Y;NA;8;_;Y;BUILDING template
KNOKKE-HEIST - FH04;BL0407;5579290;Antoine Breartstraat;15;;;75304,408;227742,983;SDU;;0;1;0;1;Y;NA;7;_;Y;BUILDING template
KNOKKE-HEIST - FH04;BL0403;2762279;Kustlaan;13;A;;74992,649;227597,312;SDU;;0;1;0;1;N;IRREG;6;_;Y;BUILDING template
KNOKKE-HEIST - FH04;BL0401;5579293;Van Bunnenplein;13;;;74838,539;227611,385;MDU;;25;0;0;25;N;IRREG;8;_;Y;BUILDING template
KNOKKE-HEIST - FH04;BL0403;2762280;Kustlaan;13;B;;74998,726;227599,347;SDU;;0;1;0;1;N;IRREG;6;_;Y;BUILDING template
KNOKKE-HEIST - FH04;BL0406;5579334;Duindistelstraat;16;;;75237,693;227689,843;SDU;;0;1;0;1;N;ORN;7;_;Y;BUILDING template
KNOKKE-HEIST - FH04;BL0403;2762281;Kustlaan;15;;;75005,112;227601,565;MDU;;10;1;0;11;N;IRREG;6;_;Y;BUILDING template
KNOKKE-HEIST - FH04;BL0414;5579354;Ebbestraat;6;;;75882,364;227893,887;SDU;;0;1;0;1;Y;NA;7;_;Y;BUILDING template
KNOKKE-HEIST - FH04;BL0403;2762283;Kustlaan;17;;;75012,512;227603,757;MDU;;2;1;0;3;Y;NA;3;_;Y;BUILDING template
KNOKKE-HEIST - FH04;BL0401;5579394;Zeedijk-Knokke;652;;;74856,702;227630,003;SDU;;0;1;0;1;N;IRREG;7;_;Y;BUILDING template
KNOKKE-HEIST - FH04;BL0404;2762292;Kustlaan;29;;;75090,292;227628,105;MDU;;5;1;0;6;Y;NA;6;_;Y;BUILDING template
KNOKKE-HEIST - FH04;BL0403;5579395;Zeedijk-Knokke;671;;;75008,994;227681;MDU;;21;0;0;21;N;IRREG;9;_;Y;BUILDING template
KNOKKE-HEIST - FH04;BL0404;2762294;Kustlaan;31;;;75095,583;227629,727;MDU;;5;1;0;6;N;ORN;6;_;Y;BUILDING template
KNOKKE-HEIST - FH04;BL0404;5579396;Zeedijk-Knokke;677;;;75055,677;227695,343;SDU;;0;1;0;1;Y;NA;8;Review Required;Y;BUILDING template
KNOKKE-HEIST - FH04;BL0404;2762299;Kustlaan;35;;;75105,849;227632,979;MDU;;10;0;0;10;N;IRREG;7;_;Y;BUILDING template
KNOKKE-HEIST - FH04;BL0404;5579397;Zeedijk-Knokke;679;;;75066,137;227699,377;SDU;;0;1;0;1;Y;NA;8;Review Required;Y;BUILDING template
KNOKKE-HEIST - FH04;BL0404;2762300;Kustlaan;37;;;75111,558;227632,81;SDU;;0;1;0;1;N;IRREG;6;_;Y;BUILDING template
KNOKKE-HEIST - FH04;BL0404;5579398;Zeedijk-Knokke;681;;;75073,691;227698,035;MDU;;6;0;0;6;Y;NA;7;_;Y;BUILDING template
KNOKKE-HEIST - FH04;BL0405;2762308;Kustlaan;45;;;75151,601;227647,537;MDU;;24;2;0;26;Y;NA;4;;N;BUILDING template
KNOKKE-HEIST - FH04;BL0404;5579419;Kustlaan;27;;;75082,002;227625,71;MDU;;10;1;0;11;Y;NA;6;_;Y;BUILDING template
KNOKKE-HEIST - FH04;BL0405;2762309;Kustlaan;47;;;75162,25;227650,639;MDU;;23;0;0;23;N;ORN;7;Review Required;Y;BUILDING template
KNOKKE-HEIST - FH04;BL0404;5579420;Kustlaan;41;;;75119,89;227634,637;SDU;;0;1;0;1;N;IRREG;4;Review Required;Y;BUILDING template
KNOKKE-HEIST - FH04;BL0405;2762312;Kustlaan;49;;;75172,271;227653,298;SDU;;0;1;0;1;N;ORN;7;_;Y;BUILDING template
KNOKKE-HEIST - FH04;BL0407;5579422;Kustlaan;65;;;75260,002;227686,073;MDU;;11;0;0;11;Y;NA;6;_;Y;BUILDING template
KNOKKE-HEIST - FH04;BL0405;2762313;Kustlaan;51;;;75179,727;227656,306;SDU;;0;1;0;1;Y;NA;2;_;Y;BUILDING template
KNOKKE-HEIST - FH04;BL0408;5579428;Kustlaan;101;;;75353,536;227728,831;MDU;;6;1;0;7;Y;NA;7;_;Y;BUILDING template
KNOKKE-HEIST - FH04;BL0406;2762318;Kustlaan;59;;;75229,864;227677,39;MDU;;28;0;1;29;N;ORN;7;_;Y;BUILDING template
KNOKKE-HEIST - FH04;BL0408;5579430;Kustlaan;129;;;75430,581;227724,914;MDU;;6;0;1;7;N;ORN;7;_;Y;BUILDING template
KNOKKE-HEIST - FH04;BL0407;2762329;Kustlaan;67;;;75266,059;227690,558;SDU;;0;1;0;1;Y;NA;7;_;Y;BUILDING template
KNOKKE-HEIST - FH04;BL0408;5579432;Kustlaan;137;;;75448,297;227730,254;SDU;;0;1;0;1;Y;NA;8;_;Y;BUILDING template
KNOKKE-HEIST - FH04;BL0407;2762333;Kustlaan;71;;;75274,296;227694,941;SDU;;0;1;0;1;Y;NA;7;_;Y;BUILDING template
KNOKKE-HEIST - FH04;BL0410;5579434;Kustlaan;145;;;75529,177;227746,237;MDU;;37;0;2;39;Y;NA;9;_;Y;BUILDING template
KNOKKE-HEIST - FH04;BL0407;2762335;Kustlaan;73;;;75278,692;227695,476;SDU;;0;1;0;1;Y;NA;7;_;Y;BUILDING template
KNOKKE-HEIST - FH04;BL0410;5579435;Kustlaan;149;;;75536,951;227752,236;SDU;;0;1;0;1;Y;NA;7;_;Y;BUILDING template
KNOKKE-HEIST - FH04;BL0413;NB-8300299837516;Kustlaan;299;;;75861,0;227866,0;MDU;;6;0;1;7;Y;NA;7;_;;BUILDING template
KNOKKE-HEIST - FH04;BL0407;2762336;Kustlaan;75;;;75283,401;227699,647;SDU;;0;1;0;1;Y;NA;7;_;Y;BUILDING template
KNOKKE-HEIST - FH04;BL0410;5579436;Kustlaan;173;;;75575,301;227763,698;SDU;;0;1;0;1;N;IRREG;7;_;Y;BUILDING template
KNOKKE-HEIST - FH04;BL0407;2762339;Kustlaan;77;;;75290,219;227703,174;MDU;;24;0;1;25;Y;NA;7;_;Y;BUILDING template
KNOKKE-HEIST - FH04;BL0410;5579437;Kustlaan;183;;;75590,981;227769,978;SDU;;0;1;1;2;Y;NA;6;_;Y;BUILDING template
KNOKKE-HEIST - FH04;BL0407;2762341;Kustlaan;79;;;75295,463;227703,026;SDU;;0;1;1;2;Y;NA;7;_;Y;BUILDING template
KNOKKE-HEIST - FH04;BL0411;5579438;Kustlaan;189;;;75619,697;227779,741;MDU;;6;0;0;6;Y;NA;4;_;Y;BUILDING template
KNOKKE-HEIST - FH04;BL0407;2762343;Kustlaan;81;;;75298,184;227706,449;MDU;;6;1;2;9;Y;NA;7;_;Y;BUILDING template
KNOKKE-HEIST - FH04;BL0412;5579442;Kustlaan;241;;;75722,297;227818,335;SDU;;0;1;0;1;N;ORN;7;_;Y;BUILDING template
KNOKKE-HEIST - FH04;BL0407;2762344;Kustlaan;83;;;75303,892;227708,935;MDU;;6;1;1;8;N;GLASS;7;_;Y;BUILDING template
KNOKKE-HEIST - FH04;BL0414;5579446;Kustlaan;311;;;75900,655;227885,396;SDU;;1;;;1;Y;NA;2;;N;BUILDING template
KNOKKE-HEIST - FH04;BL0407;2762347;Kustlaan;87;;;75314,128;227712,543;SDU;;0;1;0;1;Y;NA;7;_;Y;BUILDING template
KNOKKE-HEIST - FH04;BL0401;5579464;Lichttorenplein;12;;;74892,893;227605,602;MDU;;14;0;0;14;N;IRREG;8;_;Y;BUILDING template
KNOKKE-HEIST - FH04;BL0407;2762349;Kustlaan;89;;;75317,893;227713,647;SDU;;0;1;0;1;Y;NA;7;_;Y;BUILDING template
KNOKKE-HEIST - FH04;BL0401;5579466;Lichttorenplein;20;;;74884,466;227638,871;MDU;;32;0;0;32;N;IRREG;9;_;Y;BUILDING template
KNOKKE-HEIST - FH04;BL0407;2762351;Kustlaan;91;;;75322,057;227714,118;SDU;;0;1;0;1;Y;NA;7;_;Y;BUILDING template
KNOKKE-HEIST - FH04;BL0404;5579489;Marie-Josestraat;1;;;75034,88;227685,67;MDU;;13;0;0;13;Y;NA;8;Review Required;Y;BUILDING template
KNOKKE-HEIST - FH04;BL0413;NB-8300297cb8d17;Kustlaan;297;;;75854,0;227866,0;MDU;;6;1;1;8;Y;NA;7;_;;BUILDING template
KNOKKE-HEIST - FH04;BL0407;2762354;Kustlaan;93;;;75326,212;227714,26;SDU;;0;1;0;1;Y;NA;7;_;Y;BUILDING template
KNOKKE-HEIST - FH04;BL0404;5579490;Marie-Josestraat;19;;;75057,819;227615,123;MDU;;4;1;0;5;Y;NA;5;_;Y;BUILDING template
KNOKKE-HEIST - FH04;BL0408;2762363;Kustlaan;103;;;75360,285;227725,788;MDU;;6;1;0;7;N;ORN;7;_;Y;BUILDING template
KNOKKE-HEIST - FH04;BL0405;5579559;Swolfsstraat;3;;;75122,936;227701,234;SDU;;1;;;1;Y;NA;2;;N;BUILDING template
KNOKKE-HEIST - FH04;BL0408;2762365;Kustlaan;105;;;75365,824;227724,682;SDU;;0;1;0;1;N;ORN;7;_;Y;BUILDING template
KNOKKE-HEIST - FH04;BL0404;5579560;Swolfsstraat;8;;;75105,517;227670,358;MDU;;15;0;0;15;Y;NA;6;Review Required;Y;BUILDING template
KNOKKE-HEIST - FH04;BL0408;2762366;Kustlaan;107;;;75372,317;227724,285;MDU;;6;1;0;7;Y;NA;7;_;Y;BUILDING template
KNOKKE-HEIST - FH04;BL0404;5579561;Swolfsstraat;16;;;75117,859;227638,072;SDU;;0;1;0;1;N;IRREG;4;Review Required;Y;BUILDING template
KNOKKE-HEIST - FH04;BL0408;2762369;Kustlaan;113;;;75384,451;227723,272;MDU;;6;0;0;6;Y;NA;7;_;Y;BUILDING template
KNOKKE-HEIST - FH04;BL0413;5579580;Zeewindstraat;1;;;75781,5;227898,017;MDU;;28;0;1;29;Y;NA;8;_;Y;BUILDING template
KNOKKE-HEIST - FH04;BL0408;2762370;Kustlaan;115;;;75392,326;227722,687;MDU;;5;0;2;7;Y;NA;6;_;Y;BUILDING template
KNOKKE-HEIST - FH04;BL0412;5579581;Zeewindstraat;12;;;75771,544;227851,871;SDU;;0;1;0;1;Y;NA;8;_;Y;BUILDING template
KNOKKE-HEIST - FH04;BL0408;2762372;Kustlaan;117;;;75392,2;227726,106;SDU;;0;1;0;1;Y;NA;6;_;Y;BUILDING template
KNOKKE-HEIST - FH04;BL0406;5579585;Zeedijk-Het Zoute;707;;;75233,757;227753,513;SDU;;0;1;0;1;Y;NA;7;_;Y;BUILDING template
KNOKKE-HEIST - FH04;BL0408;2762373;Kustlaan;119;;;75400,446;227723,069;MDU;;6;1;0;7;Y;NA;7;_;Y;BUILDING template
KNOKKE-HEIST - FH04;BL0408;5579586;Zeedijk-Het Zoute;720;;;75313,196;227774,373;SDU;;0;1;0;1;N;ORN;9;_;Y;BUILDING template
KNOKKE-HEIST - FH04;BL0408;2762376;Kustlaan;121;;;75408,201;227722,751;MDU;;6;1;0;7;Y;NA;7;_;Y;BUILDING template
KNOKKE-HEIST - FH04;BL0408;5579587;Zeedijk-Het Zoute;738;;;75387,791;227780,955;SDU;;0;1;0;1;Y;NA;9;_;Y;BUILDING template
KNOKKE-HEIST - FH04;BL0408;2762391;Kustlaan;133;;;75439,855;227725,992;MDU;;19;1;0;20;Y;NA;8;_;Y;BUILDING template
KNOKKE-HEIST - FH04;BL0408;5579588;Zeedijk-Het Zoute;740;;;75401,124;227779,553;MDU;;15;0;2;17;Y;NA;9;_;Y;BUILDING template
KNOKKE-HEIST - FH04;BL0408;2762395;Kustlaan;135;;;75448,556;227723,723;SDU;;0;1;0;1;Y;NA;8;_;Y;BUILDING template
KNOKKE-HEIST - FH04;BL0412;5579590;Zeedijk-Het Zoute;779;;;75698,702;227866,425;SDU;;1;0;0;1;N;ORN;9;_;Y;BUILDING template
KNOKKE-HEIST - FH04;BL0410;2762409;Kustlaan;151;;;75546,05;227750,447;MDU;;8;0;0;8;N;HEIGHT;5;_;Y;BUILDING template
KNOKKE-HEIST - FH04;BL0412;5579591;Zeedijk-Het Zoute;791;;;75754,851;227888,654;SDU;;0;1;0;1;N;ORN;9;_;Y;BUILDING template
KNOKKE-HEIST - FH04;BL0410;2762410;Kustlaan;153;;;75544,05;227753,515;SDU;;0;1;0;1;N;HEIGHT;4;_;Y;BUILDING template
KNOKKE-HEIST - FH04;BL0408;5777380;Zeedijk-Het Zoute;747;;;75440,367;227788,677;SDU;;0;1;0;1;Y;NA;8;_;Y;BUILDING template
KNOKKE-HEIST - FH04;BL0410;2762413;Kustlaan;155;;;75544,566;227755,683;SDU;;0;1;0;1;N;HEIGHT;5;_;Y;BUILDING template
KNOKKE-HEIST - FH04;BL0413;5801592;Zeedijk-Het Zoute;793;;;75787,519;227901,481;SDU;;1;0;0;1;Y;NA;2;;N;BUILDING template
KNOKKE-HEIST - FH04;BL0410;2762416;Kustlaan;157;;;75551,722;227756,215;MDU;;6;0;1;7;Y;NA;7;_;Y;BUILDING template
KNOKKE-HEIST - FH04;BL0413;5830672;Ebbestraat;13;;;75841,588;227913,795;MDU;;16;1;0;17;Y;NA;4;;N;BUILDING template
KNOKKE-HEIST - FH04;BL0410;2762421;Kustlaan;159;;;75551,28;227758,452;SDU;;0;1;0;1;Y;NA;7;_;Y;BUILDING template
KNOKKE-HEIST - FH04;BL0403;5831022;Lichttorenplein;9;;;74963,154;227628,523;MDU;;14;0;0;14;N;IRREG;9;_;Y;BUILDING template
KNOKKE-HEIST - FH04;BL0410;2762425;Kustlaan;161;;;75558,025;227758,116;MDU;;6;0;1;7;Y;NA;4;_;Y;BUILDING template
KNOKKE-HEIST - FH04;BL0410;5905413;Zeedijk-Het Zoute;757;B;;75567,537;227816,153;MDU;;8;1;0;9;N;HEIGHT;9;_;Y;BUILDING template
KNOKKE-HEIST - FH04;BL0410;2762426;Kustlaan;163;;;75557,706;227760,373;SDU;;0;1;0;1;Y;NA;7;_;Y;BUILDING template
KNOKKE-HEIST - FH04;BL0414;5905414;Zeedijk-Het Zoute;808;;;75866,62;227937,308;SDU;;0;1;0;1;Y;NA;2;;N;BUILDING template
KNOKKE-HEIST - FH04;BL0410;2762427;Kustlaan;165;;;75564,208;227758,964;SDU;;0;1;1;2;Y;NA;7;_;Y;BUILDING template
KNOKKE-HEIST - FH04;BL0414;5905415;Zeedijk-Het Zoute;809;;;75871,797;227938,97;SDU;;0;1;0;1;Y;NA;2;;N;BUILDING template
KNOKKE-HEIST - FH04;BL0410;2762429;Kustlaan;167;;;75563,228;227762,453;MDU;;6;0;1;7;Y;NA;7;_;Y;BUILDING template
KNOKKE-HEIST - FH04;BL0413;5911098;Zeedijk-Het Zoute;794;;;75788,114;227899,487;SDU;;0;1;0;1;Y;NA;8;_;Y;BUILDING template
KNOKKE-HEIST - FH04;BL0410;2762431;Kustlaan;171;;;75568,536;227764,679;MDU;;12;0;2;14;N;IRREG;7;_;Y;BUILDING template
KNOKKE-HEIST - FH04;BL0408;5935147;Antoine Breartstraat;4;;;75343,729;227735,03;MDU;;10;0;2;12;Y;NA;7;_;Y;BUILDING template
KNOKKE-HEIST - FH04;BL0412;12860;Zeewindstraat;16;;;75774,658;227842,874;MDU;;17;0;0;17;Y;NA;8;Review Required;Y;BUILDING template
KNOKKE-HEIST - FH04;BL0410;2762436;Kustlaan;175;;;75579,822;227768,798;MDU;;6;0;1;7;N;ORN;7;_;Y;BUILDING template
KNOKKE-HEIST - FH04;BL0408;6044454;Zeedijk-Het Zoute;749;;;75441,465;227783,87;SDU;;1;0;0;1;Y;NA;2;;N;BUILDING template
KNOKKE-HEIST - FH04;BL0411;12872;Golvenstraat;19;;;75611,85;227783,587;MDU;;5;0;1;6;Y;NA;7;_;Y;BUILDING template
KNOKKE-HEIST - FH04;BL0410;2762438;Kustlaan;177;;;75581,364;227765,274;SDU;;0;1;0;1;N;ORN;7;_;Y;BUILDING template
KNOKKE-HEIST - FH04;BL0405;6058388;Zeedijk-Knokke;697;B;;75150,544;227726,325;SDU;;0;1;0;1;N;IRREG;9;_;Y;BUILDING template
KNOKKE-HEIST - FH04;BL0401;13044;Lichttorenplein;6;;;74875,716;227557,586;SDU;;0;1;0;1;Y;NA;8;_;Y;BUILDING template
KNOKKE-HEIST - FH04;BL0410;2762440;Kustlaan;179;;;75586,183;227766,854;MDU;;3;1;0;4;N;IRREG;7;_;Y;BUILDING template
KNOKKE-HEIST - FH04;BL0405;6058392;Zeedijk-Knokke;697;A;;75155,094;227727,841;SDU;;0;1;0;1;N;IRREG;9;_;Y;BUILDING template
KNOKKE-HEIST - FH04;BL0410;320854;Albertplein;15;;;75510,81;227778,6;MDU;;8;1;2;11;Y;NA;4;_;Y;BUILDING template
KNOKKE-HEIST - FH04;BL0411;2762459;Kustlaan;193;;;75630,328;227788,929;SDU;;0;1;1;2;Y;NA;7;_;Y;BUILDING template
KNOKKE-HEIST - FH04;BL0414;6089756;Kustlaan;341;;;75956,464;227902,812;SDU;;0;1;0;1;Y;NA;8;_;Y;BUILDING template
KNOKKE-HEIST - FH04;BL0410;320855;Albertplein;19;;;75516,798;227752,614;SDU;;0;1;0;1;Y;NA;9;_;Y;BUILDING template
KNOKKE-HEIST - FH04;BL0411;2762464;Kustlaan;195;;;75631,644;227785,408;MDU;;6;0;1;7;Y;NA;7;_;Y;BUILDING template
KNOKKE-HEIST - FH04;BL0406;6326403;Duindistelstraat;2;A;;75251,11;227729,309;SDU;;0;1;0;1;Y;NA;2;;N;BUILDING template
KNOKKE-HEIST - FH04;BL0410;320856;Albertplein;18;;;75516,65;227761,703;MDU;;8;0;1;9;Y;NA;9;_;Y;BUILDING template
KNOKKE-HEIST - FH04;BL0411;2762470;Kustlaan;197;;;75636,196;227790,608;SDU;;0;1;1;2;N;ORN;7;Review Required;Y;BUILDING template
KNOKKE-HEIST - FH04;BL0414;6401164;Kustlaan;309;;;75896,119;227884,207;SDU;;0;1;0;1;Y;NA;7;_;Y;BUILDING template
KNOKKE-HEIST - FH04;BL0410;320857;Albertplein;16;;;75512,103;227771,305;MDU;;12;1;0;13;Y;NA;9;_;Y;BUILDING template
KNOKKE-HEIST - FH04;BL0411;2762473;Kustlaan;199;;;75637,333;227786,997;MDU;;6;0;1;7;N;ORN;4;_;Y;BUILDING template
KNOKKE-HEIST - FH04;BL0405;6417469;Zeedijk-Knokke;697;C;;75146,452;227721,468;SDU;;0;1;0;1;N;IRREG;9;_;Y;BUILDING template
KNOKKE-HEIST - FH04;BL0410;320858;Golvenstraat;6;;;75586,287;227790,417;SDU;;0;1;1;2;N;IRREG;4;_;Y;BUILDING template
KNOKKE-HEIST - FH04;BL0411;2762474;Kustlaan;201;;;75641,805;227792,206;MDU;;6;1;1;8;Y;NA;7;Review Required;Y;BUILDING template
KNOKKE-HEIST - FH04;BL0410;6420952;Golvenstraat;6;A;;75589,165;227784,211;SDU;;1;0;0;1;Y;NA;2;;N;BUILDING template
KNOKKE-HEIST - FH04;BL0410;320859;Golvenstraat;2;;;75579,19;227819,768;MDU;;39;0;2;41;Y;NA;4;_;Y;BUILDING template
KNOKKE-HEIST - FH04;BL0411;2762476;Kustlaan;205;;;75643,072;227788,629;MDU;;6;1;1;8;N;HEIGHT;7;Review Required;Y;BUILDING template
KNOKKE-HEIST - FH04;BL0401;6425283;Lichttorenplein;6;B;;74883,771;227559,861;SDU;;1;;;1;Y;NA;2;;N;BUILDING template
KNOKKE-HEIST - FH04;BL0410;320860;Golvenstraat;8;;;75594,122;227773,909;MDU;;10;0;1;11;Y;NA;6;_;Y;BUILDING template
KNOKKE-HEIST - FH04;BL0411;2762477;Kustlaan;207;;;75647,958;227793,875;MDU;;6;0;1;7;Y;NA;7;_;Y;BUILDING template
KNOKKE-HEIST - FH04;BL0407;6441864;Antoine Breartstraat;15;A;;75309,33;227739,839;SDU;;1;;;1;Y;NA;2;;N;BUILDING template
KNOKKE-HEIST - FH04;BL0410;320866;Kustlaan;181;;;75591,096;227767,797;SDU;;0;1;0;1;Y;NA;6;_;Y;BUILDING template
KNOKKE-HEIST - FH04;BL0411;2762479;Kustlaan;209;;;75649,949;227790,371;MDU;;0;2;1;3;Y;NA;7;_;Y;BUILDING template
KNOKKE-HEIST - FH04;BL0407;6445966;Antoine Breartstraat;17;A;;75298,015;227745,9;MDU;;2;;;2;Y;NA;4;;N;BUILDING template
KNOKKE-HEIST - FH04;BL0411;320867;Kustlaan;185;;;75613,844;227778,048;SDU;;0;1;0;1;Y;NA;7;_;Y;BUILDING template
KNOKKE-HEIST - FH04;BL0411;2762480;Kustlaan;211;;;75655,814;227796,234;MDU;;6;0;1;7;Y;NA;7;_;Y;BUILDING template
KNOKKE-HEIST - FH04;BL0408;6455009;Antoine Breartstraat;16;A;;75320,69;227760,604;SDU;;0;1;0;1;N;IRREG;8;_;Y;BUILDING template
KNOKKE-HEIST - FH04;BL0410;320868;Kustlaan;139;;;75520,455;227742,047;SDU;;0;1;0;1;Y;NA;9;_;Y;BUILDING template
KNOKKE-HEIST - FH04;BL0411;2762481;Kustlaan;215;;;75661,447;227797,334;SDU;;0;1;1;2;Y;NA;3;_;Y;BUILDING template
KNOKKE-HEIST - FH04;BL0413;6524234;Zeedijk-Het Zoute;805;;;75831,343;227919,42;SDU;;0;1;0;1;Y;NA;9;_;Y;BUILDING template
KNOKKE-HEIST - FH04;BL0410;320870;Kustlaan;147;;;75537,206;227750,059;SDU;;0;1;1;2;Y;NA;7;_;Y;BUILDING template
KNOKKE-HEIST - FH04;BL0411;2762482;Kustlaan;217;;;75667,557;227799,224;SDU;;0;1;0;1;Y;NA;6;_;Y;BUILDING template
KNOKKE-HEIST - FH04;BL0412;6524235;Strandstraat;15;;;75713;227819;MDU;;17;0;1;18;N;ORN;7;_;Y;BUILDING template
KNOKKE-HEIST - FH04;BL0410;320871;Kustlaan;169;;;75569,461;227761,015;SDU;;0;1;1;2;N;IRREG;7;_;Y;BUILDING template
KNOKKE-HEIST - FH04;BL0411;2762487;Kustlaan;221;;;75674,163;227801,514;SDU;;0;1;0;1;N;ORN;7;_;Y;BUILDING template
KNOKKE-HEIST - FH04;BL0403;6524250;Lichttorenplein;3;;;74969,575;227603,9;SDU;;0;1;0;1;N;IRREG;8;_;Y;BUILDING template
KNOKKE-HEIST - FH04;BL0411;320874;Zeedijk-Het Zoute;760;;;75597;227826;SDU;;0;1;0;1;Y;NA;8;_;Y;BUILDING template
KNOKKE-HEIST - FH04;BL0411;2762489;Kustlaan;229;;;75682,19;227806,551;MDU;;0;6;1;7;Y;NA;7;Review Required;Y;BUILDING template
KNOKKE-HEIST - FH04;BL0407;6524252;Duindistelstraat;3;;;75278,145;227742,237;MDU;;10;0;1;11;N;IRREG;6;_;Y;BUILDING template
KNOKKE-HEIST - FH04;BL0410;320876;Zeedijk-Het Zoute;754;;;75540,015;227808,904;SDU;;1;0;0;1;Y;NA;2;;N;BUILDING template
KNOKKE-HEIST - FH04;BL0411;2762492;Kustlaan;233;;;75695,079;227808,744;SDU;;;1;;1;Y;NA;2;;N;BUILDING template
KNOKKE-HEIST - FH04;BL0408;6524254;Kustlaan;125;;;75422,882;227722,501;SDU;;0;1;1;2;Y;NA;7;_;Y;BUILDING template
KNOKKE-HEIST - FH04;BL0410;320877;Zeedijk-Het Zoute;755;;;75544,921;227810,203;MDU;;33;0;3;36;Y;NA;7;_;Y;BUILDING template
KNOKKE-HEIST - FH04;BL0412;2762496;Kustlaan;239;;;75714,668;227815,678;SDU;;0;1;0;1;N;ORN;7;_;Y;BUILDING template
KNOKKE-HEIST - FH04;BL0404;6524260;Kustlaan;25;;;75074,226;227620,287;MDU;;4;0;0;4;Y;NA;5;_;Y;BUILDING template
KNOKKE-HEIST - FH04;BL0412;321345;Kustlaan;237;;;75718,509;227817,981;SDU;;0;1;0;1;N;ORN;7;_;Y;BUILDING template
KNOKKE-HEIST - FH04;BL0412;2762498;Kustlaan;243;;;75726,932;227820,871;SDU;;;1;;1;Y;NA;2;;N;BUILDING template
KNOKKE-HEIST - FH04;BL0411;6526795;Kustlaan;227;;;75683,331;227803,11;SDU;;0;1;0;1;Y;NA;7;Review Required;Y;BUILDING template
KNOKKE-HEIST - FH04;BL0412;321346;Kustlaan;271;;;75774,63;227836,429;SDU;;0;1;0;1;Y;NA;8;Review Required;Y;BUILDING template
KNOKKE-HEIST - FH04;BL0412;2762500;Kustlaan;245;;;75730,612;227822,267;MDU;;8;1;1;10;Y;NA;7;_;Y;BUILDING template
KNOKKE-HEIST - FH04;BL0413;321347;Kustlaan;273;;;75803,016;227848,807;SDU;;0;1;0;1;N;ORN;8;_;Y;BUILDING template
KNOKKE-HEIST - FH04;BL0412;2762501;Kustlaan;251;;;75739,977;227825,085;MDU;;6;0;0;6;N;ORN;7;_;Y;BUILDING template
KNOKKE-HEIST - FH04;BL0413;321349;Kustlaan;303;;;75864,578;227870,974;SDU;;0;1;0;1;N;ORN;8;_;Y;BUILDING template
KNOKKE-HEIST - FH04;BL0412;2762503;Kustlaan;255;;;75746,413;227827,122;SDU;;0;1;0;1;Y;NA;7;_;Y;BUILDING template
KNOKKE-HEIST - FH04;BL0412;321350;Zeedijk-Het Zoute;778;;;75694;227865;SDU;;1;0;0;1;N;ORN;9;_;Y;BUILDING template
KNOKKE-HEIST - FH04;BL0412;2762504;Kustlaan;257;;;75744,521;227830,535;MDU;;6;0;1;7;Y;NA;7;_;Y;BUILDING template
KNOKKE-HEIST - FH04;BL0412;321351;Zeedijk-Het Zoute;786;;;75731,183;227878,767;SDU;;0;1;0;1;N;ORN;9;_;Y;BUILDING template
KNOKKE-HEIST - FH04;BL0412;2762505;Kustlaan;259;;;75752,196;227829,115;SDU;;0;1;0;1;N;ORN;7;_;Y;BUILDING template
KNOKKE-HEIST - FH04;BL0413;321352;Zeedijk-Het Zoute;792;;;75786,71;227903,438;SDU;;0;1;0;1;Y;NA;8;_;Y;BUILDING template
KNOKKE-HEIST - FH04;BL0412;2762508;Kustlaan;261;;;75750,721;227832,488;MDU;;6;0;1;7;N;ORN;7;_;Y;BUILDING template
KNOKKE-HEIST - FH04;BL0413;321354;Zeedijk-Het Zoute;804;;;75829,948;227922,827;MDU;;8;0;1;9;Y;NA;9;_;Y;BUILDING template
KNOKKE-HEIST - FH04;BL0412;2762510;Kustlaan;263;;;75757,866;227831,823;MDU;;6;0;1;7;N;IRREG;7;_;Y;BUILDING template
KNOKKE-HEIST - FH04;BL0413;321355;Zeedijk-Het Zoute;795;;;75790,928;227904,976;MDU;;8;1;1;10;Y;NA;9;_;Y;BUILDING template
KNOKKE-HEIST - FH04;BL0412;2762513;Kustlaan;265;;;75757,47;227834,104;SDU;;0;1;0;1;N;ORN;7;_;Y;BUILDING template
KNOKKE-HEIST - FH04;BL0412;321356;Zeewindstraat;2;;;75756,539;227883,335;MDU;;50;1;4;55;N;ORN;9;_;Y;BUILDING template
KNOKKE-HEIST - FH04;BL0412;2762515;Kustlaan;267;;;75764,156;227834,868;SDU;;0;1;0;1;N;ORN;7;_;Y;BUILDING template
KNOKKE-HEIST - FH04;BL0413;321357;Zeewindstraat;3;;;75786,354;227886,831;SDU;;0;1;0;1;Y;NA;8;_;Y;BUILDING template
KNOKKE-HEIST - FH04;BL0413;2762518;Kustlaan;275;;;75809,568;227852,373;MDU;;6;1;1;8;Y;NA;7;_;Y;BUILDING template
KNOKKE-HEIST - FH04;BL0412;321358;Zeewindstraat;8;;;75764,618;227863,81;MDU;;20;1;1;22;N;ORN;8;_;Y;BUILDING template
KNOKKE-HEIST - FH04;BL0413;2762519;Kustlaan;279;;;75816,786;227855,457;MDU;;6;1;1;8;Y;NA;8;_;Y;BUILDING template
KNOKKE-HEIST - FH04;BL0403;NB-8300664da5455;Zeedijk-Knokke;664;;;74973,0;227670,0;MDU;;28;0;0;28;N;IRREG;8;_;;BUILDING template
KNOKKE-HEIST - FH04;BL0413;321359;Zeewindstraat;15;;;75797,767;227860,212;SDU;;0;1;0;1;Y;NA;8;_;Y;BUILDING template
KNOKKE-HEIST - FH04;BL0413;2762521;Kustlaan;281;;;75823,655;227857,194;MDU;;6;0;1;7;Y;NA;7;_;Y;BUILDING template
KNOKKE-HEIST - FH04;BL0412;321360;Zeewindstraat;14;;;75772,482;227849,833;MDU;;7;0;0;7;Y;NA;8;_;Y;BUILDING template
KNOKKE-HEIST - FH04;BL0413;2762524;Kustlaan;283;;;75823,147;227859,402;SDU;;1;0;0;1;Y;NA;7;_;Y;BUILDING template
KNOKKE-HEIST - FH04;BL0413;321361;Zeewindstraat;17;;;75799,738;227855,53;MDU;;10;0;1;11;N;ORN;8;_;Y;BUILDING template
KNOKKE-HEIST - FH04;BL0413;2762525;Kustlaan;285;;;75828,386;227859,494;SDU;;0;1;0;1;N;IRREG;6;_;Y;BUILDING template
KNOKKE-HEIST - FH04;BL0412;321362;Strandstraat;1;;;75696,968;227859,438;MDU;;16;0;1;17;N;ORN;9;_;Y;BUILDING template
KNOKKE-HEIST - FH04;BL0413;2762527;Kustlaan;287;;;75832,79;227861,656;SDU;;0;1;0;1;N;ORN;6;_;Y;BUILDING template
KNOKKE-HEIST - FH04;BL0412;321363;Strandstraat;13;;;75711,523;227822,455;SDU;;0;1;0;1;N;ORN;7;_;Y;BUILDING template
KNOKKE-HEIST - FH04;BL0413;2762529;Kustlaan;289;;;75838,282;227863,541;MDU;;6;1;0;7;Y;NA;7;_;Y;BUILDING template
KNOKKE-HEIST - FH04;BL0413;321364;Ebbestraat;1;;;75860,541;227878,551;MDU;;5;0;1;6;N;ORN;8;_;Y;BUILDING template
KNOKKE-HEIST - FH04;BL0413;2762530;Kustlaan;291;;;75843,736;227864,953;MDU;;11;1;0;12;Y;NA;7;_;Y;BUILDING template
KNOKKE-HEIST - FH04;BL0413;321365;Ebbestraat;9;;;75836,388;227926,511;MDU;;15;0;1;16;N;IRREG;9;_;Y;BUILDING template
KNOKKE-HEIST - FH04;BL0413;2762538;Kustlaan;301;;;75858,103;227869,433;SDU;;0;1;0;1;Y;NA;7;_;Y;BUILDING template
KNOKKE-HEIST - FH04;BL0413;321366;Ebbestraat;15;;;75844,272;227909,224;MDU;;2;;;2;Y;NA;4;;N;BUILDING template
KNOKKE-HEIST - FH04;BL0414;2762540;Kustlaan;307;;;75891,559;227882,639;SDU;;0;1;0;1;Y;NA;7;_;Y;BUILDING template
KNOKKE-HEIST - FH04;BL0414;321985;Zeedijk-Het Zoute;807;;;75862,535;227935,408;SDU;;0;1;0;1;Y;NA;9;_;Y;BUILDING template
KNOKKE-HEIST - FH04;BL0414;2762541;Kustlaan;313;;;75904,797;227887,375;MDU;;6;0;1;7;N;ORN;7;_;Y;BUILDING template
KNOKKE-HEIST - FH04;BL0414;321986;Zeedijk-Het Zoute;814;;;75903,639;227953,14;MDU;;14;0;1;15;Y;NA;7;_;Y;BUILDING template
KNOKKE-HEIST - FH04;BL0414;2762543;Kustlaan;315;;;75908,855;227889,107;SDU;;0;1;0;1;N;ORN;7;_;Y;BUILDING template
KNOKKE-HEIST - FH04;BL0414;321987;Zeedijk-Het Zoute;816;;;75920,063;227960,28;SDU;;0;1;0;1;Y;NA;9;_;Y;BUILDING template
KNOKKE-HEIST - FH04;BL0414;2762544;Kustlaan;317;;;75912,944;227889,512;SDU;;0;1;0;1;N;IRREG;7;_;Y;BUILDING template
KNOKKE-HEIST - FH04;BL0414;321988;Zeedijk-Het Zoute;819;;;75932,598;227966,042;SDU;;0;1;0;1;Y;NA;9;_;Y;BUILDING template
KNOKKE-HEIST - FH04;BL0414;2762547;Kustlaan;319;;;75911,692;227892,834;MDU;;6;0;1;7;N;IRREG;7;_;Y;BUILDING template
KNOKKE-HEIST - FH04;BL0414;321989;Kustlaan;305;;;75887,387;227881,278;SDU;;0;1;0;1;Y;NA;7;_;Y;BUILDING template
KNOKKE-HEIST - FH04;BL0414;2762548;Kustlaan;321;;;75917,821;227891,535;MDU;;9;0;1;10;Y;NA;6;_;Y;BUILDING template
KNOKKE-HEIST - FH04;BL0414;321992;Kustlaan;337;;;75944,051;227902,978;SDU;;0;1;0;1;Y;NA;8;_;Y;BUILDING template
KNOKKE-HEIST - FH04;BL0414;2762549;Kustlaan;323;;;75922,492;227892,348;SDU;;0;1;0;1;Y;NA;6;_;Y;BUILDING template
KNOKKE-HEIST - FH04;BL0414;321994;Ebbestraat;2;;;75885,752;227885,325;MDU;;24;0;1;25;Y;NA;7;_;Y;BUILDING template
KNOKKE-HEIST - FH04;BL0414;2762551;Kustlaan;325;;;75930,059;227897,058;SDU;;0;1;0;1;N;IRREG;7;_;Y;BUILDING template
KNOKKE-HEIST - FH04;BL0414;321996;Ebbestraat;10;;;75873,467;227913,415;MDU;;51;0;2;53;N;ORN;9;_;Y;BUILDING template
KNOKKE-HEIST - FH04;BL0414;2762552;Kustlaan;327;;;75933,63;227898,291;MDU;;12;0;1;13;N;IRREG;7;_;Y;BUILDING template
KNOKKE-HEIST - FH04;BL0414;322000;De Wielingen;1;;;75965,119;227910,574;MDU;;17;0;1;18;N;ORN;7;_;Y;BUILDING template
KNOKKE-HEIST - FH04;BL0414;2762554;Kustlaan;331;;;75933,957;227900,552;SDU;;0;1;0;1;N;IRREG;7;_;Y;BUILDING template
KNOKKE-HEIST - FH04;BL0411;322281;Golvenstraat;1;;;75598,052;227820,867;MDU;;6;1;;7;Y;NA;4;;N;BUILDING template
KNOKKE-HEIST - FH04;BL0414;2762555;Kustlaan;335;;;75945,651;227899,655;SDU;;0;1;0;1;Y;NA;7;_;Y;BUILDING template
KNOKKE-HEIST - FH04;BL0411;322282;Golvenstraat;3;;;75602;227814;MDU;;6;0;1;7;Y;NA;8;_;Y;BUILDING template
KNOKKE-HEIST - FH04;BL0414;2762558;Kustlaan;339;;;75950,179;227902,717;MDU;;12;0;1;13;Y;NA;8;_;Y;BUILDING template
KNOKKE-HEIST - FH04;BL0411;322283;Strandstraat;6;;;75683,187;227845,665;SDU;;1;;;1;Y;NA;2;;N;BUILDING template
KNOKKE-HEIST - FH04;BL0414;2762561;Kustlaan;343;;;75955,519;227904,737;SDU;;0;1;0;1;Y;NA;8;_;Y;BUILDING template
KNOKKE-HEIST - FH04;BL0411;322284;Strandstraat;22;;;75691,7;227814,865;MDU;;14;0;1;15;N;ORN;7;Review Required;Y;BUILDING template
KNOKKE-HEIST - FH04;BL0414;2762564;Kustlaan;345;;;75954,04;227908,174;MDU;;6;0;1;7;Y;NA;8;_;Y;BUILDING template
KNOKKE-HEIST - FH04;BL0411;322286;Zeedijk-Het Zoute;777;;;75676,492;227855,933;SDU;;1;0;0;1;N;ORN;10;_;Y;BUILDING template
KNOKKE-HEIST - FH04;BL0403;2762907;Lichttorenplein;1;B;;74972,947;227596,728;SDU;;1;0;0;1;Y;NA;2;;N;BUILDING template
KNOKKE-HEIST - FH04;BL0411;322287;Kustlaan;231;;;75689,121;227807,026;SDU;;0;1;0;1;Y;NA;7;_;Y;BUILDING template
KNOKKE-HEIST - FH04;BL0401;2762909;Lichttorenplein;4;;;74871,936;227556,26;SDU;;0;1;0;1;Y;NA;8;_;Y;BUILDING template
KNOKKE-HEIST - FH04;BL0411;322289;Kustlaan;187;;;75618,438;227783,236;SDU;;0;1;0;1;Y;NA;7;_;Y;BUILDING template
KNOKKE-HEIST - FH04;BL0403;2762913;Lichttorenplein;7;;;74965,303;227619,993;SDU;;0;1;0;1;Y;NA;7;_;Y;BUILDING template
KNOKKE-HEIST - FH04;BL0401;2762922;Lichttorenplein;14;;;74891,85;227610,352;MDU;;7;1;0;8;N;IRREG;8;_;Y;BUILDING template
KNOKKE-HEIST - FH04;BL0401;323112;Kustlaan;1;;;74861,404;227553,961;MDU;;49;1;0;50;Y;NA;8;_;Y;BUILDING template
KNOKKE-HEIST - FH04;BL0403;2763519;Marie-Josestraat;6;;;75020,623;227647,553;MDU;;10;0;0;10;Y;NA;6;_;Y;BUILDING template
KNOKKE-HEIST - FH04;BL0401;323113;Kustlaan;11;;;74894,011;227563,681;MDU;;58;0;0;58;Y;NA;8;_;Y;BUILDING template
KNOKKE-HEIST - FH04;BL0403;2763522;Marie-Josestraat;8;;;75024,181;227639,639;MDU;;6;0;0;6;Y;NA;6;_;Y;BUILDING template
KNOKKE-HEIST - FH04;BL0401;334954;Zeedijk-Knokke;649;;;74840,382;227629,724;MDU;;8;1;;9;Y;NA;4;;N;BUILDING template
KNOKKE-HEIST - FH04;BL0404;2763524;Marie-Josestraat;9;;;75046,722;227656,358;MDU;;9;0;0;9;Y;NA;6;_;Y;BUILDING template
KNOKKE-HEIST - FH04;BL0401;334955;Zeedijk-Knokke;650;;;74847,193;227627,548;SDU;;0;1;0;1;N;IRREG;7;_;Y;BUILDING template
KNOKKE-HEIST - FH04;BL0403;2763525;Marie-Josestraat;10;;;75025,191;227635,34;MDU;;6;0;0;6;Y;NA;6;_;Y;BUILDING template
KNOKKE-HEIST - FH04;BL0406;NB-8300108be948;Duindistelstraat;10;;;75240,1466;227708,8181;SDU;;0;1;0;1;Y;NA;6;_;;BUILDING template
KNOKKE-HEIST - FH04;BL0403;334957;Zeedijk-Knokke;661;;;74950,033;227664,76;SDU;;0;1;0;1;N;IRREG;9;Review Required;Y;BUILDING template
KNOKKE-HEIST - FH04;BL0404;2763526;Marie-Josestraat;11;;;75051,26;227641,922;MDU;;6;0;0;6;Y;NA;3;_;Y;BUILDING template
KNOKKE-HEIST - FH04;BL0403;334958;Zeedijk-Knokke;670;;;75005,748;227680,559;SDU;;0;1;0;1;N;IRREG;9;_;Y;BUILDING template
KNOKKE-HEIST - FH04;BL0403;2763527;Marie-Josestraat;12;;;75026,86;227627,942;MDU;;11;0;0;11;Y;NA;6;_;Y;BUILDING template
KNOKKE-HEIST - FH04;BL0406;NB-830082b4749;Duindistelstraat;8;;;75264,95;227716,13;SDU;;0;1;0;1;Y;NA;6;_;;BUILDING template
KNOKKE-HEIST - FH04;BL0403;334964;Kustlaan;13;;;74985,428;227594,93;MDU;;10;0;0;10;N;IRREG;6;_;Y;BUILDING template
KNOKKE-HEIST - FH04;BL0404;2763531;Marie-Josestraat;13;;;75055,344;227626,577;MDU;;16;0;0;16;Y;NA;6;_;Y;BUILDING template
KNOKKE-HEIST - FH04;BL0403;334965;Kustlaan;19;;;75018,536;227606,146;MDU;;4;1;0;5;Y;NA;5;_;Y;BUILDING template
KNOKKE-HEIST - FH04;BL0403;2763533;Marie-Josestraat;16;;;75032,239;227609,522;MDU;;16;0;0;16;N;ORN;5;_;Y;BUILDING template
KNOKKE-HEIST - FH04;BL0407;NB-830013B4667;Antoine Breartstraat;13;B;;75296,6754;227763,6385;SDU;;0;1;0;1;Y;NA;7;_;;BUILDING template
KNOKKE-HEIST - FH04;BL0413;NB-8300798fb1c52;Zeedijk-Het Zoute;798;;;75800,4394;227912,1768;SDU;;0;1;0;1;Y;NA;7;_;;BUILDING template
KNOKKE-HEIST - FH04;BL0401;334966;Lichttorenplein;2;;;74867,99;227554,977;SDU;;1;;;1;Y;NA;2;;N;BUILDING template
KNOKKE-HEIST - FH04;BL0411;2766752;Strandstraat;2;;;75678,502;227851,613;MDU;;9;0;1;10;N;ORN;10;_;Y;BUILDING template
KNOKKE-HEIST - FH04;BL0401;334967;Lichttorenplein;8;;;74888,721;227561,284;SDU;;1;;;1;Y;NA;2;;N;BUILDING template
KNOKKE-HEIST - FH04;BL0412;2766753;Strandstraat;3;;;75700,545;227853,213;SDU;;0;1;0;1;N;ORN;9;_;Y;BUILDING template
KNOKKE-HEIST - FH04;BL0401;334968;Lichttorenplein;10;;;74895,397;227599,182;SDU;;0;1;0;1;N;IRREG;8;_;Y;BUILDING template
KNOKKE-HEIST - FH04;BL0412;2766756;Strandstraat;5;;;75703,274;227844,247;MDU;;16;0;1;17;N;ORN;9;_;Y;BUILDING template
KNOKKE-HEIST - FH04;BL0401;334969;Lichttorenplein;16;;;74891,729;227618,076;MDU;;16;2;0;18;N;IRREG;9;_;Y;BUILDING template
KNOKKE-HEIST - FH04;BL0412;2766758;Strandstraat;7;;;75706,787;227835,365;SDU;;0;1;0;1;N;ORN;8;_;Y;BUILDING template
KNOKKE-HEIST - FH04;BL0401;334970;Lichttorenplein;18;;;74889,483;227625,935;SDU;;0;1;0;1;N;IRREG;4;_;Y;BUILDING template
KNOKKE-HEIST - FH04;BL0411;2766759;Strandstraat;8;;;75682,791;227838,792;MDU;;8;0;1;9;N;ORN;9;_;Y;BUILDING template
KNOKKE-HEIST - FH04;BL0401;334973;Van Bunnenplein;20;;;74857,483;227567,53;SDU;;0;1;0;1;Y;NA;8;_;Y;BUILDING template
KNOKKE-HEIST - FH04;BL0412;2766761;Strandstraat;9;;;75708,137;227831,894;MDU;;13;0;0;13;N;ORN;8;_;Y;BUILDING template
KNOKKE-HEIST - FH04;BL0411;NB-83002358e2701;Kustlaan;235;;;75925,5005;227888,1319;SDU;;0;1;0;1;Y;NA;7;_;;BUILDING template
KNOKKE-HEIST - FH04;BL0401;334974;Van Bunnenplein;19;;;74852,836;227578,051;MDU;;7;1;0;8;N;IRREG;8;_;Y;BUILDING template
KNOKKE-HEIST - FH04;BL0412;2766762;Strandstraat;11;;;75710,09;227828,3;SDU;;0;1;0;1;N;ORN;8;_;Y;BUILDING template
KNOKKE-HEIST - FH04;BL0401;334976;Van Bunnenplein;12;;;74834,604;227621,902;MDU;;8;1;0;9;N;ORN;2;_;Y;BUILDING template
KNOKKE-HEIST - FH04;BL0411;2766763;Strandstraat;12;;;75685,392;227832,817;MDU;;4;0;0;4;Y;NA;4;_;Y;BUILDING template
KNOKKE-HEIST - FH04;BL0408;NB-8300729705092;Zeedijk-Het Zoute;729;;;75341,0;227779,0;MDU;;12;0;1;13;Y;NA;7;_;;BUILDING template
KNOKKE-HEIST - FH04;BL0403;334977;Lichttorenplein;1;;;74974,326;227591,071;MDU;;14;0;0;14;N;IRREG;8;_;Y;BUILDING template
KNOKKE-HEIST - FH04;BL0411;2766766;Strandstraat;14;;;75681,221;227831,043;SDU;;0;1;0;1;Y;NA;4;_;Y;BUILDING template
KNOKKE-HEIST - FH04;BL0403;334978;Lichttorenplein;5;;;74965,942;227613,071;MDU;;18;0;0;18;Y;NA;7;_;Y;BUILDING template
KNOKKE-HEIST - FH04;BL0411;2766768;Strandstraat;18;;;75688,374;227823,529;MDU;;6;0;0;6;Y;NA;4;_;Y;BUILDING template
KNOKKE-HEIST - FH04;BL0403;334979;Lichttorenplein;11;;;74960,883;227635,564;SDU;;0;1;0;1;N;IRREG;9;_;Y;BUILDING template
KNOKKE-HEIST - FH04;BL0411;2766769;Strandstraat;20;;;75691,357;227819,91;SDU;;0;1;0;1;Y;NA;4;_;Y;BUILDING template
KNOKKE-HEIST - FH04;BL0403;334980;Lichttorenplein;13;;;74953,814;227653,192;MDU;;30;0;0;30;N;IRREG;9;Review Required;Y;BUILDING template
KNOKKE-HEIST - FH04;BL0404;2766774;Swolfsstraat;4;;;75098,519;227694,847;MDU;;8;1;0;9;Y;NA;9;_;Y;BUILDING template
KNOKKE-HEIST - FH04;BL0403;334982;Marie-Josestraat;4;;;75018,55;227659,701;MDU;;8;0;0;8;N;IRREG;5;_;Y;BUILDING template
KNOKKE-HEIST - FH04;BL0405;2766775;Swolfsstraat;5;;;75122,831;227698,605;MDU;;11;0;0;11;N;IRREG;8;_;Y;BUILDING template
KNOKKE-HEIST - FH04;BL0403;334983;Marie-Josestraat;2;;;75017,897;227665,599;SDU;;1;;;1;Y;NA;2;;N;BUILDING template
KNOKKE-HEIST - FH04;BL0405;2766776;Swolfsstraat;7;;;75125,437;227694,006;SDU;;0;1;0;1;N;IRREG;7;_;Y;BUILDING template
KNOKKE-HEIST - FH04;BL0405;335025;Kustlaan;53;;;75188,505;227658,525;SDU;;0;1;0;1;N;IRREG;7;_;Y;BUILDING template
KNOKKE-HEIST - FH04;BL0405;2766782;Swolfsstraat;9;;;75127,443;227687,468;MDU;;16;0;0;16;Y;NA;6;_;Y;BUILDING template
KNOKKE-HEIST - FH04;BL0405;335026;Kustlaan;43;;;75142,601;227645,092;MDU;;0;2;0;2;N;IRREG;7;_;Y;BUILDING template
KNOKKE-HEIST - FH04;BL0405;2766785;Swolfsstraat;11;;;75131,577;227674,453;MDU;;10;0;0;10;N;IRREG;5;_;Y;BUILDING template
KNOKKE-HEIST - FH04;BL0405;335027;Swolfsstraat;1;;;75118,531;227708,369;MDU;;6;0;0;6;N;IRREG;7;_;Y;BUILDING template
KNOKKE-HEIST - FH04;BL0404;2766786;Swolfsstraat;12;;;75108,226;227659,016;MDU;;12;0;0;12;Y;NA;6;_;Y;BUILDING template
KNOKKE-HEIST - FH04;BL0405;335028;Swolfsstraat;15;;;75138,156;227657,203;MDU;;14;0;0;14;Y;NA;6;_;Y;BUILDING template
KNOKKE-HEIST - FH04;BL0405;2766787;Swolfsstraat;13;;;75135,469;227664,023;SDU;;0;1;0;1;Y;NA;6;_;Y;BUILDING template
KNOKKE-HEIST - FH04;BL0405;335029;Zeedijk-Knokke;688;;;75115,621;227715,452;SDU;;0;1;0;1;N;IRREG;7;_;Y;BUILDING template
KNOKKE-HEIST - FH04;BL0404;2766788;Swolfsstraat;14;;;75112,041;227651,489;MDU;;5;0;0;5;Y;NA;6;_;Y;BUILDING template
KNOKKE-HEIST - FH04;BL0405;335030;Zeedijk-Knokke;698;;;75160,734;227729,95;SDU;;0;1;0;1;N;IRREG;9;_;Y;BUILDING template
KNOKKE-HEIST - FH04;BL0405;2766791;Swolfsstraat;17;;;75140,739;227649,608;MDU;;13;0;0;13;N;IRREG;7;_;Y;BUILDING template
KNOKKE-HEIST - FH04;BL0405;335031;Zandstraat;22;;;75189,119;227663,777;MDU;;6;0;0;6;N;IRREG;7;_;Y;BUILDING template
KNOKKE-HEIST - FH04;BL0414;2767771;De Wielingen;3;;;75962,124;227920,77;MDU;;5;1;1;7;N;ORN;6;_;Y;BUILDING template
KNOKKE-HEIST - FH04;BL0414;NB-830080680eb62;Zeedijk-Het Zoute;806;;;75842,3918;227922,7030;SDU;;0;1;0;1;N;IRREG;9;_;;BUILDING template
KNOKKE-HEIST - FH04;BL0405;335032;Zandstraat;6;;;75174,174;227704,945;MDU;;5;0;0;5;N;ORN;6;_;Y;BUILDING template
KNOKKE-HEIST - FH04;BL0414;2767773;De Wielingen;5;;;75960,612;227925,271;MDU;;4;1;1;6;Y;NA;7;_;Y;BUILDING template
KNOKKE-HEIST - FH04;BL0408;NB-83007342d6850;Zeedijk-Het Zoute;734;;;75436,3103;227783,8805;SDU;;0;1;0;1;Y;NA;9;_;;BUILDING template
KNOKKE-HEIST - FH04;BL0405;335033;Zandstraat;4;;;75170,901;227713,382;MDU;;11;0;0;11;N;IRREG;6;_;Y;BUILDING template
KNOKKE-HEIST - FH04;BL0414;2767775;De Wielingen;7;;;75959,245;227929,328;MDU;;6;0;1;7;Y;NA;7;_;Y;BUILDING template
KNOKKE-HEIST - FH04;BL0405;335034;Zandstraat;2;;;75168,819;227725,662;MDU;;16;1;0;17;N;IRREG;9;_;Y;BUILDING template
KNOKKE-HEIST - FH04;BL0414;2767776;De Wielingen;9;;;75959,151;227931,756;SDU;;0;1;0;1;Y;NA;7;_;Y;BUILDING template
KNOKKE-HEIST - FH04;BL0411;NB-8300219b2f099;Kustlaan;219;;;75670,0;227796,0;MDU;;5;0;1;6;Y;NA;6;_;;BUILDING template
KNOKKE-HEIST - FH04;BL0406;335093;Zeedijk-Het Zoute;700;;;75187,972;227739,088;MDU;;8;1;0;9;N;GLASS;10;_;Y;BUILDING template
KNOKKE-HEIST - FH04;BL0414;2767788;De Wielingen;19;;;75935,204;227961,334;SDU;;1;;;1;Y;NA;2;;N;BUILDING template
KNOKKE-HEIST - FH04;BL0406;335094;Zeedijk-Het Zoute;713;;;75255,095;227761,311;SDU;;0;1;1;2;Y;NA;9;_;Y;BUILDING template
KNOKKE-HEIST - FH04;BL0414;2767790;De Wielingen;21;;;75936,91;227954,509;SDU;;1;0;0;1;Y;NA;2;;N;BUILDING template
KNOKKE-HEIST - FH04;BL0406;335095;Zeedijk-Het Zoute;705;;;75227,014;227751,132;SDU;;0;1;0;1;Y;NA;7;_;Y;BUILDING template
KNOKKE-HEIST - FH04;BL0414;2767792;De Wielingen;23;;;75938,979;227948,129;MDU;;52;2;2;56;Y;NA;9;_;Y;BUILDING template
KNOKKE-HEIST - FH04;BL0406;335096;Zeedijk-Het Zoute;708;;;75234,251;227750,253;SDU;;0;1;0;1;Y;NA;9;_;Y;BUILDING template
KNOKKE-HEIST - FH04;BL0406;2767838;Zandstraat;5;;;75199,411;227709,901;MDU;;15;0;0;15;Y;NA;6;_;Y;BUILDING template
KNOKKE-HEIST - FH04;BL0407;335097;Zeedijk-Het Zoute;714;;;75270,861;227766,892;SDU;;0;1;0;1;Y;NA;9;_;Y;BUILDING template
KNOKKE-HEIST - FH04;BL0405;2767840;Zandstraat;8;;;75176,325;227699,494;MDU;;5;0;0;5;N;IRREG;6;_;Y;BUILDING template
KNOKKE-HEIST - FH04;BL0407;335098;Zeedijk-Het Zoute;718;;;75291,651;227773,639;SDU;;0;1;0;1;Y;NA;9;_;Y;BUILDING template
KNOKKE-HEIST - FH04;BL0406;2767841;Zandstraat;9;;;75205,392;227694,271;MDU;;11;0;1;12;Y;NA;7;_;Y;BUILDING template
KNOKKE-HEIST - FH04;BL0406;335099;Kustlaan;55;;;75220,225;227666,032;SDU;;0;1;0;1;N;IRREG;7;Review Required;Y;BUILDING template
KNOKKE-HEIST - FH04;BL0405;2767843;Zandstraat;10;;;75178,403;227693,74;MDU;;9;1;0;10;N;IRREG;6;_;Y;BUILDING template
KNOKKE-HEIST - FH04;BL0406;335100;Kustlaan;57;;;75224,782;227674,303;SDU;;0;1;0;1;N;ORN;4;_;Y;BUILDING template
KNOKKE-HEIST - FH04;BL0405;2767845;Zandstraat;12;;;75180,908;227688,623;SDU;;0;1;0;1;N;IRREG;6;_;Y;BUILDING template
KNOKKE-HEIST - FH04;BL0406;335101;Kustlaan;61;;;75233,691;227679,926;SDU;;0;1;0;1;N;ORN;7;_;Y;BUILDING template
KNOKKE-HEIST - FH04;BL0406;2767846;Zandstraat;13;;;75209,619;227682,302;SDU;;0;1;1;2;Y;NA;7;_;Y;BUILDING template
KNOKKE-HEIST - FH04;BL0407;335102;Kustlaan;95;;;75330,463;227714,504;SDU;;0;1;0;1;Y;NA;7;_;Y;BUILDING template
KNOKKE-HEIST - FH04;BL0405;2767847;Zandstraat;14;;;75182,17;227684,63;SDU;;0;1;0;1;Y;NA;4;_;Y;BUILDING template
KNOKKE-HEIST - FH04;BL0407;335103;Kustlaan;85;;;75309,926;227711,265;SDU;;0;1;0;1;Y;NA;7;_;Y;BUILDING template
KNOKKE-HEIST - FH04;BL0405;2767848;Zandstraat;18;;;75184,585;227676,729;MDU;;5;1;0;6;Y;NA;6;_;Y;BUILDING template
KNOKKE-HEIST - FH04;BL0407;335104;Kustlaan;63;;;75255,493;227683,569;SDU;;0;1;1;2;Y;NA;6;_;Y;BUILDING template
KNOKKE-HEIST - FH04;BL0405;2767849;Zandstraat;20;;;75186,337;227671,005;MDU;;5;1;0;6;Y;NA;6;Review Required;Y;BUILDING template
KNOKKE-HEIST - FH04;BL0414;NB-83001773a739;De Wielingen;17;;;75935,0;227970,0;SDU;;1;0;0;1;Y;NA;9;_;;BUILDING template
KNOKKE-HEIST - FH04;BL0406;335105;Zandstraat;1;;;75190,288;227731,132;MDU;;7;0;0;7;Y;NA;4;;N;BUILDING template
KNOKKE-HEIST - FH04;BL0412;2767893;Zeewindstraat;4;;;75762,365;227874,397;SDU;;1;;;1;Y;NA;2;;N;BUILDING template
KNOKKE-HEIST - FH04;BL0406;335107;Zandstraat;3;;;75195,486;227721,914;MDU;;20;0;1;21;Y;NA;9;_;Y;BUILDING template
KNOKKE-HEIST - FH04;BL0413;2767894;Zeewindstraat;5;;;75789,249;227878,784;MDU;;8;0;0;8;Y;NA;8;_;Y;BUILDING template
KNOKKE-HEIST - FH04;BL0406;335108;Zandstraat;7;;;75204,423;227699,174;SDU;;0;1;0;1;Y;NA;7;_;Y;BUILDING template
KNOKKE-HEIST - FH04;BL0413;2767895;Zeewindstraat;7;;;75792,257;227874,322;MDU;;7;0;1;8;Y;NA;7;_;Y;BUILDING template
KNOKKE-HEIST - FH04;BL0406;335109;Zandstraat;15;;;75211,234;227677,126;MDU;;12;0;1;13;Y;NA;7;_;Y;BUILDING template
KNOKKE-HEIST - FH04;BL0413;2767896;Zeewindstraat;11;;;75795,508;227866,319;MDU;;14;0;1;15;Y;NA;8;_;Y;BUILDING template
KNOKKE-HEIST - FH04;BL0414;NB-8300349a07547;Kustlaan;349;;;75964,05;227906,05;SDU;;0;1;0;1;N;ORN;7;_;;BUILDING template
KNOKKE-HEIST - FH04;BL0406;335110;Zandstraat;17;;;75212,81;227665,942;MDU;;7;0;1;8;N;IRREG;7;Review Required;Y;BUILDING template
KNOKKE-HEIST - FH04;BL0413;2767898;Zeewindstraat;13;;;75795,26;227863,984;SDU;;0;1;0;1;Y;NA;8;_;Y;BUILDING template
KNOKKE-HEIST - FH04;BL0406;335111;Duindistelstraat;18;;;75236,768;227685,413;SDU;;0;1;0;1;N;ORN;7;_;Y;BUILDING template
KNOKKE-HEIST - FH04;BL0406;2767938;Zeedijk-Het Zoute;701;;;75193,42;227740,559;SDU;;0;1;0;1;Y;NA;9;_;Y;BUILDING template
KNOKKE-HEIST - FH04;BL0414;NB-8300347222263;Kustlaan;347;;;75969,05;227906,05;SDU;;0;1;0;1;N;ORN;7;_;;BUILDING template
KNOKKE-HEIST - FH04;BL0406;335112;Duindistelstraat;4;;;75246,427;227718,786;MDU;;6;0;0;6;Y;NA;7;_;Y;BUILDING template
KNOKKE-HEIST - FH04;BL0406;2767941;Zeedijk-Het Zoute;702;;;75201,208;227744,375;MDU;;7;0;0;7;N;IRREG;8;_;Y;BUILDING template
KNOKKE-HEIST - FH04;BL0406;335113;Duindistelstraat;2;;;75254,583;227741,334;MDU;;23;0;1;24;Y;NA;9;_;Y;BUILDING template
KNOKKE-HEIST - FH04;BL0406;2767944;Zeedijk-Het Zoute;703;;;75210,233;227746,108;SDU;;0;1;0;1;N;IRREG;8;_;Y;BUILDING template
KNOKKE-HEIST - FH04;BL0407;335114;Duindistelstraat;17;;;75265,918;227707,2;MDU;;6;0;0;6;Y;NA;7;_;Y;BUILDING template
KNOKKE-HEIST - FH04;BL0406;2767945;Zeedijk-Het Zoute;704;;;75217,909;227749,409;MDU;;11;0;0;11;N;GLASS;2;_;Y;BUILDING template
KNOKKE-HEIST - FH04;BL0407;335115;Duindistelstraat;1;;;75278,138;227746,755;MDU;;1;;;1;Y;NA;4;;N;BUILDING template
KNOKKE-HEIST - FH04;BL0406;2767948;Zeedijk-Het Zoute;706;;;75227,653;227747,731;MDU;;13;0;0;13;Y;NA;7;_;Y;BUILDING template
KNOKKE-HEIST - FH04;BL0406;335116;Duindistelstraat;6;;;75243,05;227712,258;MDU;;11;0;1;12;Y;NA;7;_;Y;BUILDING template
KNOKKE-HEIST - FH04;BL0406;2767951;Zeedijk-Het Zoute;709;;;75237,941;227754,788;SDU;;0;1;0;1;Y;NA;9;_;Y;BUILDING template
KNOKKE-HEIST - FH04;BL0407;335118;Antoine Breartstraat;13;;;75305,299;227737,556;MDU;;15;0;1;16;Y;NA;7;_;Y;BUILDING template
KNOKKE-HEIST - FH04;BL0406;2767953;Zeedijk-Het Zoute;711;;;75250,425;227759,406;MDU;;46;0;0;46;Y;NA;9;_;Y;BUILDING template
KNOKKE-HEIST - FH04;BL0407;335119;Antoine Breartstraat;19;;;75300,344;227753,066;SDU;;0;1;0;1;Y;NA;9;_;Y;BUILDING template
KNOKKE-HEIST - FH04;BL0406;2767956;Zeedijk-Het Zoute;712;;;75246,375;227756,62;SDU;;0;1;0;1;Y;NA;9;_;Y;BUILDING template
KNOKKE-HEIST - FH04;BL0407;335120;Antoine Breartstraat;1;;;75325,326;227723,532;MDU;;27;0;0;27;Y;NA;4;;N;BUILDING template
KNOKKE-HEIST - FH04;BL0407;2767960;Zeedijk-Het Zoute;716;;;75281,309;227769,932;SDU;;0;1;0;1;Y;NA;9;_;Y;BUILDING template
KNOKKE-HEIST - FH04;BL0408;335746;Zeedijk-Het Zoute;735;;;75366,6;227779,139;SDU;;0;1;0;1;Y;NA;9;_;Y;BUILDING template
KNOKKE-HEIST - FH04;BL0408;2767964;Zeedijk-Het Zoute;721;;;75321,183;227776,264;SDU;;0;1;0;1;N;IRREG;4;_;Y;BUILDING template
KNOKKE-HEIST - FH04;BL0407;335748;Kustlaan;97;;;75330,904;227719,582;SDU;;;1;;1;Y;NA;2;;N;BUILDING template
KNOKKE-HEIST - FH04;BL0408;2767965;Zeedijk-Het Zoute;722;;;75321,309;227772,918;MDU;;2;;;2;Y;NA;4;;N;BUILDING template
KNOKKE-HEIST - FH04;BL0408;335749;Kustlaan;127;;;75431,131;227721,543;SDU;;0;1;0;1;N;ORN;7;_;Y;BUILDING template
KNOKKE-HEIST - FH04;BL0408;2767968;Zeedijk-Het Zoute;726;;;75337,694;227777,507;SDU;;1;;;1;Y;NA;2;;N;BUILDING template
KNOKKE-HEIST - FH04;BL0408;335751;Kustlaan;123;;;75415,124;227722,637;MDU;;10;1;1;12;Y;NA;7;_;Y;BUILDING template
KNOKKE-HEIST - FH04;BL0408;2767969;Zeedijk-Het Zoute;727;;;75340,684;227777,792;SDU;;0;1;0;1;Y;NA;7;_;Y;BUILDING template
KNOKKE-HEIST - FH04;BL0408;335752;Antoine Breartstraat;18;;;75314,509;227770,204;MDU;;22;0;1;23;N;ORN;9;_;Y;BUILDING template
KNOKKE-HEIST - FH04;BL0408;2767970;Zeedijk-Het Zoute;728;;;75345,99;227778,012;SDU;;0;1;0;1;Y;NA;2;;N;BUILDING template
KNOKKE-HEIST - FH04;BL0408;335753;Antoine Breartstraat;6;;;75339,626;227738,668;MDU;;5;1;2;8;Y;NA;6;_;Y;BUILDING template
KNOKKE-HEIST - FH04;BL0408;2767974;Zeedijk-Het Zoute;730;;;75350,952;227778,246;MDU;;8;0;1;9;Y;NA;4;_;Y;BUILDING template
KNOKKE-HEIST - FH04;BL0404;337097;Zeedijk-Knokke;673;;;75033,684;227690,582;SDU;;0;1;0;1;Y;NA;8;Review Required;Y;BUILDING template
KNOKKE-HEIST - FH04;BL0408;2767976;Zeedijk-Het Zoute;731;;;75351,718;227774,772;SDU;;0;1;0;1;Y;NA;9;_;Y;BUILDING template
KNOKKE-HEIST - FH04;BL0404;337098;Zeedijk-Knokke;685;;;75087,464;227705,901;SDU;;0;1;0;1;N;IRREG;8;_;Y;BUILDING template
KNOKKE-HEIST - FH04;BL0408;2767977;Zeedijk-Het Zoute;732;;;75355,966;227778,562;SDU;;0;1;0;1;Y;NA;4;_;Y;BUILDING template
KNOKKE-HEIST - FH04;BL0404;337099;Zeedijk-Knokke;687;;;75096,819;227709,397;SDU;;0;1;0;1;N;IRREG;8;_;Y;BUILDING template
KNOKKE-HEIST - FH04;BL0408;2767979;Zeedijk-Het Zoute;733;;;75360,703;227778,86;MDU;;16;0;1;17;Y;NA;4;_;Y;BUILDING template
KNOKKE-HEIST - FH04;BL0404;337100;Zeedijk-Knokke;678;;;75059,821;227697,533;MDU;;14;0;0;14;Y;NA;8;_;Y;BUILDING template
KNOKKE-HEIST - FH04;BL0408;2767987;Zeedijk-Het Zoute;736;;;75371,207;227779,757;SDU;;0;1;0;1;Y;NA;9;_;Y;BUILDING template
KNOKKE-HEIST - FH04;BL0410;NB-8300753ff1373;Zeedijk-Het Zoute;753;;;75535,0;227809,0;SDU;;0;1;0;1;Y;NA;7;_;;BUILDING template
KNOKKE-HEIST - FH04;BL0404;337101;Zeedijk-Knokke;680;;;75072,879;227701,535;SDU;;0;1;0;1;Y;NA;7;_;Y;BUILDING template
KNOKKE-HEIST - FH04;BL0408;2767996;Zeedijk-Het Zoute;742;;;75410,325;227780,558;MDU;;12;0;1;13;Y;NA;9;_;Y;BUILDING template
KNOKKE-HEIST - FH04;BL0404;337102;Kustlaan;39;;;75115,622;227633,672;SDU;;1;0;0;1;Y;NA;2;;N;BUILDING template
KNOKKE-HEIST - FH04;BL0408;2768001;Zeedijk-Het Zoute;744;;;75423,858;227786,478;SDU;;0;1;0;1;Y;NA;8;_;Y;BUILDING template
KNOKKE-HEIST - FH04;BL0410;NB-83007586fb030;Zeedijk-Het Zoute;758;;;75562,1725;227815,4514;SDU;;0;1;0;1;Y;NA;9;_;;BUILDING template
KNOKKE-HEIST - FH04;BL0404;337103;Kustlaan;23;;;75067,755;227617,818;SDU;;0;1;0;1;Y;NA;4;_;Y;BUILDING template
KNOKKE-HEIST - FH04;BL0408;2768002;Zeedijk-Het Zoute;746;;;75435,064;227787,632;SDU;;0;1;0;1;Y;NA;8;_;Y;BUILDING template
KNOKKE-HEIST - FH04;BL0404;NB-830021ed6f19;Kustlaan;21;;;75658,0;227792,0;SDU;;0;1;0;1;N;ORN;5;_;;BUILDING template
KNOKKE-HEIST - FH04;BL0404;337107;Swolfsstraat;2;;;75098,471;227703,543;MDU;;7;1;0;8;N;IRREG;8;_;Y;BUILDING template
KNOKKE-HEIST - FH04;BL0410;2768013;Zeedijk-Het Zoute;756;;;75553,117;227812,167;SDU;;0;1;0;1;Y;NA;7;_;Y;BUILDING template
KNOKKE-HEIST - FH04;BL0410;NB-8300759c00d90;Zeedijk-Het Zoute;759;;;75574,0;227821,0;SDU;;0;1;1;2;Y;NA;9;_;;BUILDING template
KNOKKE-HEIST - FH04;BL0404;337108;Swolfsstraat;6;;;75099,45;227690,391;MDU;;6;0;0;6;Y;NA;6;Review Required;Y;BUILDING template
KNOKKE-HEIST - FH04;BL0410;2768015;Zeedijk-Het Zoute;757;A;;75561,647;227814,852;MDU;;8;1;2;11;N;ORN;9;_;Y;BUILDING template
KNOKKE-HEIST - FH04;BL0404;337109;Swolfsstraat;10;;;75101,211;227683,092;MDU;;16;0;0;16;Y;NA;6;Review Required;Y;BUILDING template
KNOKKE-HEIST - FH04;BL0411;2768018;Zeedijk-Het Zoute;761;;;75601,661;227827,758;SDU;;0;1;0;1;N;ORN;7;_;Y;BUILDING template
KNOKKE-HEIST - FH04;BL0404;337110;Swolfsstraat;18;;;75117,172;227641,31;MDU;;6;0;0;6;N;IRREG;4;Review Required;Y;BUILDING template
KNOKKE-HEIST - FH04;BL0411;2768019;Zeedijk-Het Zoute;762;;;75605,632;227828,749;MDU;;6;0;1;7;N;ORN;7;_;Y;BUILDING template
KNOKKE-HEIST - FH04;BL0410;NB-8300147A5747;Kustlaan;147;A;;75540,0;227746,0;MDU;;12;0;1;13;Y;NA;7;_;;BUILDING template
KNOKKE-HEIST - FH04;BL0404;337111;Marie-Josestraat;7;;;75042,848;227666,4;MDU;;10;0;0;10;Y;NA;5;Review Required;Y;BUILDING template
KNOKKE-HEIST - FH04;BL0411;2768020;Zeedijk-Het Zoute;763;;;75612,477;227830,889;MDU;;14;0;1;15;Y;NA;6;_;Y;BUILDING template
KNOKKE-HEIST - FH04;BL0404;337112;Marie-Josestraat;21;;;75063,273;227616,44;SDU;;1;;;1;Y;NA;2;;N;BUILDING template
KNOKKE-HEIST - FH04;BL0411;2768022;Zeedijk-Het Zoute;764;;;75621,02;227833,563;SDU;;0;1;1;2;Y;NA;7;_;Y;BUILDING template
KNOKKE-HEIST - FH04;BL0403;337115;Marie-Josestraat;14;;;75029,727;227619,095;MDU;;4;0;0;4;Y;NA;4;_;Y;BUILDING template
KNOKKE-HEIST - FH04;BL0411;2768023;Zeedijk-Het Zoute;765;;;75624,94;227835,532;MDU;;13;0;1;14;Y;NA;7;_;Y;BUILDING template
KNOKKE-HEIST - FH04;BL0408;337141;Albertplein;5;;;75444,794;227749,15;SDU;;0;1;1;2;N;IRREG;9;_;Y;BUILDING template
KNOKKE-HEIST - FH04;BL0411;2768024;Zeedijk-Het Zoute;766;;;75630,58;227836,632;MDU;;8;1;0;9;Y;NA;9;Review Required;Y;BUILDING template
KNOKKE-HEIST - FH04;BL0408;337142;Zeedijk-Het Zoute;739;;;75400,726;227782,908;SDU;;0;1;0;1;Y;NA;9;_;Y;BUILDING template
KNOKKE-HEIST - FH04;BL0411;2768028;Zeedijk-Het Zoute;768;;;75644,791;227841,817;SDU;;0;1;0;1;Y;NA;7;_;Y;BUILDING template
KNOKKE-HEIST - FH04;BL0408;337143;Zeedijk-Het Zoute;743;;;75417,239;227784,784;SDU;;0;1;0;1;Y;NA;8;_;Y;BUILDING template
KNOKKE-HEIST - FH04;BL0411;2768031;Zeedijk-Het Zoute;769;;;75649,653;227844,052;MDU;;14;0;1;15;Y;NA;7;_;Y;BUILDING template
KNOKKE-HEIST - FH04;BL0408;337147;Kustlaan;131;;;75440,087;227722,535;SDU;;0;1;1;2;Y;NA;8;_;Y;BUILDING template
KNOKKE-HEIST - FH04;BL0411;2768033;Zeedijk-Het Zoute;770;;;75654,338;227847,62;SDU;;1;0;0;1;N;ORN;8;Review Required;Y;BUILDING template
KNOKKE-HEIST - FH04;BL0401;337592;Zeedijk-Knokke;648;;;74833,749;227627,886;SDU;;0;1;0;1;N;IRREG;8;_;Y;BUILDING template
KNOKKE-HEIST - FH04;BL0411;2768035;Zeedijk-Het Zoute;771;;;75656,496;227845,302;MDU;;8;0;1;9;N;ORN;8;Review Required;Y;BUILDING template
KNOKKE-HEIST - FH04;BL0411;1322806;Zeedijk-Het Zoute;767;;;75636,757;227838,926;MDU;;16;0;1;17;Y;NA;9;_;Y;BUILDING template
KNOKKE-HEIST - FH04;BL0411;2768036;Zeedijk-Het Zoute;772;;;75660,886;227848,799;SDU;;1;0;0;1;N;ORN;7;_;Y;BUILDING template
KNOKKE-HEIST - FH04;BL0407;1327494;Zeedijk-Het Zoute;715;;;75275,183;227768,602;MDU;;60;0;2;62;Y;NA;9;_;Y;BUILDING template
KNOKKE-HEIST - FH04;BL0411;2768037;Zeedijk-Het Zoute;773;;;75665,826;227849,656;MDU;;14;0;1;15;N;ORN;7;_;Y;BUILDING template
KNOKKE-HEIST - FH04;BL0408;1327496;Zeedijk-Het Zoute;724;;;75327,694;227773,423;SDU;;0;1;0;1;N;IRREG;9;_;Y;BUILDING template
KNOKKE-HEIST - FH04;BL0411;2768038;Zeedijk-Het Zoute;774;;;75666,785;227852,594;SDU;;1;0;0;1;N;ORN;7;_;Y;BUILDING template
KNOKKE-HEIST - FH04;BL0408;1327497;Zeedijk-Het Zoute;737;;;75375,705;227780,167;MDU;;46;0;2;48;Y;NA;9;_;Y;BUILDING template
KNOKKE-HEIST - FH04;BL0411;2768039;Zeedijk-Het Zoute;775;;;75671,685;227850,894;MDU;;7;0;1;8;N;ORN;7;_;Y;BUILDING template
KNOKKE-HEIST - FH04;BL0412;1338057;Kustlaan;249;;;75730,173;227825,534;SDU;;0;1;0;1;Y;NA;7;_;Y;BUILDING template
KNOKKE-HEIST - FH04;BL0411;2768040;Zeedijk-Het Zoute;776;;;75671,024;227853,812;SDU;;1;0;0;1;N;ORN;7;_;Y;BUILDING template
KNOKKE-HEIST - FH04;BL0408;1338390;Kustlaan;111;;;75379,468;227723,229;SDU;;0;1;0;1;Y;NA;6;_;Y;BUILDING template
KNOKKE-HEIST - FH04;BL0412;2768044;Zeedijk-Het Zoute;780;;;75703,426;227867,068;SDU;;1;0;0;1;Y;NA;8;_;Y;BUILDING template
KNOKKE-HEIST - FH04;BL0408;1523310;Albertplein;2;;;75446,357;227736,389;MDU;;7;1;0;8;Y;NA;4;;N;BUILDING template
KNOKKE-HEIST - FH04;BL0412;2768045;Zeedijk-Het Zoute;781;;;75703,933;227864,926;MDU;;7;0;1;8;Y;NA;8;_;Y;BUILDING template
KNOKKE-HEIST - FH04;BL0408;2757624;Albertplein;3;;;75445,539;227740,696;MDU;;16;1;0;17;Y;NA;9;_;Y;BUILDING template
KNOKKE-HEIST - FH04;BL0412;2768046;Zeedijk-Het Zoute;782;;;75709;227870;SDU;;0;1;0;1;N;ORN;8;_;Y;BUILDING template
KNOKKE-HEIST - FH04;BL0408;2757627;Albertplein;7;;;75442,448;227758,322;MDU;;14;0;0;14;Y;NA;8;_;Y;BUILDING template
KNOKKE-HEIST - FH04;BL0412;2768047;Zeedijk-Het Zoute;784;;;75719;227875;MDU;;28;0;1;29;N;ORN;8;_;Y;BUILDING template
KNOKKE-HEIST - FH04;BL0408;2757628;Albertplein;8;;;75442,688;227762,498;SDU;;0;1;0;1;Y;NA;8;_;Y;BUILDING template
KNOKKE-HEIST - FH04;BL0412;2768048;Zeedijk-Het Zoute;785;;;75725;227877;SDU;;0;1;0;1;N;ORN;8;_;Y;BUILDING template
KNOKKE-HEIST - FH04;BL0408;2757629;Albertplein;10;;;75441,376;227771,024;SDU;;0;1;0;1;Y;NA;8;_;Y;BUILDING template
KNOKKE-HEIST - FH04;BL0412;2768050;Zeedijk-Het Zoute;787;;;75736,04;227880,907;SDU;;0;1;0;1;N;ORN;9;_;Y;BUILDING template
KNOKKE-HEIST - FH04;BL0408;2758353;Antoine Breartstraat;2;;;75347,285;227731,579;SDU;;0;1;0;1;Y;NA;7;_;Y;BUILDING template
KNOKKE-HEIST - FH04;BL0412;2768051;Zeedijk-Het Zoute;788;;;75740,381;227882,907;SDU;;0;1;0;1;N;ORN;9;_;Y;BUILDING template
KNOKKE-HEIST - FH04;BL0407;2758359;Antoine Breartstraat;7;;;75316,065;227727,403;SDU;;0;1;0;1;Y;NA;6;_;Y;BUILDING template
KNOKKE-HEIST - FH04;BL0412;2768052;Zeedijk-Het Zoute;789;;;75744,998;227884,765;SDU;;0;1;0;1;N;ORN;9;_;Y;BUILDING template
KNOKKE-HEIST - FH04;BL0408;2758360;Antoine Breartstraat;8;;;75336,486;227743,027;SDU;;0;1;0;1;Y;NA;7;_;Y;BUILDING template
KNOKKE-HEIST - FH04;BL0412;2768053;Zeedijk-Het Zoute;790;;;75749,61;227887,034;SDU;;0;1;0;1;N;ORN;9;_;Y;BUILDING template
KNOKKE-HEIST - FH04;BL0407;2758361;Antoine Breartstraat;9;;;75310,988;227728,063;MDU;;9;0;1;10;Y;NA;6;_;Y;BUILDING template
KNOKKE-HEIST - FH04;BL0413;2768059;Zeedijk-Het Zoute;796;;;75795,25;227905,822;SDU;;0;1;0;1;Y;NA;7;_;Y;BUILDING template
KNOKKE-HEIST - FH04;BL0408;2758362;Antoine Breartstraat;10;;;75331,625;227747,24;MDU;;14;0;1;15;Y;NA;7;_;Y;BUILDING template
KNOKKE-HEIST - FH04;BL0413;2768060;Zeedijk-Het Zoute;797;;;75801,888;227909,748;MDU;;15;0;1;16;Y;NA;7;_;Y;BUILDING template
KNOKKE-HEIST - FH04;BL0408;2758364;Antoine Breartstraat;12;;;75327,168;227752,771;MDU;;3;1;0;4;Y;NA;4;_;Y;BUILDING template
KNOKKE-HEIST - FH04;BL0413;2768064;Zeedijk-Het Zoute;799;;;75810,965;227913,999;SDU;;0;1;0;1;Y;NA;8;_;Y;BUILDING template
KNOKKE-HEIST - FH04;BL0407;2758368;Antoine Breartstraat;13;A;;75309,872;227733,209;SDU;;0;1;0;1;Y;NA;7;_;Y;BUILDING template
KNOKKE-HEIST - FH04;BL0413;2768065;Zeedijk-Het Zoute;800;;;75815,603;227915,852;MDU;;16;0;1;17;Y;NA;8;_;Y;BUILDING template
KNOKKE-HEIST - FH04;BL0408;2758369;Antoine Breartstraat;14;;;75323,085;227757,168;SDU;;0;1;0;1;N;IRREG;8;_;Y;BUILDING template
KNOKKE-HEIST - FH04;BL0413;2768066;Zeedijk-Het Zoute;802;;;75824,993;227920,099;SDU;;0;1;0;1;N;ORN;9;_;Y;BUILDING template
KNOKKE-HEIST - FH04;BL0412;NB-83002695d0c44;Kustlaan;269;;;75766,0;227833,0;MDU;;6;0;1;7;N;ORN;7;_;;BUILDING template
KNOKKE-HEIST - FH04;BL0407;2758371;Antoine Breartstraat;17;;;75302,875;227748,095;MDU;;6;1;2;9;Y;NA;7;_;Y;BUILDING template
KNOKKE-HEIST - FH04;BL0413;2768068;Zeedijk-Het Zoute;803;;;75826,963;227916,65;MDU;;7;0;1;8;N;ORN;9;_;Y;BUILDING template
KNOKKE-HEIST - FH04;BL0401;2758565;Van Bunnenplein;14;;;74841,763;227604,292;SDU;;0;1;0;1;N;IRREG;8;_;Y;BUILDING template
KNOKKE-HEIST - FH04;BL0414;2768072;Zeedijk-Het Zoute;810;;;75878,184;227942,065;MDU;;9;0;1;10;Y;NA;9;_;Y;BUILDING template
KNOKKE-HEIST - FH04;BL0401;2758566;Van Bunnenplein;15;;;74844,953;227597,825;SDU;;0;1;0;1;N;IRREG;8;_;Y;BUILDING template
KNOKKE-HEIST - FH04;BL0414;2768073;Zeedijk-Het Zoute;811;;;75883,467;227943,498;MDU;;8;1;1;10;Y;NA;9;_;Y;BUILDING template
KNOKKE-HEIST - FH04;BL0401;2758568;Van Bunnenplein;16;;;74846,274;227593,396;MDU;;19;0;0;19;N;IRREG;8;_;Y;BUILDING template
KNOKKE-HEIST - FH04;BL0414;2768074;Zeedijk-Het Zoute;812;;;75888,255;227947,236;MDU;;18;0;1;19;N;ORN;9;_;Y;BUILDING template
KNOKKE-HEIST - FH04;BL0401;2758569;Van Bunnenplein;17;;;74848,665;227588,583;SDU;;0;1;0;1;N;IRREG;8;_;Y;BUILDING template
KNOKKE-HEIST - FH04;BL0414;2768076;Zeedijk-Het Zoute;813;;;75893,097;227948,929;MDU;;7;0;0;7;Y;NA;4;;N;BUILDING template
