LAM MK;xPos;yPos;Street;Nr;Suffix
109177;152605,01;212529,026;Ambtmanstraat;1;
3918205;152605,184;212519,292;Ambtmanstraat;3;
109179;152606,299;212500,363;Ambtmanstraat;5;
1090983;152602,786;212486,7;Ambtmanstraat;7;
109180;152603,272;212470,758;Ambtmanstraat;9;
91951;153105,882;212231,779;Apostelstraat;2;
1735979;153118,291;212218,234;Apostelstraat;3;
1735980;153101,787;212229,131;Apostelstraat;4;
4505243;153116,969;212214,357;Apostelstraat;5;
4505223;153102,08;212223,429;Apostelstraat;6;
4505244;153115,637;212207,579;Apostelstraat;7;
1735981;153097,205;212219,767;Apostelstraat;8;
1735982;153113,264;212200,581;Apostelstraat;9;
4505225;153098,324;212213,888;Apostelstraat;10;
4505227;153095,29;212208,984;Apostelstraat;12;
1735983;153096,346;212201,479;Apostelstraat;14;
4505231;153090,984;212194,177;Apostelstraat;16;
4505232;153091,351;212187,259;Apostelstraat;18;
1735984;153095,066;212181,356;Apostelstraat;20;
91954;153095,158;212177,375;Apostelstraat;22;
1749590;152670,479;212518,717;Blindestraat;4;
1749593;152677,195;212516,021;Blindestraat;6;
1749595;152690,132;212512,48;Blindestraat;8;
1749597;152697,532;212510,395;Blindestraat;10;
1749598;152706,664;212507,183;Blindestraat;12;
4507388;152714,929;212504,973;Blindestraat;14;
1749600;152733,612;212498,82;Blindestraat;18;
109173;152755,651;212491,878;Blindestraat;22;
56815;152660,518;212329,328;Borzestraat;1;
1759910;152659,178;212324,607;Borzestraat;3;
1759944;152652,405;212302,547;Borzestraat;7;
56810;152636,951;212323,177;Borzestraat;10;
56816;152626,777;212273,416;Borzestraat;12;
4506247;152623,471;212269,004;Borzestraat;14;
1759976;152658;212287;Borzestraat;15;
1759985;152623;212266;Borzestraat;16;
4506244;152646,922;212280,529;Borzestraat;17;
4506249;152622,616;212262,072;Borzestraat;18;
1760010;152621,549;212258,92;Borzestraat;20;
1760014;152640,794;212262,436;Borzestraat;21;
4069916;152619,906;212255,816;Borzestraat;22;
1760016;152619,549;212251,765;Borzestraat;24;
1760019;152619,051;212247,012;Borzestraat;26;
56814;152631,021;212238,823;Borzestraat;27;
56811;152617,754;212242,768;Borzestraat;28;
1084657;152622,039;212190,2;Borzestraat;29;
56813;152606,578;212209,309;Borzestraat;30;
5960044;152612,81;212180,461;Borzestraat;31;
56812;152607,839;212204,361;Borzestraat;32;
1760041;152604;212187;Borzestraat;36;
248839;153025,398;212072,356;Cellebroedersstraat;20;
110082;153024,749;212066,195;Cellebroedersstraat;22;
148659;152898,557;212140,352;Eikenstraat;2;
110161;153265,925;212176,137;Frankrijklei;2;
1873523;153263,115;212168,788;Frankrijklei;4;
110160;153262,035;212161,169;Frankrijklei;6;
110159;153260,035;212152,414;Frankrijklei;8;
1873559;153255,874;212137,392;Frankrijklei;12;
110158;153254,091;212130,42;Frankrijklei;14;
110157;153252,902;212121,774;Frankrijklei;16;
1873574;153249,746;212115,492;Frankrijklei;18;
1873586;153248,116;212108,647;Frankrijklei;20;
1873590;153247,66;212100,915;Frankrijklei;22;
1873627;153240,473;212076,976;Frankrijklei;28;
1873650;153236,852;212068,059;Frankrijklei;32;
1873655;153236,474;212060,44;Frankrijklei;34;
5575535;153234,907;212053,172;Frankrijklei;36;
110156;153232;212043;Frankrijklei;38;
1008469;153209,238;211991,432;Frankrijklei;40;
5575536;153205,24;211979,706;Frankrijklei;42;
1008468;153204,159;211974,788;Frankrijklei;44;
1008467;153198,755;211968,303;Frankrijklei;46;
1873729;153197,188;211958,63;Frankrijklei;48;
1873739;153193,027;211948,741;Frankrijklei;50;
1008466;153190,238;211940,269;Frankrijklei;52;
5575537;153186,596;211934,205;Frankrijklei;54;
1008464;153184,633;211929,458;Frankrijklei;56;
1008465;153180,271;211920,112;Frankrijklei;58;
1008462;153175,732;211906,603;Frankrijklei;60;
1873798;153167,845;211887,353;Frankrijklei;62;
1085997;153164,224;211877,356;Frankrijklei;64;
1008463;153161,792;211866,98;Frankrijklei;68;
137691;153156,712;211858,172;Frankrijklei;70;
109941;152982,875;212300,112;Frans Halsplein;1;
109184;153037,746;212289,83;Frans Halsplein;2;
6440735;153042,255;212285,932;Frans Halsplein;2;A
4506661;153045,184;212306,185;Frans Halsplein;4;
1932680;153007,209;212356,84;Frans Halsplein;15;
1932689;153011,506;212368,378;Frans Halsplein;17;
5575668;153014,609;212374,107;Frans Halsplein;19;
60604;152665,562;212075,573;Gramayestraat;4;
1091150;152680,683;212092,08;Gramayestraat;5;
962191;152675,765;212064,412;Gramayestraat;9;
109987;152782,857;212480,883;Gratiekapelstraat;1;
1913271;152766,239;212487,662;Gratiekapelstraat;2;
1913285;152782,193;212476,052;Gratiekapelstraat;3;
1913289;152765,57;212480,638;Gratiekapelstraat;4;
4511674;152781,079;212471,045;Gratiekapelstraat;5;
4507383;152765,855;212472,727;Gratiekapelstraat;6;
109988;152780,052;212466,375;Gratiekapelstraat;7;
1913294;152764,176;212465,431;Gratiekapelstraat;8;
3927585;152758,685;212457,813;Gratiekapelstraat;10;
4507384;152759,501;212450,475;Gratiekapelstraat;12;
1913303;152758,091;212446,093;Gratiekapelstraat;14;
4507385;152757,887;212440,744;Gratiekapelstraat;16;
1913309;152756,501;212436,187;Gratiekapelstraat;18;
109164;152755,461;212431,752;Gratiekapelstraat;20;
1305077;152753,844;212428,076;Gratiekapelstraat;22;
109165;152753,919;212423,399;Gratiekapelstraat;24;
109166;152753,262;212418,993;Gratiekapelstraat;26;
1913316;152754,987;212413,531;Gratiekapelstraat;28;
59544;152491,438;211962,737;Groendalstraat;1;
59545;152479,511;211950,319;Groendalstraat;2;
4509203;152495,978;211961,332;Groendalstraat;3;
1918080;152483,909;211950,246;Groendalstraat;4;
1918084;152497,653;211960,434;Groendalstraat;5;
1918090;152487,979;211950,137;Groendalstraat;6;
1918095;152503,78;211963,672;Groendalstraat;7;
1918106;152492,594;211950,028;Groendalstraat;8;
1918112;152510,505;211963,871;Groendalstraat;9;
1918116;152494,392;211945,245;Groendalstraat;10;
1918117;152514,141;211963,871;Groendalstraat;11;
1918123;152498,918;211949,919;Groendalstraat;12;
1918128;152503,316;211949,846;Groendalstraat;14;
6421414;152502,03;211945,391;Groendalstraat;14;A
1918145;152520,866;211962,526;Groendalstraat;15;
1918153;152521,514;211966,512;Groendalstraat;15;A
1918159;152508,44;211949,483;Groendalstraat;16;
1918172;152525,898;211964,718;Groendalstraat;17;
1918177;152510,56;211926,635;Groendalstraat;18;
59546;152531,527;211964,021;Groendalstraat;19;
4008865;152495,76;211898,813;Groendalstraat;19;B
1918201;152513,964;211949,774;Groendalstraat;20;
1918222;152521,233;211949,338;Groendalstraat;22;
1918223;152527,629;211949,192;Groendalstraat;24;
1918224;152534,098;211949,265;Groendalstraat;26;
59547;152538,968;211949,338;Groendalstraat;28;
110168;152830,965;211857,902;Hopland;1;
1944469;152840;211856;Hopland;3;
5777120;152847;211857;Hopland;3;A
5941918;152852,026;211861,815;Hopland;5;
1944473;152861,065;211865,359;Hopland;7;
1944475;152866,415;211866,224;Hopland;9;
1944476;152868,577;211865,413;Hopland;11;
1091137;152892,246;211868,223;Hopland;15;
1944479;152896,839;211868,926;Hopland;17;
1944481;152904,134;211870,601;Hopland;19;
1944482;152904,783;211864,711;Hopland;21;
1944483;152931;211874;Hopland;27;
1091139;152934,846;211874,483;Hopland;29;
1944485;152939,043;211874,492;Hopland;31;
3927706;152945,753;211875,416;Hopland;33;
1944487;152951,094;211875,735;Hopland;35;
1944488;152959,935;211876,547;Hopland;37;
110174;152971,064;211876,446;Hopland;39;
1944493;153011,618;211880,814;Hopland;47;
3927707;153027,289;211879,625;Hopland;49;
110172;153036,26;211875,735;Hopland;51;
110414;153066,792;211874,005;Hopland;53;
1944495;153070,79;211874,276;Hopland;55;
1944496;153079,167;211874,168;Hopland;57;
1944497;153087,326;211875,032;Hopland;59;
1944498;153095,661;211870,101;Hopland;61;
1944499;153101,431;211869,682;Hopland;63;
110415;153106,132;211869,466;Hopland;65;
110416;153112,833;211872,222;Hopland;67;
59534;152548,995;212020,159;Huidevettersstraat;2;
173710;152546,172;212016,625;Huidevettersstraat;4;
59535;152545,674;212008,356;Huidevettersstraat;6;
1945343;152570,552;211993,37;Huidevettersstraat;7;
1945348;152549;212004;Huidevettersstraat;8;
173711;152545,973;212002,577;Huidevettersstraat;10;
1945381;152570,85;211985,101;Huidevettersstraat;11;
1945387;152546,67;211995,105;Huidevettersstraat;12;
1945391;152569,685;211980,36;Huidevettersstraat;13;
1945394;152574,666;211975,976;Huidevettersstraat;15;
1945396;152544,578;211985,441;Huidevettersstraat;16;
1945398;152573,271;211971,892;Huidevettersstraat;17;
1945400;152546,77;211977,471;Huidevettersstraat;18;
1945404;152575,164;211966,81;Huidevettersstraat;19;
1945412;152545,375;211971,393;Huidevettersstraat;20;
1945420;152575,762;211960,335;Huidevettersstraat;21;
1945426;152540,932;211971,186;Huidevettersstraat;22;
1945432;152576,958;211949,973;Huidevettersstraat;23;
1945435;152577,686;211943,114;Huidevettersstraat;25;
59533;152545,51;211950,791;Huidevettersstraat;26;
1945442;152578,054;211938,715;Huidevettersstraat;27;
59536;152545,728;211945,412;Huidevettersstraat;28;
1945452;152579,747;211933,335;Huidevettersstraat;29;
1945454;152547,327;211938,362;Huidevettersstraat;30;
1945465;152581,142;211927,656;Huidevettersstraat;31;
1945467;152547,254;211931,457;Huidevettersstraat;32;
60018;152582,039;211920,881;Huidevettersstraat;33;
1945478;152544,492;211922,735;Huidevettersstraat;34;
5575734;152581;211917;Huidevettersstraat;35;
1945490;152545,073;211910,16;Huidevettersstraat;36;
60013;152582,278;211913,535;Huidevettersstraat;37;
182860;152545,582;211889,154;Huidevettersstraat;38;
60016;152583,359;211899,593;Huidevettersstraat;39;
1945553;152547,477;211880,139;Huidevettersstraat;40;
1945572;152547,181;211866,985;Huidevettersstraat;42;
60787;152582,71;211882,544;Huidevettersstraat;43;
1945587;152547,763;211856,373;Huidevettersstraat;44;
60788;152583,034;211871,033;Huidevettersstraat;45;
59543;152548,199;211845,324;Huidevettersstraat;46;
60789;152583,305;211861,09;Huidevettersstraat;47;
59542;152543,256;211837,547;Huidevettersstraat;48;
1945602;152583,467;211855,416;Huidevettersstraat;49;
1945611;152538,604;211832,168;Huidevettersstraat;50;
60786;152583,737;211847,797;Huidevettersstraat;51;
1945624;152533,522;211828,57;Huidevettersstraat;52;
1945650;152525,739;211827,298;Huidevettersstraat;54;
1945661;152520,288;211824,246;Huidevettersstraat;56;
59541;152514,982;211822,937;Huidevettersstraat;58;
56821;152570,119;212168,302;Israëlietenstraat;1;
3927724;152574,324;212167,439;Israëlietenstraat;3;
5575743;152588,315;212164,699;Israëlietenstraat;7;
109936;152739,329;212390,53;Jan van Lierstraat;1;
109167;152727;212384;Jan van Lierstraat;2;
1990740;152720,132;212378,396;Jan van Lierstraat;4;
1990743;152718,378;212363,271;Jan van Lierstraat;6;
110097;153091;212090;Jezusstraat;1;
110101;153099,647;212069,221;Jezusstraat;2;
5759159;153097,875;212096,774;Jezusstraat;3;
6430565;153108,45;212075,399;Jezusstraat;6;A
5303947;153104,024;212102,393;Jezusstraat;7;
110103;153114,724;212083,001;Jezusstraat;8;
1957243;153119,155;212088,081;Jezusstraat;10;
1353957;153122,143;212091,144;Jezusstraat;12;
6362316;153114;212111,574;Jezusstraat;13;
110104;153126;212095;Jezusstraat;14;
249199;153125,289;212124,963;Jezusstraat;15;
5373804;153133,989;212134,473;Jezusstraat;15;A
110100;153132,429;212099,551;Jezusstraat;16;
6450141;153143,257;212141,012;Jezusstraat;17;A
3927744;153140,825;212106,616;Jezusstraat;18;A
1957411;153146,256;212146,524;Jezusstraat;19;
110102;153147,364;212114,668;Jezusstraat;20;
4507074;153152,065;212119,586;Jezusstraat;22;
5775094;153156,064;212123,206;Jezusstraat;22;A
1957477;153164,062;212131,907;Jezusstraat;26;
1957487;153171,843;212138,499;Jezusstraat;28;
4507076;153175,302;212142,39;Jezusstraat;30;
1957509;153176,518;212175,273;Jezusstraat;31;
1957525;153179,571;212146,74;Jezusstraat;32;
1957556;153180,008;212178,438;Jezusstraat;33;
1957564;153181,192;212150,901;Jezusstraat;34;
1957566;153182,981;212181,545;Jezusstraat;35;
1957570;153185,137;212153,036;Jezusstraat;36;
249200;153185,673;212184,643;Jezusstraat;37;
6307903;153189,356;212186,357;Jezusstraat;37;B
1957576;153190,325;212159,764;Jezusstraat;38;
249202;153191,162;212190,782;Jezusstraat;39;
1957599;153195,479;212166,43;Jezusstraat;40;
249203;153194,267;212194,138;Jezusstraat;41;
1957615;153204,888;212175,867;Jezusstraat;44;
1957647;153199,438;212168,849;Jezusstraat;44;A
4016314;153202,379;212170,857;Jezusstraat;44;B
1957654;153205,496;212172,359;Jezusstraat;44;C
110099;153208,644;212185,216;Jezusstraat;46;
1085188;153216,75;212196,564;Jezusstraat;48;
60804;152599;211881;Jodenstraat;2;
1958099;152622,396;211900,03;Jodenstraat;3;
1958100;152608,271;211877,41;Jodenstraat;6;
1958154;152613,62;211881,463;Jodenstraat;8;
1958207;152628;211878;Jodenstraat;10;
1335521;152681,269;211898,266;Jodenstraat;11;
1294395;152642,748;211878,004;Jodenstraat;12;
1958308;152653,285;211876,815;Jodenstraat;12;A
1958322;152659,175;211876,815;Jodenstraat;12;B
1958343;152666,378;211876,231;Jodenstraat;14;
1499837;152695,138;211898,647;Jodenstraat;15;
1958370;152675,117;211878,166;Jodenstraat;16;
4507537;152757,526;211900,755;Jodenstraat;17;
1958371;152678,251;211877,032;Jodenstraat;18;
4504341;152684,195;211877,032;Jodenstraat;20;
1958388;152693,706;211876,978;Jodenstraat;22;
1958410;152706,081;211876,599;Jodenstraat;26;
1958437;152715,268;211876,978;Jodenstraat;30;
1958447;152720,131;211877,086;Jodenstraat;32;
1958457;152724,292;211877,14;Jodenstraat;34;
1958474;152729,858;211877,194;Jodenstraat;36;
197570;152735,1;211877,194;Jodenstraat;38;
4271895;152747,097;211877,356;Jodenstraat;42;
197569;152756,229;211877,518;Jodenstraat;44;
1367914;152765,524;211877,896;Jodenstraat;46;
1958579;152771,036;211877,95;Jodenstraat;48;
4504335;152777,197;211877,14;Jodenstraat;50;
109352;152962,146;212418,642;Kattenstraat;1;
1960592;152966,059;212417,325;Kattenstraat;3;
109951;152949,206;212410,578;Kattenstraat;4;
1960593;152969,124;212416,003;Kattenstraat;5;
4507563;152955,407;212405,204;Kattenstraat;6;
1960594;152971,696;212415,399;Kattenstraat;7;
1960595;152965,333;212401,48;Kattenstraat;8;
1960596;152978,401;212412,584;Kattenstraat;9;
4509044;152981,732;212410,84;Kattenstraat;11;
4509046;152984,91;212410,954;Kattenstraat;13;
4509048;152989,895;212409,933;Kattenstraat;15;
4509049;152994,635;212407,667;Kattenstraat;17;
1960597;153003,426;212404,527;Kattenstraat;19;
109952;153002,434;212389,544;Kattenstraat;20;
5575787;153016,678;212383,656;Kattenstraat;22;
4249601;153008,936;212403,146;Kattenstraat;23;
1960600;153014,822;212401,224;Kattenstraat;27;
4509054;153020,288;212399,181;Kattenstraat;29;
109353;153025,453;212396,178;Kattenstraat;31;
109354;153044,374;212386,448;Kattenstraat;33;
5436912;153039,156;212387,63;Kattenstraat;33;A
1960601;153047,377;212386,207;Kattenstraat;35;
1960602;153051,761;212385,547;Kattenstraat;37;
1960604;153057,347;212381,282;Kattenstraat;39;
109355;153062,847;212378,378;Kattenstraat;41;
109155;152565,745;212424,665;Keizerstraat;2;
1960748;152556;212425;Keizerstraat;2;A
4507361;152579,261;212424,794;Keizerstraat;4;
1960752;152619,295;212444,171;Keizerstraat;7;
1960753;152592,92;212423,956;Keizerstraat;8;
109153;152626,536;212444,495;Keizerstraat;9;
109154;152613,133;212422,11;Keizerstraat;10;
4000280;152636,369;212443,571;Keizerstraat;11;
1960754;152620,08;212420,314;Keizerstraat;12;
12730;152631,305;212418,33;Keizerstraat;14;
109162;152655,599;212439,79;Keizerstraat;15;
187752;152646,549;212415,241;Keizerstraat;16;
4507372;152657,408;212413,348;Keizerstraat;18;
4068369;152670,266;212432,49;Keizerstraat;19;
1960755;152664,781;212412,053;Keizerstraat;20;
109163;152681,956;212429,036;Keizerstraat;21;
109161;152670,161;212410,061;Keizerstraat;22;
4507378;152698,914;212422,652;Keizerstraat;23;
4083567;152676,624;212407,64;Keizerstraat;24;
1960757;152718,113;212419,011;Keizerstraat;25;
1960758;152680,782;212406,565;Keizerstraat;26;
109158;152686,826;212408,366;Keizerstraat;28;
1960759;152727,105;212417,162;Keizerstraat;29;
4241728;152732,011;212415,742;Keizerstraat;31;
1087754;152700,272;212402,31;Keizerstraat;32;
4507410;152705,69;212397,489;Keizerstraat;34;
1960761;152706,154;212401,156;Keizerstraat;36;
1960762;152745,8;212412,232;Keizerstraat;37;
1960763;152716,401;212398,732;Keizerstraat;38;
109159;152752,335;212409,607;Keizerstraat;39;
109927;152745,266;212393,498;Keizerstraat;44;
109932;152760,499;212390,38;Keizerstraat;48;
1960766;152766,015;212389,169;Keizerstraat;50;
4180562;152771,355;212387,908;Keizerstraat;52;
1960768;152776,37;212386,491;Keizerstraat;54;
109929;152796,37;212381,533;Keizerstraat;60;
109928;152805,55;212379,752;Keizerstraat;62;
1960772;152799,611;212354,699;Keizerstraat;62;A
4507569;152818,84;212377,148;Keizerstraat;64;
4507570;152834,413;212373,997;Keizerstraat;68;
1960775;152842,183;212372,901;Keizerstraat;70;
1960776;152889,184;212387,737;Keizerstraat;71;
1960777;152847,228;212370,957;Keizerstraat;72;
12736;152899,997;212386,068;Keizerstraat;73;
1960778;152851,905;212370,344;Keizerstraat;74;
1960779;152858,66;212368,57;Keizerstraat;76;
1960780;152863,322;212368,06;Keizerstraat;78;
1960781;152867,661;212366,325;Keizerstraat;80;
1960782;152872,708;212364,547;Keizerstraat;82;
4029478;152878,887;212363,504;Keizerstraat;84;
109930;152883,645;212361,347;Keizerstraat;86;
109151;152552,424;212375,174;Kipdorp;1;
56804;152561,088;212357,168;Kipdorp;2;
4507365;152559,054;212376,585;Kipdorp;3;
56802;152598,39;212345,832;Kipdorp;8;
56805;152612,014;212341,992;Kipdorp;10;
4037939;152637,668;212335,508;Kipdorp;12;
1470239;152600,187;212371,816;Kipdorp;13;
1961986;152622,293;212376,029;Kipdorp;19;
56800;152661,971;212333,953;Kipdorp;20;
1961990;152668,79;212330,383;Kipdorp;22;
5575825;152664,278;212355,6;Kipdorp;23;
1961992;152691,491;212325,42;Kipdorp;28;
1328224;152703,506;212324,667;Kipdorp;30;
4506239;152713,873;212321,338;Kipdorp;32;
1961994;152696,754;212347,712;Kipdorp;33;
56801;152720,739;212322,17;Kipdorp;34;
109149;152707,278;212345,074;Kipdorp;35;
110043;152733,039;212321,351;Kipdorp;36;
1961995;152712,874;212344,237;Kipdorp;37;
1961996;152740,411;212314,264;Kipdorp;38;
109949;152759,301;212341,528;Kipdorp;41;
1961998;152754,306;212311,711;Kipdorp;42;
109950;152772,082;212339,067;Kipdorp;43;
109945;152789,224;212335,908;Kipdorp;45;
1962002;152780,58;212305,975;Kipdorp;46;
5575828;152793;212303;Kipdorp;48;
109946;152801,044;212333,023;Kipdorp;49;
5575829;152810,329;212330,808;Kipdorp;51;
1962009;152840,056;212324,781;Kipdorp;57;
6577632;152853,311;212320,327;Kipdorp;59;
110163;153250,794;212188,08;Kipdorpbrug;2;
1962011;153256,306;212186,999;Kipdorpbrug;4;
1962012;153261,062;212186,081;Kipdorpbrug;6;
1962013;153265,979;212185;Kipdorpbrug;8;
110164;153271,275;212183,703;Kipdorpbrug;10;
110153;153250,686;212179,866;Kipdorpvest;1;
6390549;153247,282;212166,032;Kipdorpvest;5;
5446057;153245,661;212163,276;Kipdorpvest;5;B
110116;153232,799;212191,052;Kipdorpvest;8;
1962017;153241,04;212140,688;Kipdorpvest;9;
5575830;153229,503;212182,244;Kipdorpvest;10;
110085;153227,179;212170,193;Kipdorpvest;12;
1962019;153237,83;212124,722;Kipdorpvest;13;
110084;153224,261;212159,169;Kipdorpvest;14;
1962022;153222,694;212153,333;Kipdorpvest;18;
1962023;153230,293;212112,25;Kipdorpvest;19;
1962024;153216,696;212133,906;Kipdorpvest;20;
1962025;153222,628;212090,592;Kipdorpvest;21;
1962026;153197,35;212089,594;Kipdorpvest;24;
4153435;153207,076;212108,795;Kipdorpvest;24;A
1297526;153194,211;212080,928;Kipdorpvest;26;
1962027;153216,642;212076,273;Kipdorpvest;27;A
1962014;153190,895;212070,891;Kipdorpvest;28;
110083;153166,71;212008,563;Kipdorpvest;30;
4064238;153164,008;212003,537;Kipdorpvest;32;
1084676;153183,324;211992,106;Kipdorpvest;33;
5915249;153161,846;211998,619;Kipdorpvest;34;
110419;153156,172;211991,378;Kipdorpvest;36;
1086006;153156;211986;Kipdorpvest;38;
1962031;153170,709;211963,224;Kipdorpvest;39;
5575832;153151,795;211980,084;Kipdorpvest;40;
1962035;153165,899;211950,146;Kipdorpvest;41;
1008479;153148,985;211965,304;Kipdorpvest;42;
1962038;153161,644;211941,3;Kipdorpvest;43;
1962039;153138,88;211949,606;Kipdorpvest;44;
1008471;153161;211937;Kipdorpvest;45;
187739;153133,692;211937,069;Kipdorpvest;46;
187740;153157,685;211930,206;Kipdorpvest;47;
1962040;153132,125;211931,287;Kipdorpvest;48;
5552572;153154;211919;Kipdorpvest;49;
1498565;153125,424;211915,345;Kipdorpvest;50;
1962045;153123,1;211908,428;Kipdorpvest;52;
1962046;153121,101;211902,592;Kipdorpvest;54;
1962047;153141;211885;Kipdorpvest;55;
1962048;153117,858;211891,46;Kipdorpvest;56;
1962049;153118,399;211886,056;Kipdorpvest;58;
110418;153116,075;211879,247;Kipdorpvest;60;
1966275;152894,677;211988,784;Kolveniersstraat;6;
1966287;152918,98;211966,428;Kolveniersstraat;7;
1966291;152894,245;211978,517;Kolveniersstraat;8;
1966298;152921;211938;Kolveniersstraat;11;
1966305;152896,461;211955,334;Kolveniersstraat;14;
4508074;152917,698;211927,747;Kolveniersstraat;15;
4508076;152920,022;211897,729;Kolveniersstraat;19;
110187;152895,056;211945,391;Kolveniersstraat;20;
4508077;152921,751;211882,408;Kolveniersstraat;21;
110188;152900,027;211899,62;Kolveniersstraat;22;
110191;152923,534;211872,708;Kolveniersstraat;23;
1966330;152900,892;211890,649;Kolveniersstraat;24;
1091138;152905,972;211882,976;Kolveniersstraat;26;
110189;152907,214;211877,626;Kolveniersstraat;28;
109974;152850,215;212472,233;Koningstraat;1;
109973;152834,87;212471,593;Koningstraat;2;
4511677;152850,991;212467,255;Koningstraat;5;
4511679;152849,576;212462,916;Koningstraat;7;
109976;152812,138;212409,804;Koningstraat;8;
4511680;152848,708;212458,029;Koningstraat;9;
1967391;152847,52;212453,143;Koningstraat;11;
1967396;152845,785;212446,018;Koningstraat;13;
1967400;152842,908;212436,976;Koningstraat;15;
1967410;152840,761;212429,714;Koningstraat;17;
1967415;152837,839;212419,462;Koningstraat;21;
1967419;152836,788;212415,237;Koningstraat;23;
109975;152835,372;212409,117;Koningstraat;25;
59554;152473,042;211950,428;Korte Gasthuisstraat;1;
173733;152473,987;211943,668;Korte Gasthuisstraat;3;
173704;152475,077;211938,362;Korte Gasthuisstraat;5;
1884627;152476,168;211933,056;Korte Gasthuisstraat;7;
1884659;152479,002;211926,224;Korte Gasthuisstraat;9;
1352924;152482,273;211914,666;Korte Gasthuisstraat;13;
4509224;152489,142;211915,345;Korte Gasthuisstraat;15;
1884725;152485,762;211905,726;Korte Gasthuisstraat;17;
1884734;152488,96;211897,367;Korte Gasthuisstraat;19;
3926213;152492,695;211886,56;Korte Gasthuisstraat;21;
4509225;152490,924;211890,378;Korte Gasthuisstraat;23;
59555;152495,211;211882,176;Korte Gasthuisstraat;25;
59556;152499,5;211872,8;Korte Gasthuisstraat;27;
1884831;152501,607;211865,676;Korte Gasthuisstraat;29;
1884857;152503,279;211860,152;Korte Gasthuisstraat;31;
1884875;152510,817;211852,872;Korte Gasthuisstraat;33;
1884890;152506,405;211846,924;Korte Gasthuisstraat;35;
1884932;152508,513;211841,908;Korte Gasthuisstraat;37;
1884937;152514,327;211838,129;Korte Gasthuisstraat;39;
1884944;152511,129;211832,459;Korte Gasthuisstraat;41;
1884960;152514,909;211831,514;Korte Gasthuisstraat;43;
59557;152512,801;211827,88;Korte Gasthuisstraat;45;
1091149;152655,91;212147,571;Korte Klarenstraat;1;
60599;152635,479;212136,319;Korte Klarenstraat;2;
60601;152651,475;212131,098;Korte Klarenstraat;4;
60597;152688,746;212144,731;Korte Klarenstraat;5;
5576488;152700,839;212142,336;Korte Klarenstraat;9;
4013488;152719,213;212137,256;Korte Klarenstraat;9;B
60602;152688,302;212113,533;Korte Klarenstraat;10;
2068291;152727,755;212136,784;Korte Klarenstraat;11;
962188;152706;212121;Korte Klarenstraat;12;
1482833;152735,262;212134,338;Korte Klarenstraat;13;
60598;152752;212128;Korte Klarenstraat;15;
4509033;153085,597;212371,488;Korte Sint-Annastraat;3;
6463099;153091,001;212369,057;Korte Sint-Annastraat;3;A
6444183;153094,73;212367,76;Korte Sint-Annastraat;5;A
1735167;153104,145;212347,792;Korte Sint-Annastraat;6;
6454454;153119,744;212341,718;Korte Sint-Annastraat;6;A
1735169;153131,354;212338,245;Korte Sint-Annastraat;8;
1735170;153112,373;212363,278;Korte Sint-Annastraat;9;
109194;153136,141;212336,866;Korte Sint-Annastraat;10;
1735171;153117,959;212361,289;Korte Sint-Annastraat;11;
109193;153144,709;212336,387;Korte Sint-Annastraat;12;
1735172;153127,55;212355,88;Korte Sint-Annastraat;13;
1735173;153131,748;212351,157;Korte Sint-Annastraat;15;
4509040;153138,594;212349,919;Korte Sint-Annastraat;17;
2065137;153184,491;212378,03;Korte Winkelstraat;4;
2065140;153190,285;212373,358;Korte Winkelstraat;8;
2065141;153193,882;212369,659;Korte Winkelstraat;10;
1201120;153196,175;212366,337;Korte Winkelstraat;12;
2065143;153199,159;212363,318;Korte Winkelstraat;14;
1291888;153203,219;212360,292;Korte Winkelstraat;16;
2065146;153206,773;212358,766;Korte Winkelstraat;18;
3928660;153212,048;212355,94;Korte Winkelstraat;20;
1352180;153214,091;212352,695;Korte Winkelstraat;22;
109203;153221,803;212344,844;Korte Winkelstraat;28;
5576489;152832,424;212186,648;Lange Klarenstraat;1;
4510982;152827,939;212178,921;Lange Klarenstraat;5;
4507948;152805,513;212175,894;Lange Klarenstraat;6;
4510985;152822,914;212172,328;Lange Klarenstraat;7;
962187;152788,223;212166,123;Lange Klarenstraat;8;
187746;152812;212157;Lange Klarenstraat;9;
4507951;152775,197;212153,198;Lange Klarenstraat;10;
187747;152786,631;212132,345;Lange Klarenstraat;11;
60596;152756,234;212135,592;Lange Klarenstraat;14;
5558101;152822,157;212111,858;Lange Klarenstraat;17;
6525300;152765,2;212105,968;Lange Klarenstraat;19;
962185;152741,315;212097,7;Lange Klarenstraat;20;
2068296;152756,932;212093,323;Lange Klarenstraat;21;
2068297;152736,559;212083,217;Lange Klarenstraat;22;
2068301;152754,5;212068,465;Lange Klarenstraat;27;
2068302;152753,257;212062,953;Lange Klarenstraat;29;
4513417;152752,068;212054,901;Lange Klarenstraat;33;
56798;152572,58;212241,621;Lange Nieuwstraat;1;
56791;152561,88;212225,114;Lange Nieuwstraat;2;
2027662;152567,473;212223,588;Lange Nieuwstraat;4;
2027664;152571,882;212222,107;Lange Nieuwstraat;6;
56797;152593,058;212241,786;Lange Nieuwstraat;7;
2027670;152576,813;212221,124;Lange Nieuwstraat;8;
2027675;152602,687;212238,618;Lange Nieuwstraat;9;
2027678;152581,741;212219,543;Lange Nieuwstraat;10;
56799;152608,935;212236,007;Lange Nieuwstraat;11;
1312730;152591,484;212218,556;Lange Nieuwstraat;12;
56795;152614,51;212238,382;Lange Nieuwstraat;13;
6409664;152598,763;212217,779;Lange Nieuwstraat;14;
56794;152627,617;212230,122;Lange Nieuwstraat;15;
56792;152603,46;212216,841;Lange Nieuwstraat;16;
187748;152642,188;212233,454;Lange Nieuwstraat;17;
6524096;152608,426;212216,094;Lange Nieuwstraat;18;
2027703;152667,366;212232,119;Lange Nieuwstraat;21;
182866;152661,369;212207,883;Lange Nieuwstraat;22;
4506230;152668,368;212227,93;Lange Nieuwstraat;23;
5576042;152673,457;212206,17;Lange Nieuwstraat;24;
2027711;152678,079;212230,489;Lange Nieuwstraat;25;
60577;152697,753;212203,079;Lange Nieuwstraat;26;
2027722;152705,79;212200,887;Lange Nieuwstraat;28;
962183;152713,106;212200,158;Lange Nieuwstraat;30;
110036;152729,288;212222,361;Lange Nieuwstraat;33;
1282681;152734,776;212198,375;Lange Nieuwstraat;34;
5576043;152744,827;212196,861;Lange Nieuwstraat;36;
110038;152738,917;212221,165;Lange Nieuwstraat;37;
110032;152749,28;212220,365;Lange Nieuwstraat;39;
5576044;152768,983;212193,565;Lange Nieuwstraat;40;
4508577;152760,075;212219,041;Lange Nieuwstraat;41;
962182;152777,034;212192,592;Lange Nieuwstraat;42;
110033;152768,55;212216,099;Lange Nieuwstraat;43;
2027755;152790,868;212191,944;Lange Nieuwstraat;44;
2027756;152778,023;212216,921;Lange Nieuwstraat;45;
4505356;152806,54;212191,025;Lange Nieuwstraat;46;
2027760;152798,588;212213,418;Lange Nieuwstraat;49;
2027762;152804,647;212212,02;Lange Nieuwstraat;51;
2027770;152832,066;212209,504;Lange Nieuwstraat;55;
187749;152843,61;212182,811;Lange Nieuwstraat;58;
1084658;152854,462;212203,531;Lange Nieuwstraat;59;A
2027791;152857,3;212178,31;Lange Nieuwstraat;60;
2027799;152865,91;212177,117;Lange Nieuwstraat;62;
148666;152875,513;212176,058;Lange Nieuwstraat;64;
148667;152885,923;212174,651;Lange Nieuwstraat;66;
2027813;152877,5;212200,43;Lange Nieuwstraat;67;
5576046;152900;212177;Lange Nieuwstraat;68;
1084659;152884,368;212198,922;Lange Nieuwstraat;69;
2027817;152889,513;212197,238;Lange Nieuwstraat;71;
2027819;152897,766;212195,463;Lange Nieuwstraat;73;
6600094;152920,622;212216,491;Lange Nieuwstraat;73;A
2027820;152930,289;212163,141;Lange Nieuwstraat;74;
2027821;152925,798;212190,093;Lange Nieuwstraat;77;
4505275;152931,52;212189,097;Lange Nieuwstraat;79;
1456835;152939,894;212190,548;Lange Nieuwstraat;81;
2027825;152943,326;212191,842;Lange Nieuwstraat;83;
4505277;152949,274;212188,15;Lange Nieuwstraat;85;
2027827;152953,258;212187,656;Lange Nieuwstraat;87;
4505279;152956,486;212187,555;Lange Nieuwstraat;89;
4033353;152960,328;212186,81;Lange Nieuwstraat;91;
4059582;152964,98;212184,53;Lange Nieuwstraat;93;
91942;152969,195;212182,005;Lange Nieuwstraat;95;
2027835;153019,455;212183,057;Lange Nieuwstraat;101;
330;153075,227;212157,154;Lange Nieuwstraat;106;
91946;153062,263;212180,668;Lange Nieuwstraat;109;
91947;153071,95;212178,056;Lange Nieuwstraat;113;
1470751;153076,482;212177,995;Lange Nieuwstraat;115;
2027902;153081,011;212176,918;Lange Nieuwstraat;117;
2027906;153085,176;212177,18;Lange Nieuwstraat;119;
91943;153089,889;212177;Lange Nieuwstraat;121;
91944;153110,347;212182,676;Lange Nieuwstraat;123;
1085186;153121,317;212165,005;Lange Nieuwstraat;124;
2027914;153119,133;212184,259;Lange Nieuwstraat;125;
2027921;153133,097;212169,653;Lange Nieuwstraat;126;
110093;153139,366;212171,76;Lange Nieuwstraat;128;
3928078;153132,179;212189,377;Lange Nieuwstraat;131;
2027929;153138,621;212193,09;Lange Nieuwstraat;135;
2027931;153143,555;212193,843;Lange Nieuwstraat;137;
4505253;153147,448;212197,274;Lange Nieuwstraat;139;
2027938;153150,904;212199,583;Lange Nieuwstraat;141;
2027943;153171,492;212187,215;Lange Nieuwstraat;142;
2027953;153175,43;212189,183;Lange Nieuwstraat;144;
4505255;153164,16;212204,206;Lange Nieuwstraat;145;
2027956;153179,664;212191,126;Lange Nieuwstraat;146;
2027959;153168,269;212204,9;Lange Nieuwstraat;147;
2027962;153183,45;212193,168;Lange Nieuwstraat;148;
4074921;153172,118;212205,818;Lange Nieuwstraat;149;
2027964;153186,638;212195,958;Lange Nieuwstraat;150;
1085135;153176,19;212207,345;Lange Nieuwstraat;151;
1090678;153181,956;212209,921;Lange Nieuwstraat;153;
1085128;153195,904;212200,64;Lange Nieuwstraat;154;
109190;153176,525;212383,881;Lange Sint-Annastraat;1;
109187;153157,481;212389,921;Lange Sint-Annastraat;2;
1735174;153172,424;212370,568;Lange Sint-Annastraat;3;
1441717;153169,636;212359,6;Lange Sint-Annastraat;5;
4509024;153156,835;212381,851;Lange Sint-Annastraat;6;
4015299;153162,776;212331,932;Lange Sint-Annastraat;7;
1735177;153158,548;212304,952;Lange Sint-Annastraat;9;
1735178;153155,595;212298,449;Lange Sint-Annastraat;11;
1735179;153151,875;212367,661;Lange Sint-Annastraat;12;
4506676;153153,534;212291,727;Lange Sint-Annastraat;13;
4509029;153150,881;212361,306;Lange Sint-Annastraat;16;
1735180;153160,772;212297,272;Lange Sint-Annastraat;17;
4509031;153149,329;212357,224;Lange Sint-Annastraat;18;
109188;153147,505;212349,154;Lange Sint-Annastraat;20;
1363657;153149,474;212279,37;Lange Sint-Annastraat;21;
4188220;153146,507;212275,632;Lange Sint-Annastraat;23;
109186;153146,364;212330,797;Lange Sint-Annastraat;24;
3973358;153145,282;212272,342;Lange Sint-Annastraat;25;
1735182;153142,384;212326,797;Lange Sint-Annastraat;26;
1735183;153145,179;212267,69;Lange Sint-Annastraat;27;
1735185;153143,167;212262,154;Lange Sint-Annastraat;29;
1476629;153092,447;212319,921;Lange Sint-Annastraat;30;
109189;153141,934;212258,762;Lange Sint-Annastraat;31;
1486922;153090,458;212313,317;Lange Sint-Annastraat;32;
1735186;153089,614;212307,744;Lange Sint-Annastraat;34;
109191;153130,974;212299,613;Lange Sint-Annastraat;36;
1735187;153128,507;212293,247;Lange Sint-Annastraat;38;
110088;153099,664;212062,747;Leysstraat;1;
110236;153080,139;212027,8;Leysstraat;2;
6389148;153109,645;212060,197;Leysstraat;5;
110411;153094,514;212027,422;Leysstraat;6;
110089;153115,211;212057,333;Leysstraat;7;
1990368;153100,836;212021,262;Leysstraat;8;
1990374;153123,262;212059,521;Leysstraat;9;
1990377;153107,591;212020,883;Leysstraat;10;
3927937;153128,396;212058,765;Leysstraat;11;
1460284;153114,076;212026,449;Leysstraat;12;
1990386;153125,64;212064,169;Leysstraat;13;
4510099;153119,696;212025,207;Leysstraat;14;
1990387;153134,016;212058,765;Leysstraat;15;
1990390;153124,667;212024,342;Leysstraat;16;
1990393;153140,177;212054,307;Leysstraat;17;
1990401;153129,016;212023,991;Leysstraat;18;
1990404;153146,553;212057,09;Leysstraat;19;
1990413;153134,502;212023,261;Leysstraat;20;
1990417;153151,741;212051,064;Leysstraat;21;
4510100;153139,134;212022,997;Leysstraat;22;
1990420;153156,604;212049,281;Leysstraat;23;
110087;153178,361;212052,841;Leysstraat;27;
110413;153145,58;212020,721;Leysstraat;28;
1084675;153154,578;212018,938;Leysstraat;30;
6086737;153161,882;212017,139;Leysstraat;32;
110039;152731,942;212314,509;Markgravestraat;1;
56822;152720,942;212314,342;Markgravestraat;2;
4218701;152730,287;212308,881;Markgravestraat;3;
4506233;152720;212311;Markgravestraat;4;
1998124;152729,378;212304,142;Markgravestraat;5;
4506234;152717,624;212309,272;Markgravestraat;6;
1998126;152728,559;212300,285;Markgravestraat;7;
1998129;152716,575;212305,3;Markgravestraat;8;
1998131;152726,784;212290,174;Markgravestraat;9;
1998134;152704,515;212290,709;Markgravestraat;10;
1484615;152699,071;212273,713;Markgravestraat;12;
1998137;152696,914;212258,538;Markgravestraat;14;
56790;152695,002;212247,918;Markgravestraat;16;
1998139;152724,303;212275,923;Markgravestraat;17;
1998140;152720,868;212261,952;Markgravestraat;19;
182743;152549,75;212079,764;Meir;1;
177007;152520,126;212028,326;Meir;2;
49258;152521,863;212032,267;Meir;4;
2001378;152561,315;212076,475;Meir;5;
5566589;152539,497;212028,282;Meir;8;
2001386;152574,541;212068,4;Meir;9;
59379;152546,272;212028,78;Meir;10;
182744;152583,422;212065,336;Meir;11;
59990;152573,918;212008,711;Meir;12;
60581;152602,71;212057,623;Meir;13;
4507955;152607,062;212056,92;Meir;15;
5575981;152598,904;212008,083;Meir;16;
60588;152611,136;212058,298;Meir;17;
59992;152605,679;212008,183;Meir;18;
60587;152619,33;212057,565;Meir;19;
864379;152610,119;212006,368;Meir;20;
60586;152633,834;212055,669;Meir;21;
5575982;152625,359;212002,612;Meir;24;
59994;152638,812;212000,067;Meir;26;
60606;152671,118;212046,741;Meir;27;
60584;152678,521;212046,903;Meir;29;
5575984;152660,58;211998,349;Meir;30;
60582;152690,41;212047,173;Meir;31;
6524102;152700,036;212046,308;Meir;33;
4507529;152683,013;212000,834;Meir;34;
60583;152716,132;212045,39;Meir;35;
2001442;152689,383;212001,619;Meir;36;
60580;152724,617;212044,471;Meir;37;
813493;152695,865;212000,186;Meir;38;
60002;152703,885;212000,734;Meir;40;
148663;152748,772;212040,473;Meir;41;
2001450;152756,5;212034,853;Meir;43;
2001456;152761,147;212033,934;Meir;45;
5575985;152728,345;211999,862;Meir;46;
59997;152743,438;211999,987;Meir;48;
2001464;152776,278;212036,041;Meir;49;
2001466;152783,465;212034,582;Meir;51;
110177;152828,75;212000,024;Meir;52;
4513414;152788,977;212033,934;Meir;53;
110184;152841,287;212000,241;Meir;54;
2001470;152795,029;212035,015;Meir;55;
110182;152856,418;211999,916;Meir;56;
2001472;152801,892;212033,502;Meir;57;
110178;152876,844;211998,727;Meir;58;
2001476;152808,377;212033,177;Meir;59;
110179;152888,409;211997,809;Meir;60;
2001478;152814,7;212029,908;Meir;61;
4513427;152819,563;212032,529;Meir;63;
1319607;152829,02;212031,88;Meir;65;
2001483;152922,778;211990,784;Meir;66;
2001485;152839,828;212031,502;Meir;67;
2001487;152854,58;212030,205;Meir;71;
2001489;152861,605;212031,016;Meir;73;
2001492;152870,792;212031,88;Meir;75;
1208696;152968,417;211994,958;Meir;76;
2001494;152880,033;212030,043;Meir;77;
1311788;152984,814;211997,322;Meir;78;
4513418;152886,896;212029,557;Meir;79;
5575987;153014,59;212005,104;Meir;80;
4513419;152893,867;212029,07;Meir;81;
110183;153033,774;212010,724;Meir;82;
148664;152894,353;212038,257;Meir;83;
110113;152917,32;212027,017;Meir;85;
110110;152929,965;212027,233;Meir;87;
2001517;152937,902;212027,309;Meir;89;
2001519;152941,375;212027,212;Meir;91;
3958136;152944,923;212027,116;Meir;93;
2001522;152949,142;212027,308;Meir;95;
110111;152956,048;212026,364;Meir;97;
110112;152962,604;212027,395;Meir;99;
110114;152973,79;212030,151;Meir;101;
2001528;152982,545;212035,717;Meir;103;
110115;152988,327;212037,987;Meir;105;
110109;153009,186;212044,309;Meir;109;
248842;153017,94;212046,687;Meir;111;
6524187;153027,29;212051,61;Meir;115;
110107;153045,127;212056,895;Meir;117;
2001535;153049,148;212057,63;Meir;119;
2001536;153053,201;212058,873;Meir;121;
4507072;153057,524;212060,548;Meir;123;
2001537;153061,739;212062,331;Meir;125;
1085236;153078,329;212077,354;Meir;127;
2013389;152551,509;212426,381;Minderbroedersrui;47;
109175;152552,774;212414,724;Minderbroedersrui;49;
2013463;152551,597;212407,649;Minderbroedersrui;51;
2013473;152551,467;212401,739;Minderbroedersrui;53;
2013479;152551,843;212397,191;Minderbroedersrui;55;
2013483;152551,177;212391,773;Minderbroedersrui;57;
2013524;152551,055;212385,737;Minderbroedersrui;59;
109176;152549,877;212379,33;Minderbroedersrui;61;
109215;153250,107;212315,208;Molenbergstraat;2;
6577633;153249,381;212307,074;Molenbergstraat;3;
4061939;153248,519;212301,339;Molenbergstraat;4;
1338783;153244,953;212260,859;Molenbergstraat;9;
1085162;153274,368;212257,63;Molenbergstraat;10;
12732;153153,051;212391,558;Ossenmarkt;16;
109382;153150,123;212393,169;Ossenmarkt;17;
4508985;153145,522;212395,457;Ossenmarkt;18;
2034746;153141,417;212398,386;Ossenmarkt;19;
109381;153137,971;212400,053;Ossenmarkt;20;
109380;153131,587;212403,025;Ossenmarkt;21;
2034761;153120,175;212408,131;Ossenmarkt;23;
109379;153116,511;212410,233;Ossenmarkt;24;
5566588;153109,123;212412,936;Ossenmarkt;25;
6525394;153108,366;212408,359;Ossenmarkt;26;
109383;153103,957;212415,158;Ossenmarkt;27;
2034767;153098,732;212417,441;Ossenmarkt;28;
109556;153093,206;212419,423;Ossenmarkt;29;
5576350;153084;212012;Otto Veniusstraat;1;
110409;153078,572;212008,022;Otto Veniusstraat;3;
110408;153078,464;212000,132;Otto Veniusstraat;5;
4510091;153078,788;211993,432;Otto Veniusstraat;7;
2059272;153076,735;211986,731;Otto Veniusstraat;9;
1441192;153075,33;211974,734;Otto Veniusstraat;11;
2059273;153073,709;211964,034;Otto Veniusstraat;13;
1461782;153072,087;211955,929;Otto Veniusstraat;15;
110407;153072,087;211949,444;Otto Veniusstraat;17;
2059277;153051,591;211936,611;Otto Veniusstraat;18;
110410;153068,737;211936,042;Otto Veniusstraat;19;
2059278;153051,174;211931,321;Otto Veniusstraat;20;
1210370;153067,926;211925,559;Otto Veniusstraat;21;
1313913;153045,878;211924,802;Otto Veniusstraat;22;
2059280;153066,575;211914,859;Otto Veniusstraat;23;
6525198;153045,365;211912,157;Otto Veniusstraat;24;
1462615;153065,008;211907,456;Otto Veniusstraat;25;
5576351;153041,988;211905,024;Otto Veniusstraat;26;
2059282;153063,765;211900,593;Otto Veniusstraat;27;
110195;153042,096;211896,594;Otto Veniusstraat;28;
2059284;153061,82;211890,866;Otto Veniusstraat;29;
110406;153057,119;211875,519;Otto Veniusstraat;31;
110199;153043,014;211878,491;Otto Veniusstraat;32;
2039760;153047,876;212417,049;Paradijsstraat;3;
2039762;153046,749;212413,309;Paradijsstraat;5;
4259266;153035,906;212421,713;Paradijsstraat;6;
4509014;153045,154;212410,053;Paradijsstraat;7;
4509059;153032,126;212415,152;Paradijsstraat;8;
2039765;153043,593;212405,008;Paradijsstraat;9;
4206736;153029,405;212410,708;Paradijsstraat;10;
2039767;153041,671;212401,043;Paradijsstraat;11;
4509062;153027,707;212407,474;Paradijsstraat;12;
2039768;153039,929;212396,659;Paradijsstraat;13;
109360;153025,573;212403,386;Paradijsstraat;14;
4509018;153038,067;212392,334;Paradijsstraat;15;
109362;153036,505;212388,73;Paradijsstraat;17;
91950;152977,737;212242,387;Parochiaanstraat;2;
2040424;152972,921;212226,427;Parochiaanstraat;4;
4505333;152973,155;212218,355;Parochiaanstraat;6;
2040428;152972,446;212212,99;Parochiaanstraat;8;
4065130;152972,447;212206,735;Parochiaanstraat;10;
2040431;152970,427;212200,266;Parochiaanstraat;12;
91949;152969,162;212192,395;Parochiaanstraat;14;
109169;152681,857;212392,762;Paternosterstraat;2;
5887128;152685,18;212399,666;Paternosterstraat;2;A
2041125;152680,301;212387,703;Paternosterstraat;4;
2041126;152692,381;212376,147;Paternosterstraat;5;
2041128;152678,634;212381,944;Paternosterstraat;6;
2041131;152685,745;212359,916;Paternosterstraat;9;
109345;152971,215;212456,002;Pieter van Hobokenstraat;2;
1938829;152983,769;212449,816;Pieter van Hobokenstraat;4;
1938849;152987,973;212448,134;Pieter van Hobokenstraat;6;
1938900;152993,619;212446,152;Pieter van Hobokenstraat;8;
4509075;152998,965;212444,77;Pieter van Hobokenstraat;10;
1938938;153015,367;212441,372;Pieter van Hobokenstraat;18;
1938960;153023,711;212437,931;Pieter van Hobokenstraat;20;
109346;153039,629;212433,658;Pieter van Hobokenstraat;26;
109347;153051,701;212431,376;Pieter van Hobokenstraat;28;
1939015;153057,888;212429,814;Pieter van Hobokenstraat;30;
1939028;153061,071;212428,793;Pieter van Hobokenstraat;32;
1939036;153065,516;212428,252;Pieter van Hobokenstraat;34;
1939045;153070,021;212427,171;Pieter van Hobokenstraat;36;
4508890;153074,526;212426,811;Pieter van Hobokenstraat;38;
1939053;153078,845;212424,86;Pieter van Hobokenstraat;40;
109348;153084,256;212422,967;Pieter van Hobokenstraat;42;
1225902;152951,154;212460,267;Prinsesstraat;2;
2045873;152969,413;212451,077;Prinsesstraat;3;
2045874;152949,652;212455,341;Prinsesstraat;4;
4509067;152967,191;212447,413;Prinsesstraat;5;
2045875;152949,118;212451,583;Prinsesstraat;6;
2045876;152965,029;212443,148;Prinsesstraat;7;
4511690;152945,928;212449,035;Prinsesstraat;8;
2045877;152963,047;212438,764;Prinsesstraat;9;
2045878;152945,328;212444,65;Prinsesstraat;10;
2045879;152959,383;212433,778;Prinsesstraat;11;
2045880;152943,105;212441,887;Prinsesstraat;12;
4509069;152955,418;212427,772;Prinsesstraat;13;
2045881;152938,36;212439,605;Prinsesstraat;14;
2045882;152952,715;212425,069;Prinsesstraat;15;
2045883;152933,856;212431,526;Prinsesstraat;16;
109373;152951,094;212421,045;Prinsesstraat;17;
2045884;152926,029;212423,113;Prinsesstraat;18;
109937;152942,73;212414,848;Prinsesstraat;19;
2045885;152940,358;212410,517;Prinsesstraat;21;
2045886;152922,681;212417,186;Prinsesstraat;22;
2045887;152934,929;212405,182;Prinsesstraat;23;
4511701;152920,856;212413,912;Prinsesstraat;24;
4507552;152932,783;212399,092;Prinsesstraat;25;
2045888;152917,657;212410,679;Prinsesstraat;26;
4507554;152929,982;212395,957;Prinsesstraat;27;
2045889;152914,992;212407,968;Prinsesstraat;28;
4507556;152925,346;212392,352;Prinsesstraat;29;
2045890;152912,346;212404,827;Prinsesstraat;30;
2045892;152909,416;212398,505;Prinsesstraat;32;
109985;152918,718;212379,131;Prinsesstraat;33;
4511705;152908,998;212392,807;Prinsesstraat;34;
109984;152907,136;212389,432;Prinsesstraat;36;
2045893;152909,689;212363,147;Prinsesstraat;37;
109939;152886,933;212356,688;Prinsesstraat;38;
2045894;152907,862;212358,12;Prinsesstraat;39;
2045895;152883,304;212352,482;Prinsesstraat;40;
2045896;152906,236;212354,208;Prinsesstraat;41;
2045897;152880,572;212347,06;Prinsesstraat;42;
2045898;152881;212342;Prinsesstraat;42;A
1085305;152904,633;212350,071;Prinsesstraat;43;
2045899;152901,375;212346,096;Prinsesstraat;45;
2045900;152875,232;212331,43;Prinsesstraat;46;
2045901;152898,61;212342,251;Prinsesstraat;47;
2045902;152895,77;212333,622;Prinsesstraat;51;
2045903;152893,115;212330,02;Prinsesstraat;53;
2045905;152889,989;212320,083;Prinsesstraat;57;
5758069;152888,682;212315,705;Prinsesstraat;59;
109964;152783,708;212486,532;Prinsstraat;2;
2046002;152788,979;212484,87;Prinsstraat;4;
1336521;152794,531;212483,777;Prinsstraat;6;
4511671;152799,492;212482,466;Prinsstraat;8;
2046004;152813,083;212482,68;Prinsstraat;10;
2046005;152835,646;212476,845;Prinsstraat;14;
109966;152856,172;212474,489;Prinsstraat;18;
2046007;152862,748;212473,667;Prinsstraat;20;
2046009;152867,371;212472,798;Prinsstraat;22;
2046010;152880,331;212469,922;Prinsstraat;24;
2046011;152896,27;212467,639;Prinsstraat;26;
2046012;152907,995;212466,9;Prinsstraat;28;
2046013;152921,482;212464,892;Prinsstraat;30;
4511686;152938;212461,528;Prinsstraat;36;
109967;152941,782;212461,353;Prinsstraat;38;
6311845;152945,071;212461,142;Prinsstraat;40;
60590;152697,025;212198,443;Pruynenstraat;1;
2046227;152696,031;212193,873;Pruynenstraat;3;
4507953;152695,038;212188,509;Pruynenstraat;5;
2046228;152693,581;212183,542;Pruynenstraat;7;
2046229;152692,72;212179,369;Pruynenstraat;9;
2046230;152691,462;212174,601;Pruynenstraat;11;
2046231;152690,248;212170,598;Pruynenstraat;13;
2046232;152689,21;212165,329;Pruynenstraat;15;
1084654;152688,084;212159,699;Pruynenstraat;17;
1084655;152686,892;212155,792;Pruynenstraat;19;
2046233;152684,905;212150,493;Pruynenstraat;21;
60589;152680,575;212144,444;Pruynenstraat;23;
109358;153092,305;212412,335;Rozenstraat;1;
109356;153080,172;212413,597;Rozenstraat;2;
4508992;153091,164;212407,65;Rozenstraat;3;
4509004;153078,07;212408,732;Rozenstraat;4;
2048823;153089,602;212404,407;Rozenstraat;5;
2048824;153072,927;212401,144;Rozenstraat;6;
4142959;153086,457;212398,912;Rozenstraat;7;
2048825;153085,135;212395,609;Rozenstraat;9;
4508996;153083,574;212392,966;Rozenstraat;11;
4508999;153082,012;212389,242;Rozenstraat;13;
109357;153063,654;212383,805;Rozenstraat;14;
2048826;153079,606;212383,813;Rozenstraat;15;
2048827;153074,953;212378,281;Rozenstraat;17;
109359;153076,359;212374,538;Rozenstraat;19;
12637;152591,112;211845,885;Schuttershofstraat;1;
60801;152595,95;211842,393;Schuttershofstraat;3;
2052249;152603,785;211848,121;Schuttershofstraat;5;
60800;152613,134;211842,285;Schuttershofstraat;7;
5428419;152623,023;211842,122;Schuttershofstraat;9;A
2052254;152626,806;211842,014;Schuttershofstraat;9;B
4035525;152633;211849;Schuttershofstraat;9;C
5403556;152638,262;211842,068;Schuttershofstraat;9;D
5576258;152643,702;211846,095;Schuttershofstraat;11;
60799;152650,421;211848,121;Schuttershofstraat;13;
2052257;152653,501;211848,175;Schuttershofstraat;15;
2052259;152659,283;211848,229;Schuttershofstraat;17;
2052261;152666,363;211842,393;Schuttershofstraat;19;
2052263;152675,333;211848,391;Schuttershofstraat;21;
2052265;152685,168;211846,337;Schuttershofstraat;23;
2052267;152689,275;211846,391;Schuttershofstraat;25;
2052269;152695,111;211848,337;Schuttershofstraat;27;
2052271;152701,488;211844,284;Schuttershofstraat;29;
2052272;152707,162;211844,608;Schuttershofstraat;31;
2052273;152711,917;211844,77;Schuttershofstraat;33;
2052274;152716,565;211844,824;Schuttershofstraat;35;
2052276;152720,942;211850,877;Schuttershofstraat;37;
2052277;152726,346;211845,041;Schuttershofstraat;39;
60797;152731,696;211850,985;Schuttershofstraat;41;
60794;152738,991;211849,958;Schuttershofstraat;43;
60798;152747,691;211849,796;Schuttershofstraat;45;
2052285;152760,769;211851,147;Schuttershofstraat;49;
2052286;152767,091;211852,012;Schuttershofstraat;51;
2052287;152773,09;211847,58;Schuttershofstraat;53;
60795;152779,088;211852,714;Schuttershofstraat;55;
91931;152879,447;212288,815;Sint-Jacobsmarkt;2;
1953179;152892,397;212313,053;Sint-Jacobsmarkt;3;
1953184;152889,074;212289,333;Sint-Jacobsmarkt;4;
1953192;152896,733;212313,704;Sint-Jacobsmarkt;5;
1324526;152906,001;212311,517;Sint-Jacobsmarkt;7;
1953244;152902,555;212284,605;Sint-Jacobsmarkt;10;
1085341;152925,305;212304,908;Sint-Jacobsmarkt;11;
1953251;152908,796;212282,093;Sint-Jacobsmarkt;12;
4505348;152943,93;212299,503;Sint-Jacobsmarkt;13;
4013516;152913,476;212280,187;Sint-Jacobsmarkt;14;
1953258;152955,179;212296,595;Sint-Jacobsmarkt;15;
1340969;152918,43;212279,259;Sint-Jacobsmarkt;16;
1953275;152969,539;212292,339;Sint-Jacobsmarkt;17;
1953280;152924,414;212277,273;Sint-Jacobsmarkt;18;
1953299;152933,796;212274,642;Sint-Jacobsmarkt;20;
1953309;152937,878;212271,039;Sint-Jacobsmarkt;22;
1953316;152943,158;212270,932;Sint-Jacobsmarkt;24;
1953320;152947,446;212269,835;Sint-Jacobsmarkt;26;
1953326;152951,506;212272,275;Sint-Jacobsmarkt;28;
4505306;152958,617;212268,194;Sint-Jacobsmarkt;30;
1953341;152961,123;212267,93;Sint-Jacobsmarkt;32;
91932;152979,259;212262,086;Sint-Jacobsmarkt;36;
109209;153031,038;212278,931;Sint-Jacobsmarkt;37;
91933;152995,839;212256,023;Sint-Jacobsmarkt;38;
1953365;153038,837;212277,387;Sint-Jacobsmarkt;39;
1953369;153009,629;212253,85;Sint-Jacobsmarkt;40;
1953375;153054;212272;Sint-Jacobsmarkt;41;
1173466;153017,848;212252,858;Sint-Jacobsmarkt;42;
1953397;153057,999;212271,756;Sint-Jacobsmarkt;43;
1953399;153024,555;212250,829;Sint-Jacobsmarkt;44;
1953411;153028,671;212250,096;Sint-Jacobsmarkt;46;
1953414;153079,979;212266,975;Sint-Jacobsmarkt;47;
1953419;153033,519;212249,039;Sint-Jacobsmarkt;48;
1953441;153048,574;212245,99;Sint-Jacobsmarkt;50;
1953443;153068,368;212241,92;Sint-Jacobsmarkt;54;
1953444;153077,37;212239,52;Sint-Jacobsmarkt;56;
109211;153138,077;212251,592;Sint-Jacobsmarkt;57;
91940;153087,91;212237,372;Sint-Jacobsmarkt;58;
1953449;153147,305;212249,813;Sint-Jacobsmarkt;61;
1953450;153101,024;212235,998;Sint-Jacobsmarkt;62;
1460174;153151,14;212249,348;Sint-Jacobsmarkt;63;
91934;153105,489;212237,654;Sint-Jacobsmarkt;64;
4506667;153155,004;212247,827;Sint-Jacobsmarkt;65;
91935;153120,668;212232,068;Sint-Jacobsmarkt;66;
4506668;153158,795;212248,839;Sint-Jacobsmarkt;67;
1953484;153126,643;212231,358;Sint-Jacobsmarkt;68;
1953513;153161,874;212246,135;Sint-Jacobsmarkt;69;
1953518;153130,721;212230,429;Sint-Jacobsmarkt;70;
1953527;153166,2;212245,112;Sint-Jacobsmarkt;71;
6305483;153170,999;212244,566;Sint-Jacobsmarkt;71;A
1442635;153176,168;212243,679;Sint-Jacobsmarkt;73;
1953571;153180,743;212241,855;Sint-Jacobsmarkt;75;
91937;153146,769;212227,366;Sint-Jacobsmarkt;76;
1953590;153152,389;212225,907;Sint-Jacobsmarkt;78;
4193107;153157,955;212225,043;Sint-Jacobsmarkt;80;
1953603;153199,063;212239,284;Sint-Jacobsmarkt;81;
1953610;153164,466;212223,967;Sint-Jacobsmarkt;82;
4506669;153203,699;212238,592;Sint-Jacobsmarkt;83;
1953620;153172,033;212222,691;Sint-Jacobsmarkt;84;
1953630;153212,286;212237,378;Sint-Jacobsmarkt;85;
1953644;153177,499;212221,53;Sint-Jacobsmarkt;86;
1347700;153219,453;212235,699;Sint-Jacobsmarkt;87;
1953653;153182,438;212220,53;Sint-Jacobsmarkt;88;
1953665;153223,446;212234,6;Sint-Jacobsmarkt;89;
4505291;153186,793;212219,56;Sint-Jacobsmarkt;90;
1953668;153227,76;212233,184;Sint-Jacobsmarkt;91;
1953671;153196,215;212218,99;Sint-Jacobsmarkt;92;
1953675;153232,456;212232,087;Sint-Jacobsmarkt;93;
1087930;153193,925;212214,816;Sint-Jacobsmarkt;94;
1953683;153236,557;212231,535;Sint-Jacobsmarkt;95;
110046;153221,505;212202,617;Sint-Jacobsmarkt;98;
1953709;153232,234;212199,623;Sint-Jacobsmarkt;102;
1087928;153236,366;212199,104;Sint-Jacobsmarkt;104;
91929;152878,786;212284,261;Sint-Jacobsstraat;1;
4505310;152875,862;212277,493;Sint-Jacobsstraat;3;
4505312;152872,102;212266,462;Sint-Jacobsstraat;5;
4505315;152892,621;212250,512;Sint-Jacobsstraat;9;
4505317;152866,805;212247,793;Sint-Jacobsstraat;11;
1954067;152864,723;212241,704;Sint-Jacobsstraat;13;
4505319;152884,762;212237,144;Sint-Jacobsstraat;15;
1954069;152863,393;212227,915;Sint-Jacobsstraat;17;
4066762;152859,883;212216,59;Sint-Jacobsstraat;19;
1087878;152854,478;212210,854;Sint-Jacobsstraat;21;
91930;152852,527;212203,454;Sint-Jacobsstraat;23;
56807;152556,044;212359,146;Sint-Katelijnevest;1;
4008538;152557,78;212350,815;Sint-Katelijnevest;3;
4506209;152555,585;212338,383;Sint-Katelijnevest;5;
3994194;152557,225;212332,084;Sint-Katelijnevest;7;
2068339;152558,468;212324,597;Sint-Katelijnevest;13;
2068341;152557,798;212318,855;Sint-Katelijnevest;15;
2068343;152560,168;212307,904;Sint-Katelijnevest;17;
2068348;152563;212292;Sint-Katelijnevest;23;
4506220;152560,38;212284,845;Sint-Katelijnevest;27;
2068350;152559,971;212278,735;Sint-Katelijnevest;29;
2068353;152560,022;212271,932;Sint-Katelijnevest;33;
4506223;152560,451;212261,204;Sint-Katelijnevest;35;
2068355;152560,662;212256,471;Sint-Katelijnevest;37;
2068357;152559,59;212252,616;Sint-Katelijnevest;39;
12611;152562,637;212244,649;Sint-Katelijnevest;41;
4506197;152561,103;212219,513;Sint-Katelijnevest;43;
2068360;152561,189;212215,205;Sint-Katelijnevest;45;
4060031;152561,339;212210,777;Sint-Katelijnevest;47;
2068362;152561,45;212205,332;Sint-Katelijnevest;49;
2068364;152561,772;212191,464;Sint-Katelijnevest;53;
2068365;152560,963;212183,833;Sint-Katelijnevest;55;
1091094;152561,14;212175,662;Sint-Katelijnevest;57;
56806;152560,449;212170,501;Sint-Katelijnevest;59;
56732;152573,371;212250,355;Sint-Nicolaasplaats;1;
2028313;152575,862;212254,241;Sint-Nicolaasplaats;2;
2028315;152579,747;212259,222;Sint-Nicolaasplaats;3;
4506257;152584,131;212269,085;Sint-Nicolaasplaats;4;
56731;152588,415;212279,347;Sint-Nicolaasplaats;6;
56729;152612,226;212267,491;Sint-Nicolaasplaats;7;
56730;152604,138;212273,488;Sint-Nicolaasplaats;8;
2028320;152608,676;212256,548;Sint-Nicolaasplaats;9;
56818;152607,693;212248,417;Sint-Nicolaasplaats;10;
186449;153187,371;212001,667;Teniersplaats;2;
4512859;153219,452;212041,688;Teniersplaats;3;
2056154;153196,18;211997,008;Teniersplaats;4;
1086020;153211,562;212044,12;Teniersplaats;5;
60592;152611,864;212120,856;Twaalfmaandenstraat;1;
2057925;152610,892;212114,263;Twaalfmaandenstraat;3;
2057926;152609,595;212109,507;Twaalfmaandenstraat;5;
2057927;152608,298;212103,509;Twaalfmaandenstraat;7;
2057929;152608,614;212099,6;Twaalfmaandenstraat;9;
2057930;152607,504;212095,496;Twaalfmaandenstraat;11;
2057932;152606,46;212091,729;Twaalfmaandenstraat;13;
2057934;152604,566;212086,206;Twaalfmaandenstraat;15;
60593;152602,79;212078,448;Twaalfmaandenstraat;17;
5576339;152602,578;212073,107;Twaalfmaandenstraat;19;
110176;152828,155;211968,574;Wapper;1;
2063176;152826,318;211958,522;Wapper;1;A
60021;152826,048;211946,796;Wapper;3;
60022;152826,21;211937,501;Wapper;5;
60023;152825,994;211925,505;Wapper;7;
60024;152825,832;211916,966;Wapper;9;
60809;152787;211874;Wapper;10;
1508424;152826,075;211910,212;Wapper;11;
2063178;152787,572;211871,628;Wapper;12;
4508048;152826,876;211902,741;Wapper;13;
2063179;152787,054;211867,25;Wapper;14;
60025;152827,804;211893,243;Wapper;15;
4504333;152787,849;211861,785;Wapper;16;
1091136;152829,236;211881,733;Wapper;17;
60808;152793,624;211854,984;Wapper;18;
2063181;152830,209;211872,304;Wapper;21;
2063182;152831,506;211867,791;Wapper;23;
4508058;152831,127;211863,792;Wapper;25;
59549;152517,642;212025,353;Wiegstraat;1;
2064231;152509,309;212019,116;Wiegstraat;3;
2064232;152516,881;212015,828;Wiegstraat;5;
2064234;152509,01;212007,6;Wiegstraat;7;
59559;152506,29;212000,545;Wiegstraat;9;
173692;152503,033;211994,208;Wiegstraat;11;
59558;152500,433;211988,736;Wiegstraat;13;
1496106;152496,818;211984,01;Wiegstraat;15;
2064239;152918,022;211918,777;Wiegstraat;17;
59552;152490,579;211975,379;Wiegstraat;19;
59551;152485,919;211963,301;Wiegstraat;21;
1731962;152994,897;212328,784;Zwanengang;3;
1731963;152996,395;212332,948;Zwanengang;4;
91952;153118,723;212223,584;Apostelstraat;1;
4021663;152724,653;212502,131;Blindestraat;16;
1749605;152744,642;212495,517;Blindestraat;20;
1759916;152656,252;212317,36;Borzestraat;5;
1760009;152643,314;212271,61;Borzestraat;19;
4506246;152633,245;212249,23;Borzestraat;25;
1873602;153245,012;212094,971;Frankrijklei;24;
5575667;153063,025;212343,694;Frans Halsplein;6;
109942;153001,48;212343,949;Frans Halsplein;13;
110171;152986,822;211880,511;Hopland;45;
56820;152579,79;212166,615;Israëlietenstraat;5;
109935;152736,739;212372,765;Jan van Lierstraat;3;
1957348;153139,447;212138,905;Jezusstraat;17;
3960007;153168,952;212170,031;Jezusstraat;25;
4504339;152603,731;211881,733;Jodenstraat;4;
3927748;152698,732;211876,815;Jodenstraat;24;
4507566;152982,618;212393,803;Kattenstraat;12;
109152;152607,8;212447,056;Keizerstraat;5;
109160;152645,097;212442,101;Keizerstraat;13;
1960760;152737,83;212414,645;Keizerstraat;33;
1960765;152725,913;212396,888;Keizerstraat;40;
109931;152738,887;212365,205;Keizerstraat;46;
109959;152837,701;212397,883;Keizerstraat;53;
1960770;152781,869;212384,825;Keizerstraat;56;
1960771;152788,881;212383,36;Keizerstraat;58;
1960774;152829,116;212374,911;Keizerstraat;66;
1961978;152569,747;212353,601;Kipdorp;4;A
5403552;152581,405;212351,164;Kipdorp;6;
1465553;152567,174;212376,73;Kipdorp;7;
1961982;152586,389;212374,629;Kipdorp;11;
187969;152642,451;212360,338;Kipdorp;21;
1961991;152682,89;212327,652;Kipdorp;24;
1961993;152686,294;212350,123;Kipdorp;31;
109944;152739,604;212344,198;Kipdorp;39;
110042;152771,462;212308,077;Kipdorp;44;
1962007;152806,999;212301,281;Kipdorp;50;
109947;152819,182;212329,159;Kipdorp;53;
11987;152865,636;212318,275;Kipdorp;61;
1966295;152918,926;211946,704;Kolveniersstraat;9;
4511666;152830,531;212464,56;Koningstraat;4;
1087757;152827,243;212452,823;Koningstraat;6;
4253818;152839,209;212423,869;Koningstraat;19;
1884681;152480,747;211919,827;Korte Gasthuisstraat;11;
962193;152694,571;212143,687;Korte Klarenstraat;7;
962189;152709,864;212140,445;Korte Klarenstraat;9;A
5575023;153094,364;212354,035;Korte Sint-Annastraat;4;
1735166;153098,267;212368,017;Korte Sint-Annastraat;5;
1735168;153105,548;212365,632;Korte Sint-Annastraat;7;
5835518;153228,875;212340,753;Korte Winkelstraat;28;A
2068292;152766,497;212145,2;Lange Klarenstraat;12;
5560965;152741,315;212111,21;Lange Klarenstraat;16;
2068300;152758,715;212074,679;Lange Klarenstraat;25;
56796;152578,094;212240,749;Lange Nieuwstraat;3;
2027700;152655,664;212232,218;Lange Nieuwstraat;19;
56793;152691,858;212228,128;Lange Nieuwstraat;27;
110031;152711,529;212225,995;Lange Nieuwstraat;29;
110035;152722,059;212224,14;Lange Nieuwstraat;31;
962184;152723,644;212199,617;Lange Nieuwstraat;32;
110037;152733,716;212222,352;Lange Nieuwstraat;35;
962181;152754,824;212195,835;Lange Nieuwstraat;38;
2027759;152786,964;212215,53;Lange Nieuwstraat;47;
110034;152813,456;212212,484;Lange Nieuwstraat;53;
91941;152860,744;212203,344;Lange Nieuwstraat;59;
2027792;152869,751;212201,953;Lange Nieuwstraat;61;
4059332;153161,819;212184,081;Lange Nieuwstraat;136;
2027948;153157,49;212202,768;Lange Nieuwstraat;143;
1735175;153153,427;212377,214;Lange Sint-Annastraat;8;
1735181;153151,232;212285,343;Lange Sint-Annastraat;19;
1735184;153094,118;212326,765;Lange Sint-Annastraat;28;
109185;153126,256;212286,089;Lange Sint-Annastraat;40;
5548011;153120,209;212257,482;Lange Sint-Annastraat;44;
3928002;152556,199;212077,754;Meir;3;
841130;152528,04;212030,274;Meir;6;
2001382;152565,662;212072,693;Meir;7;
59991;152587,945;212010,275;Meir;14;
59993;152617,741;212004,774;Meir;22;
60585;152645,414;212052,96;Meir;23;
59995;152650,961;211998,457;Meir;28;
60000;152675,292;212000,585;Meir;32;
59998;152707,821;212000,684;Meir;42;
1306510;152773,725;212000,186;Meir;50;
110106;152998,973;212042,202;Meir;107;
2034759;153125,16;212405,909;Ossenmarkt;22;
110201;153042,15;211887,947;Otto Veniusstraat;30;
1938922;153008,65;212443,159;Pieter van Hobokenstraat;12;
1938984;153028,808;212437,022;Pieter van Hobokenstraat;22;
1938988;153034,043;212435,46;Pieter van Hobokenstraat;24;
2045891;152922,631;212385,034;Prinsesstraat;31;
109986;152914,222;212372,327;Prinsesstraat;35;
4507560;152897,376;212337,574;Prinsesstraat;49;
2045904;152890,399;212325,496;Prinsesstraat;55;
2046014;152929,05;212463,21;Prinsstraat;32;
60796;152618,97;211842,068;Schuttershofstraat;9;
2052283;152754,014;211851,525;Schuttershofstraat;47;
109933;152886,705;212312,939;Sint-Jacobsmarkt;1;
1953204;152893,998;212287,664;Sint-Jacobsmarkt;6;
1953228;152916,396;212307,994;Sint-Jacobsmarkt;9;
109934;152978,222;212290,564;Sint-Jacobsmarkt;19;
3927741;152968,976;212264,133;Sint-Jacobsmarkt;34;
109210;153099,957;212262,058;Sint-Jacobsmarkt;49;
91939;153142,611;212249,239;Sint-Jacobsmarkt;59;
1953531;153135,097;212229,366;Sint-Jacobsmarkt;72;
1953548;153140,447;212228,555;Sint-Jacobsmarkt;74;
1953581;153187,847;212239,826;Sint-Jacobsmarkt;77;
91938;153243,185;212230,484;Sint-Jacobsmarkt;97;
2068345;152559,941;212300,22;Sint-Katelijnevest;19;
2068347;152559,972;212293,518;Sint-Katelijnevest;21;
2068349;152560,91;212288,13;Sint-Katelijnevest;25;
2068363;152560,61;212198,511;Sint-Katelijnevest;51;
56808;152558,342;212134,806;Sint-Katelijnevest;61;
2068369;152550,011;212098,02;Sint-Katelijnevest;67;
2057933;152589,156;212101,671;Twaalfmaandenstraat;14;
