LAM MK;xPos;yPos;Street;Nr;Suffix
5579271;74636,55;227130,17;Bayauxlaan;12;
2757976;74624,55;227131,17;Bayauxlaan;16;
2757979;74611,55;227132,17;Bayauxlaan;20;
320325;74596,12;227136,02;Bayauxlaan;24;
3939519;74560,68;227141,54;Bayauxlaan;26;
320324;74565,64;227139,98;Bayauxlaan;26;A
2757982;74555,55;227140,169;Bayauxlaan;28;
3939521;74543,82;227141,18;Bayauxlaan;30;
2757985;74530,55;227142,169;Bayauxlaan;34;
320323;74523,55;227142,169;Bayauxlaan;36;
320306;74474,55;227140,169;Bayauxlaan;38;
320339;74658,03;227266,57;Blancgarinstraat;15;
2758121;74650,549;227267,17;Blancgarinstraat;17;
2758123;74641,549;227268,17;Blancgarinstraat;19;
320338;74630,549;227270,17;Blancgarinstraat;21;
337851;74642,95;227292,986;Blancgarinstraat;22;
320337;74623,549;227271,17;Blancgarinstraat;23;
1478070;74632,95;227293,985;Blancgarinstraat;24;
320340;74615,549;227272,17;Blancgarinstraat;25;
2758127;74624,765;227299,018;Blancgarinstraat;26;
320336;74602,549;227274,17;Blancgarinstraat;27;
2758128;74617,86;227299,33;Blancgarinstraat;28;
337850;74607,77;227298,65;Blancgarinstraat;30;
319304;74128,703;227097,094;Canadasquare;4;
5579297;74123,105;227107,67;Canadasquare;6;
2758591;74118,363;227115,962;Canadasquare;7;
2758593;74115,237;227123,047;Canadasquare;8;
2758595;74112,958;227129,269;Canadasquare;10;
319249;74109,624;227136,201;Canadasquare;11;
5437537;74104,851;227150,46;Canadasquare;13;
5579298;73978,176;227079,789;Canadasquare;14;
318442;73984,288;227068,531;Canadasquare;15;
318439;74000,552;227044,165;Canadasquare;21;
337329;74664,21;227544,67;D'Hooghestraat;1;
337328;74648,65;227541,19;D'Hooghestraat;2;
5377687;74648,2;227535,43;D'Hooghestraat;2;A
2760502;74646,827;227524,29;D'Hooghestraat;2;B
5432872;74646,827;227524,29;D'Hooghestraat;2;C
5368122;74645,19;227515,48;D'Hooghestraat;2;D
4344208;74643,85;227508,13;D'Hooghestraat;4;
4344210;74644,96;227498,54;D'Hooghestraat;6;
4344211;74645,37;227491,37;D'Hooghestraat;8;
2760506;74659,21;227506,03;D'Hooghestraat;9;
2760507;74645,02;227485,17;D'Hooghestraat;10;
337331;74660,53;227495,81;D'Hooghestraat;11;
4344215;74641,05;227479,32;D'Hooghestraat;12;
337330;74641,46;227473,32;D'Hooghestraat;14;
317805;73809,728;226959,437;Jozef Nellenslaan;121;
317806;73820,164;226961,413;Jozef Nellenslaan;123;
2764161;73829,968;226966,053;Jozef Nellenslaan;125;
2764164;73842,958;226968,717;Jozef Nellenslaan;127;
2764167;73854,534;226973,264;Jozef Nellenslaan;129;
2764171;73862,416;226976,432;Jozef Nellenslaan;131;
2764173;73874,702;226981,018;Jozef Nellenslaan;135;
2764175;73885,891;226984,3;Jozef Nellenslaan;137;
2764179;73893,077;226987,303;Jozef Nellenslaan;139;
2764180;73901,305;226989,967;Jozef Nellenslaan;141;
2764181;73911,109;226993,493;Jozef Nellenslaan;143;
3939626;73921,483;226997,909;Jozef Nellenslaan;145;
1470497;73930,118;227003,936;Jozef Nellenslaan;147;
317808;73935,772;227008,75;Jozef Nellenslaan;149;
5579516;73970,099;227026,226;Jozef Nellenslaan;155;
318448;73989,39;227034,36;Jozef Nellenslaan;157;
320307;74399,22;227238,15;Jozef Nellenslaan;164;
319252;74151,951;227098,312;Jozef Nellenslaan;165;
2764203;74415,55;227246,168;Jozef Nellenslaan;166;
2764205;74162,894;227101,806;Jozef Nellenslaan;167;
2764206;74426,33;227250,798;Jozef Nellenslaan;168;
320281;74211,732;227121,203;Jozef Nellenslaan;169;
320309;74431,549;227254,168;Jozef Nellenslaan;172;
2764212;74221,811;227127,548;Jozef Nellenslaan;173;
320308;74439,549;227259,168;Jozef Nellenslaan;174;
319308;74239,551;227136,888;Jozef Nellenslaan;175;
2764214;74452,549;227265,168;Jozef Nellenslaan;176;
319309;74256,919;227143,566;Jozef Nellenslaan;177;
2764218;74266,168;227149,51;Jozef Nellenslaan;179;
320310;74480,239;227266,849;Jozef Nellenslaan;180;
2764220;74273,508;227156,847;Jozef Nellenslaan;181;
319312;74279,933;227162,994;Jozef Nellenslaan;183;
2764222;74315,135;227202,649;Jozef Nellenslaan;189;
2764225;74323,821;227210,158;Jozef Nellenslaan;191;
2764226;74329,593;227215,579;Jozef Nellenslaan;193;
2764229;74342,355;227227,782;Jozef Nellenslaan;197;
319362;74351,375;227235,712;Jozef Nellenslaan;199;
4344142;74402,31;227268,901;Jozef Nellenslaan;207;
2764235;74410,31;227272,901;Jozef Nellenslaan;209;
2764240;74425,67;227280,77;Jozef Nellenslaan;215;
2764242;74434,812;227286,025;Jozef Nellenslaan;219;
1327501;74441,812;227290,025;Jozef Nellenslaan;221;
2764244;74449,812;227294,025;Jozef Nellenslaan;223;
337755;74475,587;227303,983;Jozef Nellenslaan;227;
337815;74518,549;227303,169;Julius Hostestraat;1;
320326;74530,489;227277,669;Julius Hostestraat;2;
2760512;74553,549;227279,169;Julius Hostestraat;4;
2760514;74536,549;227302,169;Julius Hostestraat;5;
4344108;74544,549;227301,169;Julius Hostestraat;7;
2760516;74554,134;227302,219;Julius Hostestraat;9;
2760517;74559,48;227302,94;Julius Hostestraat;11;
337816;74567,36;227300,91;Julius Hostestraat;13;
320302;74484;227148,04;Koningslaan;93;A
320300;74484,55;227159,169;Koningslaan;95;
2761866;74484,55;227168,169;Koningslaan;97;
2761869;74475,91;227178,32;Koningslaan;99;
2761873;74486,48;227185,999;Koningslaan;103;
4345484;74486,55;227192,169;Koningslaan;105;
2761879;74488,55;227200,169;Koningslaan;107;
2761884;74488,55;227208,169;Koningslaan;113;
2761886;74488,55;227214,169;Koningslaan;115;
2761889;74489,55;227227,169;Koningslaan;119;
2761893;74490,72;227244,02;Koningslaan;123;
320301;74490,549;227249,169;Koningslaan;125;
13074;74480,239;227266,849;Koningslaan;129;
337753;74472,495;227309,369;Koningslaan;135;
2761904;74469,477;227314,219;Koningslaan;137;
337751;74465,743;227319,468;Koningslaan;139;
2761907;74461,65;227326,889;Koningslaan;143;
2761913;74460,436;227338,531;Koningslaan;149;
5579411;74457,326;227344,379;Koningslaan;153;
320321;74514,55;227143,169;Koningslaan;196;
2761949;74511,55;227163,169;Koningslaan;198;
2761950;74512,55;227171,169;Koningslaan;200;
2761952;74512,76;227178,81;Koningslaan;202;
2761955;74513,55;227191,169;Koningslaan;206;
2761956;74513,55;227198,169;Koningslaan;208;
2761958;74514,55;227216,169;Koningslaan;212;
2761961;74516,55;227231,169;Koningslaan;216;
2761962;74517,549;227239,169;Koningslaan;220;
2761964;74517,549;227245,169;Koningslaan;222;
2761966;74517,82;227252,46;Koningslaan;224;
2761968;74523,879;227257,159;Koningslaan;226;
2761969;74524,459;227263,139;Koningslaan;228;
2761970;74518,549;227269,169;Koningslaan;230;
1473385;74506,37;227310,5;Koningslaan;234;
1448395;74502,37;227319,08;Koningslaan;236;
1389366;74498,549;227325,169;Koningslaan;238;
2761976;74495,549;227329,169;Koningslaan;240;
2761978;74493,549;227335,169;Koningslaan;242;
2761979;74507,88;227351,49;Koningslaan;244;
2761981;74486,82;227347,3;Koningslaan;246;
2761983;74485,35;227353,54;Koningslaan;248;
337812;74478,549;227363,169;Koningslaan;252;
320329;74649,911;227132,793;Leopoldlaan;65;A
2762804;74647,55;227153,17;Leopoldlaan;67;
6210672;74640,34;227165,945;Leopoldlaan;67;A
2762809;74649,55;227172,17;Leopoldlaan;69;
2762811;74650,55;227181,17;Leopoldlaan;71;
3939602;74650,55;227187,17;Leopoldlaan;73;
3976701;74650,55;227195,17;Leopoldlaan;75;
4344932;74651,55;227201,17;Leopoldlaan;77;
2762816;74652,143;227208,861;Leopoldlaan;79;
320331;74644,199;227218,13;Leopoldlaan;81;
320330;74651,579;227224,66;Leopoldlaan;85;
2762830;74654,549;227233,17;Leopoldlaan;87;
2762833;74654,874;227238,693;Leopoldlaan;89;
320332;74657,549;227247,17;Leopoldlaan;91;
337846;74666,95;227292,986;Leopoldlaan;95;
2762842;74660,351;227315,119;Leopoldlaan;97;
2762843;74662,179;227336,35;Leopoldlaan;99;
2762851;74665;227346,661;Leopoldlaan;105;
2762852;74667;227351,661;Leopoldlaan;107;
2762856;74667;227370,661;Leopoldlaan;109;
2762861;74669,274;227374,776;Leopoldlaan;113;
2762866;74672,599;227390,47;Leopoldlaan;115;
337845;74674,112;227397,079;Leopoldlaan;117;
337326;74676,14;227427,444;Leopoldlaan;119;
2762870;74676,14;227434,444;Leopoldlaan;121;
337327;74678,14;227439,444;Leopoldlaan;123;
337325;74688,547;227489,17;Leopoldlaan;125;
2762875;74690,547;227494,17;Leopoldlaan;127;
2762878;74690,87;227502,92;Leopoldlaan;129;
2762883;74691,547;227520,17;Leopoldlaan;133;
12838;73798,98;226954,178;Meerlaan;80;
2763665;73793,943;226964,167;Meerlaan;82;
2763667;73791,399;226970,031;Meerlaan;84;
2763669;73788,107;226978,296;Meerlaan;86;
320303;74459,55;227135,169;Meerminlaan;2;
320304;74453,65;227162,979;Meerminlaan;4;
2763702;74439,55;227166,168;Meerminlaan;8;
2763705;74436,55;227172,168;Meerminlaan;10;
2763706;74433,55;227176,168;Meerminlaan;12;
319351;74348,209;227256,919;Meerminlaan;13;
2763708;74429,55;227181,168;Meerminlaan;14;
2763710;74426,55;227189,168;Meerminlaan;16;
2763712;74423,55;227194,168;Meerminlaan;18;
5579495;74341,209;227270,919;Meerminlaan;19;
2763714;74418,85;227202,64;Meerminlaan;20;
2763715;74414,55;227207,168;Meerminlaan;22;
2763716;74412,55;227213,168;Meerminlaan;24;
2763717;74408,55;227219,168;Meerminlaan;26;
1481972;74405,32;227227,19;Meerminlaan;28;
2763719;74401,77;227232,48;Meerminlaan;30;
2763720;74383,674;227262,154;Meerminlaan;36;
2763722;74379,674;227270,154;Meerminlaan;40;
2763723;74374,816;227281,888;Meerminlaan;44;
337749;74366,978;227293,708;Meerminlaan;48;
320318;74598,251;227136,814;Paul Parmentierlaan;172;A
320333;74596,66;227147,84;Paul Parmentierlaan;174;
2765232;74593,55;227158,17;Paul Parmentierlaan;178;
2765235;74613,665;227178,61;Paul Parmentierlaan;184;
2765237;74595,55;227185,17;Paul Parmentierlaan;186;
2765240;74596,55;227194,17;Paul Parmentierlaan;188;
2765247;74612,03;227198,63;Paul Parmentierlaan;190;
2765254;74597,55;227205,17;Paul Parmentierlaan;192;
2765258;74597,55;227211,17;Paul Parmentierlaan;194;
2765261;74598,55;227218,17;Paul Parmentierlaan;196;
2765263;74598,549;227225,17;Paul Parmentierlaan;198;
2765268;74599,549;227232,17;Paul Parmentierlaan;200;
2765271;74600,549;227241,17;Paul Parmentierlaan;202;
320317;74565,64;227139,98;Paul Parmentierlaan;205;
2765275;74600,549;227250,17;Paul Parmentierlaan;206;
1494837;74567,55;227150,17;Paul Parmentierlaan;207;
320319;74601,549;227260,17;Paul Parmentierlaan;208;
2765277;74567,55;227162,17;Paul Parmentierlaan;209;
2765279;74605,549;227310,17;Paul Parmentierlaan;212;
2765281;74568,55;227176,17;Paul Parmentierlaan;213;
2765285;74605,549;227320,17;Paul Parmentierlaan;214;
1357249;74568,55;227183,169;Paul Parmentierlaan;215;
1454526;74606,549;227328,17;Paul Parmentierlaan;216;
2765289;74569,55;227189,169;Paul Parmentierlaan;217;
2765290;74606,549;227336,17;Paul Parmentierlaan;218;
2765291;74569,55;227195,169;Paul Parmentierlaan;219;
2765292;74607,549;227342,17;Paul Parmentierlaan;220;
2765293;74570,55;227203,169;Paul Parmentierlaan;221;
2765294;74608,548;227350,17;Paul Parmentierlaan;222;
2765295;74570,55;227211,169;Paul Parmentierlaan;223;
2765296;74623,58;227357,41;Paul Parmentierlaan;224;
2765297;74571,55;227218,169;Paul Parmentierlaan;225;
1327502;74608,548;227364,17;Paul Parmentierlaan;226;
2765299;74609,548;227372,17;Paul Parmentierlaan;228;
3939641;74572,549;227229,169;Paul Parmentierlaan;229;
1288479;74615,41;227380,02;Paul Parmentierlaan;230;
2765301;74572,549;227237,169;Paul Parmentierlaan;231;
2765302;74610,548;227387,17;Paul Parmentierlaan;232;
1442660;74573,549;227247,169;Paul Parmentierlaan;233;
2765306;74610,548;227393,17;Paul Parmentierlaan;234;
2765308;74574,549;227253,169;Paul Parmentierlaan;235;
1024246;74612,25;227400,27;Paul Parmentierlaan;236;
337340;74614,203;227431,543;Paul Parmentierlaan;236;A
2765310;74574,549;227261,169;Paul Parmentierlaan;237;
337334;74619,085;227433,688;Paul Parmentierlaan;238;
2765313;74615,61;227443,56;Paul Parmentierlaan;240;
337813;74576,22;227301,11;Paul Parmentierlaan;241;
2765316;74616,548;227457,17;Paul Parmentierlaan;242;
2765318;74577,549;227309,169;Paul Parmentierlaan;243;
2765322;74579,049;227318,549;Paul Parmentierlaan;245;
337338;74618,547;227483,169;Paul Parmentierlaan;246;
1389323;74579,139;227329,659;Paul Parmentierlaan;247;
2765331;74619,547;227500,169;Paul Parmentierlaan;250;
2765332;74579,549;227343,169;Paul Parmentierlaan;251;
2765333;74619,547;227508,169;Paul Parmentierlaan;252;
2765335;74620,547;227515,169;Paul Parmentierlaan;254;
2765336;74580,549;227353,169;Paul Parmentierlaan;255;
2765338;74620,547;227522,169;Paul Parmentierlaan;256;
3939642;74581,548;227360,169;Paul Parmentierlaan;257;
2765340;74620,547;227529,169;Paul Parmentierlaan;258;
2765342;74571,31;227367,66;Paul Parmentierlaan;259;
337336;74621,547;227537,169;Paul Parmentierlaan;260;
2765352;74582,548;227373,169;Paul Parmentierlaan;261;
2765353;74583,548;227380,169;Paul Parmentierlaan;263;
2765355;74583,548;227386,169;Paul Parmentierlaan;265;
4032032;74584,98;227396,84;Paul Parmentierlaan;267;
337814;74583,79;227407,06;Paul Parmentierlaan;269;
13070;74587,548;227432,169;Paul Parmentierlaan;271;
2765356;74580,938;227447,509;Paul Parmentierlaan;273;
2765360;74588,548;227455,169;Paul Parmentierlaan;277;
337228;74589,496;227476,623;Paul Parmentierlaan;283;
2765366;74583,451;227483,625;Paul Parmentierlaan;285;
2765371;74591,547;227488,169;Paul Parmentierlaan;287;
2765372;74592,547;227495,169;Paul Parmentierlaan;289;
2765377;74592,06;227501,28;Paul Parmentierlaan;291;
2765380;74596,801;227511,903;Paul Parmentierlaan;295;
2765856;74404,834;227386,918;Rubensplein;1;
2766723;73948,618;227040,861;Sterrenlaan;6;
317798;73926,602;227016,166;Sterrenlaan;7;
5579558;73942,465;227046,544;Sterrenlaan;8;
2766730;73922,021;227019,912;Sterrenlaan;9;
2766733;73933,134;227054,257;Sterrenlaan;10;
1320090;73917,516;227023,481;Sterrenlaan;11;
2766736;73913,087;227027,782;Sterrenlaan;13;
2766738;73914,048;227072,983;Sterrenlaan;14;
2766742;73910,871;227029,59;Sterrenlaan;15;
2766744;73905,412;227034,134;Sterrenlaan;17;
2766746;73901,229;227038,241;Sterrenlaan;21;
2766748;73896,762;227041,824;Sterrenlaan;25;
317799;73890,128;227047,72;Sterrenlaan;27;
337226;74479,548;227392,169;Sylvain Dupuisstraat;1;
337810;74487,548;227370,169;Sylvain Dupuisstraat;2;
5579350;74487,548;227370,169;Sylvain Dupuisstraat;4;
4344279;74482,43;227396,04;Sylvain Dupuisstraat;5;
2759385;74494,548;227374,169;Sylvain Dupuisstraat;6;
2759387;74486,438;227399,629;Sylvain Dupuisstraat;7;
2759388;74499,548;227377,169;Sylvain Dupuisstraat;8;
337227;74486,438;227399,629;Sylvain Dupuisstraat;9;
2759389;74506,548;227381,169;Sylvain Dupuisstraat;10;
4344281;74493,548;227398,169;Sylvain Dupuisstraat;11;
2759392;74514,548;227385,169;Sylvain Dupuisstraat;14;
2759395;74499,548;227402,169;Sylvain Dupuisstraat;15;
2759397;74505,548;227405,169;Sylvain Dupuisstraat;17;
2759398;74523,548;227390,169;Sylvain Dupuisstraat;18;
2759400;74511,548;227408,169;Sylvain Dupuisstraat;19;
2759401;74529,25;227393,28;Sylvain Dupuisstraat;20;
4344284;74516,548;227411,169;Sylvain Dupuisstraat;21;
2759402;74539,84;227386,3;Sylvain Dupuisstraat;22;
2759404;74523,548;227414,169;Sylvain Dupuisstraat;23;
2759405;74540,51;227397,51;Sylvain Dupuisstraat;26;
2759406;74530,548;227417,169;Sylvain Dupuisstraat;27;
2759408;74538,548;227421,169;Sylvain Dupuisstraat;29;
2759410;74545,548;227424,169;Sylvain Dupuisstraat;31;
2759412;74553,548;227426,169;Sylvain Dupuisstraat;33;
1389515;74562,548;227406,169;Sylvain Dupuisstraat;34;
2759417;74568,548;227428,169;Sylvain Dupuisstraat;37;
337809;74574,548;227407,169;Sylvain Dupuisstraat;38;
337225;74574,548;227429,169;Sylvain Dupuisstraat;39;
4344124;74574,548;227407,169;Sylvain Dupuisstraat;40;
337332;74617,668;227427,32;Sylvain Dupuisstraat;41;
5831123;74613,986;227426,995;Sylvain Dupuisstraat;41;A
2759423;74627,459;227428,17;Sylvain Dupuisstraat;43;
337848;74621,27;227400,855;Sylvain Dupuisstraat;44;
2759428;74628,905;227397,414;Sylvain Dupuisstraat;48;
2759429;74648,357;227423,96;Sylvain Dupuisstraat;49;
5697759;74656,909;227423,71;Sylvain Dupuisstraat;51;
13072;74671,14;227418,444;Sylvain Dupuisstraat;53;
4257228;74652,548;227398,17;Sylvain Dupuisstraat;56;
337849;74661,833;227397,97;Sylvain Dupuisstraat;62;
337847;74668,156;227397,404;Sylvain Dupuisstraat;64;
337230;74449,918;227463,328;Zeedijk-Knokke;601;
337231;74459,25;227469,29;Zeedijk-Knokke;602;
337232;74465,548;227472,168;Zeedijk-Knokke;603;
2761403;74471,548;227475,168;Zeedijk-Knokke;605;
2761404;74479,24;227478,99;Zeedijk-Knokke;606;
2761405;74485,548;227482,168;Zeedijk-Knokke;607;
2761407;74497,51;227481,79;Zeedijk-Knokke;608;
2761410;74497,51;227481,79;Zeedijk-Knokke;610;
2761411;74501,548;227491,169;Zeedijk-Knokke;611;
2761413;74510,547;227495,169;Zeedijk-Knokke;613;
337236;74519,547;227499,169;Zeedijk-Knokke;615;
337237;74519,547;227499,169;Zeedijk-Knokke;616;
2761415;74528,547;227504,169;Zeedijk-Knokke;617;
2761416;74528,547;227504,169;Zeedijk-Knokke;618;
4344251;74546,015;227497,7;Zeedijk-Knokke;619;
2761423;74549,547;227515,169;Zeedijk-Knokke;623;
337234;74556,547;227518,169;Zeedijk-Knokke;624;
2761426;74564,15;227522,63;Zeedijk-Knokke;625;
2761427;74572,547;227527,169;Zeedijk-Knokke;627;
2761433;74579,547;227530,169;Zeedijk-Knokke;629;
2761434;74579,547;227530,169;Zeedijk-Knokke;630;
337233;74590,777;227529,659;Zeedijk-Knokke;631;
5805836;74590,777;227529,659;Zeedijk-Knokke;632;
337342;74628,447;227555,029;Zeedijk-Knokke;633;
2761443;74634,537;227558,25;Zeedijk-Knokke;634;
337350;74641,547;227560,17;Zeedijk-Knokke;636;
337352;74649,547;227563,17;Zeedijk-Knokke;637;
337346;74667,86;227563,15;Zeedijk-Knokke;638;
337348;74693,547;227541,17;Zeedijk-Knokke;639;
319239;74164,086;227115,281;Zonnelaan;7;
2767920;74164,585;227134,859;Zonnelaan;9;
12854;74200,081;227121,108;Zonnelaan;10;
320285;74200,532;227132,411;Zonnelaan;12;
2767925;74166,086;227149,281;Zonnelaan;13;
319246;74168,399;227163,867;Zonnelaan;15;
4343356;74200,537;227143,028;Zonnelaan;16;
2767928;74200,79;227152,033;Zonnelaan;18;
319247;74167,03;227181,094;Zonnelaan;19;
2767930;74200,79;227160,033;Zonnelaan;20;
2767931;74200,853;227167,55;Zonnelaan;22;
2767932;74200,665;227175,664;Zonnelaan;24;
319318;74201,417;227187,908;Zonnelaan;26;
319317;74201,994;227194,84;Zonnelaan;28;
2767934;74202,74;227199,816;Zonnelaan;30;
2767935;74204,109;227203,424;Zonnelaan;32;
5579584;74203,839;227208,179;Zonnelaan;34;
319355;74264,891;227245,423;Zwaluwenlaan;2;
319313;74290,259;227170,454;Zwaluwenlaan;3;
2768367;74270,656;227237,403;Zwaluwenlaan;4;
2768369;74279,861;227183,613;Zwaluwenlaan;5;
2768371;74276,623;227231,789;Zwaluwenlaan;6;
2768373;74274,977;227187,978;Zwaluwenlaan;7;
2768374;74282,671;227224,117;Zwaluwenlaan;8;
2768375;74266,421;227197,956;Zwaluwenlaan;9;
2768381;74294,186;227213,878;Zwaluwenlaan;10;
2768382;74259,933;227204,338;Zwaluwenlaan;11;
319354;74306,882;227200,027;Zwaluwenlaan;12;
319316;74247,788;227213,903;Zwaluwenlaan;13;
5579600;74241,421;227221,346;Zwaluwenlaan;15;
319314;74237,439;227226,073;Zwaluwenlaan;17;
