LAM MK;Area Type;Area FID;Area Version;Area Name;Zoning FID;Zoning Version;Zoning Name;Zoning Id;Zoning Tech;BG Version;Building FID;Building Version;BG Id;LAM City Code;LAM Street Code
662065;Zoning;10434939;20191109094846;W03-D-Hasselt-FH06;10434939;20191109094846;W03-D-Hasselt-FH06;24000;FTTH-Cu;;400502;20200210182231;;26300000;23361
662064;Zoning;10434939;20191109094846;W03-D-Hasselt-FH06;10434939;20191109094846;W03-D-Hasselt-FH06;24000;FTTH-Cu;;400501;20200210182231;;26300000;23361
662063;Zoning;10434939;20191109094846;W03-D-Hasselt-FH06;10434939;20191109094846;W03-D-Hasselt-FH06;24000;FTTH-Cu;;400500;20200210182231;;26300000;23361
662062;Zoning;10434939;20191109094846;W03-D-Hasselt-FH06;10434939;20191109094846;W03-D-Hasselt-FH06;24000;FTTH-Cu;;400499;20200210182231;;26300000;23361
666215;Zoning;10434939;20191109094846;W03-D-Hasselt-FH06;10434939;20191109094846;W03-D-Hasselt-FH06;24000;FTTH-Cu;;400686;20200210182227;;26300000;23361
662061;Zoning;10434939;20191109094846;W03-D-Hasselt-FH06;10434939;20191109094846;W03-D-Hasselt-FH06;24000;FTTH-Cu;;400498;20200210182231;;26300000;23361
666213;Zoning;10434939;20191109094846;W03-D-Hasselt-FH06;10434939;20191109094846;W03-D-Hasselt-FH06;24000;FTTH-Cu;;400684;20200210182226;;26300000;23361
666216;Zoning;10434939;20191109094846;W03-D-Hasselt-FH06;10434939;20191109094846;W03-D-Hasselt-FH06;24000;FTTH-Cu;;400687;20200210182227;;26300000;23361
666214;Zoning;10434939;20191109094846;W03-D-Hasselt-FH06;10434939;20191109094846;W03-D-Hasselt-FH06;24000;FTTH-Cu;;400685;20200210182227;;26300000;23361
2432827;Zoning;10434939;20191109094846;W03-D-Hasselt-FH06;10434939;20191109094846;W03-D-Hasselt-FH06;24000;FTTH-Cu;;388832;20200210182214;;26300000;23361
2432830;Zoning;10434939;20191109094846;W03-D-Hasselt-FH06;10434939;20191109094846;W03-D-Hasselt-FH06;24000;FTTH-Cu;;388833;20200210182214;;26300000;23361
2432831;Zoning;10434939;20191109094846;W03-D-Hasselt-FH06;10434939;20191109094846;W03-D-Hasselt-FH06;24000;FTTH-Cu;;388834;20200210182214;;26300000;23361
2432832;Zoning;10434939;20191109094846;W03-D-Hasselt-FH06;10434939;20191109094846;W03-D-Hasselt-FH06;24000;FTTH-Cu;;388835;20200210182214;;26300000;23361
2432833;Zoning;10434939;20191109094846;W03-D-Hasselt-FH06;10434939;20191109094846;W03-D-Hasselt-FH06;24000;FTTH-Cu;;388836;20200210182214;;26300000;23361
2432835;Zoning;10434939;20191109094846;W03-D-Hasselt-FH06;10434939;20191109094846;W03-D-Hasselt-FH06;24000;FTTH-Cu;;388837;20200210182250;;26300000;23361
2432837;Zoning;10434939;20191109094846;W03-D-Hasselt-FH06;10434939;20191109094846;W03-D-Hasselt-FH06;24000;FTTH-Cu;;388838;20200210182214;;26300000;23361
3937568;Zoning;10434939;20191109094846;W03-D-Hasselt-FH06;10434939;20191109094846;W03-D-Hasselt-FH06;24000;FTTH-Cu;;10522576;20200210182226;;26300000;23361
666202;Zoning;10434939;20191109094846;W03-D-Hasselt-FH06;10434939;20191109094846;W03-D-Hasselt-FH06;24000;FTTH-Cu;;10522579;20200210182226;;26300000;23361
78243;Zoning;10434939;20191109094846;W03-D-Hasselt-FH06;10434939;20191109094846;W03-D-Hasselt-FH06;24000;FTTH-Cu;;404436;20200210182235;;26300000;26262
2445097;Zoning;10434939;20191109094846;W03-D-Hasselt-FH06;10434939;20191109094846;W03-D-Hasselt-FH06;24000;FTTH-Cu;;391673;20200210182244;;26300000;32268
662069;Zoning;10434939;20191109094846;W03-D-Hasselt-FH06;10434939;20191109094846;W03-D-Hasselt-FH06;24000;FTTH-Cu;;400506;20200210182231;;26300000;32268
662068;Zoning;10434939;20191109094846;W03-D-Hasselt-FH06;10434939;20191109094846;W03-D-Hasselt-FH06;24000;FTTH-Cu;;400505;20200210182231;;26300000;32268
2445103;Zoning;10434939;20191109094846;W03-D-Hasselt-FH06;10434939;20191109094846;W03-D-Hasselt-FH06;24000;FTTH-Cu;;391674;20200210182244;;26300000;32268
2445106;Zoning;10434939;20191109094846;W03-D-Hasselt-FH06;10434939;20191109094846;W03-D-Hasselt-FH06;24000;FTTH-Cu;;391675;20200210182244;;26300000;32268
2445110;Zoning;10434939;20191109094846;W03-D-Hasselt-FH06;10434939;20191109094846;W03-D-Hasselt-FH06;24000;FTTH-Cu;;391676;20200210182244;;26300000;32268
2445113;Zoning;10434939;20191109094846;W03-D-Hasselt-FH06;10434939;20191109094846;W03-D-Hasselt-FH06;24000;FTTH-Cu;;391677;20200210182244;;26300000;32268
2445115;Zoning;10434939;20191109094846;W03-D-Hasselt-FH06;10434939;20191109094846;W03-D-Hasselt-FH06;24000;FTTH-Cu;;391678;20200210182244;;26300000;32268
2445117;Zoning;10434939;20191109094846;W03-D-Hasselt-FH06;10434939;20191109094846;W03-D-Hasselt-FH06;24000;FTTH-Cu;;391679;20200210182244;;26300000;32268
2445118;Zoning;10434939;20191109094846;W03-D-Hasselt-FH06;10434939;20191109094846;W03-D-Hasselt-FH06;24000;FTTH-Cu;;391680;20200210182244;;26300000;32268
2445121;Zoning;10434939;20191109094846;W03-D-Hasselt-FH06;10434939;20191109094846;W03-D-Hasselt-FH06;24000;FTTH-Cu;;391681;20200210182244;;26300000;32268
2445124;Zoning;10434939;20191109094846;W03-D-Hasselt-FH06;10434939;20191109094846;W03-D-Hasselt-FH06;24000;FTTH-Cu;;391682;20200210182244;;26300000;32268
4861426;Zoning;10434939;20191109094846;W03-D-Hasselt-FH06;10434939;20191109094846;W03-D-Hasselt-FH06;24000;FTTH-Cu;;397155;20200210182238;;26300000;32268
2445126;Zoning;10434939;20191109094846;W03-D-Hasselt-FH06;10434939;20191109094846;W03-D-Hasselt-FH06;24000;FTTH-Cu;;391683;20200210182244;;26300000;32268
2445129;Zoning;10434939;20191109094846;W03-D-Hasselt-FH06;10434939;20191109094846;W03-D-Hasselt-FH06;24000;FTTH-Cu;;391684;20200210182245;;26300000;32268
2445132;Zoning;10434939;20191109094846;W03-D-Hasselt-FH06;10434939;20191109094846;W03-D-Hasselt-FH06;24000;FTTH-Cu;;391685;20200210182245;;26300000;32268
2445134;Zoning;10434939;20191109094846;W03-D-Hasselt-FH06;10434939;20191109094846;W03-D-Hasselt-FH06;24000;FTTH-Cu;;391686;20200210182245;;26300000;32268
2445137;Zoning;10434939;20191109094846;W03-D-Hasselt-FH06;10434939;20191109094846;W03-D-Hasselt-FH06;24000;FTTH-Cu;;391687;20200210182245;;26300000;32268
2445139;Zoning;10434939;20191109094846;W03-D-Hasselt-FH06;10434939;20191109094846;W03-D-Hasselt-FH06;24000;FTTH-Cu;;391688;20200210182245;;26300000;32268
2445142;Zoning;10434939;20191109094846;W03-D-Hasselt-FH06;10434939;20191109094846;W03-D-Hasselt-FH06;24000;FTTH-Cu;;391689;20200210182245;;26300000;32268
1490734;Zoning;10434939;20191109094846;W03-D-Hasselt-FH06;10434939;20191109094846;W03-D-Hasselt-FH06;24000;FTTH-Cu;;380394;20200210182220;;26300000;32268
2445149;Zoning;10434939;20191109094846;W03-D-Hasselt-FH06;10434939;20191109094846;W03-D-Hasselt-FH06;24000;FTTH-Cu;;391690;20200210182245;;26300000;32268
2445151;Zoning;10434939;20191109094846;W03-D-Hasselt-FH06;10434939;20191109094846;W03-D-Hasselt-FH06;24000;FTTH-Cu;;391691;20200210182245;;26300000;32268
2445153;Zoning;10434939;20191109094846;W03-D-Hasselt-FH06;10434939;20191109094846;W03-D-Hasselt-FH06;24000;FTTH-Cu;;391692;20200210182245;;26300000;32268
2445155;Zoning;10434939;20191109094846;W03-D-Hasselt-FH06;10434939;20191109094846;W03-D-Hasselt-FH06;24000;FTTH-Cu;;391693;20200210182245;;26300000;32268
662066;Zoning;10434939;20191109094846;W03-D-Hasselt-FH06;10434939;20191109094846;W03-D-Hasselt-FH06;24000;FTTH-Cu;;400503;20200210182231;;26300000;32268
662067;Zoning;10434939;20191109094846;W03-D-Hasselt-FH06;10434939;20191109094846;W03-D-Hasselt-FH06;24000;FTTH-Cu;;400504;20200210182231;;26300000;32268
2445159;Zoning;10434939;20191109094846;W03-D-Hasselt-FH06;10434939;20191109094846;W03-D-Hasselt-FH06;24000;FTTH-Cu;;391694;20200210182245;;26300000;32268
2445162;Zoning;10434939;20191109094846;W03-D-Hasselt-FH06;10434939;20191109094846;W03-D-Hasselt-FH06;24000;FTTH-Cu;;391695;20200210182245;;26300000;32268
2445164;Zoning;10434939;20191109094846;W03-D-Hasselt-FH06;10434939;20191109094846;W03-D-Hasselt-FH06;24000;FTTH-Cu;;391696;20200210182245;;26300000;32268
2445167;Zoning;10434939;20191109094846;W03-D-Hasselt-FH06;10434939;20191109094846;W03-D-Hasselt-FH06;24000;FTTH-Cu;;391697;20200210182245;;26300000;32268
662070;Zoning;10434939;20191109094846;W03-D-Hasselt-FH06;10434939;20191109094846;W03-D-Hasselt-FH06;24000;FTTH-Cu;;400507;20200210182231;;26300000;32268
662011;Zoning;10434939;20191109094846;W03-D-Hasselt-FH06;10434939;20191109094846;W03-D-Hasselt-FH06;24000;FTTH-Cu;;400454;20200210182228;;26300000;32268
2445171;Zoning;10434939;20191109094846;W03-D-Hasselt-FH06;10434939;20191109094846;W03-D-Hasselt-FH06;24000;FTTH-Cu;;391698;20200210182245;;26300000;32268
2445174;Zoning;10434939;20191109094846;W03-D-Hasselt-FH06;10434939;20191109094846;W03-D-Hasselt-FH06;24000;FTTH-Cu;;391699;20200210182246;;26300000;32268
662010;Zoning;10434939;20191109094846;W03-D-Hasselt-FH06;10434939;20191109094846;W03-D-Hasselt-FH06;24000;FTTH-Cu;;400453;20200210182227;;26300000;32268
662561;Zoning;10434939;20191109094846;W03-D-Hasselt-FH06;10434939;20191109094846;W03-D-Hasselt-FH06;24000;FTTH-Cu;;400534;20200210182233;;26300000;3174
662563;Zoning;10434939;20191109094846;W03-D-Hasselt-FH06;10434939;20191109094846;W03-D-Hasselt-FH06;24000;FTTH-Cu;;400536;20200210182233;;26300000;3174
662560;Zoning;10434939;20191109094846;W03-D-Hasselt-FH06;10434939;20191109094846;W03-D-Hasselt-FH06;24000;FTTH-Cu;;400533;20200210182232;;26300000;3174
2409675;Zoning;10434939;20191109094846;W03-D-Hasselt-FH06;10434939;20191109094846;W03-D-Hasselt-FH06;24000;FTTH-Cu;;382643;20200210182225;;26300000;3174
2409677;Zoning;10434939;20191109094846;W03-D-Hasselt-FH06;10434939;20191109094846;W03-D-Hasselt-FH06;24000;FTTH-Cu;;382644;20200210182225;;26300000;3174
2409679;Zoning;10434939;20191109094846;W03-D-Hasselt-FH06;10434939;20191109094846;W03-D-Hasselt-FH06;24000;FTTH-Cu;;382645;20200210182225;;26300000;3174
2409680;Zoning;10434939;20191109094846;W03-D-Hasselt-FH06;10434939;20191109094846;W03-D-Hasselt-FH06;24000;FTTH-Cu;;382646;20200210182225;;26300000;3174
2409681;Zoning;10434939;20191109094846;W03-D-Hasselt-FH06;10434939;20191109094846;W03-D-Hasselt-FH06;24000;FTTH-Cu;;382647;20200210182225;;26300000;3174
662562;Zoning;10434939;20191109094846;W03-D-Hasselt-FH06;10434939;20191109094846;W03-D-Hasselt-FH06;24000;FTTH-Cu;;400535;20200210182233;;26300000;3174
662451;Zoning;10434939;20191109094846;W03-D-Hasselt-FH06;10434939;20191109094846;W03-D-Hasselt-FH06;24000;FTTH-Cu;;400521;20200210182232;;26300000;3174
6052413;Zoning;10434939;20191109094846;W03-D-Hasselt-FH06;10434939;20191109094846;W03-D-Hasselt-FH06;24000;FTTH-Cu;;12897921;20200210182250;;26300000;3174
662449;Zoning;10434939;20191109094846;W03-D-Hasselt-FH06;10434939;20191109094846;W03-D-Hasselt-FH06;24000;FTTH-Cu;;400520;20200210182232;;26300000;3174
2409688;Zoning;10434939;20191109094846;W03-D-Hasselt-FH06;10434939;20191109094846;W03-D-Hasselt-FH06;24000;FTTH-Cu;;382648;20200210182225;;26300000;3174
2409690;Zoning;10434939;20191109094846;W03-D-Hasselt-FH06;10434939;20191109094846;W03-D-Hasselt-FH06;24000;FTTH-Cu;;382649;20200210182225;;26300000;3174
662447;Zoning;10434939;20191109094846;W03-D-Hasselt-FH06;10434939;20191109094846;W03-D-Hasselt-FH06;24000;FTTH-Cu;;400519;20200210182232;;26300000;3174
2409691;Zoning;10434939;20191109094846;W03-D-Hasselt-FH06;10434939;20191109094846;W03-D-Hasselt-FH06;24000;FTTH-Cu;;382650;20200210182225;;26300000;3174
2409694;Zoning;10434939;20191109094846;W03-D-Hasselt-FH06;10434939;20191109094846;W03-D-Hasselt-FH06;24000;FTTH-Cu;;382651;20200210182225;;26300000;3174
662321;Zoning;10434939;20191109094846;W03-D-Hasselt-FH06;10434939;20191109094846;W03-D-Hasselt-FH06;24000;FTTH-Cu;;400512;20200210190735;;26300000;5019
662323;Zoning;10434939;20191109094846;W03-D-Hasselt-FH06;10434939;20191109094846;W03-D-Hasselt-FH06;24000;FTTH-Cu;;400513;20200210182232;;26300000;5019
662594;Zoning;10434939;20191109094846;W03-D-Hasselt-FH06;10434939;20191109094846;W03-D-Hasselt-FH06;24000;FTTH-Cu;;400566;20200210182235;;26300000;5019
4845867;Zoning;10434939;20191109094846;W03-D-Hasselt-FH06;10434939;20191109094846;W03-D-Hasselt-FH06;24000;FTTH-Cu;;396641;20200210182237;;26300000;5019
5884925;Zoning;10434939;20191109094846;W03-D-Hasselt-FH06;10434939;20191109094846;W03-D-Hasselt-FH06;24000;FTTH-Cu;;12897922;20200210182250;;26300000;5019
4845868;Zoning;10434939;20191109094846;W03-D-Hasselt-FH06;10434939;20191109094846;W03-D-Hasselt-FH06;24000;FTTH-Cu;;396642;20200210182237;;26300000;5019
662593;Zoning;10434939;20191109094846;W03-D-Hasselt-FH06;10434939;20191109094846;W03-D-Hasselt-FH06;24000;FTTH-Cu;;400565;20200210182235;;26300000;5019
662592;Zoning;10434939;20191109094846;W03-D-Hasselt-FH06;10434939;20191109094846;W03-D-Hasselt-FH06;24000;FTTH-Cu;;400564;20200210182235;;26300000;5019
662591;Zoning;10434939;20191109094846;W03-D-Hasselt-FH06;10434939;20191109094846;W03-D-Hasselt-FH06;24000;FTTH-Cu;;400563;20200210182235;;26300000;5019
2411950;Zoning;10434939;20191109094846;W03-D-Hasselt-FH06;10434939;20191109094846;W03-D-Hasselt-FH06;24000;FTTH-Cu;;383220;20200210182220;;26300000;5019
2411952;Zoning;10434939;20191109094846;W03-D-Hasselt-FH06;10434939;20191109094846;W03-D-Hasselt-FH06;24000;FTTH-Cu;;383221;20200210182220;;26300000;5019
4845864;Zoning;10434939;20191109094846;W03-D-Hasselt-FH06;10434939;20191109094846;W03-D-Hasselt-FH06;24000;FTTH-Cu;;396640;20200210182237;;26300000;5019
4845925;Zoning;10434939;20191109094846;W03-D-Hasselt-FH06;10434939;20191109094846;W03-D-Hasselt-FH06;24000;FTTH-Cu;;396648;20200210182237;;26300000;5019
2411954;Zoning;10434939;20191109094846;W03-D-Hasselt-FH06;10434939;20191109094846;W03-D-Hasselt-FH06;24000;FTTH-Cu;;383222;20200210182220;;26300000;5019
2411956;Zoning;10434939;20191109094846;W03-D-Hasselt-FH06;10434939;20191109094846;W03-D-Hasselt-FH06;24000;FTTH-Cu;;383223;20200210182220;;26300000;5019
2411958;Zoning;10434939;20191109094846;W03-D-Hasselt-FH06;10434939;20191109094846;W03-D-Hasselt-FH06;24000;FTTH-Cu;;383224;20200210182220;;26300000;5019
2411961;Zoning;10434939;20191109094846;W03-D-Hasselt-FH06;10434939;20191109094846;W03-D-Hasselt-FH06;24000;FTTH-Cu;;383225;20200210182221;;26300000;5019
662589;Zoning;10434939;20191109094846;W03-D-Hasselt-FH06;10434939;20191109094846;W03-D-Hasselt-FH06;24000;FTTH-Cu;;400561;20200210182235;;26300000;5019
2411966;Zoning;10434939;20191109094846;W03-D-Hasselt-FH06;10434939;20191109094846;W03-D-Hasselt-FH06;24000;FTTH-Cu;;383226;20200210182221;;26300000;5019
662590;Zoning;10434939;20191109094846;W03-D-Hasselt-FH06;10434939;20191109094846;W03-D-Hasselt-FH06;24000;FTTH-Cu;;400562;20200210182235;;26300000;5019
4043957;Zoning;10434939;20191109094846;W03-D-Hasselt-FH06;10434939;20191109094846;W03-D-Hasselt-FH06;24000;FTTH-Cu;;395093;20200210182239;;26300000;5019
2411970;Zoning;10434939;20191109094846;W03-D-Hasselt-FH06;10434939;20191109094846;W03-D-Hasselt-FH06;24000;FTTH-Cu;;383227;20200210182221;;26300000;5019
2411973;Zoning;10434939;20191109094846;W03-D-Hasselt-FH06;10434939;20191109094846;W03-D-Hasselt-FH06;24000;FTTH-Cu;;383228;20200210182221;;26300000;5019
4845857;Zoning;10434939;20191109094846;W03-D-Hasselt-FH06;10434939;20191109094846;W03-D-Hasselt-FH06;24000;FTTH-Cu;;396639;20200210182237;;26300000;5019
2411977;Zoning;10434939;20191109094846;W03-D-Hasselt-FH06;10434939;20191109094846;W03-D-Hasselt-FH06;24000;FTTH-Cu;;383229;20200210182221;;26300000;5019
2411978;Zoning;10434939;20191109094846;W03-D-Hasselt-FH06;10434939;20191109094846;W03-D-Hasselt-FH06;24000;FTTH-Cu;;383230;20200210182221;;26300000;5019
2411981;Zoning;10434939;20191109094846;W03-D-Hasselt-FH06;10434939;20191109094846;W03-D-Hasselt-FH06;24000;FTTH-Cu;;383231;20200210182221;;26300000;5019
2411984;Zoning;10434939;20191109094846;W03-D-Hasselt-FH06;10434939;20191109094846;W03-D-Hasselt-FH06;24000;FTTH-Cu;;383232;20200210182221;;26300000;5019
4845935;Zoning;10434939;20191109094846;W03-D-Hasselt-FH06;10434939;20191109094846;W03-D-Hasselt-FH06;24000;FTTH-Cu;;396649;20200210182237;;26300000;5019
662595;Zoning;10434939;20191109094846;W03-D-Hasselt-FH06;10434939;20191109094846;W03-D-Hasselt-FH06;24000;FTTH-Cu;;400567;20200210182235;;26300000;5019
662596;Zoning;10434939;20191109094846;W03-D-Hasselt-FH06;10434939;20191109094846;W03-D-Hasselt-FH06;24000;FTTH-Cu;;400568;20200210182235;;26300000;5019
662556;Zoning;10434939;20191109094846;W03-D-Hasselt-FH06;10434939;20191109094846;W03-D-Hasselt-FH06;24000;FTTH-Cu;;400529;20200210182232;;26300000;8450
2414568;Zoning;10434939;20191109094846;W03-D-Hasselt-FH06;10434939;20191109094846;W03-D-Hasselt-FH06;24000;FTTH-Cu;;383919;20200210182224;;26300000;8450
2414570;Zoning;10434939;20191109094846;W03-D-Hasselt-FH06;10434939;20191109094846;W03-D-Hasselt-FH06;24000;FTTH-Cu;;383920;20200210182224;;26300000;8450
2414572;Zoning;10434939;20191109094846;W03-D-Hasselt-FH06;10434939;20191109094846;W03-D-Hasselt-FH06;24000;FTTH-Cu;;383921;20200210182224;;26300000;8450
662557;Zoning;10434939;20191109094846;W03-D-Hasselt-FH06;10434939;20191109094846;W03-D-Hasselt-FH06;24000;FTTH-Cu;;400530;20200210182232;;26300000;8450
2414575;Zoning;10434939;20191109094846;W03-D-Hasselt-FH06;10434939;20191109094846;W03-D-Hasselt-FH06;24000;FTTH-Cu;;383922;20200210182224;;26300000;8450
2414577;Zoning;10434939;20191109094846;W03-D-Hasselt-FH06;10434939;20191109094846;W03-D-Hasselt-FH06;24000;FTTH-Cu;;383923;20200210182224;;26300000;8450
2414579;Zoning;10434939;20191109094846;W03-D-Hasselt-FH06;10434939;20191109094846;W03-D-Hasselt-FH06;24000;FTTH-Cu;;383924;20200210182224;;26300000;8450
2414580;Zoning;10434939;20191109094846;W03-D-Hasselt-FH06;10434939;20191109094846;W03-D-Hasselt-FH06;24000;FTTH-Cu;;383925;20200210182224;;26300000;8450
2414584;Zoning;10434939;20191109094846;W03-D-Hasselt-FH06;10434939;20191109094846;W03-D-Hasselt-FH06;24000;FTTH-Cu;;383926;20200210182224;;26300000;8450
2414587;Zoning;10434939;20191109094846;W03-D-Hasselt-FH06;10434939;20191109094846;W03-D-Hasselt-FH06;24000;FTTH-Cu;;383927;20200210182224;;26300000;8450
2414589;Zoning;10434939;20191109094846;W03-D-Hasselt-FH06;10434939;20191109094846;W03-D-Hasselt-FH06;24000;FTTH-Cu;;383928;20200210182224;;26300000;8450
2414590;Zoning;10434939;20191109094846;W03-D-Hasselt-FH06;10434939;20191109094846;W03-D-Hasselt-FH06;24000;FTTH-Cu;;383929;20200210182224;;26300000;8450
2414592;Zoning;10434939;20191109094846;W03-D-Hasselt-FH06;10434939;20191109094846;W03-D-Hasselt-FH06;24000;FTTH-Cu;;383930;20200210182224;;26300000;8450
662559;Zoning;10434939;20191109094846;W03-D-Hasselt-FH06;10434939;20191109094846;W03-D-Hasselt-FH06;24000;FTTH-Cu;;400532;20200210182232;;26300000;8450
662558;Zoning;10434939;20191109094846;W03-D-Hasselt-FH06;10434939;20191109094846;W03-D-Hasselt-FH06;24000;FTTH-Cu;;400531;20200210182232;;26300000;8450
662041;Zoning;10434939;20191109094846;W03-D-Hasselt-FH06;10434939;20191109094846;W03-D-Hasselt-FH06;24000;FTTH-Cu;;400480;20200210182229;;26300000;20500
2429072;Zoning;10434939;20191109094846;W03-D-Hasselt-FH06;10434939;20191109094846;W03-D-Hasselt-FH06;24000;FTTH-Cu;;388239;20200210182216;;26300000;20500
2429075;Zoning;10434939;20191109094846;W03-D-Hasselt-FH06;10434939;20191109094846;W03-D-Hasselt-FH06;24000;FTTH-Cu;;388240;20200210182216;;26300000;20500
2429078;Zoning;10434939;20191109094846;W03-D-Hasselt-FH06;10434939;20191109094846;W03-D-Hasselt-FH06;24000;FTTH-Cu;;388241;20200210182216;;26300000;20500
4861599;Zoning;10434939;20191109094846;W03-D-Hasselt-FH06;10434939;20191109094846;W03-D-Hasselt-FH06;24000;FTTH-Cu;;397161;20200210182238;;26300000;20500
2429083;Zoning;10434939;20191109094846;W03-D-Hasselt-FH06;10434939;20191109094846;W03-D-Hasselt-FH06;24000;FTTH-Cu;;388242;20200210182216;;26300000;20500
2429087;Zoning;10434939;20191109094846;W03-D-Hasselt-FH06;10434939;20191109094846;W03-D-Hasselt-FH06;24000;FTTH-Cu;;388243;20200210182216;;26300000;20500
2429091;Zoning;10434939;20191109094846;W03-D-Hasselt-FH06;10434939;20191109094846;W03-D-Hasselt-FH06;24000;FTTH-Cu;;388244;20200210182216;;26300000;20500
2429094;Zoning;10434939;20191109094846;W03-D-Hasselt-FH06;10434939;20191109094846;W03-D-Hasselt-FH06;24000;FTTH-Cu;;388245;20200210182217;;26300000;20500
2429097;Zoning;10434939;20191109094846;W03-D-Hasselt-FH06;10434939;20191109094846;W03-D-Hasselt-FH06;24000;FTTH-Cu;;388246;20200210182217;;26300000;20500
2429108;Zoning;10434939;20191109094846;W03-D-Hasselt-FH06;10434939;20191109094846;W03-D-Hasselt-FH06;24000;FTTH-Cu;;388247;20200210182217;;26300000;20500
662043;Zoning;10434939;20191109094846;W03-D-Hasselt-FH06;10434939;20191109094846;W03-D-Hasselt-FH06;24000;FTTH-Cu;;400481;20200210182229;;26300000;20500
2429111;Zoning;10434939;20191109094846;W03-D-Hasselt-FH06;10434939;20191109094846;W03-D-Hasselt-FH06;24000;FTTH-Cu;;388248;20200210182217;;26300000;20500
662044;Zoning;10434939;20191109094846;W03-D-Hasselt-FH06;10434939;20191109094846;W03-D-Hasselt-FH06;24000;FTTH-Cu;;400482;20200210182230;;26300000;20500
2429117;Zoning;10434939;20191109094846;W03-D-Hasselt-FH06;10434939;20191109094846;W03-D-Hasselt-FH06;24000;FTTH-Cu;;388249;20200210182217;;26300000;20500
4176663;Zoning;10434939;20191109094846;W03-D-Hasselt-FH06;10434939;20191109094846;W03-D-Hasselt-FH06;24000;FTTH-Cu;;395522;20200210182239;;26300000;20500
2429134;Zoning;10434939;20191109094846;W03-D-Hasselt-FH06;10434939;20191109094846;W03-D-Hasselt-FH06;24000;FTTH-Cu;;388250;20200210182217;;26300000;20500
4861631;Zoning;10434939;20191109094846;W03-D-Hasselt-FH06;10434939;20191109094846;W03-D-Hasselt-FH06;24000;FTTH-Cu;;397162;20200210182238;;26300000;20500
662038;Zoning;10434939;20191109094846;W03-D-Hasselt-FH06;10434939;20191109094846;W03-D-Hasselt-FH06;24000;FTTH-Cu;;400477;20200210182229;;26300000;20500
662031;Zoning;10434939;20191109094846;W03-D-Hasselt-FH06;10434939;20191109094846;W03-D-Hasselt-FH06;24000;FTTH-Cu;;400473;20200210182229;;26300000;20500
662039;Zoning;10434939;20191109094846;W03-D-Hasselt-FH06;10434939;20191109094846;W03-D-Hasselt-FH06;24000;FTTH-Cu;;400478;20200210182229;;26300000;20500
2429140;Zoning;10434939;20191109094846;W03-D-Hasselt-FH06;10434939;20191109094846;W03-D-Hasselt-FH06;24000;FTTH-Cu;;388251;20200210182217;;26300000;20500
662033;Zoning;10434939;20191109094846;W03-D-Hasselt-FH06;10434939;20191109094846;W03-D-Hasselt-FH06;24000;FTTH-Cu;;400474;20200210182229;;26300000;20500
2429141;Zoning;10434939;20191109094846;W03-D-Hasselt-FH06;10434939;20191109094846;W03-D-Hasselt-FH06;24000;FTTH-Cu;;388252;20200210182217;;26300000;20500
2429142;Zoning;10434939;20191109094846;W03-D-Hasselt-FH06;10434939;20191109094846;W03-D-Hasselt-FH06;24000;FTTH-Cu;;388253;20200210182217;;26300000;20500
2429144;Zoning;10434939;20191109094846;W03-D-Hasselt-FH06;10434939;20191109094846;W03-D-Hasselt-FH06;24000;FTTH-Cu;;388254;20200210182217;;26300000;20500
2429148;Zoning;10434939;20191109094846;W03-D-Hasselt-FH06;10434939;20191109094846;W03-D-Hasselt-FH06;24000;FTTH-Cu;;388255;20200210182217;;26300000;20500
2429161;Zoning;10434939;20191109094846;W03-D-Hasselt-FH06;10434939;20191109094846;W03-D-Hasselt-FH06;24000;FTTH-Cu;;388256;20200210182217;;26300000;20500
2429164;Zoning;10434939;20191109094846;W03-D-Hasselt-FH06;10434939;20191109094846;W03-D-Hasselt-FH06;24000;FTTH-Cu;;388257;20200210182217;;26300000;20500
4861524;Zoning;10434939;20191109094846;W03-D-Hasselt-FH06;10434939;20191109094846;W03-D-Hasselt-FH06;24000;FTTH-Cu;;397160;20200210182238;;26300000;20500
2429165;Zoning;10434939;20191109094846;W03-D-Hasselt-FH06;10434939;20191109094846;W03-D-Hasselt-FH06;24000;FTTH-Cu;;388258;20200210182218;;26300000;20500
2429168;Zoning;10434939;20191109094846;W03-D-Hasselt-FH06;10434939;20191109094846;W03-D-Hasselt-FH06;24000;FTTH-Cu;;388259;20200210182218;;26300000;20500
2429173;Zoning;10434939;20191109094846;W03-D-Hasselt-FH06;10434939;20191109094846;W03-D-Hasselt-FH06;24000;FTTH-Cu;;388260;20200210182218;;26300000;20500
2429177;Zoning;10434939;20191109094846;W03-D-Hasselt-FH06;10434939;20191109094846;W03-D-Hasselt-FH06;24000;FTTH-Cu;;388261;20200210182218;;26300000;20500
2429180;Zoning;10434939;20191109094846;W03-D-Hasselt-FH06;10434939;20191109094846;W03-D-Hasselt-FH06;24000;FTTH-Cu;;388262;20200210182218;;26300000;20500
4861498;Zoning;10434939;20191109094846;W03-D-Hasselt-FH06;10434939;20191109094846;W03-D-Hasselt-FH06;24000;FTTH-Cu;;397159;20200210182238;;26300000;20500
4127726;Zoning;10434939;20191109094846;W03-D-Hasselt-FH06;10434939;20191109094846;W03-D-Hasselt-FH06;24000;FTTH-Cu;;395261;20200210182240;;26300000;20500
662045;Zoning;10434939;20191109094846;W03-D-Hasselt-FH06;10434939;20191109094846;W03-D-Hasselt-FH06;24000;FTTH-Cu;;400483;20200210182230;;26300000;20500
2429189;Zoning;10434939;20191109094846;W03-D-Hasselt-FH06;10434939;20191109094846;W03-D-Hasselt-FH06;24000;FTTH-Cu;;388263;20200210182218;;26300000;20500
2429191;Zoning;10434939;20191109094846;W03-D-Hasselt-FH06;10434939;20191109094846;W03-D-Hasselt-FH06;24000;FTTH-Cu;;388264;20200210182218;;26300000;20500
2429195;Zoning;10434939;20191109094846;W03-D-Hasselt-FH06;10434939;20191109094846;W03-D-Hasselt-FH06;24000;FTTH-Cu;;388265;20200210182218;;26300000;20500
2429199;Zoning;10434939;20191109094846;W03-D-Hasselt-FH06;10434939;20191109094846;W03-D-Hasselt-FH06;24000;FTTH-Cu;;388266;20200210182218;;26300000;20500
662035;Zoning;10434939;20191109094846;W03-D-Hasselt-FH06;10434939;20191109094846;W03-D-Hasselt-FH06;24000;FTTH-Cu;;400475;20200210182229;;26300000;20500
2429206;Zoning;10434939;20191109094846;W03-D-Hasselt-FH06;10434939;20191109094846;W03-D-Hasselt-FH06;24000;FTTH-Cu;;388267;20200210182218;;26300000;20500
662037;Zoning;10434939;20191109094846;W03-D-Hasselt-FH06;10434939;20191109094846;W03-D-Hasselt-FH06;24000;FTTH-Cu;;400476;20200210182229;;26300000;20500
2429210;Zoning;10434939;20191109094846;W03-D-Hasselt-FH06;10434939;20191109094846;W03-D-Hasselt-FH06;24000;FTTH-Cu;;388268;20200210182218;;26300000;20500
662040;Zoning;10434939;20191109094846;W03-D-Hasselt-FH06;10434939;20191109094846;W03-D-Hasselt-FH06;24000;FTTH-Cu;;400479;20200210182229;;26300000;20500
2405827;Zoning;10434939;20191109094846;W03-D-Hasselt-FH06;10434939;20191109094846;W03-D-Hasselt-FH06;24000;FTTH-Cu;;380817;20200210182220;;26300000;10
5530321;Zoning;10434939;20191109094846;W03-D-Hasselt-FH06;10434939;20191109094846;W03-D-Hasselt-FH06;24000;FTTH-Cu;;5194437;20200210182207;;26300000;10
1174354;Zoning;10434939;20191109094846;W03-D-Hasselt-FH06;10434939;20191109094846;W03-D-Hasselt-FH06;24000;FTTH-Cu;;379530;20200210182219;;26300000;10
25182;Zoning;10434939;20191109094846;W03-D-Hasselt-FH06;10434939;20191109094846;W03-D-Hasselt-FH06;24000;FTTH-Cu;;13396278;20200210182208;;26300000;11445
2416857;Zoning;10434939;20191109094846;W03-D-Hasselt-FH06;10434939;20191109094846;W03-D-Hasselt-FH06;24000;FTTH-Cu;;13396279;20200210182251;;26300000;11445
666233;Zoning;10434939;20191109094846;W03-D-Hasselt-FH06;10434939;20191109094846;W03-D-Hasselt-FH06;24000;FTTH-Cu;;400701;20200210182227;;26300000;11445
666232;Zoning;10434939;20191109094846;W03-D-Hasselt-FH06;10434939;20191109094846;W03-D-Hasselt-FH06;24000;FTTH-Cu;;400700;20200210182227;;26300000;11445
666231;Zoning;10434939;20191109094846;W03-D-Hasselt-FH06;10434939;20191109094846;W03-D-Hasselt-FH06;24000;FTTH-Cu;;400699;20200210182227;;26300000;11445
4201663;Zoning;10434939;20191109094846;W03-D-Hasselt-FH06;10434939;20191109094846;W03-D-Hasselt-FH06;24000;FTTH-Cu;;395688;20200210182241;;26300000;11445
2416860;Zoning;10434939;20191109094846;W03-D-Hasselt-FH06;10434939;20191109094846;W03-D-Hasselt-FH06;24000;FTTH-Cu;;384818;20200210182224;;26300000;11445
2416861;Zoning;10434939;20191109094846;W03-D-Hasselt-FH06;10434939;20191109094846;W03-D-Hasselt-FH06;24000;FTTH-Cu;;384819;20200210182224;;26300000;11445
2416862;Zoning;10434939;20191109094846;W03-D-Hasselt-FH06;10434939;20191109094846;W03-D-Hasselt-FH06;24000;FTTH-Cu;;384820;20200210182225;;26300000;11445
3937352;Zoning;10434939;20191109094846;W03-D-Hasselt-FH06;10434939;20191109094846;W03-D-Hasselt-FH06;24000;FTTH-Cu;;7093965;20200210182251;;26300000;11445
2416864;Zoning;10434939;20191109094846;W03-D-Hasselt-FH06;10434939;20191109094846;W03-D-Hasselt-FH06;24000;FTTH-Cu;;384821;20200210182225;;26300000;11445
2416866;Zoning;10434939;20191109094846;W03-D-Hasselt-FH06;10434939;20191109094846;W03-D-Hasselt-FH06;24000;FTTH-Cu;;384822;20200210182225;;26300000;11445
2416867;Zoning;10434939;20191109094846;W03-D-Hasselt-FH06;10434939;20191109094846;W03-D-Hasselt-FH06;24000;FTTH-Cu;;384823;20200210182225;;26300000;11445
2416868;Zoning;10434939;20191109094846;W03-D-Hasselt-FH06;10434939;20191109094846;W03-D-Hasselt-FH06;24000;FTTH-Cu;;384824;20200210182225;;26300000;11445
666229;Zoning;10434939;20191109094846;W03-D-Hasselt-FH06;10434939;20191109094846;W03-D-Hasselt-FH06;24000;FTTH-Cu;;400697;20200210182227;;26300000;11445
1164596;Zoning;10434939;20191109094846;W03-D-Hasselt-FH06;10434939;20191109094846;W03-D-Hasselt-FH06;24000;FTTH-Cu;;5157580;20200210182207;;26300000;12050
1326237;Zoning;10434939;20191109094846;W03-D-Hasselt-FH06;10434939;20191109094846;W03-D-Hasselt-FH06;24000;FTTH-Cu;;5157590;20200210182207;;26300000;12050
78255;Zoning;10434939;20191109094846;W03-D-Hasselt-FH06;10434939;20191109094846;W03-D-Hasselt-FH06;24000;FTTH-Cu;;404447;20200210182236;;26300000;12050
78256;Zoning;10434939;20191109094846;W03-D-Hasselt-FH06;10434939;20191109094846;W03-D-Hasselt-FH06;24000;FTTH-Cu;;404448;20200210173114;;26300000;12050
78257;Zoning;10434939;20191109094846;W03-D-Hasselt-FH06;10434939;20191109094846;W03-D-Hasselt-FH06;24000;FTTH-Cu;;404449;20200210173116;;26300000;12050
78258;Zoning;10434939;20191109094846;W03-D-Hasselt-FH06;10434939;20191109094846;W03-D-Hasselt-FH06;24000;FTTH-Cu;;404450;20200210173118;;26300000;12050
78333;Zoning;10434939;20191109094846;W03-D-Hasselt-FH06;10434939;20191109094846;W03-D-Hasselt-FH06;24000;FTTH-Cu;;404456;20200210173120;;26300000;12050
78334;Zoning;10434939;20191109094846;W03-D-Hasselt-FH06;10434939;20191109094846;W03-D-Hasselt-FH06;24000;FTTH-Cu;;404457;20200210173122;;26300000;12050
3937371;Zoning;10434939;20191109094846;W03-D-Hasselt-FH06;10434939;20191109094846;W03-D-Hasselt-FH06;24000;FTTH-Cu;;394573;20200210182239;;26300000;12050
2417629;Zoning;10434939;20191109094846;W03-D-Hasselt-FH06;10434939;20191109094846;W03-D-Hasselt-FH06;24000;FTTH-Cu;;385108;20200210182222;;26300000;12058
2417630;Zoning;10434939;20191109094846;W03-D-Hasselt-FH06;10434939;20191109094846;W03-D-Hasselt-FH06;24000;FTTH-Cu;;385109;20200210182222;;26300000;12058
2417631;Zoning;10434939;20191109094846;W03-D-Hasselt-FH06;10434939;20191109094846;W03-D-Hasselt-FH06;24000;FTTH-Cu;;385110;20200210182222;;26300000;12058
2417633;Zoning;10434939;20191109094846;W03-D-Hasselt-FH06;10434939;20191109094846;W03-D-Hasselt-FH06;24000;FTTH-Cu;;385111;20200210182222;;26300000;12058
662555;Zoning;10434939;20191109094846;W03-D-Hasselt-FH06;10434939;20191109094846;W03-D-Hasselt-FH06;24000;FTTH-Cu;;400528;20200210182232;;26300000;12058
1274790;Zoning;10434939;20191109094846;W03-D-Hasselt-FH06;10434939;20191109094846;W03-D-Hasselt-FH06;24000;FTTH-Cu;;379703;20200210182220;;26300000;12058
2417635;Zoning;10434939;20191109094846;W03-D-Hasselt-FH06;10434939;20191109094846;W03-D-Hasselt-FH06;24000;FTTH-Cu;;385112;20200210182222;;26300000;12058
662554;Zoning;10434939;20191109094846;W03-D-Hasselt-FH06;10434939;20191109094846;W03-D-Hasselt-FH06;24000;FTTH-Cu;;400527;20200210182232;;26300000;12058
662047;Zoning;10434939;20191109094846;W03-D-Hasselt-FH06;10434939;20191109094846;W03-D-Hasselt-FH06;24000;FTTH-Cu;;13396274;20200210182208;;26300000;23776
662050;Zoning;10434939;20191109094846;W03-D-Hasselt-FH06;10434939;20191109094846;W03-D-Hasselt-FH06;24000;FTTH-Cu;;400487;20200210182230;;26300000;23776
662049;Zoning;10434939;20191109094846;W03-D-Hasselt-FH06;10434939;20191109094846;W03-D-Hasselt-FH06;24000;FTTH-Cu;;400486;20200210182230;;26300000;23776
2433682;Zoning;10434939;20191109094846;W03-D-Hasselt-FH06;10434939;20191109094846;W03-D-Hasselt-FH06;24000;FTTH-Cu;;389070;20200210182212;;26300000;23776
2433685;Zoning;10434939;20191109094846;W03-D-Hasselt-FH06;10434939;20191109094846;W03-D-Hasselt-FH06;24000;FTTH-Cu;;389071;20200210182212;;26300000;23776
2433687;Zoning;10434939;20191109094846;W03-D-Hasselt-FH06;10434939;20191109094846;W03-D-Hasselt-FH06;24000;FTTH-Cu;;389072;20200210182213;;26300000;23776
2433688;Zoning;10434939;20191109094846;W03-D-Hasselt-FH06;10434939;20191109094846;W03-D-Hasselt-FH06;24000;FTTH-Cu;;389073;20200210182213;;26300000;23776
2433689;Zoning;10434939;20191109094846;W03-D-Hasselt-FH06;10434939;20191109094846;W03-D-Hasselt-FH06;24000;FTTH-Cu;;389074;20200210182213;;26300000;23776
662048;Zoning;10434939;20191109094846;W03-D-Hasselt-FH06;10434939;20191109094846;W03-D-Hasselt-FH06;24000;FTTH-Cu;;400485;20200210182230;;26300000;23776
662046;Zoning;10434939;20191109094846;W03-D-Hasselt-FH06;10434939;20191109094846;W03-D-Hasselt-FH06;24000;FTTH-Cu;;400484;20200210182230;;26300000;23776
666220;Zoning;10434939;20191109094846;W03-D-Hasselt-FH06;10434939;20191109094846;W03-D-Hasselt-FH06;24000;FTTH-Cu;;400690;20200210182227;;26300000;31501
666221;Zoning;10434939;20191109094846;W03-D-Hasselt-FH06;10434939;20191109094846;W03-D-Hasselt-FH06;24000;FTTH-Cu;;7093969;20200210182251;;26300000;31501
2444519;Zoning;10434939;20191109094846;W03-D-Hasselt-FH06;10434939;20191109094846;W03-D-Hasselt-FH06;24000;FTTH-Cu;;391534;20200210182242;;26300000;31501
2444521;Zoning;10434939;20191109094846;W03-D-Hasselt-FH06;10434939;20191109094846;W03-D-Hasselt-FH06;24000;FTTH-Cu;;391535;20200210182242;;26300000;31501
2444523;Zoning;10434939;20191109094846;W03-D-Hasselt-FH06;10434939;20191109094846;W03-D-Hasselt-FH06;24000;FTTH-Cu;;391536;20200210182242;;26300000;31501
6632832;Zoning;10434939;20191109094846;W03-D-Hasselt-FH06;10434939;20191109094846;W03-D-Hasselt-FH06;24000;FTTH-Cu;;31373680;20200312132209;;26300000;31501
2444526;Zoning;10434939;20191109094846;W03-D-Hasselt-FH06;10434939;20191109094846;W03-D-Hasselt-FH06;24000;FTTH-Cu;;391537;20200210182242;;26300000;31501
666219;Zoning;10434939;20191109094846;W03-D-Hasselt-FH06;10434939;20191109094846;W03-D-Hasselt-FH06;24000;FTTH-Cu;;13396275;20200312115258;;26300000;31501
2444529;Zoning;10434939;20191109094846;W03-D-Hasselt-FH06;10434939;20191109094846;W03-D-Hasselt-FH06;24000;FTTH-Cu;;391538;20200210182242;;26300000;31501
6632833;Zoning;10434939;20191109094846;W03-D-Hasselt-FH06;10434939;20191109094846;W03-D-Hasselt-FH06;24000;FTTH-Cu;;31371401;20200312115405;;26300000;31501
4027575;Zoning;10434939;20191109094846;W03-D-Hasselt-FH06;10434939;20191109094846;W03-D-Hasselt-FH06;24000;FTTH-Cu;;395049;20200210182239;;26300000;31501
6632834;Zoning;10434939;20191109094846;W03-D-Hasselt-FH06;10434939;20191109094846;W03-D-Hasselt-FH06;24000;FTTH-Cu;;31371414;20200312115503;;26300000;31501
2444533;Zoning;10434939;20191109094846;W03-D-Hasselt-FH06;10434939;20191109094846;W03-D-Hasselt-FH06;24000;FTTH-Cu;;391539;20200210182242;;26300000;31501
6632845;Zoning;10434939;20191109094846;W03-D-Hasselt-FH06;10434939;20191109094846;W03-D-Hasselt-FH06;24000;FTTH-Cu;;31371419;20200312115503;;26300000;31501
2444535;Zoning;10434939;20191109094846;W03-D-Hasselt-FH06;10434939;20191109094846;W03-D-Hasselt-FH06;24000;FTTH-Cu;;391540;20200210182242;;26300000;31501
6632835;Zoning;10434939;20191109094846;W03-D-Hasselt-FH06;10434939;20191109094846;W03-D-Hasselt-FH06;24000;FTTH-Cu;;31371425;20200312115503;;26300000;31501
2444536;Zoning;10434939;20191109094846;W03-D-Hasselt-FH06;10434939;20191109094846;W03-D-Hasselt-FH06;24000;FTTH-Cu;;391541;20200210182242;;26300000;31501
6632836;Zoning;10434939;20191109094846;W03-D-Hasselt-FH06;10434939;20191109094846;W03-D-Hasselt-FH06;24000;FTTH-Cu;;31371455;20200312115617;;26300000;31501
2444538;Zoning;10434939;20191109094846;W03-D-Hasselt-FH06;10434939;20191109094846;W03-D-Hasselt-FH06;24000;FTTH-Cu;;391542;20200210182242;;26300000;31501
6632837;Zoning;10434939;20191109094846;W03-D-Hasselt-FH06;10434939;20191109094846;W03-D-Hasselt-FH06;24000;FTTH-Cu;;31371457;20200312115617;;26300000;31501
2444539;Zoning;10434939;20191109094846;W03-D-Hasselt-FH06;10434939;20191109094846;W03-D-Hasselt-FH06;24000;FTTH-Cu;;391543;20200210182242;;26300000;31501
6632838;Zoning;10434939;20191109094846;W03-D-Hasselt-FH06;10434939;20191109094846;W03-D-Hasselt-FH06;24000;FTTH-Cu;;31371463;20200312115617;;26300000;31501
2444542;Zoning;10434939;20191109094846;W03-D-Hasselt-FH06;10434939;20191109094846;W03-D-Hasselt-FH06;24000;FTTH-Cu;;391544;20200210182243;;26300000;31501
6643768;Zoning;10434939;20191109094846;W03-D-Hasselt-FH06;10434939;20191109094846;W03-D-Hasselt-FH06;24000;FTTH-Cu;;31588622;20200324104548;;26300000;31501
666223;Zoning;10434939;20191109094846;W03-D-Hasselt-FH06;10434939;20191109094846;W03-D-Hasselt-FH06;24000;FTTH-Cu;;400692;20200210182227;;26300000;31501
2444544;Zoning;10434939;20191109094846;W03-D-Hasselt-FH06;10434939;20191109094846;W03-D-Hasselt-FH06;24000;FTTH-Cu;;391545;20200210182243;;26300000;31501
6632844;Zoning;10434939;20191109094846;W03-D-Hasselt-FH06;10434939;20191109094846;W03-D-Hasselt-FH06;24000;FTTH-Cu;;31371320;20200312114856;;26300000;31501
666225;Zoning;10434939;20191109094846;W03-D-Hasselt-FH06;10434939;20191109094846;W03-D-Hasselt-FH06;24000;FTTH-Cu;;400694;20200210182227;;26300000;31501
2444546;Zoning;10434939;20191109094846;W03-D-Hasselt-FH06;10434939;20191109094846;W03-D-Hasselt-FH06;24000;FTTH-Cu;;391546;20200210182243;;26300000;31501
2444547;Zoning;10434939;20191109094846;W03-D-Hasselt-FH06;10434939;20191109094846;W03-D-Hasselt-FH06;24000;FTTH-Cu;;391547;20200210182243;;26300000;31501
2444549;Zoning;10434939;20191109094846;W03-D-Hasselt-FH06;10434939;20191109094846;W03-D-Hasselt-FH06;24000;FTTH-Cu;;391548;20200210182243;;26300000;31501
2444551;Zoning;10434939;20191109094846;W03-D-Hasselt-FH06;10434939;20191109094846;W03-D-Hasselt-FH06;24000;FTTH-Cu;;391549;20200210182243;;26300000;31501
666222;Zoning;10434939;20191109094846;W03-D-Hasselt-FH06;10434939;20191109094846;W03-D-Hasselt-FH06;24000;FTTH-Cu;;5194447;20200210182207;;26300000;31501
2444553;Zoning;10434939;20191109094846;W03-D-Hasselt-FH06;10434939;20191109094846;W03-D-Hasselt-FH06;24000;FTTH-Cu;;391550;20200210182243;;26300000;31501
666224;Zoning;10434939;20191109094846;W03-D-Hasselt-FH06;10434939;20191109094846;W03-D-Hasselt-FH06;24000;FTTH-Cu;;400693;20200210182227;;26300000;31501
2444554;Zoning;10434939;20191109094846;W03-D-Hasselt-FH06;10434939;20191109094846;W03-D-Hasselt-FH06;24000;FTTH-Cu;;391551;20200210182243;;26300000;31501
2444557;Zoning;10434939;20191109094846;W03-D-Hasselt-FH06;10434939;20191109094846;W03-D-Hasselt-FH06;24000;FTTH-Cu;;391552;20200210182243;;26300000;31501
3937698;Zoning;10434939;20191109094846;W03-D-Hasselt-FH06;10434939;20191109094846;W03-D-Hasselt-FH06;24000;FTTH-Cu;;394804;20200210182241;;26300000;31501
2444559;Zoning;10434939;20191109094846;W03-D-Hasselt-FH06;10434939;20191109094846;W03-D-Hasselt-FH06;24000;FTTH-Cu;;391553;20200210182243;;26300000;31501
2444561;Zoning;10434939;20191109094846;W03-D-Hasselt-FH06;10434939;20191109094846;W03-D-Hasselt-FH06;24000;FTTH-Cu;;391554;20200210182243;;26300000;31501
2444564;Zoning;10434939;20191109094846;W03-D-Hasselt-FH06;10434939;20191109094846;W03-D-Hasselt-FH06;24000;FTTH-Cu;;391555;20200210182243;;26300000;31501
2444567;Zoning;10434939;20191109094846;W03-D-Hasselt-FH06;10434939;20191109094846;W03-D-Hasselt-FH06;24000;FTTH-Cu;;391556;20200210182243;;26300000;31501
2444570;Zoning;10434939;20191109094846;W03-D-Hasselt-FH06;10434939;20191109094846;W03-D-Hasselt-FH06;24000;FTTH-Cu;;391557;20200210182243;;26300000;31501
2444572;Zoning;10434939;20191109094846;W03-D-Hasselt-FH06;10434939;20191109094846;W03-D-Hasselt-FH06;24000;FTTH-Cu;;391558;20200210182244;;26300000;31501
2444574;Zoning;10434939;20191109094846;W03-D-Hasselt-FH06;10434939;20191109094846;W03-D-Hasselt-FH06;24000;FTTH-Cu;;391559;20200210182244;;26300000;31501
1174338;Zoning;10434939;20191109094846;W03-D-Hasselt-FH06;10434939;20191109094846;W03-D-Hasselt-FH06;24000;FTTH-Cu;;379516;20200210182219;;26300000;31501
2444580;Zoning;10434939;20191109094846;W03-D-Hasselt-FH06;10434939;20191109094846;W03-D-Hasselt-FH06;24000;FTTH-Cu;;391560;20200210182244;;26300000;31501
6468686;Zoning;10434939;20191109094846;W03-D-Hasselt-FH06;10434939;20191109094846;W03-D-Hasselt-FH06;24000;FTTH-Cu;;29093251;20200210182206;;26300000;31501
3937699;Zoning;10434939;20191109094846;W03-D-Hasselt-FH06;10434939;20191109094846;W03-D-Hasselt-FH06;24000;FTTH-Cu;;29093255;20200210182207;;26300000;31501
5422662;Zoning;10434939;20191109094846;W03-D-Hasselt-FH06;10434939;20191109094846;W03-D-Hasselt-FH06;24000;FTTH-Cu;;399061;20200210182239;;26300000;31501
1174336;Zoning;10434939;20191109094846;W03-D-Hasselt-FH06;10434939;20191109094846;W03-D-Hasselt-FH06;24000;FTTH-Cu;;379515;20200210182219;;26300000;31501
666226;Zoning;10434939;20191109094846;W03-D-Hasselt-FH06;10434939;20191109094846;W03-D-Hasselt-FH06;24000;FTTH-Cu;;29093252;20200210182207;;26300000;31501
6632839;Zoning;10434939;20191109094846;W03-D-Hasselt-FH06;10434939;20191109094846;W03-D-Hasselt-FH06;24000;FTTH-Cu;;31374190;20200312132652;;26300000;31501
6632840;Zoning;10434939;20191109094846;W03-D-Hasselt-FH06;10434939;20191109094846;W03-D-Hasselt-FH06;24000;FTTH-Cu;;31374191;20200312132652;;26300000;31501
666227;Zoning;10434939;20191109094846;W03-D-Hasselt-FH06;10434939;20191109094846;W03-D-Hasselt-FH06;24000;FTTH-Cu;;400695;20200210182227;;26300000;31501
25170;Zoning;10434939;20191109094846;W03-D-Hasselt-FH06;10434939;20191109094846;W03-D-Hasselt-FH06;24000;FTTH-Cu;;394189;20200210182249;;26300000;19068
662023;Zoning;10434939;20191109094846;W03-D-Hasselt-FH06;10434939;20191109094846;W03-D-Hasselt-FH06;24000;FTTH-Cu;;400465;20200210182228;;26300000;19068
662024;Zoning;10434939;20191109094846;W03-D-Hasselt-FH06;10434939;20191109094846;W03-D-Hasselt-FH06;24000;FTTH-Cu;;400466;20200210182228;;26300000;19068
2426002;Zoning;10434939;20191109094846;W03-D-Hasselt-FH06;10434939;20191109094846;W03-D-Hasselt-FH06;24000;FTTH-Cu;;387410;20200210182208;;26300000;19068
2426004;Zoning;10434939;20191109094846;W03-D-Hasselt-FH06;10434939;20191109094846;W03-D-Hasselt-FH06;24000;FTTH-Cu;;387411;20200210182208;;26300000;19068
2426005;Zoning;10434939;20191109094846;W03-D-Hasselt-FH06;10434939;20191109094846;W03-D-Hasselt-FH06;24000;FTTH-Cu;;387412;20200210182209;;26300000;19068
2426006;Zoning;10434939;20191109094846;W03-D-Hasselt-FH06;10434939;20191109094846;W03-D-Hasselt-FH06;24000;FTTH-Cu;;387413;20200210182209;;26300000;19068
2426007;Zoning;10434939;20191109094846;W03-D-Hasselt-FH06;10434939;20191109094846;W03-D-Hasselt-FH06;24000;FTTH-Cu;;387414;20200210182209;;26300000;19068
2426008;Zoning;10434939;20191109094846;W03-D-Hasselt-FH06;10434939;20191109094846;W03-D-Hasselt-FH06;24000;FTTH-Cu;;387415;20200210182209;;26300000;19068
2426009;Zoning;10434939;20191109094846;W03-D-Hasselt-FH06;10434939;20191109094846;W03-D-Hasselt-FH06;24000;FTTH-Cu;;387416;20200210182209;;26300000;19068
4214843;Zoning;10434939;20191109094846;W03-D-Hasselt-FH06;10434939;20191109094846;W03-D-Hasselt-FH06;24000;FTTH-Cu;;395810;20200210182236;;26300000;19068
2426010;Zoning;10434939;20191109094846;W03-D-Hasselt-FH06;10434939;20191109094846;W03-D-Hasselt-FH06;24000;FTTH-Cu;;387417;20200210182209;;26300000;19068
2426011;Zoning;10434939;20191109094846;W03-D-Hasselt-FH06;10434939;20191109094846;W03-D-Hasselt-FH06;24000;FTTH-Cu;;387418;20200210182209;;26300000;19068
4861387;Zoning;10434939;20191109094846;W03-D-Hasselt-FH06;10434939;20191109094846;W03-D-Hasselt-FH06;24000;FTTH-Cu;;397154;20200210182238;;26300000;19068
2426013;Zoning;10434939;20191109094846;W03-D-Hasselt-FH06;10434939;20191109094846;W03-D-Hasselt-FH06;24000;FTTH-Cu;;387419;20200210182209;;26300000;19068
2426015;Zoning;10434939;20191109094846;W03-D-Hasselt-FH06;10434939;20191109094846;W03-D-Hasselt-FH06;24000;FTTH-Cu;;387420;20200210182209;;26300000;19068
2426016;Zoning;10434939;20191109094846;W03-D-Hasselt-FH06;10434939;20191109094846;W03-D-Hasselt-FH06;24000;FTTH-Cu;;387421;20200210182209;;26300000;19068
2426018;Zoning;10434939;20191109094846;W03-D-Hasselt-FH06;10434939;20191109094846;W03-D-Hasselt-FH06;24000;FTTH-Cu;;387422;20200210182209;;26300000;19068
2426019;Zoning;10434939;20191109094846;W03-D-Hasselt-FH06;10434939;20191109094846;W03-D-Hasselt-FH06;24000;FTTH-Cu;;387423;20200210182209;;26300000;19068
2426020;Zoning;10434939;20191109094846;W03-D-Hasselt-FH06;10434939;20191109094846;W03-D-Hasselt-FH06;24000;FTTH-Cu;;387424;20200210182209;;26300000;19068
2426021;Zoning;10434939;20191109094846;W03-D-Hasselt-FH06;10434939;20191109094846;W03-D-Hasselt-FH06;24000;FTTH-Cu;;387425;20200210182209;;26300000;19068
662028;Zoning;10434939;20191109094846;W03-D-Hasselt-FH06;10434939;20191109094846;W03-D-Hasselt-FH06;24000;FTTH-Cu;;400470;20200210182229;;26300000;19068
2426024;Zoning;10434939;20191109094846;W03-D-Hasselt-FH06;10434939;20191109094846;W03-D-Hasselt-FH06;24000;FTTH-Cu;;387426;20200210182209;;26300000;19068
2426025;Zoning;10434939;20191109094846;W03-D-Hasselt-FH06;10434939;20191109094846;W03-D-Hasselt-FH06;24000;FTTH-Cu;;387427;20200210182210;;26300000;19068
662029;Zoning;10434939;20191109094846;W03-D-Hasselt-FH06;10434939;20191109094846;W03-D-Hasselt-FH06;24000;FTTH-Cu;;400471;20200210182229;;26300000;19068
662025;Zoning;10434939;20191109094846;W03-D-Hasselt-FH06;10434939;20191109094846;W03-D-Hasselt-FH06;24000;FTTH-Cu;;400467;20200210182228;;26300000;19068
2426026;Zoning;10434939;20191109094846;W03-D-Hasselt-FH06;10434939;20191109094846;W03-D-Hasselt-FH06;24000;FTTH-Cu;;387428;20200210182210;;26300000;19068
662030;Zoning;10434939;20191109094846;W03-D-Hasselt-FH06;10434939;20191109094846;W03-D-Hasselt-FH06;24000;FTTH-Cu;;400472;20200210182229;;26300000;19068
2426027;Zoning;10434939;20191109094846;W03-D-Hasselt-FH06;10434939;20191109094846;W03-D-Hasselt-FH06;24000;FTTH-Cu;;387429;20200210182210;;26300000;19068
662026;Zoning;10434939;20191109094846;W03-D-Hasselt-FH06;10434939;20191109094846;W03-D-Hasselt-FH06;24000;FTTH-Cu;;400468;20200210182229;;26300000;19068
2426028;Zoning;10434939;20191109094846;W03-D-Hasselt-FH06;10434939;20191109094846;W03-D-Hasselt-FH06;24000;FTTH-Cu;;387430;20200210182210;;26300000;19068
662027;Zoning;10434939;20191109094846;W03-D-Hasselt-FH06;10434939;20191109094846;W03-D-Hasselt-FH06;24000;FTTH-Cu;;400469;20200210182229;;26300000;19068
1946050;Zoning;10434939;20191109094846;W03-D-Hasselt-FH06;10434939;20191109094846;W03-D-Hasselt-FH06;24000;FTTH-Cu;;380686;20200210182220;;26300000;19068
2426029;Zoning;10434939;20191109094846;W03-D-Hasselt-FH06;10434939;20191109094846;W03-D-Hasselt-FH06;24000;FTTH-Cu;;387431;20200210182210;;26300000;19068
1945761;Zoning;10434939;20191109094846;W03-D-Hasselt-FH06;10434939;20191109094846;W03-D-Hasselt-FH06;24000;FTTH-Cu;;380685;20200210182220;;26300000;19068
1944671;Zoning;10434939;20191109094846;W03-D-Hasselt-FH06;10434939;20191109094846;W03-D-Hasselt-FH06;24000;FTTH-Cu;;380684;20200210182220;;26300000;19068
2426040;Zoning;10434939;20191109094846;W03-D-Hasselt-FH06;10434939;20191109094846;W03-D-Hasselt-FH06;24000;FTTH-Cu;;387432;20200210182210;;26300000;19068
1522318;Zoning;10434939;20191109094846;W03-D-Hasselt-FH06;10434939;20191109094846;W03-D-Hasselt-FH06;24000;FTTH-Cu;;380608;20200210182220;;26300000;19068
4029706;Zoning;10434939;20191109094846;W03-D-Hasselt-FH06;10434939;20191109094846;W03-D-Hasselt-FH06;24000;FTTH-Cu;;5157914;20200210182207;;26300000;17509
666206;Zoning;10434939;20191109094846;W03-D-Hasselt-FH06;10434939;20191109094846;W03-D-Hasselt-FH06;24000;FTTH-Cu;;400677;20200210182226;;26300000;19575
2427274;Zoning;10434939;20191109094846;W03-D-Hasselt-FH06;10434939;20191109094846;W03-D-Hasselt-FH06;24000;FTTH-Cu;;5157749;20200210182207;;26300000;19575
3937517;Zoning;10434939;20191109094846;W03-D-Hasselt-FH06;10434939;20191109094846;W03-D-Hasselt-FH06;24000;FTTH-Cu;;5157882;20200210182250;;26300000;19575
3937518;Zoning;10434939;20191109094846;W03-D-Hasselt-FH06;10434939;20191109094846;W03-D-Hasselt-FH06;24000;FTTH-Cu;;5157883;20200210182226;;26300000;19575
4149552;Zoning;10434939;20191109094846;W03-D-Hasselt-FH06;10434939;20191109094846;W03-D-Hasselt-FH06;24000;FTTH-Cu;;395341;20200210182236;;26300000;19575
2427277;Zoning;10434939;20191109094846;W03-D-Hasselt-FH06;10434939;20191109094846;W03-D-Hasselt-FH06;24000;FTTH-Cu;;5157750;20200210182207;;26300000;19575
2427281;Zoning;10434939;20191109094846;W03-D-Hasselt-FH06;10434939;20191109094846;W03-D-Hasselt-FH06;24000;FTTH-Cu;;387963;20200210182213;;26300000;19575
2427284;Zoning;10434939;20191109094846;W03-D-Hasselt-FH06;10434939;20191109094846;W03-D-Hasselt-FH06;24000;FTTH-Cu;;387964;20200210182213;;26300000;19575
2427286;Zoning;10434939;20191109094846;W03-D-Hasselt-FH06;10434939;20191109094846;W03-D-Hasselt-FH06;24000;FTTH-Cu;;387965;20200210182213;;26300000;19575
2427288;Zoning;10434939;20191109094846;W03-D-Hasselt-FH06;10434939;20191109094846;W03-D-Hasselt-FH06;24000;FTTH-Cu;;387966;20200210182213;;26300000;19575
2427290;Zoning;10434939;20191109094846;W03-D-Hasselt-FH06;10434939;20191109094846;W03-D-Hasselt-FH06;24000;FTTH-Cu;;387967;20200210182213;;26300000;19575
2427291;Zoning;10434939;20191109094846;W03-D-Hasselt-FH06;10434939;20191109094846;W03-D-Hasselt-FH06;24000;FTTH-Cu;;387968;20200210182213;;26300000;19575
2427293;Zoning;10434939;20191109094846;W03-D-Hasselt-FH06;10434939;20191109094846;W03-D-Hasselt-FH06;24000;FTTH-Cu;;387969;20200210182213;;26300000;19575
5412017;Zoning;10434939;20191109094846;W03-D-Hasselt-FH06;10434939;20191109094846;W03-D-Hasselt-FH06;24000;FTTH-Cu;;399020;20200210182238;;26300000;19575
2427294;Zoning;10434939;20191109094846;W03-D-Hasselt-FH06;10434939;20191109094846;W03-D-Hasselt-FH06;24000;FTTH-Cu;;387970;20200210182213;;26300000;19575
2427295;Zoning;10434939;20191109094846;W03-D-Hasselt-FH06;10434939;20191109094846;W03-D-Hasselt-FH06;24000;FTTH-Cu;;387971;20200210182213;;26300000;19575
2427299;Zoning;10434939;20191109094846;W03-D-Hasselt-FH06;10434939;20191109094846;W03-D-Hasselt-FH06;24000;FTTH-Cu;;387972;20200210182213;;26300000;19575
4126800;Zoning;10434939;20191109094846;W03-D-Hasselt-FH06;10434939;20191109094846;W03-D-Hasselt-FH06;24000;FTTH-Cu;;395258;20200210182240;;26300000;19575
2427307;Zoning;10434939;20191109094846;W03-D-Hasselt-FH06;10434939;20191109094846;W03-D-Hasselt-FH06;24000;FTTH-Cu;;387973;20200210182206;;26300000;19575
2427318;Zoning;10434939;20191109094846;W03-D-Hasselt-FH06;10434939;20191109094846;W03-D-Hasselt-FH06;24000;FTTH-Cu;;387975;20200210182213;;26300000;19575
2427323;Zoning;10434939;20191109094846;W03-D-Hasselt-FH06;10434939;20191109094846;W03-D-Hasselt-FH06;24000;FTTH-Cu;;5157751;20200210182207;;26300000;19575
2427329;Zoning;10434939;20191109094846;W03-D-Hasselt-FH06;10434939;20191109094846;W03-D-Hasselt-FH06;24000;FTTH-Cu;;387978;20200210182250;;26300000;19575
3937520;Zoning;10434939;20191109094846;W03-D-Hasselt-FH06;10434939;20191109094846;W03-D-Hasselt-FH06;24000;FTTH-Cu;;394678;20200210182251;;26300000;19575
3937521;Zoning;10434939;20191109094846;W03-D-Hasselt-FH06;10434939;20191109094846;W03-D-Hasselt-FH06;24000;FTTH-Cu;;394679;20200210182240;;26300000;19575
2427347;Zoning;10434939;20191109094846;W03-D-Hasselt-FH06;10434939;20191109094846;W03-D-Hasselt-FH06;24000;FTTH-Cu;;387981;20200210182213;;26300000;19575
2427367;Zoning;10434939;20191109094846;W03-D-Hasselt-FH06;10434939;20191109094846;W03-D-Hasselt-FH06;24000;FTTH-Cu;;387982;20200210182214;;26300000;19575
666209;Zoning;10434939;20191109094846;W03-D-Hasselt-FH06;10434939;20191109094846;W03-D-Hasselt-FH06;24000;FTTH-Cu;;400680;20200210182226;;26300000;19575
4859262;Zoning;10434939;20191109094846;W03-D-Hasselt-FH06;10434939;20191109094846;W03-D-Hasselt-FH06;24000;FTTH-Cu;;5710600;20200210182250;;26300000;19575
2427388;Zoning;10434939;20191109094846;W03-D-Hasselt-FH06;10434939;20191109094846;W03-D-Hasselt-FH06;24000;FTTH-Cu;;387986;20200210182214;;26300000;19575
666210;Zoning;10434939;20191109094846;W03-D-Hasselt-FH06;10434939;20191109094846;W03-D-Hasselt-FH06;24000;FTTH-Cu;;400681;20200210182226;;26300000;19575
666235;Zoning;10434939;20191109094846;W03-D-Hasselt-FH06;10434939;20191109094846;W03-D-Hasselt-FH06;24000;FTTH-Cu;;400702;20200210182227;;26300000;5277
2412124;Zoning;10434939;20191109094846;W03-D-Hasselt-FH06;10434939;20191109094846;W03-D-Hasselt-FH06;24000;FTTH-Cu;;383259;20200210182221;;26300000;5277
2412126;Zoning;10434939;20191109094846;W03-D-Hasselt-FH06;10434939;20191109094846;W03-D-Hasselt-FH06;24000;FTTH-Cu;;383260;20200210182221;;26300000;5277
2412129;Zoning;10434939;20191109094846;W03-D-Hasselt-FH06;10434939;20191109094846;W03-D-Hasselt-FH06;24000;FTTH-Cu;;383261;20200210182221;;26300000;5277
2412132;Zoning;10434939;20191109094846;W03-D-Hasselt-FH06;10434939;20191109094846;W03-D-Hasselt-FH06;24000;FTTH-Cu;;383262;20200210182221;;26300000;5277
2412135;Zoning;10434939;20191109094846;W03-D-Hasselt-FH06;10434939;20191109094846;W03-D-Hasselt-FH06;24000;FTTH-Cu;;383263;20200210182222;;26300000;5277
2412138;Zoning;10434939;20191109094846;W03-D-Hasselt-FH06;10434939;20191109094846;W03-D-Hasselt-FH06;24000;FTTH-Cu;;383264;20200210182222;;26300000;5277
2412141;Zoning;10434939;20191109094846;W03-D-Hasselt-FH06;10434939;20191109094846;W03-D-Hasselt-FH06;24000;FTTH-Cu;;383265;20200210182222;;26300000;5277
4861672;Zoning;10434939;20191109094846;W03-D-Hasselt-FH06;10434939;20191109094846;W03-D-Hasselt-FH06;24000;FTTH-Cu;;397164;20200210182238;;26300000;5277
662022;Zoning;10434939;20191109094846;W03-D-Hasselt-FH06;10434939;20191109094846;W03-D-Hasselt-FH06;24000;FTTH-Cu;;400464;20200210182228;;26300000;5277
78264;Zoning;10434939;20191109094846;W03-D-Hasselt-FH06;10434939;20191109094846;W03-D-Hasselt-FH06;24000;FTTH-Cu;;10522580;20200210182226;;26300000;19405
78251;Zoning;10434939;20191109094846;W03-D-Hasselt-FH06;10434939;20191109094846;W03-D-Hasselt-FH06;24000;FTTH-Cu;;404443;20200210182236;;26300000;19405
78245;Zoning;10434939;20191109094846;W03-D-Hasselt-FH06;10434939;20191109094846;W03-D-Hasselt-FH06;24000;FTTH-Cu;;404438;20200210182235;;26300000;19405
2426236;Zoning;10434939;20191109094846;W03-D-Hasselt-FH06;10434939;20191109094846;W03-D-Hasselt-FH06;24000;FTTH-Cu;;12897923;20200210182250;;26300000;19405
2426238;Zoning;10434939;20191109094846;W03-D-Hasselt-FH06;10434939;20191109094846;W03-D-Hasselt-FH06;24000;FTTH-Cu;;387519;20200210182210;;26300000;19405
2426242;Zoning;10434939;20191109094846;W03-D-Hasselt-FH06;10434939;20191109094846;W03-D-Hasselt-FH06;24000;FTTH-Cu;;387520;20200210182210;;26300000;19405
78329;Zoning;10434939;20191109094846;W03-D-Hasselt-FH06;10434939;20191109094846;W03-D-Hasselt-FH06;24000;FTTH-Cu;;404453;20200210182236;;26300000;19405
2426244;Zoning;10434939;20191109094846;W03-D-Hasselt-FH06;10434939;20191109094846;W03-D-Hasselt-FH06;24000;FTTH-Cu;;387521;20200210182210;;26300000;19405
2426246;Zoning;10434939;20191109094846;W03-D-Hasselt-FH06;10434939;20191109094846;W03-D-Hasselt-FH06;24000;FTTH-Cu;;387522;20200210182210;;26300000;19405
1290254;Zoning;10434939;20191109094846;W03-D-Hasselt-FH06;10434939;20191109094846;W03-D-Hasselt-FH06;24000;FTTH-Cu;;379743;20200210182220;;26300000;19405
2426249;Zoning;10434939;20191109094846;W03-D-Hasselt-FH06;10434939;20191109094846;W03-D-Hasselt-FH06;24000;FTTH-Cu;;387523;20200210182210;;26300000;19405
4848333;Zoning;10434939;20191109094846;W03-D-Hasselt-FH06;10434939;20191109094846;W03-D-Hasselt-FH06;24000;FTTH-Cu;;396776;20200210182237;;26300000;19405
2426251;Zoning;10434939;20191109094846;W03-D-Hasselt-FH06;10434939;20191109094846;W03-D-Hasselt-FH06;24000;FTTH-Cu;;10522575;20200210182226;;26300000;19405
2426254;Zoning;10434939;20191109094846;W03-D-Hasselt-FH06;10434939;20191109094846;W03-D-Hasselt-FH06;24000;FTTH-Cu;;387525;20200210182210;;26300000;19405
3937489;Zoning;10434939;20191109094846;W03-D-Hasselt-FH06;10434939;20191109094846;W03-D-Hasselt-FH06;24000;FTTH-Cu;;394656;20200210182240;;26300000;19405
2426256;Zoning;10434939;20191109094846;W03-D-Hasselt-FH06;10434939;20191109094846;W03-D-Hasselt-FH06;24000;FTTH-Cu;;387526;20200210182210;;26300000;19405
2426257;Zoning;10434939;20191109094846;W03-D-Hasselt-FH06;10434939;20191109094846;W03-D-Hasselt-FH06;24000;FTTH-Cu;;387527;20200210182211;;26300000;19405
2426258;Zoning;10434939;20191109094846;W03-D-Hasselt-FH06;10434939;20191109094846;W03-D-Hasselt-FH06;24000;FTTH-Cu;;387528;20200210182211;;26300000;19405
2426260;Zoning;10434939;20191109094846;W03-D-Hasselt-FH06;10434939;20191109094846;W03-D-Hasselt-FH06;24000;FTTH-Cu;;387529;20200210182211;;26300000;19405
4848342;Zoning;10434939;20191109094846;W03-D-Hasselt-FH06;10434939;20191109094846;W03-D-Hasselt-FH06;24000;FTTH-Cu;;396777;20200210182237;;26300000;19405
78252;Zoning;10434939;20191109094846;W03-D-Hasselt-FH06;10434939;20191109094846;W03-D-Hasselt-FH06;24000;FTTH-Cu;;404444;20200210182236;;26300000;19405
2426262;Zoning;10434939;20191109094846;W03-D-Hasselt-FH06;10434939;20191109094846;W03-D-Hasselt-FH06;24000;FTTH-Cu;;387530;20200210182211;;26300000;19405
78248;Zoning;10434939;20191109094846;W03-D-Hasselt-FH06;10434939;20191109094846;W03-D-Hasselt-FH06;24000;FTTH-Cu;;404441;20200210182235;;26300000;19405
4271274;Zoning;10434939;20191109094846;W03-D-Hasselt-FH06;10434939;20191109094846;W03-D-Hasselt-FH06;24000;FTTH-Cu;;396167;20200210182241;;26300000;19405
2426265;Zoning;10434939;20191109094846;W03-D-Hasselt-FH06;10434939;20191109094846;W03-D-Hasselt-FH06;24000;FTTH-Cu;;387531;20200210182211;;26300000;19405
2426266;Zoning;10434939;20191109094846;W03-D-Hasselt-FH06;10434939;20191109094846;W03-D-Hasselt-FH06;24000;FTTH-Cu;;387532;20200210182211;;26300000;19405
2426268;Zoning;10434939;20191109094846;W03-D-Hasselt-FH06;10434939;20191109094846;W03-D-Hasselt-FH06;24000;FTTH-Cu;;387533;20200210182211;;26300000;19405
4063240;Zoning;10434939;20191109094846;W03-D-Hasselt-FH06;10434939;20191109094846;W03-D-Hasselt-FH06;24000;FTTH-Cu;;395147;20200210182240;;26300000;19405
2426271;Zoning;10434939;20191109094846;W03-D-Hasselt-FH06;10434939;20191109094846;W03-D-Hasselt-FH06;24000;FTTH-Cu;;387534;20200210182211;;26300000;19405
2426272;Zoning;10434939;20191109094846;W03-D-Hasselt-FH06;10434939;20191109094846;W03-D-Hasselt-FH06;24000;FTTH-Cu;;387535;20200210182211;;26300000;19405
2426273;Zoning;10434939;20191109094846;W03-D-Hasselt-FH06;10434939;20191109094846;W03-D-Hasselt-FH06;24000;FTTH-Cu;;387536;20200210182211;;26300000;19405
2426274;Zoning;10434939;20191109094846;W03-D-Hasselt-FH06;10434939;20191109094846;W03-D-Hasselt-FH06;24000;FTTH-Cu;;387537;20200210182211;;26300000;19405
78246;Zoning;10434939;20191109094846;W03-D-Hasselt-FH06;10434939;20191109094846;W03-D-Hasselt-FH06;24000;FTTH-Cu;;404439;20200210182235;;26300000;19405
2426275;Zoning;10434939;20191109094846;W03-D-Hasselt-FH06;10434939;20191109094846;W03-D-Hasselt-FH06;24000;FTTH-Cu;;387538;20200210182211;;26300000;19405
2426276;Zoning;10434939;20191109094846;W03-D-Hasselt-FH06;10434939;20191109094846;W03-D-Hasselt-FH06;24000;FTTH-Cu;;387539;20200210182211;;26300000;19405
4164139;Zoning;10434939;20191109094846;W03-D-Hasselt-FH06;10434939;20191109094846;W03-D-Hasselt-FH06;24000;FTTH-Cu;;395449;20200210182239;;26300000;19405
3989602;Zoning;10434939;20191109094846;W03-D-Hasselt-FH06;10434939;20191109094846;W03-D-Hasselt-FH06;24000;FTTH-Cu;;394940;20200210182239;;26300000;19405
2426278;Zoning;10434939;20191109094846;W03-D-Hasselt-FH06;10434939;20191109094846;W03-D-Hasselt-FH06;24000;FTTH-Cu;;387540;20200210182211;;26300000;19405
3937490;Zoning;10434939;20191109094846;W03-D-Hasselt-FH06;10434939;20191109094846;W03-D-Hasselt-FH06;24000;FTTH-Cu;;394657;20200210182240;;26300000;19405
2426279;Zoning;10434939;20191109094846;W03-D-Hasselt-FH06;10434939;20191109094846;W03-D-Hasselt-FH06;24000;FTTH-Cu;;387541;20200210182212;;26300000;19405
3937491;Zoning;10434939;20191109094846;W03-D-Hasselt-FH06;10434939;20191109094846;W03-D-Hasselt-FH06;24000;FTTH-Cu;;394658;20200210182240;;26300000;19405
2426280;Zoning;10434939;20191109094846;W03-D-Hasselt-FH06;10434939;20191109094846;W03-D-Hasselt-FH06;24000;FTTH-Cu;;387542;20200210182212;;26300000;19405
2426281;Zoning;10434939;20191109094846;W03-D-Hasselt-FH06;10434939;20191109094846;W03-D-Hasselt-FH06;24000;FTTH-Cu;;387543;20200210182212;;26300000;19405
2426284;Zoning;10434939;20191109094846;W03-D-Hasselt-FH06;10434939;20191109094846;W03-D-Hasselt-FH06;24000;FTTH-Cu;;387544;20200210182212;;26300000;19405
4848365;Zoning;10434939;20191109094846;W03-D-Hasselt-FH06;10434939;20191109094846;W03-D-Hasselt-FH06;24000;FTTH-Cu;;396778;20200210182237;;26300000;19405
78249;Zoning;10434939;20191109094846;W03-D-Hasselt-FH06;10434939;20191109094846;W03-D-Hasselt-FH06;24000;FTTH-Cu;;404442;20200210182235;;26300000;19405
3937492;Zoning;10434939;20191109094846;W03-D-Hasselt-FH06;10434939;20191109094846;W03-D-Hasselt-FH06;24000;FTTH-Cu;;394659;20200210182240;;26300000;19405
78330;Zoning;10434939;20191109094846;W03-D-Hasselt-FH06;10434939;20191109094846;W03-D-Hasselt-FH06;24000;FTTH-Cu;;404454;20200210182236;;26300000;19405
2426287;Zoning;10434939;20191109094846;W03-D-Hasselt-FH06;10434939;20191109094846;W03-D-Hasselt-FH06;24000;FTTH-Cu;;387545;20200210182212;;26300000;19405
78247;Zoning;10434939;20191109094846;W03-D-Hasselt-FH06;10434939;20191109094846;W03-D-Hasselt-FH06;24000;FTTH-Cu;;404440;20200210182235;;26300000;19405
78331;Zoning;10434939;20191109094846;W03-D-Hasselt-FH06;10434939;20191109094846;W03-D-Hasselt-FH06;24000;FTTH-Cu;;404455;20200210182236;;26300000;19405
662571;Zoning;10434939;20191109094846;W03-D-Hasselt-FH06;10434939;20191109094846;W03-D-Hasselt-FH06;24000;FTTH-Cu;;400544;20200210182233;;26300000;23566
2433046;Zoning;10434939;20191109094846;W03-D-Hasselt-FH06;10434939;20191109094846;W03-D-Hasselt-FH06;24000;FTTH-Cu;;388893;20200210182214;;26300000;23566
2433047;Zoning;10434939;20191109094846;W03-D-Hasselt-FH06;10434939;20191109094846;W03-D-Hasselt-FH06;24000;FTTH-Cu;;388894;20200210190735;;26300000;23566
2433049;Zoning;10434939;20191109094846;W03-D-Hasselt-FH06;10434939;20191109094846;W03-D-Hasselt-FH06;24000;FTTH-Cu;;388895;20200210182214;;26300000;23566
2433050;Zoning;10434939;20191109094846;W03-D-Hasselt-FH06;10434939;20191109094846;W03-D-Hasselt-FH06;24000;FTTH-Cu;;388896;20200210182215;;26300000;23566
2433053;Zoning;10434939;20191109094846;W03-D-Hasselt-FH06;10434939;20191109094846;W03-D-Hasselt-FH06;24000;FTTH-Cu;;388897;20200210182215;;26300000;23566
2433055;Zoning;10434939;20191109094846;W03-D-Hasselt-FH06;10434939;20191109094846;W03-D-Hasselt-FH06;24000;FTTH-Cu;;388898;20200210182215;;26300000;23566
2433058;Zoning;10434939;20191109094846;W03-D-Hasselt-FH06;10434939;20191109094846;W03-D-Hasselt-FH06;24000;FTTH-Cu;;388899;20200210182215;;26300000;23566
2433061;Zoning;10434939;20191109094846;W03-D-Hasselt-FH06;10434939;20191109094846;W03-D-Hasselt-FH06;24000;FTTH-Cu;;388900;20200210182215;;26300000;23566
2433064;Zoning;10434939;20191109094846;W03-D-Hasselt-FH06;10434939;20191109094846;W03-D-Hasselt-FH06;24000;FTTH-Cu;;388901;20200210182215;;26300000;23566
4155272;Zoning;10434939;20191109094846;W03-D-Hasselt-FH06;10434939;20191109094846;W03-D-Hasselt-FH06;24000;FTTH-Cu;;395381;20200210182239;;26300000;23566
662569;Zoning;10434939;20191109094846;W03-D-Hasselt-FH06;10434939;20191109094846;W03-D-Hasselt-FH06;24000;FTTH-Cu;;400542;20200210182233;;26300000;23566
662570;Zoning;10434939;20191109094846;W03-D-Hasselt-FH06;10434939;20191109094846;W03-D-Hasselt-FH06;24000;FTTH-Cu;;400543;20200210182233;;26300000;23566
4845812;Zoning;10434939;20191109094846;W03-D-Hasselt-FH06;10434939;20191109094846;W03-D-Hasselt-FH06;24000;FTTH-Cu;;396637;20200210182236;;26300000;23566
2433066;Zoning;10434939;20191109094846;W03-D-Hasselt-FH06;10434939;20191109094846;W03-D-Hasselt-FH06;24000;FTTH-Cu;;388902;20200210182215;;26300000;23566
2433067;Zoning;10434939;20191109094846;W03-D-Hasselt-FH06;10434939;20191109094846;W03-D-Hasselt-FH06;24000;FTTH-Cu;;388903;20200210182215;;26300000;23566
2433068;Zoning;10434939;20191109094846;W03-D-Hasselt-FH06;10434939;20191109094846;W03-D-Hasselt-FH06;24000;FTTH-Cu;;388904;20200210182215;;26300000;23566
2433069;Zoning;10434939;20191109094846;W03-D-Hasselt-FH06;10434939;20191109094846;W03-D-Hasselt-FH06;24000;FTTH-Cu;;388905;20200210182215;;26300000;23566
2433070;Zoning;10434939;20191109094846;W03-D-Hasselt-FH06;10434939;20191109094846;W03-D-Hasselt-FH06;24000;FTTH-Cu;;388906;20200210182215;;26300000;23566
2433072;Zoning;10434939;20191109094846;W03-D-Hasselt-FH06;10434939;20191109094846;W03-D-Hasselt-FH06;24000;FTTH-Cu;;388907;20200210182212;;26300000;23566
2433073;Zoning;10434939;20191109094846;W03-D-Hasselt-FH06;10434939;20191109094846;W03-D-Hasselt-FH06;24000;FTTH-Cu;;388908;20200210182212;;26300000;23566
2433074;Zoning;10434939;20191109094846;W03-D-Hasselt-FH06;10434939;20191109094846;W03-D-Hasselt-FH06;24000;FTTH-Cu;;388909;20200210182212;;26300000;23566
2433076;Zoning;10434939;20191109094846;W03-D-Hasselt-FH06;10434939;20191109094846;W03-D-Hasselt-FH06;24000;FTTH-Cu;;388910;20200210182212;;26300000;23566
2433079;Zoning;10434939;20191109094846;W03-D-Hasselt-FH06;10434939;20191109094846;W03-D-Hasselt-FH06;24000;FTTH-Cu;;388911;20200210182212;;26300000;23566
2433081;Zoning;10434939;20191109094846;W03-D-Hasselt-FH06;10434939;20191109094846;W03-D-Hasselt-FH06;24000;FTTH-Cu;;388912;20200210182212;;26300000;23566
2433084;Zoning;10434939;20191109094846;W03-D-Hasselt-FH06;10434939;20191109094846;W03-D-Hasselt-FH06;24000;FTTH-Cu;;388913;20200210182212;;26300000;23566
662572;Zoning;10434939;20191109094846;W03-D-Hasselt-FH06;10434939;20191109094846;W03-D-Hasselt-FH06;24000;FTTH-Cu;;400545;20200210182233;;26300000;23566
4248312;Zoning;10434939;20191109094846;W03-D-Hasselt-FH06;10434939;20191109094846;W03-D-Hasselt-FH06;24000;FTTH-Cu;;396071;20200210182240;;26300000;23566
662566;Zoning;10434939;20191109094846;W03-D-Hasselt-FH06;10434939;20191109094846;W03-D-Hasselt-FH06;24000;FTTH-Cu;;400539;20200210182233;;26300000;24667
662567;Zoning;10434939;20191109094846;W03-D-Hasselt-FH06;10434939;20191109094846;W03-D-Hasselt-FH06;24000;FTTH-Cu;;400540;20200210182233;;26300000;24667
2434152;Zoning;10434939;20191109094846;W03-D-Hasselt-FH06;10434939;20191109094846;W03-D-Hasselt-FH06;24000;FTTH-Cu;;389213;20200210182214;;26300000;24667
2434153;Zoning;10434939;20191109094846;W03-D-Hasselt-FH06;10434939;20191109094846;W03-D-Hasselt-FH06;24000;FTTH-Cu;;389214;20200210182214;;26300000;24667
2434154;Zoning;10434939;20191109094846;W03-D-Hasselt-FH06;10434939;20191109094846;W03-D-Hasselt-FH06;24000;FTTH-Cu;;389215;20200210182215;;26300000;24667
2434157;Zoning;10434939;20191109094846;W03-D-Hasselt-FH06;10434939;20191109094846;W03-D-Hasselt-FH06;24000;FTTH-Cu;;389216;20200210182215;;26300000;24667
4181864;Zoning;10434939;20191109094846;W03-D-Hasselt-FH06;10434939;20191109094846;W03-D-Hasselt-FH06;24000;FTTH-Cu;;395540;20200210182240;;26300000;24667
2434158;Zoning;10434939;20191109094846;W03-D-Hasselt-FH06;10434939;20191109094846;W03-D-Hasselt-FH06;24000;FTTH-Cu;;389217;20200210182216;;26300000;24667
662565;Zoning;10434939;20191109094846;W03-D-Hasselt-FH06;10434939;20191109094846;W03-D-Hasselt-FH06;24000;FTTH-Cu;;400538;20200210182233;;26300000;24667
662564;Zoning;10434939;20191109094846;W03-D-Hasselt-FH06;10434939;20191109094846;W03-D-Hasselt-FH06;24000;FTTH-Cu;;400537;20200210182233;;26300000;24667
2434160;Zoning;10434939;20191109094846;W03-D-Hasselt-FH06;10434939;20191109094846;W03-D-Hasselt-FH06;24000;FTTH-Cu;;389218;20200210182216;;26300000;24667
2434162;Zoning;10434939;20191109094846;W03-D-Hasselt-FH06;10434939;20191109094846;W03-D-Hasselt-FH06;24000;FTTH-Cu;;389219;20200210182216;;26300000;24667
2434165;Zoning;10434939;20191109094846;W03-D-Hasselt-FH06;10434939;20191109094846;W03-D-Hasselt-FH06;24000;FTTH-Cu;;389220;20200210182216;;26300000;24667
2434168;Zoning;10434939;20191109094846;W03-D-Hasselt-FH06;10434939;20191109094846;W03-D-Hasselt-FH06;24000;FTTH-Cu;;389221;20200210182216;;26300000;24667
2434170;Zoning;10434939;20191109094846;W03-D-Hasselt-FH06;10434939;20191109094846;W03-D-Hasselt-FH06;24000;FTTH-Cu;;389222;20200210182216;;26300000;24667
2434171;Zoning;10434939;20191109094846;W03-D-Hasselt-FH06;10434939;20191109094846;W03-D-Hasselt-FH06;24000;FTTH-Cu;;389223;20200210182216;;26300000;24667
662056;Zoning;10434939;20191109094846;W03-D-Hasselt-FH06;10434939;20191109094846;W03-D-Hasselt-FH06;24000;FTTH-Cu;;400493;20200210182230;;26300000;6671
4861458;Zoning;10434939;20191109094846;W03-D-Hasselt-FH06;10434939;20191109094846;W03-D-Hasselt-FH06;24000;FTTH-Cu;;397157;20200210182238;;26300000;6671
2413945;Zoning;10434939;20191109094846;W03-D-Hasselt-FH06;10434939;20191109094846;W03-D-Hasselt-FH06;24000;FTTH-Cu;;383690;20200210182222;;26300000;6671
4861460;Zoning;10434939;20191109094846;W03-D-Hasselt-FH06;10434939;20191109094846;W03-D-Hasselt-FH06;24000;FTTH-Cu;;397158;20200210182238;;26300000;6671
2413947;Zoning;10434939;20191109094846;W03-D-Hasselt-FH06;10434939;20191109094846;W03-D-Hasselt-FH06;24000;FTTH-Cu;;383691;20200210182222;;26300000;6671
2413950;Zoning;10434939;20191109094846;W03-D-Hasselt-FH06;10434939;20191109094846;W03-D-Hasselt-FH06;24000;FTTH-Cu;;383692;20200210182222;;26300000;6671
2413952;Zoning;10434939;20191109094846;W03-D-Hasselt-FH06;10434939;20191109094846;W03-D-Hasselt-FH06;24000;FTTH-Cu;;383693;20200210182222;;26300000;6671
2413955;Zoning;10434939;20191109094846;W03-D-Hasselt-FH06;10434939;20191109094846;W03-D-Hasselt-FH06;24000;FTTH-Cu;;383694;20200210182222;;26300000;6671
2413958;Zoning;10434939;20191109094846;W03-D-Hasselt-FH06;10434939;20191109094846;W03-D-Hasselt-FH06;24000;FTTH-Cu;;383695;20200210182222;;26300000;6671
662060;Zoning;10434939;20191109094846;W03-D-Hasselt-FH06;10434939;20191109094846;W03-D-Hasselt-FH06;24000;FTTH-Cu;;400497;20200210182231;;26300000;6671
662059;Zoning;10434939;20191109094846;W03-D-Hasselt-FH06;10434939;20191109094846;W03-D-Hasselt-FH06;24000;FTTH-Cu;;400496;20200210182231;;26300000;6671
2413962;Zoning;10434939;20191109094846;W03-D-Hasselt-FH06;10434939;20191109094846;W03-D-Hasselt-FH06;24000;FTTH-Cu;;383696;20200210182222;;26300000;6671
2413964;Zoning;10434939;20191109094846;W03-D-Hasselt-FH06;10434939;20191109094846;W03-D-Hasselt-FH06;24000;FTTH-Cu;;383697;20200210182223;;26300000;6671
2413966;Zoning;10434939;20191109094846;W03-D-Hasselt-FH06;10434939;20191109094846;W03-D-Hasselt-FH06;24000;FTTH-Cu;;383698;20200210182223;;26300000;6671
2413968;Zoning;10434939;20191109094846;W03-D-Hasselt-FH06;10434939;20191109094846;W03-D-Hasselt-FH06;24000;FTTH-Cu;;383699;20200210182223;;26300000;6671
2413969;Zoning;10434939;20191109094846;W03-D-Hasselt-FH06;10434939;20191109094846;W03-D-Hasselt-FH06;24000;FTTH-Cu;;383700;20200210182223;;26300000;6671
2413970;Zoning;10434939;20191109094846;W03-D-Hasselt-FH06;10434939;20191109094846;W03-D-Hasselt-FH06;24000;FTTH-Cu;;383701;20200210182223;;26300000;6671
2413971;Zoning;10434939;20191109094846;W03-D-Hasselt-FH06;10434939;20191109094846;W03-D-Hasselt-FH06;24000;FTTH-Cu;;383702;20200210182223;;26300000;6671
2413973;Zoning;10434939;20191109094846;W03-D-Hasselt-FH06;10434939;20191109094846;W03-D-Hasselt-FH06;24000;FTTH-Cu;;383703;20200210182223;;26300000;6671
662054;Zoning;10434939;20191109094846;W03-D-Hasselt-FH06;10434939;20191109094846;W03-D-Hasselt-FH06;24000;FTTH-Cu;;400491;20200210182230;;26300000;6671
662053;Zoning;10434939;20191109094846;W03-D-Hasselt-FH06;10434939;20191109094846;W03-D-Hasselt-FH06;24000;FTTH-Cu;;400490;20200210182230;;26300000;6671
2413976;Zoning;10434939;20191109094846;W03-D-Hasselt-FH06;10434939;20191109094846;W03-D-Hasselt-FH06;24000;FTTH-Cu;;383704;20200210182223;;26300000;6671
2413979;Zoning;10434939;20191109094846;W03-D-Hasselt-FH06;10434939;20191109094846;W03-D-Hasselt-FH06;24000;FTTH-Cu;;383705;20200210182223;;26300000;6671
2413980;Zoning;10434939;20191109094846;W03-D-Hasselt-FH06;10434939;20191109094846;W03-D-Hasselt-FH06;24000;FTTH-Cu;;383706;20200210182223;;26300000;6671
662057;Zoning;10434939;20191109094846;W03-D-Hasselt-FH06;10434939;20191109094846;W03-D-Hasselt-FH06;24000;FTTH-Cu;;400494;20200210182230;;26300000;6671
662058;Zoning;10434939;20191109094846;W03-D-Hasselt-FH06;10434939;20191109094846;W03-D-Hasselt-FH06;24000;FTTH-Cu;;400495;20200210182230;;26300000;6671
2413981;Zoning;10434939;20191109094846;W03-D-Hasselt-FH06;10434939;20191109094846;W03-D-Hasselt-FH06;24000;FTTH-Cu;;383707;20200210182223;;26300000;6671
2413982;Zoning;10434939;20191109094846;W03-D-Hasselt-FH06;10434939;20191109094846;W03-D-Hasselt-FH06;24000;FTTH-Cu;;383708;20200210182223;;26300000;6671
2413983;Zoning;10434939;20191109094846;W03-D-Hasselt-FH06;10434939;20191109094846;W03-D-Hasselt-FH06;24000;FTTH-Cu;;383709;20200210182223;;26300000;6671
662055;Zoning;10434939;20191109094846;W03-D-Hasselt-FH06;10434939;20191109094846;W03-D-Hasselt-FH06;24000;FTTH-Cu;;400492;20200210182230;;26300000;6671
4032361;Zoning;10434939;20191109094846;W03-D-Hasselt-FH06;10434939;20191109094846;W03-D-Hasselt-FH06;24000;FTTH-Cu;;395063;20200210182239;;26300000;6671
662012;Zoning;10434939;20191109094846;W03-D-Hasselt-FH06;10434939;20191109094846;W03-D-Hasselt-FH06;24000;FTTH-Cu;;400455;20200210182228;;26300000;29742
662014;Zoning;10434939;20191109094846;W03-D-Hasselt-FH06;10434939;20191109094846;W03-D-Hasselt-FH06;24000;FTTH-Cu;;400457;20200210182228;;26300000;29742
4056383;Zoning;10434939;20191109094846;W03-D-Hasselt-FH06;10434939;20191109094846;W03-D-Hasselt-FH06;24000;FTTH-Cu;;395126;20200210182239;;26300000;29742
2441132;Zoning;10434939;20191109094846;W03-D-Hasselt-FH06;10434939;20191109094846;W03-D-Hasselt-FH06;24000;FTTH-Cu;;390696;20200210182249;;26300000;29742
2441135;Zoning;10434939;20191109094846;W03-D-Hasselt-FH06;10434939;20191109094846;W03-D-Hasselt-FH06;24000;FTTH-Cu;;390697;20200210182249;;26300000;29742
2441139;Zoning;10434939;20191109094846;W03-D-Hasselt-FH06;10434939;20191109094846;W03-D-Hasselt-FH06;24000;FTTH-Cu;;390698;20200210182249;;26300000;29742
2441144;Zoning;10434939;20191109094846;W03-D-Hasselt-FH06;10434939;20191109094846;W03-D-Hasselt-FH06;24000;FTTH-Cu;;390699;20200210182249;;26300000;29742
6632842;Zoning;10434939;20191109094846;W03-D-Hasselt-FH06;10434939;20191109094846;W03-D-Hasselt-FH06;24000;FTTH-Cu;;31370807;20200312112634;;26300000;29742
662015;Zoning;10434939;20191109094846;W03-D-Hasselt-FH06;10434939;20191109094846;W03-D-Hasselt-FH06;24000;FTTH-Cu;;400458;20200210182228;;26300000;29742
6632843;Zoning;10434939;20191109094846;W03-D-Hasselt-FH06;10434939;20191109094846;W03-D-Hasselt-FH06;24000;FTTH-Cu;;31370869;20200312112812;;26300000;29742
662016;Zoning;10434939;20191109094846;W03-D-Hasselt-FH06;10434939;20191109094846;W03-D-Hasselt-FH06;24000;FTTH-Cu;;400459;20200210182228;;26300000;29742
2441152;Zoning;10434939;20191109094846;W03-D-Hasselt-FH06;10434939;20191109094846;W03-D-Hasselt-FH06;24000;FTTH-Cu;;390700;20200210182249;;26300000;29742
662018;Zoning;10434939;20191109094846;W03-D-Hasselt-FH06;10434939;20191109094846;W03-D-Hasselt-FH06;24000;FTTH-Cu;;400460;20200210182228;;26300000;29742
2441157;Zoning;10434939;20191109094846;W03-D-Hasselt-FH06;10434939;20191109094846;W03-D-Hasselt-FH06;24000;FTTH-Cu;;390701;20200210182249;;26300000;29742
4861446;Zoning;10434939;20191109094846;W03-D-Hasselt-FH06;10434939;20191109094846;W03-D-Hasselt-FH06;24000;FTTH-Cu;;397156;20200210182238;;26300000;29742
2441159;Zoning;10434939;20191109094846;W03-D-Hasselt-FH06;10434939;20191109094846;W03-D-Hasselt-FH06;24000;FTTH-Cu;;390702;20200210182249;;26300000;29742
662013;Zoning;10434939;20191109094846;W03-D-Hasselt-FH06;10434939;20191109094846;W03-D-Hasselt-FH06;24000;FTTH-Cu;;400456;20200210182228;;26300000;29742
662021;Zoning;10434939;20191109094846;W03-D-Hasselt-FH06;10434939;20191109094846;W03-D-Hasselt-FH06;24000;FTTH-Cu;;400463;20200210182228;;26300000;29742
662020;Zoning;10434939;20191109094846;W03-D-Hasselt-FH06;10434939;20191109094846;W03-D-Hasselt-FH06;24000;FTTH-Cu;;400462;20200210182228;;26300000;29742
2441164;Zoning;10434939;20191109094846;W03-D-Hasselt-FH06;10434939;20191109094846;W03-D-Hasselt-FH06;24000;FTTH-Cu;;390703;20200210182249;;26300000;29742
2441166;Zoning;10434939;20191109094846;W03-D-Hasselt-FH06;10434939;20191109094846;W03-D-Hasselt-FH06;24000;FTTH-Cu;;390704;20200210182249;;26300000;29742
2441170;Zoning;10434939;20191109094846;W03-D-Hasselt-FH06;10434939;20191109094846;W03-D-Hasselt-FH06;24000;FTTH-Cu;;390705;20200210182249;;26300000;29742
2441172;Zoning;10434939;20191109094846;W03-D-Hasselt-FH06;10434939;20191109094846;W03-D-Hasselt-FH06;24000;FTTH-Cu;;390706;20200210182249;;26300000;29742
2441175;Zoning;10434939;20191109094846;W03-D-Hasselt-FH06;10434939;20191109094846;W03-D-Hasselt-FH06;24000;FTTH-Cu;;390707;20200210182250;;26300000;29742
4861650;Zoning;10434939;20191109094846;W03-D-Hasselt-FH06;10434939;20191109094846;W03-D-Hasselt-FH06;24000;FTTH-Cu;;397163;20200210182238;;26300000;29742
2441180;Zoning;10434939;20191109094846;W03-D-Hasselt-FH06;10434939;20191109094846;W03-D-Hasselt-FH06;24000;FTTH-Cu;;390708;20200210182250;;26300000;29742
662019;Zoning;10434939;20191109094846;W03-D-Hasselt-FH06;10434939;20191109094846;W03-D-Hasselt-FH06;24000;FTTH-Cu;;400461;20200210182228;;26300000;29742
2441184;Zoning;10434939;20191109094846;W03-D-Hasselt-FH06;10434939;20191109094846;W03-D-Hasselt-FH06;24000;FTTH-Cu;;390709;20200210182250;;26300000;29742
1174353;Zoning;10434939;20191109094846;W03-D-Hasselt-FH06;10434939;20191109094846;W03-D-Hasselt-FH06;24000;FTTH-Cu;;379529;20200210182219;;26300000;28102
2439133;Zoning;10434939;20191109094846;W03-D-Hasselt-FH06;10434939;20191109094846;W03-D-Hasselt-FH06;24000;FTTH-Cu;;390368;20200210182241;;26300000;28102
1174352;Zoning;10434939;20191109094846;W03-D-Hasselt-FH06;10434939;20191109094846;W03-D-Hasselt-FH06;24000;FTTH-Cu;;379528;20200210182219;;26300000;28102
1174350;Zoning;10434939;20191109094846;W03-D-Hasselt-FH06;10434939;20191109094846;W03-D-Hasselt-FH06;24000;FTTH-Cu;;379526;20200210182219;;26300000;28102
2439144;Zoning;10434939;20191109094846;W03-D-Hasselt-FH06;10434939;20191109094846;W03-D-Hasselt-FH06;24000;FTTH-Cu;;390370;20200210182241;;26300000;28102
2439149;Zoning;10434939;20191109094846;W03-D-Hasselt-FH06;10434939;20191109094846;W03-D-Hasselt-FH06;24000;FTTH-Cu;;390371;20200210182241;;26300000;28102
1174349;Zoning;10434939;20191109094846;W03-D-Hasselt-FH06;10434939;20191109094846;W03-D-Hasselt-FH06;24000;FTTH-Cu;;13396276;20200210182208;;26300000;28102
2439153;Zoning;10434939;20191109094846;W03-D-Hasselt-FH06;10434939;20191109094846;W03-D-Hasselt-FH06;24000;FTTH-Cu;;390372;20200210182241;;26300000;28102
2439154;Zoning;10434939;20191109094846;W03-D-Hasselt-FH06;10434939;20191109094846;W03-D-Hasselt-FH06;24000;FTTH-Cu;;390373;20200210182241;;26300000;28102
1174346;Zoning;10434939;20191109094846;W03-D-Hasselt-FH06;10434939;20191109094846;W03-D-Hasselt-FH06;24000;FTTH-Cu;;13396277;20200210182208;;26300000;28102
25186;Zoning;10434939;20191109094846;W03-D-Hasselt-FH06;10434939;20191109094846;W03-D-Hasselt-FH06;24000;FTTH-Cu;;394192;20200210182249;;26300000;28102
6632841;Zoning;10434939;20191109094846;W03-D-Hasselt-FH06;10434939;20191109094846;W03-D-Hasselt-FH06;24000;FTTH-Cu;;31374329;20200312133127;;26300000;28102
1174347;Zoning;10434939;20191109094846;W03-D-Hasselt-FH06;10434939;20191109094846;W03-D-Hasselt-FH06;24000;FTTH-Cu;;379524;20200210182219;;26300000;28102
4859296;Zoning;10434939;20191109094846;W03-D-Hasselt-FH06;10434939;20191109094846;W03-D-Hasselt-FH06;24000;FTTH-Cu;;397079;20200210182238;;26300000;28102
2439156;Zoning;10434939;20191109094846;W03-D-Hasselt-FH06;10434939;20191109094846;W03-D-Hasselt-FH06;24000;FTTH-Cu;;390374;20200210182241;;26300000;28102
2439157;Zoning;10434939;20191109094846;W03-D-Hasselt-FH06;10434939;20191109094846;W03-D-Hasselt-FH06;24000;FTTH-Cu;;390375;20200210182241;;26300000;28102
2439158;Zoning;10434939;20191109094846;W03-D-Hasselt-FH06;10434939;20191109094846;W03-D-Hasselt-FH06;24000;FTTH-Cu;;390376;20200210182241;;26300000;28102
1174345;Zoning;10434939;20191109094846;W03-D-Hasselt-FH06;10434939;20191109094846;W03-D-Hasselt-FH06;24000;FTTH-Cu;;379523;20200210182219;;26300000;28102
1174343;Zoning;10434939;20191109094846;W03-D-Hasselt-FH06;10434939;20191109094846;W03-D-Hasselt-FH06;24000;FTTH-Cu;;379521;20200210182219;;26300000;28102
1174340;Zoning;10434939;20191109094846;W03-D-Hasselt-FH06;10434939;20191109094846;W03-D-Hasselt-FH06;24000;FTTH-Cu;;379518;20200210182219;;26300000;28102
1174344;Zoning;10434939;20191109094846;W03-D-Hasselt-FH06;10434939;20191109094846;W03-D-Hasselt-FH06;24000;FTTH-Cu;;379522;20200210182219;;26300000;28102
2439164;Zoning;10434939;20191109094846;W03-D-Hasselt-FH06;10434939;20191109094846;W03-D-Hasselt-FH06;24000;FTTH-Cu;;390377;20200210182241;;26300000;28102
6395434;Zoning;10434939;20191109094846;W03-D-Hasselt-FH06;10434939;20191109094846;W03-D-Hasselt-FH06;24000;FTTH-Cu;;29093253;20200210182207;;26300000;28102
2439168;Zoning;10434939;20191109094846;W03-D-Hasselt-FH06;10434939;20191109094846;W03-D-Hasselt-FH06;24000;FTTH-Cu;;390378;20200210182241;;26300000;28102
6395433;Zoning;10434939;20191109094846;W03-D-Hasselt-FH06;10434939;20191109094846;W03-D-Hasselt-FH06;24000;FTTH-Cu;;29093254;20200210182207;;26300000;28102
2439176;Zoning;10434939;20191109094846;W03-D-Hasselt-FH06;10434939;20191109094846;W03-D-Hasselt-FH06;24000;FTTH-Cu;;390380;20200210182241;;26300000;28102
2439180;Zoning;10434939;20191109094846;W03-D-Hasselt-FH06;10434939;20191109094846;W03-D-Hasselt-FH06;24000;FTTH-Cu;;390381;20200210182242;;26300000;28102
2439188;Zoning;10434939;20191109094846;W03-D-Hasselt-FH06;10434939;20191109094846;W03-D-Hasselt-FH06;24000;FTTH-Cu;;390383;20200210182242;;26300000;28102
2439200;Zoning;10434939;20191109094846;W03-D-Hasselt-FH06;10434939;20191109094846;W03-D-Hasselt-FH06;24000;FTTH-Cu;;390386;20200210182242;;26300000;28102
1174342;Zoning;10434939;20191109094846;W03-D-Hasselt-FH06;10434939;20191109094846;W03-D-Hasselt-FH06;24000;FTTH-Cu;;379520;20200210182219;;26300000;28102
1174339;Zoning;10434939;20191109094846;W03-D-Hasselt-FH06;10434939;20191109094846;W03-D-Hasselt-FH06;24000;FTTH-Cu;;379517;20200210182219;;26300000;28102
4159607;Zoning;10434939;20191109094846;W03-D-Hasselt-FH06;10434939;20191109094846;W03-D-Hasselt-FH06;24000;FTTH-Cu;;395414;20200210182239;;26300000;28102
1174329;Zoning;10434939;20191109094846;W03-D-Hasselt-FH06;10434939;20191109094846;W03-D-Hasselt-FH06;24000;FTTH-Cu;;379508;20200210182218;;26300000;28102
1174328;Zoning;10434939;20191109094846;W03-D-Hasselt-FH06;10434939;20191109094846;W03-D-Hasselt-FH06;24000;FTTH-Cu;;379507;20200210182218;;26300000;28102
3990115;Zoning;10434939;20191109094846;W03-D-Hasselt-FH06;10434939;20191109094846;W03-D-Hasselt-FH06;24000;FTTH-Cu;;394944;20200210182239;;26300000;28102
1174327;Zoning;10434939;20191109094846;W03-D-Hasselt-FH06;10434939;20191109094846;W03-D-Hasselt-FH06;24000;FTTH-Cu;;379506;20200210182218;;26300000;28102
662332;Zoning;10434939;20191109094846;W03-D-Hasselt-FH06;10434939;20191109094846;W03-D-Hasselt-FH06;24000;FTTH-Cu;;400517;20200210182232;;26300000;14945
662334;Zoning;10434939;20191109094846;W03-D-Hasselt-FH06;10434939;20191109094846;W03-D-Hasselt-FH06;24000;FTTH-Cu;;10522578;20200210182226;;26300000;14945
662330;Zoning;10434939;20191109094846;W03-D-Hasselt-FH06;10434939;20191109094846;W03-D-Hasselt-FH06;24000;FTTH-Cu;;400516;20200210182232;;26300000;14945
2419791;Zoning;10434939;20191109094846;W03-D-Hasselt-FH06;10434939;20191109094846;W03-D-Hasselt-FH06;24000;FTTH-Cu;;13396273;20200210182208;;26300000;14945
2419814;Zoning;10434939;20191109094846;W03-D-Hasselt-FH06;10434939;20191109094846;W03-D-Hasselt-FH06;24000;FTTH-Cu;;385984;20200210182208;;26300000;14946
2419815;Zoning;10434939;20191109094846;W03-D-Hasselt-FH06;10434939;20191109094846;W03-D-Hasselt-FH06;24000;FTTH-Cu;;385985;20200210182208;;26300000;14946
4866140;Zoning;10434939;20191109094846;W03-D-Hasselt-FH06;10434939;20191109094846;W03-D-Hasselt-FH06;24000;FTTH-Cu;;10522577;20200210182226;;26300000;14946
5422672;Zoning;10434939;20191109094846;W03-D-Hasselt-FH06;10434939;20191109094846;W03-D-Hasselt-FH06;24000;FTTH-Cu;;399062;20200210182239;;26300000;14946
2419818;Zoning;10434939;20191109094846;W03-D-Hasselt-FH06;10434939;20191109094846;W03-D-Hasselt-FH06;24000;FTTH-Cu;;10522573;20200210182226;;26300000;14946
4845707;Zoning;10434939;20191109094846;W03-D-Hasselt-FH06;10434939;20191109094846;W03-D-Hasselt-FH06;24000;FTTH-Cu;;396632;20200210182236;;26300000;14946
3937405;Zoning;10434939;20191109094846;W03-D-Hasselt-FH06;10434939;20191109094846;W03-D-Hasselt-FH06;24000;FTTH-Cu;;394594;20200210182239;;26300000;14946
2419823;Zoning;10434939;20191109094846;W03-D-Hasselt-FH06;10434939;20191109094846;W03-D-Hasselt-FH06;24000;FTTH-Cu;;10522574;20200210182226;;26300000;14946
662249;Zoning;10434939;20191109094846;W03-D-Hasselt-FH06;10434939;20191109094846;W03-D-Hasselt-FH06;24000;FTTH-Cu;;400509;20200210182231;;26300000;14946
662252;Zoning;10434939;20191109094846;W03-D-Hasselt-FH06;10434939;20191109094846;W03-D-Hasselt-FH06;24000;FTTH-Cu;;400510;20200210182231;;26300000;14946
2419825;Zoning;10434939;20191109094846;W03-D-Hasselt-FH06;10434939;20191109094846;W03-D-Hasselt-FH06;24000;FTTH-Cu;;385988;20200210182208;;26300000;14946
2419827;Zoning;10434939;20191109094846;W03-D-Hasselt-FH06;10434939;20191109094846;W03-D-Hasselt-FH06;24000;FTTH-Cu;;13396272;20200210182208;;26300000;14946
2440210;Zoning;10434939;20191109094846;W03-D-Hasselt-FH06;10434939;20191109094846;W03-D-Hasselt-FH06;24000;FTTH-Cu;;5166171;20200210182250;;26300000;29234
5381031;Zoning;10434939;20191109094846;W03-D-Hasselt-FH06;10434939;20191109094846;W03-D-Hasselt-FH06;24000;FTTH-Cu;;398939;20200210182238;;26300000;29234
1443689;Zoning;10434939;20191109094846;W03-D-Hasselt-FH06;10434939;20191109094846;W03-D-Hasselt-FH06;24000;FTTH-Cu;;380179;20200210182219;;26300000;29234
1443690;Zoning;10434939;20191109094846;W03-D-Hasselt-FH06;10434939;20191109094846;W03-D-Hasselt-FH06;24000;FTTH-Cu;;380180;20200210182219;;26300000;29234
662578;Zoning;10434939;20191109094846;W03-D-Hasselt-FH06;10434939;20191109094846;W03-D-Hasselt-FH06;24000;FTTH-Cu;;400550;20200210182234;;26300000;33393
662579;Zoning;10434939;20191109094846;W03-D-Hasselt-FH06;10434939;20191109094846;W03-D-Hasselt-FH06;24000;FTTH-Cu;;400551;20200210182234;;26300000;33393
4845782;Zoning;10434939;20191109094846;W03-D-Hasselt-FH06;10434939;20191109094846;W03-D-Hasselt-FH06;24000;FTTH-Cu;;396633;20200210182236;;26300000;33393
662583;Zoning;10434939;20191109094846;W03-D-Hasselt-FH06;10434939;20191109094846;W03-D-Hasselt-FH06;24000;FTTH-Cu;;400555;20200210182234;;26300000;33393
4845783;Zoning;10434939;20191109094846;W03-D-Hasselt-FH06;10434939;20191109094846;W03-D-Hasselt-FH06;24000;FTTH-Cu;;396634;20200210182236;;26300000;33393
662582;Zoning;10434939;20191109094846;W03-D-Hasselt-FH06;10434939;20191109094846;W03-D-Hasselt-FH06;24000;FTTH-Cu;;400554;20200210182234;;26300000;33393
2446522;Zoning;10434939;20191109094846;W03-D-Hasselt-FH06;10434939;20191109094846;W03-D-Hasselt-FH06;24000;FTTH-Cu;;392097;20200210182246;;26300000;33393
4846008;Zoning;10434939;20191109094846;W03-D-Hasselt-FH06;10434939;20191109094846;W03-D-Hasselt-FH06;24000;FTTH-Cu;;396651;20200210182237;;26300000;33393
4845786;Zoning;10434939;20191109094846;W03-D-Hasselt-FH06;10434939;20191109094846;W03-D-Hasselt-FH06;24000;FTTH-Cu;;396635;20200210182236;;26300000;33393
662580;Zoning;10434939;20191109094846;W03-D-Hasselt-FH06;10434939;20191109094846;W03-D-Hasselt-FH06;24000;FTTH-Cu;;400552;20200210182234;;26300000;33393
2446525;Zoning;10434939;20191109094846;W03-D-Hasselt-FH06;10434939;20191109094846;W03-D-Hasselt-FH06;24000;FTTH-Cu;;392098;20200210182246;;26300000;33393
662581;Zoning;10434939;20191109094846;W03-D-Hasselt-FH06;10434939;20191109094846;W03-D-Hasselt-FH06;24000;FTTH-Cu;;400553;20200210182234;;26300000;33393
2446528;Zoning;10434939;20191109094846;W03-D-Hasselt-FH06;10434939;20191109094846;W03-D-Hasselt-FH06;24000;FTTH-Cu;;392099;20200210182246;;26300000;33393
4845847;Zoning;10434939;20191109094846;W03-D-Hasselt-FH06;10434939;20191109094846;W03-D-Hasselt-FH06;24000;FTTH-Cu;;396638;20200210182237;;26300000;33393
2446530;Zoning;10434939;20191109094846;W03-D-Hasselt-FH06;10434939;20191109094846;W03-D-Hasselt-FH06;24000;FTTH-Cu;;392100;20200210182246;;26300000;33393
2446532;Zoning;10434939;20191109094846;W03-D-Hasselt-FH06;10434939;20191109094846;W03-D-Hasselt-FH06;24000;FTTH-Cu;;392101;20200210182246;;26300000;33393
2446533;Zoning;10434939;20191109094846;W03-D-Hasselt-FH06;10434939;20191109094846;W03-D-Hasselt-FH06;24000;FTTH-Cu;;392102;20200210182246;;26300000;33393
2446535;Zoning;10434939;20191109094846;W03-D-Hasselt-FH06;10434939;20191109094846;W03-D-Hasselt-FH06;24000;FTTH-Cu;;392103;20200210182246;;26300000;33393
2446536;Zoning;10434939;20191109094846;W03-D-Hasselt-FH06;10434939;20191109094846;W03-D-Hasselt-FH06;24000;FTTH-Cu;;392104;20200210182246;;26300000;33393
2446538;Zoning;10434939;20191109094846;W03-D-Hasselt-FH06;10434939;20191109094846;W03-D-Hasselt-FH06;24000;FTTH-Cu;;392105;20200210182246;;26300000;33393
2446539;Zoning;10434939;20191109094846;W03-D-Hasselt-FH06;10434939;20191109094846;W03-D-Hasselt-FH06;24000;FTTH-Cu;;392106;20200210182246;;26300000;33393
2446541;Zoning;10434939;20191109094846;W03-D-Hasselt-FH06;10434939;20191109094846;W03-D-Hasselt-FH06;24000;FTTH-Cu;;392107;20200210182246;;26300000;33393
2446543;Zoning;10434939;20191109094846;W03-D-Hasselt-FH06;10434939;20191109094846;W03-D-Hasselt-FH06;24000;FTTH-Cu;;392108;20200210182246;;26300000;33393
2446544;Zoning;10434939;20191109094846;W03-D-Hasselt-FH06;10434939;20191109094846;W03-D-Hasselt-FH06;24000;FTTH-Cu;;392109;20200210182247;;26300000;33393
2446545;Zoning;10434939;20191109094846;W03-D-Hasselt-FH06;10434939;20191109094846;W03-D-Hasselt-FH06;24000;FTTH-Cu;;392110;20200210182247;;26300000;33393
4186002;Zoning;10434939;20191109094846;W03-D-Hasselt-FH06;10434939;20191109094846;W03-D-Hasselt-FH06;24000;FTTH-Cu;;395563;20200210182240;;26300000;33393
662584;Zoning;10434939;20191109094846;W03-D-Hasselt-FH06;10434939;20191109094846;W03-D-Hasselt-FH06;24000;FTTH-Cu;;400556;20200210182234;;26300000;33393
2446547;Zoning;10434939;20191109094846;W03-D-Hasselt-FH06;10434939;20191109094846;W03-D-Hasselt-FH06;24000;FTTH-Cu;;392111;20200210182247;;26300000;33393
662585;Zoning;10434939;20191109094846;W03-D-Hasselt-FH06;10434939;20191109094846;W03-D-Hasselt-FH06;24000;FTTH-Cu;;400557;20200210182234;;26300000;33393
2446550;Zoning;10434939;20191109094846;W03-D-Hasselt-FH06;10434939;20191109094846;W03-D-Hasselt-FH06;24000;FTTH-Cu;;392112;20200210182247;;26300000;33393
4845885;Zoning;10434939;20191109094846;W03-D-Hasselt-FH06;10434939;20191109094846;W03-D-Hasselt-FH06;24000;FTTH-Cu;;396643;20200210182237;;26300000;33393
2446552;Zoning;10434939;20191109094846;W03-D-Hasselt-FH06;10434939;20191109094846;W03-D-Hasselt-FH06;24000;FTTH-Cu;;392113;20200210182247;;26300000;33393
2446553;Zoning;10434939;20191109094846;W03-D-Hasselt-FH06;10434939;20191109094846;W03-D-Hasselt-FH06;24000;FTTH-Cu;;392114;20200210182247;;26300000;33393
2446555;Zoning;10434939;20191109094846;W03-D-Hasselt-FH06;10434939;20191109094846;W03-D-Hasselt-FH06;24000;FTTH-Cu;;392115;20200210182247;;26300000;33393
2446557;Zoning;10434939;20191109094846;W03-D-Hasselt-FH06;10434939;20191109094846;W03-D-Hasselt-FH06;24000;FTTH-Cu;;392116;20200210182247;;26300000;33393
2446558;Zoning;10434939;20191109094846;W03-D-Hasselt-FH06;10434939;20191109094846;W03-D-Hasselt-FH06;24000;FTTH-Cu;;392117;20200210182247;;26300000;33393
4845892;Zoning;10434939;20191109094846;W03-D-Hasselt-FH06;10434939;20191109094846;W03-D-Hasselt-FH06;24000;FTTH-Cu;;396644;20200210182237;;26300000;33393
662051;Zoning;10434939;20191109094846;W03-D-Hasselt-FH06;10434939;20191109094846;W03-D-Hasselt-FH06;24000;FTTH-Cu;;400488;20200210182230;;26300000;33393
2446560;Zoning;10434939;20191109094846;W03-D-Hasselt-FH06;10434939;20191109094846;W03-D-Hasselt-FH06;24000;FTTH-Cu;;392118;20200210182247;;26300000;33393
2446562;Zoning;10434939;20191109094846;W03-D-Hasselt-FH06;10434939;20191109094846;W03-D-Hasselt-FH06;24000;FTTH-Cu;;392119;20200210182247;;26300000;33393
4845901;Zoning;10434939;20191109094846;W03-D-Hasselt-FH06;10434939;20191109094846;W03-D-Hasselt-FH06;24000;FTTH-Cu;;396646;20200210182237;;26300000;33393
2446563;Zoning;10434939;20191109094846;W03-D-Hasselt-FH06;10434939;20191109094846;W03-D-Hasselt-FH06;24000;FTTH-Cu;;392120;20200210182247;;26300000;33393
4845906;Zoning;10434939;20191109094846;W03-D-Hasselt-FH06;10434939;20191109094846;W03-D-Hasselt-FH06;24000;FTTH-Cu;;396647;20200210182237;;26300000;33393
662052;Zoning;10434939;20191109094846;W03-D-Hasselt-FH06;10434939;20191109094846;W03-D-Hasselt-FH06;24000;FTTH-Cu;;400489;20200210182230;;26300000;33393
662586;Zoning;10434939;20191109094846;W03-D-Hasselt-FH06;10434939;20191109094846;W03-D-Hasselt-FH06;24000;FTTH-Cu;;400558;20200210182234;;26300000;33879
25174;Zoning;10434939;20191109094846;W03-D-Hasselt-FH06;10434939;20191109094846;W03-D-Hasselt-FH06;24000;FTTH-Cu;;394190;20200210182249;;26300000;33879
2446946;Zoning;10434939;20191109094846;W03-D-Hasselt-FH06;10434939;20191109094846;W03-D-Hasselt-FH06;24000;FTTH-Cu;;392237;20200210182247;;26300000;33879
2446948;Zoning;10434939;20191109094846;W03-D-Hasselt-FH06;10434939;20191109094846;W03-D-Hasselt-FH06;24000;FTTH-Cu;;392238;20200210182248;;26300000;33879
2446949;Zoning;10434939;20191109094846;W03-D-Hasselt-FH06;10434939;20191109094846;W03-D-Hasselt-FH06;24000;FTTH-Cu;;392239;20200210182248;;26300000;33879
2446950;Zoning;10434939;20191109094846;W03-D-Hasselt-FH06;10434939;20191109094846;W03-D-Hasselt-FH06;24000;FTTH-Cu;;392240;20200210182248;;26300000;33879
2446953;Zoning;10434939;20191109094846;W03-D-Hasselt-FH06;10434939;20191109094846;W03-D-Hasselt-FH06;24000;FTTH-Cu;;392241;20200210182248;;26300000;33879
2446956;Zoning;10434939;20191109094846;W03-D-Hasselt-FH06;10434939;20191109094846;W03-D-Hasselt-FH06;24000;FTTH-Cu;;392242;20200210182248;;26300000;33879
662587;Zoning;10434939;20191109094846;W03-D-Hasselt-FH06;10434939;20191109094846;W03-D-Hasselt-FH06;24000;FTTH-Cu;;400559;20200210182234;;26300000;33879
662588;Zoning;10434939;20191109094846;W03-D-Hasselt-FH06;10434939;20191109094846;W03-D-Hasselt-FH06;24000;FTTH-Cu;;400560;20200210182234;;26300000;33879
662575;Zoning;10434939;20191109094846;W03-D-Hasselt-FH06;10434939;20191109094846;W03-D-Hasselt-FH06;24000;FTTH-Cu;;400547;20200210182233;;26300000;35465
662576;Zoning;10434939;20191109094846;W03-D-Hasselt-FH06;10434939;20191109094846;W03-D-Hasselt-FH06;24000;FTTH-Cu;;400548;20200210182234;;26300000;35465
4069703;Zoning;10434939;20191109094846;W03-D-Hasselt-FH06;10434939;20191109094846;W03-D-Hasselt-FH06;24000;FTTH-Cu;;395170;20200210182240;;26300000;35465
2448661;Zoning;10434939;20191109094846;W03-D-Hasselt-FH06;10434939;20191109094846;W03-D-Hasselt-FH06;24000;FTTH-Cu;;392790;20200210182248;;26300000;35465
2448662;Zoning;10434939;20191109094846;W03-D-Hasselt-FH06;10434939;20191109094846;W03-D-Hasselt-FH06;24000;FTTH-Cu;;392791;20200210182248;;26300000;35465
662577;Zoning;10434939;20191109094846;W03-D-Hasselt-FH06;10434939;20191109094846;W03-D-Hasselt-FH06;24000;FTTH-Cu;;400549;20200210182234;;26300000;35465
2448663;Zoning;10434939;20191109094846;W03-D-Hasselt-FH06;10434939;20191109094846;W03-D-Hasselt-FH06;24000;FTTH-Cu;;392792;20200210182248;;26300000;35465
662496;Zoning;10434939;20191109094846;W03-D-Hasselt-FH06;10434939;20191109094846;W03-D-Hasselt-FH06;24000;FTTH-Cu;;400526;20200210182232;;26300000;35465
2448665;Zoning;10434939;20191109094846;W03-D-Hasselt-FH06;10434939;20191109094846;W03-D-Hasselt-FH06;24000;FTTH-Cu;;392793;20200210182248;;26300000;35465
2448668;Zoning;10434939;20191109094846;W03-D-Hasselt-FH06;10434939;20191109094846;W03-D-Hasselt-FH06;24000;FTTH-Cu;;392794;20200210182248;;26300000;35465
662574;Zoning;10434939;20191109094846;W03-D-Hasselt-FH06;10434939;20191109094846;W03-D-Hasselt-FH06;24000;FTTH-Cu;;400546;20200210182233;;26300000;35465
4129284;Zoning;10434939;20191109094846;W03-D-Hasselt-FH06;10434939;20191109094846;W03-D-Hasselt-FH06;24000;FTTH-Cu;;395266;20200210182240;;26300000;35465
2448672;Zoning;10434939;20191109094846;W03-D-Hasselt-FH06;10434939;20191109094846;W03-D-Hasselt-FH06;24000;FTTH-Cu;;392795;20200210182248;;26300000;35465
2448673;Zoning;10434939;20191109094846;W03-D-Hasselt-FH06;10434939;20191109094846;W03-D-Hasselt-FH06;24000;FTTH-Cu;;392796;20200210182248;;26300000;35465
2448674;Zoning;10434939;20191109094846;W03-D-Hasselt-FH06;10434939;20191109094846;W03-D-Hasselt-FH06;24000;FTTH-Cu;;12897925;20200210182250;;26300000;35465
662568;Zoning;10434939;20191109094846;W03-D-Hasselt-FH06;10434939;20191109094846;W03-D-Hasselt-FH06;24000;FTTH-Cu;;400541;20200210182233;;26300000;35465
5962519;Zoning;10434939;20191109094846;W03-D-Hasselt-FH06;10434939;20191109094846;W03-D-Hasselt-FH06;24000;FTTH-Cu;;13396271;20200210182208;;26300000;35465
