LAM MK;xPos;yPos;Street;Nr;Suffix
1283309;157289,9891;190982,826;Dobbelhuizen;52;
1339643;158053,6032;191031,2164;Veemarkt;33;
1351370;157594,1563;190768,1351;Begijnenstraat;43;
1461368;157602,9583;190783,9849;Begijnenstraat;37;
3029539;157461,9818;191032,4886;Arme-Clarenstraat;8;
3030757;157912,1544;190918,183;Befferstraat;5;
3030763;157978,4752;190902,2794;Befferstraat;14;
3030766;157981,8064;190907,0537;Befferstraat;16;
3030771;157944,7864;190924,6166;Befferstraat;19;
3030783;158016,1702;190923,876;Befferstraat;30;
3030788;158028,0155;190931,2623;Befferstraat;34;
3030808;157345,8515;191033,3891;Nieuwe Beggaardenstraat;41;
3030820;157664,8676;190902,0684;Begijnenstraat;4;
3030824;157656,1022;190885,4809;Begijnenstraat;10;
3030829;157630,9696;190860,71;Begijnenstraat;20;
3031078;157993,0153;191138,6468;Biest;4;
3031270;157770,8207;190774,9844;Blauwhondstraat;3;
3031272;157776,4809;190772,2045;Blauwhondstraat;5;
3031273;157781,4592;190765,0961;Blauwhondstraat;7;
3031278;157792,5954;190759,7946;Blauwhondstraat;15;
3031546;157764,1295;190715,644;Borzestraat;8;
3031548;157767,5601;190713,532;Borzestraat;10;
3031550;157784,1523;190703,4838;Borzestraat;18;
3031551;157788,9085;190700,6285;Borzestraat;20;
3031630;157944,5842;190805,2019;Dsir Boucherystraat;8;
3031632;157947,0488;190797,1557;Dsir Boucherystraat;10;
3031638;157953,9352;190772,7272;Dsir Boucherystraat;18;
3032844;157606,4764;191244,3256;Kanunnik De Deckerstraat;33;
3032938;157812,0857;190951,8229;Frederik de Merodestraat;5;
3032958;157925,1879;191099,1232;Frederik de Merodestraat;26;
3032966;157855,0042;191028,2863;Frederik de Merodestraat;31;
3032976;157976,0336;191156,2074;Frederik de Merodestraat;46;
3033129;157521,3599;191024,8253;Jef Denynplein;14;
3033213;157778,1605;191156,1171;Goswin de Stassartstraat;5;
3033225;157813,6766;191206,4779;Goswin de Stassartstraat;18;
3033472;157319,8303;190879,6176;Dobbelhuizen;5;
3033477;157327,2625;190897,8155;Dobbelhuizen;12;
3033480;157324,64;190907,6639;Dobbelhuizen;20;
3033489;157286,3977;190949,2315;Dobbelhuizen;31;
3033492;157276,1757;190972,9156;Dobbelhuizen;37;
3035209;157786,028;190787,4141;Geitestraat;8;
3035211;157794,6532;190798,4341;Geitestraat;9;
3035214;157797,9984;190795,7362;Geitestraat;11;
3035216;157796,882;190780,0657;Geitestraat;14;
3035226;157841,676;190769,0497;Geitestraat;29;
3035637;157634,3555;190654,189;Grootbrug;6;
3036258;157995,9715;190506,099;Hazestraat;12;
3037608;157762,7351;190797,115;Ijzerenleen;3;
3037615;157720,9214;190810,0816;Ijzerenleen;8;
3037620;157711,8027;190796,6409;Ijzerenleen;14;
3037631;157725,4855;190733,6426;Ijzerenleen;27;
3037645;157680,0768;190737,6273;Ijzerenleen;38;
3037655;157671,9897;190714,9694;Ijzerenleen;46;
3037669;157690,8224;190668,8068;Ijzerenleen;55;
3037671;157688,3635;190663,3057;Ijzerenleen;57;
3037678;157678,6469;190651,39;Ijzerenleen;63;
3040438;157988,9851;190629,7347;Leermarkt;36;
3042659;157793,0654;190916,0691;Grote Markt;3;
3042686;157839,9164;190832,7792;Grote Markt;27;
3042692;157819,0219;190835,9683;Grote Markt;30;
3043012;157496,9725;190981,6412;Melaan;8;
3044665;157789,7325;190958,7181;Nieuwwerk;2;
3044668;157810,2767;191004,3192;Nieuwwerk;10;
3046132;157520,7444;190769,2849;Persoonshoek;9;
3046136;157515,3531;190763,3288;Persoonshoek;11;
3046140;157510,4239;190757,5781;Persoonshoek;13;
3047270;157773,6329;190690,3509;Schaalstraat;13;
3047277;157806,7261;190675,3599;Schaalstraat;21;
3047333;157797,8123;190948,5696;Scheerstraat;10;
3047586;157670,883;190628,5635;Lange Schipstraat;6;
3047597;157744,102;190597,1536;Lange Schipstraat;14;
3047602;157752,9367;190613,87;Lange Schipstraat;19;
3047608;157787,4648;190592,5683;Lange Schipstraat;25;
3047623;157835,0648;190492,9882;Lange Schipstraat;45;
3047625;157838,6722;190486,8271;Lange Schipstraat;47;
3047637;157833,4342;190452,0686;Lange Schipstraat;64;
3047655;157844,6727;190425,5656;Lange Schipstraat;76;
3047659;157882,2952;190405,4125;Lange Schipstraat;77;
3047670;157866,7171;190388,2485;Lange Schipstraat;90;
3047706;157832,0919;191011,2814;Schoolstraat;14;
3048565;157828,4761;191195,5469;Sint-Janstraat;12;
3048597;157630,7616;191065,3174;Sint-Katelijnestraat;5;
3048602;157645,3394;191071,1679;Sint-Katelijnestraat;10;
3048611;157628,304;191130,5627;Sint-Katelijnestraat;22;
3048626;157561,4919;191151,0992;Sint-Katelijnestraat;41;
3048642;157553,649;191196,0845;Sint-Katelijnestraat;54;
3048649;157540,6621;191204,2605;Sint-Katelijnestraat;60;
3049069;157706,1661;190907,4939;Steenweg;8;
3049070;157709,7232;190905,883;Steenweg;10;
3049080;157724,8484;190896,5985;Steenweg;18;
3049093;157733,9401;190849,2597;Steenweg;40;
3050151;157419,1913;190827,1432;Tichelrij;6;
3050160;157374,3403;190850,9664;Tichelrij;11;
3051155;158069,7716;191002,2253;Veemarkt;17;
3051185;158008,219;191085,4471;Veemarkt;37;C
3051776;157589,0861;190707,3274;Vismarkt;8;
3051783;157550,6283;190743,1825;Vismarkt;24;
3051848;157770,4888;190819,8558;Vleeshouwersstraat;2;
3052845;157752,2144;191027,9168;Wollemarkt;8;
3052847;157714,4776;191076,2821;Wollemarkt;9;
3052849;157710,7797;191087,6356;Wollemarkt;11;
3052855;157757,0842;191124,7254;Wollemarkt;19;
3052896;158052,5602;190914,0889;Rik Woutersstraat;4;
3052903;158055,364;190896,4005;Rik Woutersstraat;12;
3055132;157417,7;190905,0084;Thaborstraat;35;
3943977;157597,4876;190773,5065;Begijnenstraat;41;
3944014;157961,679;191141,7716;Frederik de Merodestraat;38;
3944180;157786,9419;190558,3197;Lange Schipstraat;32;
3944228;158009,8861;190859,4157;Zakstraat;15;
4037201;157797,117;190678,8435;Schaalstraat;17;
4053796;157491,2087;191185,8246;Nieuwe Beggaardenstraat;7;
4091073;157473,4651;190867,8569;Thaborstraat;7;
4194975;157694,6381;190634,0574;Lange Schipstraat;3;
4255135;157858,9752;190399,272;Lange Schipstraat;86;
4731524;157861,7145;190441,572;Lange Schipstraat;63;
4731645;157996,4371;191252,0302;Frederik de Merodestraat;69;
4733077;157446,0899;191153,2951;Nieuwe Beggaardenstraat;21;
4736793;157353,1944;190937,3756;Thaborstraat;59;
4740648;157590,898;191151,54;Sint-Katelijnestraat;36;
4740656;157572,252;191168,0012;Sint-Katelijnestraat;46;
4741854;157765,0009;190692,737;Schaalstraat;7;
4746678;157777,6635;190840,0546;Schoenmarkt;4;
4748692;157535,9426;190822,6843;Drabstraat;10;
4748706;157570,6909;190816,1652;Begijnenstraat;32;
4748711;157587,9466;190814,19;Begijnenstraat;42;
4748761;157576,4503;190717,6249;Vismarkt;12;
4751128;157298,3315;190964,9484;Dobbelhuizen;44;
4751171;157335,1317;190973,3814;Thaborstraat;75;
4751988;157861,3704;190961,043;Standonckstraat;11;
4751991;157920,91;190916,6572;Befferstraat;11;
898134;157821,2438;191233,9902;Goswin de Stassartstraat;24;
901182;157908,1299;191076,8381;Frederik de Merodestraat;20;
901196;157873,8653;190914,4325;Grote Markt;17;
901204;157785,0088;190952,5139;Nieuwwerk;1;
901416;158057,4955;190890,8623;Rik Woutersstraat;14;
901428;157949,8474;190927,9691;Befferstraat;23;
901434;157996,8615;190856,4334;Zakstraat;13;
903152;158006,4943;190549,6318;Leermarkt;60;
903154;157968,0115;190701,9458;Leermarkt;8;
903464;157859,3375;190446,8106;Lange Schipstraat;61;
903468;157850,0959;190410,64;Lange Schipstraat;80;
903511;157823,006;190518,903;Lange Schipstraat;33;
903515;157870,9051;190560,9941;Korte Schipstraat;10;
904315;157728,4489;190604,9593;Lange Schipstraat;10;
904577;157764,7496;190609,1865;Lange Schipstraat;23;
904582;157709,1924;190705,4982;Ijzerenleen;39;
904598;157798,1042;190661,9835;Schaalstraat;42;
904877;157766,029;190678,4809;Schaalstraat;28;
904905;157814,8759;190785,1078;Geitestraat;17;
904914;157804,6601;190751,6274;Blauwhondstraat;25;
904922;157767,5536;190799,8599;Ijzerenleen;1;
904924;157750,2992;190766,2159;Ijzerenleen;13;
904925;157739,1352;190748,6031;Ijzerenleen;23;
905268;157647,1622;190674,053;Ijzerenleen;66;
905281;157657,3762;190949,3096;Onder-den-Toren;10;
905287;157636,2214;190866,5284;Begijnenstraat;18;
905653;157496,0981;190788,6344;Persoonshoek;7;
905655;157645,2301;190669,8797;Ijzerenleen;68;
905660;157607,1171;190693,2128;Nauwstraat;14;
905715;157489,4236;190828,435;Melaan;38;
919856;157951,978;190778,8887;Dsir Boucherystraat;16;
919857;157950,0934;190785,4126;Dsir Boucherystraat;14;
923250;157857,2192;190921,8532;Grote Markt;14;
929549;157719,2175;191050,1499;Wollemarkt;1;
929553;157695,0425;191071,1631;Sint-Romboutskerkhof;2;
929554;157673,2676;191064,7926;Sint-Romboutskerkhof;4;
929555;157605,6606;191125,0509;A.B.-straat;1;
929556;157765,9871;191165,1132;Schoutetstraat;1;
929557;157734,6169;191222,1183;Schoutetstraat;2;
929562;157784,2865;191177,2356;Goswin de Stassartstraat;9;
929563;157788,2232;191192,1189;Goswin de Stassartstraat;11;
929567;157776,306;191150,3909;Goswin de Stassartstraat;3;
929569;157803,429;191252,4601;Goswin de Stassartstraat;25;
929579;157614,7;191112,9307;Sint-Katelijnestraat;21;
929622;157718,0968;191260,2962;Schoutetstraat;8;
930551;157452,0841;191159,9639;Nieuwe Beggaardenstraat;17;
935302;157327,4779;190870,3908;Dobbelhuizen;1;
935307;157316,1217;190927,7608;Dobbelhuizen;28;
935309;157285,1938;190990,2698;Dobbelhuizen;54;
935316;157249,6606;190976,2349;t Veer;17;
935328;157460,5827;191165,8757;Nieuwe Beggaardenstraat;15;
9585;157855,708;190558,5496;Korte Schipstraat;14;
3028798;157578,2569;191075,2084;A.B.-straat;7;
4731179;157645,9426;190855,9093;Begijnenstraat;17;
4736702;157445,1718;190884,1759;Thaborstraat;19;
4971562;157505,8351;191158,973;Stadsheimelijkheid;3;
5508105;157879,2031;191192,1834;Sint-Janstraat;8;
5524627;157860,2722;191193,2605;Sint-Janstraat;10;
5904645;157549,3774;190783,9412;Drabstraat;8;A
903150;157987,321;190604,022;Leermarkt;42;
3030835;157626,6786;190820,0315;Begijnenstraat;29;
3037607;157728,8141;190828,7594;Ijzerenleen;2;
3048595;157634,9682;191054,6462;Sint-Katelijnestraat;1;
3051129;157964,5902;191036,5996;Varkensstraat;9;
3051134;157987,1965;191051,0128;Varkensstraat;11;
3051846;157773,7481;190831,4171;Vleeshouwersstraat;1;
3052857;157737,28;191070,1447;Wollemarkt;20;
4205021;157611,2988;190798,7097;Begijnenstraat;33;
901620;157889,963;191191,532;Sint-Janstraat;6;
903463;157914,2627;190371,054;Lange Schipstraat;97;
905645;157579,1448;190778,8034;Begijnenstraat;50;
935331;157542,9453;191127,7919;Stadsheimelijkheid;1;
3032972;157887,767;191082,5579;Frederik de Merodestraat;39;
3037658;157700,8995;190685,6695;Ijzerenleen;47;
3047617;157798,9888;190529,2357;Lange Schipstraat;40;
3047629;157812,7516;190488,6269;Lange Schipstraat;52;
3048640;157557,1498;191191,7025;Sint-Katelijnestraat;52;
3050156;157396,3148;190840,9245;Tichelrij;9;
904197;157807,7155;190506,516;Lange Schipstraat;46;
904579;157663,0209;190637,2951;Lange Schipstraat;2;
905301;158057,8017;190886,1012;Rik Woutersstraat;16;
905644;157620,3692;190810,6637;Begijnenstraat;31;
905656;157544,3633;190749,6672;Vismarkt;26;
905717;157449,3012;190812,3237;Tichelrij;2;
905274;157670,2686;190709,9239;Ijzerenleen;48;
4739215;157481,2899;191179,9512;Nieuwe Beggaardenstraat;9;
3030821;157659,0634;190894,1831;Begijnenstraat;6;
3031082;157996,8836;191131,4812;Biest;8;
5515790;157854;191121;Sint-Janskerkhof;1;
1323395;157954,3431;190999,1019;Varkensstraat;8;
3051131;157945,9188;190976,251;Varkensstraat;10;
3944217;157966;190958;Varkensstraat;12;
3944218;157971,2113;190975,6204;Varkensstraat;14;
1323394;158002,7956;191013,7159;Varkensstraat;13;
4731627;158063,9395;191019,4152;Veemarkt;27;
3051190;157997,2108;191103,7507;Veemarkt;39;
3052907;158057,8588;190859,2303;Rik Woutersstraat;22;B
6397326;157983,5325;190855,2162;Zakstraat;7;
3032946;157846,7035;190972,965;Frederik de Merodestraat;12;
4164871;157851,1;190974,0059;Frederik de Merodestraat;14;
3035202;157778,2456;190813,868;Geitestraat;3;
5876086;157513,8174;191154,5943;Stadsheimelijkheid;5;
5530639;157906,1925;191275,0403;Sint-Janstraat;8;D
5539175;157903,9597;191258,615;Sint-Janstraat;8;C
4741876;157812,3869;190675,4885;Schaalstraat;23;
929547;157677,6609;191084,4986;Oude Beggaardenstraat;7;
3048624;157570,3124;191147,6514;Sint-Katelijnestraat;39;
3050162;157370,0686;190854,9931;Tichelrij;12;
905650;157530,0202;190836,9166;Drabstraat;12;
6463529;157547,0403;190792,9138;Drabstraat;8;B
5930292;157543,1136;190800,4106;Drabstraat;8;C
3047662;157886,2322;190407,5942;Lange Schipstraat;79;
4731497;157864,9447;190391,6679;Lange Schipstraat;88;
6328835;157666,395;190940,4381;Onder-den-Toren;8;
3051136;158012,1504;190981,5774;Varkensstraat;16;
6611081;157525,6223;191156,8448;Stadsheimelijkheid;7;
905663;157633;190677;Nauwstraat;3;
1283600;157857,5934;190407,7898;Lange Schipstraat;82;
1459413;157606,07;190789,8808;Begijnenstraat;35;
3029535;157471,2456;191012,8952;Arme-Clarenstraat;3;
3029537;157479,0433;191025,3073;Arme-Clarenstraat;4;
3029541;157452,6798;191036,0069;Arme-Clarenstraat;10;
3029544;157436,8037;191028,4897;Arme-Clarenstraat;15;
3030762;157973,1463;190905,6139;Befferstraat;12;
3030770;157984,6512;190910,3955;Befferstraat;20;
3030785;158022,38;190926,4425;Befferstraat;32;
3030789;157994,1339;190949,118;Befferstraat;35;
3030803;157380,2056;191080,206;Nieuwe Beggaardenstraat;33;
3030832;157633,0989;190832,5899;Begijnenstraat;25;
3030836;157573,9769;190815,6554;Begijnenstraat;34;
3031275;157789,1512;190766,3275;Blauwhondstraat;11;
3031549;157775,6359;190707,8548;Borzestraat;14;
3031556;157796,5155;190695,0371;Borzestraat;24;
3031562;157836,238;190685,0461;Borzestraat;38;
3032843;157616,162;191248,2274;Kanunnik De Deckerstraat;31;
3032941;157814,9099;190955,1531;Frederik de Merodestraat;7;
3032948;157822,398;190971,0566;Frederik de Merodestraat;15;
3032978;157919,1488;191132,8952;Frederik de Merodestraat;47;
3032985;157946,1037;191163,2856;Frederik de Merodestraat;59;
3033228;157816,9227;191217,9246;Goswin de Stassartstraat;20;
3033229;157800,2075;191246,2607;Goswin de Stassartstraat;23;
3033469;157345,4775;190878,6604;Dobbelhuizen;2;
3033478;157307,2529;190903,4635;Dobbelhuizen;15;
3033485;157321,034;190917,8963;Dobbelhuizen;24;
3033493;157306,9506;190950,1381;Dobbelhuizen;38;
3033500;157300,3452;190959,5935;Dobbelhuizen;42;
3033501;157296,0475;190970,5559;Dobbelhuizen;46;
3035219;157800,477;190775,7293;Geitestraat;16;
3035220;157823,8572;190779,5412;Geitestraat;21;
3037619;157714,0013;190802,0091;Ijzerenleen;12;
3037627;157742,3808;190751,7462;Ijzerenleen;21;
3037632;157692,5764;190760,7955;Ijzerenleen;28;
3037637;157723,6134;190723,974;Ijzerenleen;31;
3037639;157686,8653;190745,9356;Ijzerenleen;32;
3037642;157718,7885;190713,0403;Ijzerenleen;35;
3037643;157682,385;190743,0371;Ijzerenleen;36;
3037647;157706,0277;190700,8544;Ijzerenleen;41;
3037665;157694,261;190674,9509;Ijzerenleen;53;
3037667;157665,1446;190698,7169;Ijzerenleen;54;
3037670;157663,9598;190695,5115;Ijzerenleen;56;
3037673;157654,349;190695,2992;Ijzerenleen;58;
3037674;157684,9923;190659,2655;Ijzerenleen;59;
3037675;157681,3679;190655,93;Ijzerenleen;61;
3037677;157653,3449;190684,1;Ijzerenleen;62;
3037679;157650,1763;190678,7674;Ijzerenleen;64;
3040414;157962,8978;190706,3024;Leermarkt;6;
3040419;157970,9152;190685,8413;Leermarkt;14;
3040449;157995,3526;190583,9073;Leermarkt;50;
3042666;157828,704;190933,8726;Grote Markt;8;
3042694;157810,6906;190837,0522;Grote Markt;31;
3042702;157790,7789;190853,1986;Grote Markt;37;
3043023;157490,4505;190821,0412;Melaan;40;
3043720;157616,5575;190667,1747;Nauwstraat;5;
3044669;157810,6097;190993,1183;Nieuwwerk;11;
3046218;158017,2546;190502,6636;Pitzemburgstraat;4;
3047282;157761,966;190680,814;Schaalstraat;26;
3047286;157784,9437;190667,82;Schaalstraat;36;
3047572;157852,2002;190528,7259;Korte Schipstraat;17;
3047590;157706,547;190630,972;Lange Schipstraat;7;
3047604;157762,2072;190590,2163;Lange Schipstraat;20;
3047632;157815,5364;190474,1626;Lange Schipstraat;56;
3047641;157868,5172;190430,5429;Lange Schipstraat;67;
3047646;157832,5936;190437,9579;Lange Schipstraat;70;
3047652;157844,3382;190431,2855;Lange Schipstraat;74;
3047685;157780,1744;190848,8301;Schoenmarkt;2;
3048599;157646,6241;191065,7878;Sint-Katelijnestraat;8;
3048628;157554,709;191144,7234;Sint-Katelijnestraat;43;
3048647;157515,9184;191197,1221;Sint-Katelijnestraat;59;
3049065;157693,5203;190915,8304;Steenweg;2;
3049066;157698,1421;190912,8749;Steenweg;4;
3049075;157714,3845;190903,6991;Steenweg;12;
3049078;157722,0833;190899,758;Steenweg;16;
3049086;157733,6135;190878,3123;Steenweg;28;
3049089;157733,2769;190864,135;Steenweg;34;
3049091;157734,3769;190858,6729;Steenweg;36;
3050158;157373,2079;190851,4071;Tichelrij;10;
3050164;157372,6647;190852,2331;Tichelrij;14;
3051149;158059,9576;190996,8499;Veemarkt;13;
3051165;158068,0758;191017,8436;Veemarkt;25;
3051168;158061,829;191025,6582;Veemarkt;29;
3052840;157754,8113;191020,8896;Wollemarkt;6;
3052852;157749,3003;191121,4559;Wollemarkt;17;
3054434;157858,311;190493,2642;Lekkernijstraatje;8;
3055130;157448,0685;190872,6857;Thaborstraat;15;
3055134;157409,5445;190903,6562;Thaborstraat;37;
3943978;157587,7664;190760,2006;Begijnenstraat;43;A
3944097;157984,9678;190634,7578;Leermarkt;32;
4031215;157780,5628;190705,7935;Borzestraat;16;
4185057;157468,5183;191028,948;Arme-Clarenstraat;6;
4246718;157853,115;190485,1934;Lekkernijstraatje;10;
4731537;157874,7302;190416,1857;Lange Schipstraat;73;
4732800;157602,6505;191240,7714;Kanunnik De Deckerstraat;35;
4733917;157949,8245;190656,1722;Leermarkt;26;
4736378;157811,8613;190493,1482;Lange Schipstraat;50;
4736780;157391,3974;190922,7012;Thaborstraat;51;
4737549;157983,1653;191265,5157;Van Hoeystraat;5;
4739222;157466,8016;191174,2685;Nieuwe Beggaardenstraat;13;
4741936;157847,623;190681,9255;Borzestraat;42;
4744531;158055,753;190905,7888;Rik Woutersstraat;8;
4746751;157834,0895;190773,1267;Geitestraat;27;
4748712;157592,0602;190816,1824;Begijnenstraat;44;
4748739;157529,6867;190845,3421;Drabstraat;14;
4751112;157280,0009;190965,4419;Dobbelhuizen;35;
4751186;157340,5915;190995,2788;Thaborstraat;16;
4751965;157920,1637;191092,8259;Frederik de Merodestraat;24;
4751967;157833,4996;190931,3136;Grote Markt;9;
5374208;157991,0176;191118,984;Veemarkt;41;
5403845;157829,2793;191021,967;Schoolstraat;17;
5414780;157685,9444;191068,9517;Sint-Romboutskerkhof;3;
5431501;157891,5915;190910,175;Grote Markt;20;
898126;157997,5866;191259,0007;Frederik de Merodestraat;71;
898130;157973,5347;191270,9718;Van Hoeystraat;7;
901171;157785,1805;191022,9983;Schoolstraat;7;
901179;157830,5155;190942,9025;Frederik de Merodestraat;2;
901187;157952,5132;191131,9964;Frederik de Merodestraat;34;
901190;157791,0046;190911,414;Grote Markt;1;
901197;157882,8077;190913,3585;Grote Markt;19;
901201;157763,3689;191011,3787;Wollemarkt;2;
901424;158038,8875;190934,223;Befferstraat;38;
901425;157983,8069;190944,913;Befferstraat;31;
901600;157809,6295;191200,3871;Goswin de Stassartstraat;16;
904239;157878,4056;190547,8372;Korte Schipstraat;5;
904576;157735,6236;190620,5512;Lange Schipstraat;13;
904581;157673,7562;190645,5235;Ijzerenleen;67;
904599;157801,987;190689,3829;Borzestraat;28;
904912;157765,5504;190780,2404;Blauwhondstraat;1;
905239;158000,5588;190523,1191;Hazestraat;13;
905269;157695,9322;190765,9081;Ijzerenleen;26;
905271;157711,4511;190790,1811;Ijzerenleen;16;
905275;157669,2936;190704,6056;Ijzerenleen;50;
905642;157564,545;190744,4593;Begijnenstraat;58;
905652;157545,681;190756,0595;Drabstraat;2;
905709;157383,3382;191049,1369;Arme-Clarenstraat;33;
905712;157503,238;190994,3651;Melaan;4;
929548;157707,7571;191066,431;Sint-Romboutskerkhof;1;A
929559;157697,7318;191104,0055;Wollemarkt;15;
929561;157784,9285;191160,2094;Goswin de Stassartstraat;7;
929596;157639,905;191259,1498;Kanunnik De Deckerstraat;25;
930428;157486,9958;191023,8614;Arme-Clarenstraat;2;
935306;157335,58;190886,0944;Dobbelhuizen;6;
941663;157545,5546;191055,5747;Jef Denynplein;4;
9583;157920,3669;190364,8327;Lange Schipstraat;99;
3047872;157684,9774;191260,666;Schoutetstraat;7;
5507055;157844,3306;191193,6954;Sint-Janstraat;10;A
5543967;158016,9609;190998,5045;Varkensstraat;15;
5904577;157894,4258;191237,4295;Sint-Janstraat;8;B
1458492;157797,1672;191137,6019;Goswin de Stassartstraat;4;
3030841;157600,654;190778,8793;Begijnenstraat;39;
3032954;157833,6953;190990,9431;Frederik de Merodestraat;19;
3050146;157464,4527;190829,783;Tichelrij;1;A
4062645;157324,0547;190875,2785;Dobbelhuizen;3;
905291;157556,8326;191015,668;Minderbroedersgang;12;
929595;157631,7863;191255,2071;Kanunnik De Deckerstraat;27;
3047592;157677,8982;190626,2307;Lange Schipstraat;8;
3047609;157775,5264;190576,796;Lange Schipstraat;26;
3047639;157864,5055;190436,7909;Lange Schipstraat;65;
905708;157484,5125;190865,3671;Thaborstraat;1;
905711;157469,0401;190802,7254;Persoonshoek;6;
3037663;157668,0129;190700,8506;Ijzerenleen;52;
5898870;157568,6205;190735,7241;Begijnenstraat;51;
3042680;157938;190868;Grote Markt;21;
3048562;157903,1897;191192,3593;Sint-Janstraat;4;
929570;157610,5031;191118,5704;Sint-Katelijnestraat;23;
5706656;158032,1136;190987,5775;Varkensstraat;19;
901180;157838,982;191001,3977;Frederik de Merodestraat;23;
3032950;157852,9627;190978,731;Frederik de Merodestraat;16;
4748726;157626,1421;190681,8478;Nauwstraat;6;
4744409;158032,1988;190922,6881;Befferstraat;36;
4746661;157782,9485;190768,391;Blauwhondstraat;9;
5776141;157549,7241;190774,6911;Drabstraat;6;A
3036246;157973,2989;190514,4872;Hazestraat;3;
903465;157827,2932;190459,466;Lange Schipstraat;60;
4208745;157633;191112;Sint-Katelijnestraat;18;
6085045;157817,1359;191133,5069;Klapgat;2;
5318115;157588,5389;190790,9771;Begijnenstraat;50;A
4746691;157805,648;190841,483;Grote Markt;33;
3054432;157896;190493;Lekkernijstraatje;1;
5970490;157527,7012;190870,296;Melaan;5;
5838132;157665,0532;191083,6251;Oude Beggaardenstraat;5;
6445949;158051,3111;190923,722;Rik Woutersstraat;2;A
3047697;157810;191015;Schoolstraat;8;
6518670;157700,967;191071,6883;Sint-Romboutskerkhof;2;A
6442937;157927,9596;191205,0351;Sint-Janstraat;102;A
6622322;157598,1402;191117,5578;A.B.-straat;3;A
3030806;157356,2576;191048,557;Nieuwe Beggaardenstraat;39;
3028797;157593,7505;191111,1238;A.B.-straat;5;
3030758;157912,5158;190909,7366;Befferstraat;7;
3030828;157641,3492;190849,0786;Begijnenstraat;19;
3030842;157584,2993;190814,9161;Begijnenstraat;40;
3032951;157821,4804;190977,8579;Frederik de Merodestraat;17;
3032953;157909,0865;190938,6658;Frederik de Merodestraat;18;
3032969;157956,6744;191136,2748;Frederik de Merodestraat;36;
3032970;157882,1127;191074,1242;Frederik de Merodestraat;37;
3033128;157534,7586;191039,1879;Jef Denynplein;10;
3033470;157339,7025;190881,5232;Dobbelhuizen;4;
3033823;157547,1602;190765,1647;Drabstraat;6;
3035204;157772,6525;190793,3614;Geitestraat;4;
3035206;157778,311;190791,5491;Geitestraat;6;
3035217;157810,5822;190787,3119;Geitestraat;15;
3035225;157824,0431;190760,9286;Geitestraat;28;
3035734;157901,3449;190830,1379;Hallestraat;8;
3036253;157990,4767;190521,163;Hazestraat;9;
3036260;158002,4845;190508,2495;Hazestraat;14;
3037612;157723,1719;190816,6051;Ijzerenleen;6;
3037613;157758,4914;190789,9442;Ijzerenleen;7;
3037628;157700,3172;190774,3435;Ijzerenleen;22;
3037636;157690,1299;190754,123;Ijzerenleen;30;
3037650;157705,2362;190696,819;Ijzerenleen;43;
3040425;157975,7578;190673,6651;Leermarkt;18;
3040443;157984,5035;190614,0986;Leermarkt;40;
3042699;157800,67;190844,7727;Grote Markt;34;
3042701;157793,1271;190850,9233;Grote Markt;36;
3043018;157486,8058;190842,7652;Melaan;32;
3044667;157802,9653;191013,3499;Nieuwwerk;7;
3045170;157673,7378;190934,5361;Onder-den-Toren;6;
3047276;157753,4536;190685,5289;Schaalstraat;20;
3047284;157820,8031;190675,2786;Schaalstraat;27;
3047563;157860,395;190532,0766;Korte Schipstraat;13;
3047575;157844,5765;190525,5879;Korte Schipstraat;21;
3047584;157665,444;190630,3042;Lange Schipstraat;4;
3047595;157733,1178;190596,7621;Lange Schipstraat;12;
3047599;157754,1666;190595,592;Lange Schipstraat;16;
3047606;157766,1925;190584,2419;Lange Schipstraat;22;
3047618;157832,3124;190498,4393;Lange Schipstraat;41;
3047645;157870,9564;190423,2958;Lange Schipstraat;69;
3047654;157876,5857;190413,4814;Lange Schipstraat;75;
3047689;157757,2478;190846,6678;Schoenmarkt;5;
3047870;157729,7093;191233,3316;Schoutetstraat;4;
3048637;157560,9428;191187,4777;Sint-Katelijnestraat;50;
3048651;157531,8505;191210,0089;Sint-Katelijnestraat;64;
3048977;157861,6431;190948,2236;Standonckstraat;5;
3049076;157717,9361;190901,8529;Steenweg;14;
3049083;157730,9018;190889,6466;Steenweg;22;
3049085;157734,1096;190882,3073;Steenweg;26;
3049095;157733,6903;190844,8302;Steenweg;42;
3050152;157410,815;190831,639;Tichelrij;7;
3051163;158070,6984;191012,2263;Veemarkt;23;
3051180;158035,8421;191052,8947;Veemarkt;37;
3051183;158023,9732;191059,7037;Veemarkt;37;B
3051778;157584,8354;190711,037;Vismarkt;10;
3052837;157758,1872;191016,0143;Wollemarkt;4;
3052841;157716,0934;191070,7792;Wollemarkt;7;
3052860;157739,3826;191080,2476;Wollemarkt;22;
3052899;158053,4289;190910,0785;Rik Woutersstraat;6;
3976050;157673,5545;190887,0879;Begijnenstraat;3;
4038372;157444,8238;191039,4771;Arme-Clarenstraat;12;
4042355;157648,0634;191058,3407;Sint-Katelijnestraat;4;
4066751;157828,9719;190777,444;Geitestraat;25;
4073865;157933,4319;191051,3083;Varkensstraat;3;
4082899;157635,2095;190838,7841;Begijnenstraat;23;
4084645;157330,5868;190981,7273;Thaborstraat;79;
4153244;157971,9694;191153,2393;Frederik de Merodestraat;44;
4260111;157711,1324;191282,0448;Schoutetstraat;10;
4729770;157678,3832;190732,5361;Ijzerenleen;40;
4732895;157723,2005;191250,6517;Schoutetstraat;6;
4733080;157441,4844;191150,2696;Nieuwe Beggaardenstraat;23;
4736706;157437,7902;190888,5726;Thaborstraat;23;
4736818;157390,8427;191044,7679;Arme-Clarenstraat;29;
4736819;157386,4505;191047,1566;Arme-Clarenstraat;31;
4736842;157490,2249;190969,4957;Melaan;10;
4741882;157832,578;190676,0065;Schaalstraat;35;
4746724;157780,7823;190806,9006;Geitestraat;5;
4751114;157275,0465;190977,5976;Dobbelhuizen;39;
5374205;157594,1068;190998,5869;Minderbroedersgang;2;
5394338;157422,4561;190918,7885;Melaan;14;
5403850;157811,252;190749,2394;Blauwhondstraat;27;
901183;157892,8941;191090,4267;Frederik de Merodestraat;41;
901185;157948,0943;191127,6145;Frederik de Merodestraat;32;
901188;157952,2929;191165,6095;Frederik de Merodestraat;61;
901426;157928,3595;190916,8629;Befferstraat;13;
901429;157970,1864;190938,7219;Befferstraat;25;
901597;157968,7609;191181,5096;Frederik de Merodestraat;63;
901603;157835,6363;191174,7476;Sint-Janskerkhof;5;
903513;157795,3974;190526,5085;Lange Schipstraat;42;
904293;157821,652;190463,2974;Lange Schipstraat;58;
904913;157797,723;190753,5378;Blauwhondstraat;21;
905241;158014,5585;190513,4248;Hazestraat;20;
905273;157726,4532;190823,4152;Ijzerenleen;4;
905643;157569,9512;190754,584;Begijnenstraat;52;
905657;157557,3664;190738,406;Vismarkt;20;
905662;157605,1966;190675,3669;Nauwstraat;9;
905706;157430,9879;190895,4957;Thaborstraat;27;
905716;157453,6239;190808,2354;Tichelrij;1;
919855;157952,4899;190762,1568;Dsir Boucherystraat;26;
919858;157943,7869;190823,3965;Dsir Boucherystraat;2;
929552;157659,3012;191058,7461;Sint-Romboutskerkhof;5;
929560;157774,795;191142,9703;Goswin de Stassartstraat;1;
929566;157805,3233;191181,6053;Goswin de Stassartstraat;14;
929581;157760,4783;191099,0179;Wollemarkt;32;
929594;157541,9148;191215,8393;Kanunnik De Deckerstraat;39;
930419;157338,7063;191019,6102;Nieuwe Beggaardenstraat;43;
935312;157346,2838;190983,7661;Thaborstraat;10;
935313;157335,3441;191001,6642;Thaborstraat;20;
935322;157522,048;191193,5508;Sint-Katelijnestraat;57;
3047703;157816,7749;191013,9398;Schoolstraat;10;
3055143;157320,3331;190992,7356;Thaborstraat;83;
5394328;157357,9558;191002,7839;Nieuwe Beggaardenstraat;45;
5838514;157862,4424;191281,009;Van Hoeystraat;27;
3033486;157318,4718;190923,486;Dobbelhuizen;26;
3033491;157282,531;190957,5537;Dobbelhuizen;33;
3033502;157294,0651;190977,6891;Dobbelhuizen;48;
3043016;157486,2273;190848,0599;Melaan;30;
3047667;157892,8199;190391,7449;Lange Schipstraat;83;
3047699;157803,0667;191025,507;Schoolstraat;9;
4101347;157749,214;190725,2656;Borzestraat;2;
904597;157728,2344;190738,1261;Ijzerenleen;25;
905718;157351,4867;190869,8694;Tichelrij;15;
929565;157793,3309;191131,9176;Goswin de Stassartstraat;2;
3043015;157487,3731;190852,8765;Melaan;28;
3047627;157808,6041;190496,6085;Lange Schipstraat;48;
3047630;157814,0259;190482,9321;Lange Schipstraat;54;
3055127;157475,8746;190866,7962;Thaborstraat;5;
903155;157967,0656;190716,5246;Leermarkt;2;
904923;157753,2314;190782,1892;Ijzerenleen;11;
3944182;157895,9704;190388,4741;Lange Schipstraat;87;
3048598;157646,0963;191062,1366;Sint-Katelijnestraat;6;
5602863;157809,6538;190948,3475;Frederik de Merodestraat;3;
904908;157772,4279;190796,6274;Geitestraat;2;
5900266;157889,1925;191222,0073;Sint-Janstraat;8;A
3944173;157827,3016;190676,3451;Schaalstraat;31;
6380419;157757,6709;190831,4555;Steenweg;1;
4748713;157596,4986;190815,286;Begijnenstraat;46;
3944029;157326,3447;190904,1213;Dobbelhuizen;16;
6489892;157795;190961;Nieuwwerk;4;
6592006;157415,1372;190890,7909;Thaborstraat;31;A
6592007;157421,4413;190898,3836;Thaborstraat;33;A
6474437;157938,2188;191207,8792;Sint-Janstraat;101;B
6420075;157937,3554;191203,4606;Sint-Janstraat;102;C
6420147;157928,4675;191200,7181;Sint-Janstraat;102;D
4744463;158055,6206;190991,9728;Veemarkt;11;
4081944;157980;190663;Leermarkt;22;
6479589;157541;191126;Stadsheimelijkheid;5;A
1276380;157833,8816;190495,2778;Lange Schipstraat;43;
1350667;157580,7014;190814,4727;Begijnenstraat;38;
3029542;157449,0612;191020,5516;Arme-Clarenstraat;11;
3029543;157443,1957;191025,0495;Arme-Clarenstraat;13;
3030777;157996,1012;190914,4713;Befferstraat;24;
3030782;157978,8041;190941,5626;Befferstraat;29;
3030790;158001,1756;190951,4741;Befferstraat;37;
3030800;157387,6627;191086,9989;Nieuwe Beggaardenstraat;31;
3031559;157818,3296;190686,3079;Borzestraat;32;
3032833;157756,564;191292,1251;Kanunnik De Deckerstraat;9;
3032955;157838,1577;190994,1087;Frederik de Merodestraat;21;
3032967;157859,3171;191037,9357;Frederik de Merodestraat;33;
3032979;157927,4248;191141,7981;Frederik de Merodestraat;49;
3033473;157316,6245;190884,746;Dobbelhuizen;7;
3033476;157312,2529;190891,2427;Dobbelhuizen;9;
3035207;157787,6513;190803,1387;Geitestraat;7;
3035215;157807,1499;190789,9247;Geitestraat;13;
3035222;157817,2235;190765,5921;Geitestraat;22;
3035227;157828,6943;190756,9044;Geitestraat;32;
3036262;158006,8359;190510,3702;Hazestraat;16;
3037624;157743,5941;190754,9691;Ijzerenleen;19;
3037625;157704,4236;190782,8802;Ijzerenleen;20;
3037634;157725,5948;190729,1769;Ijzerenleen;29;
3037651;157672,6614;190722,0836;Ijzerenleen;44;
3040422;157974,3879;190678,4287;Leermarkt;16;
3040448;157998,9816;190589,982;Leermarkt;48;
3040453;158002,9471;190560,4241;Leermarkt;56;
3042662;157800,1886;190924,5306;Grote Markt;5;
3042675;157862,2196;190920,3752;Grote Markt;15;
3042688;157832,9521;190833,6921;Grote Markt;28;
3043171;157579,7017;190995,5779;Minderbroedersgang;10;
3043719;157631,5144;190678,8102;Nauwstraat;4;
3045166;157676,0045;190929,2143;Onder-den-Toren;4;
3045175;157662,1891;190943,6489;Onder-den-Toren;9;
3047267;157741,586;190689,6249;Schaalstraat;8;
3047569;157856,1889;190530,4817;Korte Schipstraat;15;
3047577;157840,8878;190524,8388;Korte Schipstraat;23;
3047593;157715,464;190627,8562;Lange Schipstraat;9;
3047614;157793,7251;190542,6201;Lange Schipstraat;36;
3048561;157935,5498;191168,5711;Sint-Janstraat;3;
3048603;157643,3704;191076,633;Sint-Katelijnestraat;12;
3048619;157579,5466;191140,6487;Sint-Katelijnestraat;31;
3048620;157574,2342;191145,1256;Sint-Katelijnestraat;33;
3048636;157564,413;191182,72;Sint-Katelijnestraat;48;
3048641;157526,5429;191187,1949;Sint-Katelijnestraat;53;
3048645;157544,7201;191201,6466;Sint-Katelijnestraat;58;
3049096;157732,4397;190840,7805;Steenweg;44;
3051775;157593,955;190704,236;Vismarkt;6;
3052868;157784,054;191120,498;Wollemarkt;36;
3055135;157373,5215;190933,8986;Thaborstraat;53;
3055137;157354,5894;190943,8167;Thaborstraat;61;
3944054;157937,2629;190824,0489;Hallestraat;16;
4091142;157402,0259;191038,868;Arme-Clarenstraat;25;
4103699;157820,7151;190967,216;Frederik de Merodestraat;13;
4236144;157837,1976;191019,8472;Schoolstraat;19;
4238219;157650,8665;190877,9523;Begijnenstraat;14;
4462632;157862,0054;190943,2547;Standonckstraat;3;
4705325;157652,7572;190954,9878;Onder-den-Toren;11;
4731669;157846,8149;191275,0786;Van Hoeystraat;31;
4740683;157804,0609;191175,04;Goswin de Stassartstraat;12;
4741877;157817,1432;190675,509;Schaalstraat;25;
4741951;157789,3647;190665,541;Schaalstraat;38;
4744471;157969,2297;190851,3818;Zakstraat;3;
4746347;157535,2813;191049,7768;Jef Denynplein;8;
4746675;157768,0557;190813,1191;Vleeshouwersstraat;3;
4748736;157614,2188;190689,3629;Nauwstraat;12;
4751086;157329,5983;190895,5651;Dobbelhuizen;10;
4752011;157749,0927;191034,7339;Wollemarkt;10;
5374207;157790,1867;190995,3998;Nieuwwerk;8;
5383991;157814,1015;191195,9182;Sint-Janstraat;16;
901177;157845,2662;190964,0073;Frederik de Merodestraat;8;
901194;157823,9604;190934,5251;Grote Markt;7;
901430;158045,0234;190941,2605;Veemarkt;2;
901601;157829,3442;191263,2177;Goswin de Stassartstraat;28;
903156;158015,3303;190506,9699;Pitzemburgstraat;2;
903516;157875,218;190563,26;Korte Schipstraat;8;
904583;157716,7942;190709,7894;Ijzerenleen;37;
904601;157726,1332;190695,587;Schaalstraat;2;
904878;157771,5487;190673,2869;Schaalstraat;30;
904926;157782,2039;190852,7816;Schoenmarkt;1;
905042;157878,6152;190828,0219;Grote Markt;24;
905272;157707,4297;190787,8501;Ijzerenleen;18;
905278;157686,6;190923,0758;Onder-den-Toren;1;
905283;157645,9565;190875,0922;Begijnenstraat;16;
905300;158059,6087;190854,3197;Rik Woutersstraat;24;
905322;157930,3758;191053,4412;Varkensstraat;1;
929568;157791,6885;191214,3975;Goswin de Stassartstraat;13;
929575;157649,004;191100,6242;Sint-Katelijnestraat;16;
930421;157373,3542;191071,9272;Nieuwe Beggaardenstraat;35;
935304;157294,8899;190926,687;Dobbelhuizen;21;
935321;157566,8548;191145,5858;Sint-Katelijnestraat;37;
935327;157500,7741;191195,0056;Nieuwe Beggaardenstraat;1;
941664;157601,7372;191121,4576;A.B.-straat;3;
458;157774,9967;190924,1456;Grote Markt;2;
4748668;157503,6527;190801,4249;Persoonshoek;3;
5838513;157852,6652;191277,4828;Van Hoeystraat;29;
5838515;157875,7458;191288,7026;Van Hoeystraat;25;
3032842;157622,4376;191251,5315;Kanunnik De Deckerstraat;29;
3047671;157903,8698;190375,9286;Lange Schipstraat;91;
3048639;157531,5166;191183,5137;Sint-Katelijnestraat;51;
3051124;157931,5363;191030,5682;Varkensstraat;6;
3051139;158028,1785;190968,8168;Veemarkt;1;
901415;158050,9335;190917,4873;Rik Woutersstraat;2;
905651;157539,256;190809,9674;Drabstraat;8;
5603016;157764,5601;191103,5417;Wollemarkt;34;
5603020;158036,3891;190864,7356;Zakstraat;29;
3031553;157792,4486;190697,2455;Borzestraat;22;
3046126;157480,8151;190799,881;Persoonshoek;4;
3047561;157865,0983;190535,3567;Korte Schipstraat;11;
3047611;157779,2464;190572,8495;Lange Schipstraat;28;
3944181;157828,2971;190508,6788;Lange Schipstraat;37;
4241214;157443,7865;190816,8243;Tichelrij;3;
4751169;157338,979;190965,1691;Thaborstraat;71;
905308;158027,6225;190864,7332;Zakstraat;27;
905639;157639,4068;190659,7233;Grootbrug;2;
5426070;158010,4813;190956,6959;Befferstraat;39;
905282;157673,8595;190906,9441;Begijnenstraat;2;
904915;157818;190740;Blauwhondstraat;29;
903518;157883,8561;190564,704;Korte Schipstraat;4;
3047664;157887,1741;190399,7346;Lange Schipstraat;81;
901175;157941,285;191167,4534;Sint-Janstraat;1;
6518663;157582,3087;191168,7004;Sint-Katelijnestraat;42;
3032851;157536,584;191213,8721;Kanunnik De Deckerstraat;41;
929597;157660,4539;191264,9154;Kanunnik De Deckerstraat;19;
3033126;157538,8936;191046,0308;Jef Denynplein;6;
3029545;157409,9969;191037,1871;Arme-Clarenstraat;17;
904904;157775,0202;190809,4784;Geitestraat;1;
3048621;157594,1713;191154,7885;Sint-Katelijnestraat;36;B
4218797;157840,2329;190684,7564;Borzestraat;40;
3032940;157844,6673;190958,9672;Frederik de Merodestraat;6;A
930423;157416,5207;191127,107;Nieuwe Beggaardenstraat;27;
5838075;157520;191045;Straatje-zonder-einde;2;
4736746;157419,6383;190895,674;Thaborstraat;33;
905713;157475,2437;190929,2058;Melaan;16;
3028796;157575,1995;191110,4366;A.B.-straat;4;
3029547;157406,9801;191037,949;Arme-Clarenstraat;23;
3030761;157969,4354;190880,84;Befferstraat;10;
3030780;158010,4156;190919,4551;Befferstraat;28;
3030822;157663,3023;190873,635;Begijnenstraat;9;
3030831;157637,9086;190842,8771;Begijnenstraat;21;
3031640;157954,2747;190768,7804;Dsir Boucherystraat;22;
3032937;157832,4636;190947,8915;Frederik de Merodestraat;4;
3032960;157934,5084;191112,2863;Frederik de Merodestraat;28;
3032962;157944,1052;191123,3954;Frederik de Merodestraat;30;
3033131;157512,3954;191012,969;Jef Denynplein;16;
3033223;157796,6894;191226,0191;Goswin de Stassartstraat;17;
3033479;157297,1345;190915,5523;Dobbelhuizen;17;
3033490;157312,233;190935,0027;Dobbelhuizen;32;
3035212;157790,628;190783,7253;Geitestraat;10;
3036248;157960,5625;190494,2193;Hazestraat;4;
3036250;157979,5152;190517,0529;Hazestraat;5;
3036251;157985,2077;190519,2081;Hazestraat;7;
3036255;157982,0965;190500,4232;Hazestraat;10;
3037621;157747,7651;190762,2617;Ijzerenleen;15;
3037653;157702,9107;190692,9397;Ijzerenleen;45;
3037661;157696,9132;190679,6976;Ijzerenleen;51;
3037681;157674,3783;190649,6055;Ijzerenleen;65;
3040429;157979,5212;190661,6355;Leermarkt;24;
3040450;157998,5603;190575,3373;Leermarkt;52;
3040451;158002,096;190567,1544;Leermarkt;54;
3040454;158005,0776;190554,5471;Leermarkt;58;
3042671;157847,5094;190928,4423;Grote Markt;12;
3043006;157505,4551;190999,3775;Melaan;2;
3043723;157599,4776;190679,1538;Nauwstraat;11;
3045165;157681,9879;190922,4704;Onder-den-Toren;2;
3045168;157577,5266;190848,167;Onder-den-Toren;5;
3046128;157501,4285;190795,6415;Persoonshoek;5;
3046219;158018,4075;190499,1645;Pitzemburgstraat;6;
3047285;157823,3046;190675,5388;Schaalstraat;29;
3047556;157880,9897;190562,0891;Korte Schipstraat;6;
3047580;157833,7225;190522,1172;Korte Schipstraat;27;
3047600;157746,4351;190616,5338;Lange Schipstraat;17;
3047613;157790,3146;190554,4566;Lange Schipstraat;34;
3048614;157587,9587;191134,8497;Sint-Katelijnestraat;27;
3048634;157537,7625;191176,7821;Sint-Katelijnestraat;47;
3048643;157550,7128;191198,4482;Sint-Katelijnestraat;56;
3049084;157733,036;190886,1305;Steenweg;24;
3051143;158050,1473;190988,7799;Veemarkt;7;
3051172;158056,8983;191021,4848;Veemarkt;31;
3051770;157542,3085;190728,0449;Vismarkt;1;
3051779;157567,601;190726,5574;Vismarkt;16;
3051781;157552,7722;190741,3719;Vismarkt;22;
3052854;157737,3491;191063,2662;Wollemarkt;18;
3055129;157343,4415;190993,0845;Thaborstraat;14;
3944199;157534,9155;191180,1503;Sint-Katelijnestraat;49;
4014924;157745,1825;191089,5003;Wollemarkt;26;
4014968;157614,7075;191140,4643;Sint-Katelijnestraat;26;
4140194;157824,0538;191019,9089;Schoolstraat;15;
4240777;157320,294;190950,2088;Dobbelhuizen;36;
4267275;157801,3223;191158,92;Goswin de Stassartstraat;8;
4736802;157464,4699;191015,5974;Arme-Clarenstraat;5;
4740627;157625,8092;191070,8845;Sint-Katelijnestraat;7;
4740700;157776,9135;191237,3551;Goswin de Stassartstraat;21;
4740708;157757,0517;191170,8465;Schoutetstraat;3;
4741839;157750,8564;190686,8453;Schaalstraat;18;
4741889;157825,3299;190685,8544;Borzestraat;34;
4741917;157771,1078;190710,0082;Borzestraat;12;
4741944;157775,9532;190671,4207;Schaalstraat;32;
4741946;157780,3217;190669,5044;Schaalstraat;34;
4748677;157578,6946;190746,7185;Begijnenstraat;45;
4749182;158057,5929;190865,1705;Rik Woutersstraat;22;
4751106;157291,0685;190936,1382;Dobbelhuizen;25;
4751109;157288,3719;190944,7649;Dobbelhuizen;29;
4751177;157325,1228;190985,3911;Thaborstraat;81;
4751193;157338,628;190997,9317;Thaborstraat;18;
5414784;157823,1886;191002,0406;Nieuwwerk;9;
901174;157932,6696;191168,917;Sint-Janstraat;7;
901186;157939,2463;191155,3189;Frederik de Merodestraat;55;
901189;157843,2738;191009,2139;Frederik de Merodestraat;25;
901195;157866,9575;190918,9259;Grote Markt;16;
901199;157903,8533;190915,2381;Befferstraat;1;
901203;157742,7366;191051,7984;Wollemarkt;16;
901612;158001,2853;191128,375;Biest;10;
903510;157809,0034;190557,6033;Lange Schipstraat;27;
904218;157889,685;190551,6809;Korte Schipstraat;1;
904317;157830,3375;190520,7232;Korte Schipstraat;29;
904902;157781,4533;190854,7493;Grote Markt;39;
905280;157620,3632;191014,5815;Onder-den-Toren;14;
905290;157605,214;190951,9553;Minderbroedersgang;5;
905309;158052,066;190858,3065;Zakstraat;31;
905647;157565,6881;190820,0665;Begijnenstraat;28;
905649;157528,6294;190859,3166;Drabstraat;18;
905658;157564,0705;190730,49;Vismarkt;18;
905714;157488,5508;190858,4133;Melaan;26;
929571;157621,0721;191083,915;Sint-Katelijnestraat;13;
929621;157799,7935;191299,3882;Goswin de Stassartstraat;47;
930420;157364,3399;191058,4334;Nieuwe Beggaardenstraat;37;
935310;157349,4042;190958,8515;Thaborstraat;67;
935323;157511,7607;191202,1624;Sint-Katelijnestraat;61;
941666;157583,2443;191120,8267;A.B.-straat;2;
5838665;157732,7133;191286,2641;Kanunnik De Deckerstraat;15;
3047675;157908,7899;190373,3062;Lange Schipstraat;95;
901431;158042,806;190978,1591;Veemarkt;3;
935303;157294,8846;190922,265;Dobbelhuizen;19;
901168;157858,9051;190967,7923;Standonckstraat;13;
6527842;157704,9921;191106,741;Oude Beggaardenstraat;15;
3033487;157289,3951;190940,4354;Dobbelhuizen;27;
3029549;157398,4464;191043,8365;Arme-Clarenstraat;27;
4733038;157400,551;191063,4982;Arme-Clarenstraat;28;
3035224;157826,7901;190785,0779;Geitestraat;23;
6085254;157967,2989;190513,4872;Hazestraat;1;
4736745;157417,761;190893,3965;Thaborstraat;31;
6140426;157932,0227;191209,3013;Sint-Janstraat;101;A
5991411;157485,2408;190955,7497;Melaan;12;
3029538;157460,1675;191017,3068;Arme-Clarenstraat;7;
3029540;157452,9259;191019,931;Arme-Clarenstraat;9;
3030765;157933,9025;190918,2913;Befferstraat;15;
3030779;158003,9176;190917,2752;Befferstraat;26;
3030840;157577,5748;190816,1557;Begijnenstraat;36;
3031540;157751,1915;190740,4095;Borzestraat;1;
3032835;157749,4922;191290,5249;Kanunnik De Deckerstraat;11;
3032839;157654,4731;191263,0546;Kanunnik De Deckerstraat;21;
3032847;157552,1829;191218,4659;Kanunnik De Deckerstraat;37;
3032990;157981,4264;191214,5365;Frederik de Merodestraat;65;
3033234;157799,3163;191268,759;Goswin de Stassartstraat;33;
3033822;157546,0732;190760,2328;Drabstraat;4;
3037640;157721,1598;190717,8782;Ijzerenleen;33;
3042690;157824,4295;190835,0579;Grote Markt;29;
3043721;157611,1476;190671,2708;Nauwstraat;7;
3047275;157746,9646;190687,7194;Schaalstraat;16;
3047615;157798,397;190537,0863;Lange Schipstraat;38;
3048609;157633,3585;191127,7045;Sint-Katelijnestraat;20;
3049067;157702,6308;190909,6743;Steenweg;6;
3049088;157735,4144;190868,4437;Steenweg;32;
3050150;157429,7305;190821,9423;Tichelrij;5;
3051152;158063,2996;191002,0021;Veemarkt;15;
3051179;158044,0806;191040,2464;Veemarkt;35;
3053010;158024,9193;190860,0852;Zakstraat;25;
3054428;157651,287;191082,8289;Oude Beggaardenstraat;3;
3055125;157481,311;190864,5823;Thaborstraat;3;
4191732;157840,5634;190961,0892;Frederik de Merodestraat;6;
4236745;157448,9499;190882,3839;Thaborstraat;17;
4733929;157986,1611;190630,183;Leermarkt;34;
4736279;157830,6065;190502,2305;Lange Schipstraat;39;
4739270;157524,9591;191190,2551;Sint-Katelijnestraat;55;
4741904;157759,3039;190611,4445;Lange Schipstraat;21;
4749181;158056,515;190881,7606;Rik Woutersstraat;18;
4751963;157914,3741;191086,0678;Frederik de Merodestraat;22;
4751986;157860,7466;190956,4576;Standonckstraat;9;
4752018;157819,5344;190961,9498;Frederik de Merodestraat;11;
5364604;157542,1938;191174,2184;Sint-Katelijnestraat;45;A
5436459;157890,9407;190828,1608;Hallestraat;20;
901181;157847,4089;191018,4125;Frederik de Merodestraat;27;
901198;157878,2904;190914,3303;Grote Markt;18;
901200;157938,2502;190919,4809;Befferstraat;17;
901609;157987,9154;191143,7975;Biest;2;
904260;157875,8338;190542,3862;Korte Schipstraat;7;
904574;157689,2982;190635,8825;Lange Schipstraat;1;
904600;157810,6215;190686,5864;Borzestraat;30;
905285;157630,4422;190827,877;Begijnenstraat;27;A
905288;157618,609;190849,384;Begijnenstraat;22;
905638;157629,122;190648,6457;Grootbrug;8;
905648;157599,3103;190814,3931;Begijnenstraat;48;
905705;157351,6623;190954,9804;Thaborstraat;65;
929573;157536,2489;191207,119;Sint-Katelijnestraat;62;
929577;157652,1887;191054,83;Sint-Katelijnestraat;2;
930422;157393,1328;191096,4828;Nieuwe Beggaardenstraat;29;
935319;157590,8701;191132,2492;Sint-Katelijnestraat;25;
4740712;157796,2069;191258,5979;Goswin de Stassartstraat;27;
3043722;157621,9222;190684,6298;Nauwstraat;10;
3048613;157624,1609;191129,7967;Sint-Katelijnestraat;24;
903512;157844,9491;190476,346;Lange Schipstraat;51;
9591;157488,8564;190810,2268;Persoonshoek;2;
901605;157914,8103;191301,8506;Van Hoeystraat;17;
3051774;157598,5243;190700,0073;Vismarkt;4;
901202;157784,2896;191051,8725;Wollemarkt;14;
5749434;158024,1191;190992,7644;Varkensstraat;17;
903148;157969,2157;190695,3848;Leermarkt;10;
3040426;157977,1361;190668,5181;Leermarkt;20;
4746681;157750,3929;190839,2329;Schoenmarkt;6;
6489935;157740,5381;191181,5564;Schoutetstraat;5;
6192370;157574,9929;191162,6107;Sint-Katelijnestraat;40;
5547298;157674;191028;Sint-Romboutskerkhof;6;
6592008;157423,6818;190901,1993;Thaborstraat;33;B
6429651;157932,6829;191206,3556;Sint-Janstraat;101;C
6442938;157932,4289;191203,1051;Sint-Janstraat;102;B
3030756;157911,1317;190916,9471;Befferstraat;3;
3030759;157915,8735;190913,2961;Befferstraat;9;
3030826;157653,5856;190881,0123;Begijnenstraat;12;
3030844;157566,3225;190747,5507;Begijnenstraat;56;
3031545;157760,6549;190717,1613;Borzestraat;6;
3031625;157944,8742;190815,2778;Dsir Boucherystraat;4;
3031628;157945,0192;190809,9137;Dsir Boucherystraat;6;
3031641;157952,2373;190765,4889;Dsir Boucherystraat;24;
3032828;157781,1956;191296,7778;Kanunnik De Deckerstraat;3;
3032840;157647,5973;191260,7519;Kanunnik De Deckerstraat;23;
3032943;157817,7183;190958,1866;Frederik de Merodestraat;9;
3032945;157845,3375;190968,2697;Frederik de Merodestraat;10;
3032961;157850,7846;191023,3072;Frederik de Merodestraat;29;
3032975;157914,5973;191126,2625;Frederik de Merodestraat;45;
3032982;157947,2223;191158,3765;Frederik de Merodestraat;57;
3033240;157801,6545;191290,3746;Goswin de Stassartstraat;45;
3033474;157333,9503;190894,6614;Dobbelhuizen;8;
3033482;157324,7457;190913,4143;Dobbelhuizen;22;
3035229;157839,39;190754,7428;Geitestraat;34;
3037611;157760,9091;190793,6117;Ijzerenleen;5;
3037617;157756,4649;190786,3624;Ijzerenleen;9;
3037618;157716,7404;190806,8605;Ijzerenleen;10;
3037622;157743,7264;190759,5127;Ijzerenleen;17;
3040456;158008,387;190542,4012;Leermarkt;62;
3042661;157797,2835;190919,8103;Grote Markt;4;
3042667;157840,3467;190930,503;Grote Markt;10;
3042700;157796,9789;190847,7956;Grote Markt;35;
3043020;157490,6559;190833,0561;Melaan;36;
3045171;157670,0602;190936,8296;Onder-den-Toren;7;
3047274;157787,0512;190682,0701;Schaalstraat;15;
3047279;157756,2904;190684,1095;Schaalstraat;22;
3047574;157848,2546;190527,2011;Korte Schipstraat;19;
3047578;157837,1277;190523,5986;Korte Schipstraat;25;
3047660;157848,7971;190419,2158;Lange Schipstraat;78;
3047687;157778,2338;190844,3551;Schoenmarkt;3;
3048979;157860,4743;190953,0465;Standonckstraat;7;
3049064;157761,0267;190840,8528;Vleeshouwersstraat;6;
3049081;157728,2705;190893,4163;Steenweg;20;
3049087;157735,5409;190872,857;Steenweg;30;
3049100;157729,6795;190834,098;Steenweg;48;
3050154;157403,1107;190836,977;Tichelrij;8;
3051142;158045,923;190983,3058;Veemarkt;5;
3051162;158073,4909;191008,951;Veemarkt;21;
4700780;157644,559;190965,0111;Onder-den-Toren;12;
4731741;157995,9713;191135,2601;Biest;6;
4733926;157981,6937;190640,0602;Leermarkt;30;
4736681;157489,8343;190837,7799;Melaan;34;
4736837;157499,4787;190987,232;Melaan;6;
4741885;157835,6869;190676,6612;Schaalstraat;37;
4746694;157786,9839;190855,9993;Grote Markt;38;
4751123;157309,953;190940,7018;Dobbelhuizen;34;
898131;157920,0416;191299,8668;Van Hoeystraat;15;
901432;158076,0178;191005,9028;Veemarkt;19;
901606;157812,5909;191179,9245;Sint-Janstraat;13;
901607;157825,8925;191178,004;Sint-Janstraat;9;
903466;157833,4591;190445,1613;Lange Schipstraat;66;
903467;157835,3649;190442,0358;Lange Schipstraat;68;
904571;157745,2818;190701,3968;Schaalstraat;1;
904906;157819,0827;190782,9119;Geitestraat;19;
904910;157807,6327;190770,2996;Geitestraat;20;
905040;157895,0314;190831,6524;Hallestraat;2;
905289;157631,7944;190976,6365;Minderbroedersgang;1;
905314;158017,7701;190861,503;Zakstraat;23;
905321;157945,9234;191043,0979;Varkensstraat;7;
905640;157655,299;190636,2253;Grootbrug;3;
905710;157476,2729;191010,944;Arme-Clarenstraat;1;
929558;157760,1269;191128,1086;Wollemarkt;21;
929576;157641,6502;191082,6681;Sint-Katelijnestraat;14;
929578;157620,1167;191089,4818;Sint-Katelijnestraat;15;
935308;157313,2367;190931,1557;Dobbelhuizen;30;
4731662;157907,5397;191301,2569;Van Hoeystraat;19;
4731664;157893,1698;191296,4429;Van Hoeystraat;21;
3033226;157794,8127;191234,7397;Goswin de Stassartstraat;19;
3047668;157899,8849;190380,5154;Lange Schipstraat;89;
5602992;157437,7147;190819,8673;Tichelrij;4;
5602996;157260,0027;190978,6981;t Veer;15;
3047607;157770,8498;190581,2949;Lange Schipstraat;24;
929572;157627,1292;191079,6279;Sint-Katelijnestraat;11;
4010572;157572,9798;190721,934;Vismarkt;14;
6447591;157804,9166;191257,6407;Goswin de Stassartstraat;27;A
4741830;157736,6205;190686,4684;Schaalstraat;6;
905661;157635,6004;190674,2099;Nauwstraat;2;
3031542;157796,5188;190713,3048;Borzestraat;3;
4741899;157743,1824;190616,5949;Lange Schipstraat;15;
3047649;157873,3577;190417,9313;Lange Schipstraat;71;
4037885;157358,6318;191007,6731;Nieuwe Beggaardenstraat;47;
4745562;157734,5261;190854,6077;Steenweg;38;
6592009;157413,3903;190907,7883;Thaborstraat;35;A
6592010;157414,2223;190905,576;Thaborstraat;35;B
3055141;157330,6862;190979,4899;Thaborstraat;77;
3030786;157990,196;190944,9088;Befferstraat;33;
3031543;157755,1247;190719,5518;Borzestraat;4;
3032830;157762,8575;191294,1331;Kanunnik De Deckerstraat;7;
3032973;157969,1572;191149,5201;Frederik de Merodestraat;42;
3032980;157931,0161;191149,5791;Frederik de Merodestraat;51;
3033214;157797,312;191147,8143;Goswin de Stassartstraat;6;
3033215;157803,7453;191169,1578;Goswin de Stassartstraat;10;
3033222;157792,8415;191219,9224;Goswin de Stassartstraat;15;
3033483;157292,8486;190931,7715;Dobbelhuizen;23;
3033495;157301,9338;190955,2666;Dobbelhuizen;40;
3033499;157271,5432;190984,5369;Dobbelhuizen;41;
3036256;157996,1864;190522,2994;Hazestraat;11;
3040411;157967,6775;190712,3822;Leermarkt;4;
3042669;157844,3593;190928,4249;Grote Markt;11;
3042673;157851,2081;190925,1325;Grote Markt;13;
3042695;157801,5415;190834,4573;Grote Markt;32;
3047281;157759,3371;190682,9778;Schaalstraat;24;
3047559;157871,6582;190538,837;Korte Schipstraat;9;
3047585;157701,4989;190632,2169;Lange Schipstraat;5;
3047636;157829,383;190454,3939;Lange Schipstraat;62;
3047705;157814,8882;191023,3983;Schoolstraat;11;
3048630;157579,6009;191164,3427;Sint-Katelijnestraat;44;
3049098;157731,0107;190837,6095;Steenweg;46;
3052838;157716,823;191065,2954;Wollemarkt;5;
3052862;157750,7306;191094,6696;Wollemarkt;28;
3052900;158057,0065;190900,6884;Rik Woutersstraat;10;
3052905;158059,005;190872,1356;Rik Woutersstraat;20;
3055139;157354,423;190951,4409;Thaborstraat;63;
3993916;157965,6161;190495,5391;Hazestraat;6;
4067640;157632,331;191059,6127;Sint-Katelijnestraat;3;
4158429;157344,9192;190988,696;Thaborstraat;12;
4247635;157449,6302;191156,5442;Nieuwe Beggaardenstraat;19;
4732814;157742,1104;191288,8128;Kanunnik De Deckerstraat;13;
4736704;157442,1758;190887,1519;Thaborstraat;21;
4737412;157825,7892;191246,5095;Goswin de Stassartstraat;26;
4741955;157793,7587;190664,0372;Schaalstraat;40;
4745458;157940,2065;191046,7123;Varkensstraat;5;
4749109;157935,152;190688,4089;Bruul;51;
4751168;157346,2124;190961,8053;Thaborstraat;69;
4751397;157969,801;190496,607;Hazestraat;8;
5403847;157792,2054;191005,6145;Nieuwwerk;6;
901167;157862,3019;190939,1328;Standonckstraat;1;
901423;157990,4992;190911,5386;Befferstraat;22;
901602;157833,2734;191161,5825;Sint-Janskerkhof;3;
903157;158019,4203;190495,1683;Pitzemburgstraat;8;
904196;157802,7442;190519,2223;Lange Schipstraat;44;
904572;157840,7539;190673,6629;Schaalstraat;39;
904575;157726,7615;190623,7115;Lange Schipstraat;11;
905043;157886,6531;190827,8277;Grote Markt;23;
905641;157658,1205;190643,6584;Grootbrug;1;
905707;157434,8808;190890,387;Thaborstraat;25;
941661;157506,6989;191035,195;Straatje-zonder-einde;3;
4731666;157886,7879;191293,8292;Van Hoeystraat;23;
4733024;157435,714;191051,1781;Arme-Clarenstraat;14;
4740715;157802,1422;191262,9106;Goswin de Stassartstraat;29;
5697979;157804,6766;190946,7866;Scheerstraat;8;
905659;157603,8828;190695,2017;Vismarkt;2;
5602939;157616,5606;190967,0025;Melaan;3;
3047553;157883,8137;190550,8002;Korte Schipstraat;3;
5693998;157946,3739;191283,9221;Van Hoeystraat;13;
904578;157754,6678;190696,5093;Schaalstraat;5;
5839399;157816,9899;191176,2227;Sint-Janstraat;11;
3943985;157795,5016;190763,7114;Blauwhondstraat;17;
3031561;157829,3427;190682,498;Borzestraat;36;
4746768;157791,1841;190780,4157;Geitestraat;12;
901191;157801,3706;190929,5312;Grote Markt;6;
3048616;157585,8288;191136,1286;Sint-Katelijnestraat;29;
3052863;157754,8937;191097,0834;Wollemarkt;30;
6431928;157932,6829;191200,0071;Sint-Janstraat;202;A
