OpdrachtID,Projectnummer,Opdrachttemplate,Opdrachtnummer,"Opdrachtnummer extern","BUILDING KEY",Straat,Huisnummer,"Huisnummer Toevoeging","SSV Action","SSV Action LU",Nature,"Building exists"
323802,"HASSELT - FH05","BUILDING template",2407163,,2407163,"Anne Frankplein",1,,,,,Y
323804,"HASSELT - FH05","BUILDING template",2407166,,2407166,"Anne Frankplein",3,,,,,Y
323805,"HASSELT - FH05","BUILDING template",2407169,,2407169,"Anne Frankplein",4,,,,,Y
323806,"HASSELT - FH05","BUILDING template",2407170,,2407170,"Anne Frankplein",5,,,,,Y
323807,"HASSELT - FH05","BUILDING template",2407172,,2407172,"Anne Frankplein",6,,,,,Y
323808,"HASSELT - FH05","BUILDING template",3937179,,3937179,"Anne Frankplein",7,,,,,Y
323809,"HASSELT - FH05","BUILDING template",2407173,,2407173,"Anne Frankplein",8,,,,,Y
323810,"HASSELT - FH05","BUILDING template",2407175,,2407175,"Anne Frankplein",9,,,,,Y
323811,"HASSELT - FH05","BUILDING template",2407176,,2407176,"Anne Frankplein",10,,,,,Y
323812,"HASSELT - FH05","BUILDING template",1323149,,1323149,"Anne Frankplein",11,,,,,Y
323813,"HASSELT - FH05","BUILDING template",2407181,,2407181,"Anne Frankplein",12,,,,,Y
323814,"HASSELT - FH05","BUILDING template",2407182,,2407182,"Anne Frankplein",13,,,,,Y
323815,"HASSELT - FH05","BUILDING template",2407184,,2407184,"Anne Frankplein",14,,,,,Y
323816,"HASSELT - FH05","BUILDING template",2407186,,2407186,"Anne Frankplein",15,,,,,Y
323817,"HASSELT - FH05","BUILDING template",2407189,,2407189,"Anne Frankplein",16,,,,,Y
323818,"HASSELT - FH05","BUILDING template",2407191,,2407191,"Anne Frankplein",17,,,,,Y
323819,"HASSELT - FH05","BUILDING template",2412553,,2412553,Danielsstraat,1,,,,,Y
323820,"HASSELT - FH05","BUILDING template",2412555,,2412555,Danielsstraat,2,,,,,Y
323821,"HASSELT - FH05","BUILDING template",328547,,328547,Danielsstraat,3,,,,,Y
323823,"HASSELT - FH05","BUILDING template",2412560,,2412560,Danielsstraat,7,,,,,Y
323824,"HASSELT - FH05","BUILDING template",2412563,,2412563,Danielsstraat,8,,,,,Y
323825,"HASSELT - FH05","BUILDING template",2412565,,2412565,Danielsstraat,9,,,,,Y
323826,"HASSELT - FH05","BUILDING template",2412568,,2412568,Danielsstraat,11,,,,,Y
323827,"HASSELT - FH05","BUILDING template",328548,,328548,Danielsstraat,12,,,,,Y
323828,"HASSELT - FH05","BUILDING template",2412572,,2412572,Danielsstraat,13,,,,,Y
323829,"HASSELT - FH05","BUILDING template",2412574,,2412574,Danielsstraat,14,,,,,Y
323830,"HASSELT - FH05","BUILDING template",4201644,,4201644,Danielsstraat,15,,,,,Y
323831,"HASSELT - FH05","BUILDING template",2412575,,2412575,Danielsstraat,16,,,,,Y
323832,"HASSELT - FH05","BUILDING template",2412577,,2412577,Danielsstraat,17,,,,,Y
323833,"HASSELT - FH05","BUILDING template",2412580,,2412580,Danielsstraat,18,,,,,Y
323834,"HASSELT - FH05","BUILDING template",2412582,,2412582,Danielsstraat,19,,,,,Y
323835,"HASSELT - FH05","BUILDING template",328549,,328549,Danielsstraat,21,,,,,Y
323836,"HASSELT - FH05","BUILDING template",4182542,,4182542,Danielsstraat,22,,,,,Y
323837,"HASSELT - FH05","BUILDING template",2412585,,2412585,Danielsstraat,23,,,,,Y
323838,"HASSELT - FH05","BUILDING template",2412588,,2412588,Danielsstraat,24,,,,,Y
323839,"HASSELT - FH05","BUILDING template",328551,,328551,Danielsstraat,25,,,,,Y
323840,"HASSELT - FH05","BUILDING template",328550,,328550,Danielsstraat,26,,,,,Y
323841,"HASSELT - FH05","BUILDING template",2412591,,2412591,Danielsstraat,27,,,,,Y
323842,"HASSELT - FH05","BUILDING template",2412594,,2412594,Danielsstraat,29,,,,,Y
323843,"HASSELT - FH05","BUILDING template",2412597,,2412597,Danielsstraat,31,,,,,Y
323844,"HASSELT - FH05","BUILDING template",2405870,,2405870,"Gouverneur Roppesingel",131,,,,,Y
323845,"HASSELT - FH05","BUILDING template",2405872,,2405872,"Gouverneur Roppesingel",133,,,,,Y
323846,"HASSELT - FH05","BUILDING template",3937166,,3937166,"Gouverneur Roppesingel",135,,,,,Y
323847,"HASSELT - FH05","BUILDING template",2405875,,2405875,"Gouverneur Roppesingel",165,,,,,Y
323848,"HASSELT - FH05","BUILDING template",328580,,328580,Herfststraat,1,,,,,Y
323849,"HASSELT - FH05","BUILDING template",4896901,,4896901,Herfststraat,2,,,,,Y
323850,"HASSELT - FH05","BUILDING template",4896902,,4896902,Herfststraat,3,,,,,Y
323851,"HASSELT - FH05","BUILDING template",328582,,328582,Herfststraat,6,,,,,Y
323852,"HASSELT - FH05","BUILDING template",2407321,,2407321,Herfststraat,7,,,,,Y
323853,"HASSELT - FH05","BUILDING template",2407322,,2407322,Herfststraat,8,,,,,Y
323854,"HASSELT - FH05","BUILDING template",4896844,,4896844,Herfststraat,9,,,,,Y
323855,"HASSELT - FH05","BUILDING template",328377,,328377,Kroonwinningstraat,1,,,,,Y
323856,"HASSELT - FH05","BUILDING template",328376,,328376,Kroonwinningstraat,2,,,,,Y
323857,"HASSELT - FH05","BUILDING template",2423284,,2423284,Kroonwinningstraat,3,,,,,Y
323858,"HASSELT - FH05","BUILDING template",2423285,,2423285,Kroonwinningstraat,4,,,,,Y
323859,"HASSELT - FH05","BUILDING template",2423287,,2423287,Kroonwinningstraat,5,,,,,Y
323860,"HASSELT - FH05","BUILDING template",2423288,,2423288,Kroonwinningstraat,6,,,,,Y
323861,"HASSELT - FH05","BUILDING template",1366867,,1366867,Kroonwinningstraat,7,,,,,Y
323862,"HASSELT - FH05","BUILDING template",2423291,,2423291,Kroonwinningstraat,7,A,,,,Y
323863,"HASSELT - FH05","BUILDING template",2423293,,2423293,Kroonwinningstraat,8,,,,,Y
323864,"HASSELT - FH05","BUILDING template",2423296,,2423296,Kroonwinningstraat,9,,,,,Y
323865,"HASSELT - FH05","BUILDING template",328378,,328378,Kroonwinningstraat,10,,,,,Y
323866,"HASSELT - FH05","BUILDING template",4896918,,4896918,Kroonwinningstraat,11,,,,,Y
323867,"HASSELT - FH05","BUILDING template",328379,,328379,Kroonwinningstraat,12,,,,,Y
323868,"HASSELT - FH05","BUILDING template",328380,,328380,Kroonwinningstraat,14,,,,,Y
323869,"HASSELT - FH05","BUILDING template",2423298,,2423298,Kroonwinningstraat,15,,,,,Y
323870,"HASSELT - FH05","BUILDING template",2423299,,2423299,Kroonwinningstraat,21,,,,,Y
323871,"HASSELT - FH05","BUILDING template",4897771,,4897771,Kroonwinningstraat,23,,,,,Y
323872,"HASSELT - FH05","BUILDING template",328381,,328381,Kroonwinningstraat,25,,,,,Y
323873,"HASSELT - FH05","BUILDING template",2423301,,2423301,Kroonwinningstraat,27,,,,,Y
323874,"HASSELT - FH05","BUILDING template",4896766,,4896766,Kroonwinningstraat,28,,,,,Y
323875,"HASSELT - FH05","BUILDING template",3937439,,3937439,Kroonwinningstraat,30,,,,,Y
323876,"HASSELT - FH05","BUILDING template",2423305,,2423305,Kroonwinningstraat,31,,,,,Y
323877,"HASSELT - FH05","BUILDING template",2423306,,2423306,Kroonwinningstraat,32,,,,,Y
323878,"HASSELT - FH05","BUILDING template",4896769,,4896769,Kroonwinningstraat,34,,,,,Y
323879,"HASSELT - FH05","BUILDING template",4896770,,4896770,Kroonwinningstraat,36,,,,,Y
323880,"HASSELT - FH05","BUILDING template",2423307,,2423307,Kroonwinningstraat,38,,,,,Y
323881,"HASSELT - FH05","BUILDING template",4896772,,4896772,Kroonwinningstraat,40,,,,,Y
323882,"HASSELT - FH05","BUILDING template",2423310,,2423310,Kroonwinningstraat,41,,,,,Y
323883,"HASSELT - FH05","BUILDING template",2423313,,2423313,Kroonwinningstraat,42,,,,,Y
323884,"HASSELT - FH05","BUILDING template",2423318,,2423318,Kroonwinningstraat,43,,,,,Y
323885,"HASSELT - FH05","BUILDING template",4093037,,4093037,Kroonwinningstraat,43,A,,,,Y
323886,"HASSELT - FH05","BUILDING template",2423320,,2423320,Kroonwinningstraat,44,,,,,Y
323887,"HASSELT - FH05","BUILDING template",2423323,,2423323,Kroonwinningstraat,45,,,,,Y
323888,"HASSELT - FH05","BUILDING template",2423325,,2423325,Kroonwinningstraat,46,,,,,Y
323889,"HASSELT - FH05","BUILDING template",328382,,328382,Kroonwinningstraat,48,,,,,Y
323890,"HASSELT - FH05","BUILDING template",2423328,,2423328,Kroonwinningstraat,49,,,,,Y
323891,"HASSELT - FH05","BUILDING template",2423331,,2423331,Kroonwinningstraat,50,,,,,Y
323892,"HASSELT - FH05","BUILDING template",2423335,,2423335,Kroonwinningstraat,51,,,,,Y
323893,"HASSELT - FH05","BUILDING template",4897827,,4897827,Kroonwinningstraat,52,,,,,Y
323894,"HASSELT - FH05","BUILDING template",2423337,,2423337,Kroonwinningstraat,53,,,,,Y
323895,"HASSELT - FH05","BUILDING template",2423340,,2423340,Kroonwinningstraat,54,,,,,Y
323896,"HASSELT - FH05","BUILDING template",708707,,708707,Kroonwinningstraat,55,,,,,Y
323897,"HASSELT - FH05","BUILDING template",3959995,,3959995,Kroonwinningstraat,57,,,,,Y
323898,"HASSELT - FH05","BUILDING template",2423343,,2423343,Kroonwinningstraat,57,A,,,,Y
323899,"HASSELT - FH05","BUILDING template",328385,,328385,Kroonwinningstraat,58,,,,,Y
323900,"HASSELT - FH05","BUILDING template",4897797,,4897797,Kroonwinningstraat,59,,,,,Y
323901,"HASSELT - FH05","BUILDING template",2423346,,2423346,Kroonwinningstraat,60,,,,,Y
323902,"HASSELT - FH05","BUILDING template",328384,,328384,Kroonwinningstraat,61,,,,,Y
323903,"HASSELT - FH05","BUILDING template",2423347,,2423347,Kroonwinningstraat,62,,,,,Y
323904,"HASSELT - FH05","BUILDING template",2423348,,2423348,Kroonwinningstraat,64,,,,,Y
323905,"HASSELT - FH05","BUILDING template",2423350,,2423350,Kroonwinningstraat,65,,,,,Y
323906,"HASSELT - FH05","BUILDING template",2423352,,2423352,Kroonwinningstraat,70,,,,,Y
323907,"HASSELT - FH05","BUILDING template",2423355,,2423355,Kroonwinningstraat,72,,,,,Y
323908,"HASSELT - FH05","BUILDING template",4897819,,4897819,Kroonwinningstraat,80,,,,,Y
323909,"HASSELT - FH05","BUILDING template",708908,,708908,Kroonwinningstraat,82,,,,,Y
323910,"HASSELT - FH05","BUILDING template",708907,,708907,Kroonwinningstraat,84,,,,,Y
323911,"HASSELT - FH05","BUILDING template",21916,,21916,Kroonwinningstraat,86,,,,,Y
323912,"HASSELT - FH05","BUILDING template",4193754,,4193754,Lentestraat,1,,,,,Y
323913,"HASSELT - FH05","BUILDING template",328371,,328371,Lentestraat,3,,,,,Y
323914,"HASSELT - FH05","BUILDING template",4022873,,4022873,Lentestraat,5,,,,,Y
323915,"HASSELT - FH05","BUILDING template",2425666,,2425666,Lentestraat,7,,,,,Y
323916,"HASSELT - FH05","BUILDING template",328370,,328370,Lentestraat,8,,,,,Y
323917,"HASSELT - FH05","BUILDING template",2425667,,2425667,Lentestraat,9,,,,,Y
323918,"HASSELT - FH05","BUILDING template",1512520,,1512520,Lentestraat,10,,,,,Y
323919,"HASSELT - FH05","BUILDING template",2425670,,2425670,Lentestraat,11,,,,,Y
323920,"HASSELT - FH05","BUILDING template",2425673,,2425673,Lentestraat,12,,,,,Y
323921,"HASSELT - FH05","BUILDING template",2425674,,2425674,Lentestraat,14,,,,,Y
323922,"HASSELT - FH05","BUILDING template",2425675,,2425675,Lentestraat,14,A,,,,Y
323923,"HASSELT - FH05","BUILDING template",2425678,,2425678,Lentestraat,15,,,,,Y
323924,"HASSELT - FH05","BUILDING template",2425681,,2425681,Lentestraat,16,,,,,Y
323925,"HASSELT - FH05","BUILDING template",2425682,,2425682,Lentestraat,17,,,,,Y
323926,"HASSELT - FH05","BUILDING template",2425686,,2425686,Lentestraat,18,,,,,Y
323927,"HASSELT - FH05","BUILDING template",2425690,,2425690,Lentestraat,19,,,,,Y
323928,"HASSELT - FH05","BUILDING template",2425694,,2425694,Lentestraat,20,,,,,Y
323929,"HASSELT - FH05","BUILDING template",4896985,,4896985,Lentestraat,21,,,,,Y
323930,"HASSELT - FH05","BUILDING template",2425698,,2425698,Lentestraat,22,,,,,Y
323931,"HASSELT - FH05","BUILDING template",2425701,,2425701,Lentestraat,23,,,,,Y
323932,"HASSELT - FH05","BUILDING template",4209906,,4209906,Lentestraat,24,,,,,Y
323933,"HASSELT - FH05","BUILDING template",2425703,,2425703,Lentestraat,25,,,,,Y
323934,"HASSELT - FH05","BUILDING template",3937481,,3937481,Lentestraat,26,,,,,Y
323935,"HASSELT - FH05","BUILDING template",328374,,328374,Lentestraat,27,,,,,Y
323936,"HASSELT - FH05","BUILDING template",2425705,,2425705,Lentestraat,28,,,,,Y
323937,"HASSELT - FH05","BUILDING template",328372,,328372,Lentestraat,38,,,,,Y
323938,"HASSELT - FH05","BUILDING template",328373,,328373,Lentestraat,40,,,,,Y
323939,"HASSELT - FH05","BUILDING template",2425708,,2425708,Lentestraat,42,,,,,Y
323940,"HASSELT - FH05","BUILDING template",2425710,,2425710,Lentestraat,44,,,,,Y
323941,"HASSELT - FH05","BUILDING template",2425711,,2425711,Lentestraat,46,,,,,Y
323942,"HASSELT - FH05","BUILDING template",2425713,,2425713,Lentestraat,48,,,,,Y
323943,"HASSELT - FH05","BUILDING template",328375,,328375,Lentestraat,52,,,,,Y
323947,"HASSELT - FH05","BUILDING template",2426459,,2426459,Luikersteenweg,138,,,,,Y
323949,"HASSELT - FH05","BUILDING template",2426463,,2426463,Luikersteenweg,140,A,,,,Y
323950,"HASSELT - FH05","BUILDING template",2426466,,2426466,Luikersteenweg,140,B,,,,Y
323951,"HASSELT - FH05","BUILDING template",328566,,328566,Luikersteenweg,144,,,,,Y
323952,"HASSELT - FH05","BUILDING template",2426469,,2426469,Luikersteenweg,144,A,,,,Y
323953,"HASSELT - FH05","BUILDING template",2426473,,2426473,Luikersteenweg,144,B,,,,Y
323954,"HASSELT - FH05","BUILDING template",2426475,,2426475,Luikersteenweg,146,,,,,Y
323955,"HASSELT - FH05","BUILDING template",2426476,,2426476,Luikersteenweg,146,A,,,,Y
323956,"HASSELT - FH05","BUILDING template",328565,,328565,Luikersteenweg,150,,,,,Y
323957,"HASSELT - FH05","BUILDING template",4896928,,4896928,Luikersteenweg,152,,,,,Y
323958,"HASSELT - FH05","BUILDING template",2426482,,2426482,Luikersteenweg,154,,,,,Y
323959,"HASSELT - FH05","BUILDING template",2426484,,2426484,Luikersteenweg,156,,,,,Y
323960,"HASSELT - FH05","BUILDING template",2426488,,2426488,Luikersteenweg,158,,,,,Y
323961,"HASSELT - FH05","BUILDING template",2426493,,2426493,Luikersteenweg,160,,,,,Y
323962,"HASSELT - FH05","BUILDING template",2426494,,2426494,Luikersteenweg,162,,,,,Y
323963,"HASSELT - FH05","BUILDING template",328558,,328558,Luikersteenweg,164,,,,,Y
323964,"HASSELT - FH05","BUILDING template",328556,,328556,Luikersteenweg,166,,,,,Y
323965,"HASSELT - FH05","BUILDING template",2426499,,2426499,Luikersteenweg,168,,,,,Y
323966,"HASSELT - FH05","BUILDING template",2426502,,2426502,Luikersteenweg,170,,,,,Y
323967,"HASSELT - FH05","BUILDING template",2426503,,2426503,Luikersteenweg,172,,,,,Y
323968,"HASSELT - FH05","BUILDING template",2426504,,2426504,Luikersteenweg,174,,,,,Y
323969,"HASSELT - FH05","BUILDING template",2426506,,2426506,Luikersteenweg,176,,,,,Y
323970,"HASSELT - FH05","BUILDING template",2426507,,2426507,Luikersteenweg,178,,,,,Y
323971,"HASSELT - FH05","BUILDING template",2426509,,2426509,Luikersteenweg,180,,,,,Y
323972,"HASSELT - FH05","BUILDING template",4896868,,4896868,Luikersteenweg,182,,,,,Y
323973,"HASSELT - FH05","BUILDING template",2426514,,2426514,Luikersteenweg,184,,,,,Y
323974,"HASSELT - FH05","BUILDING template",2426516,,2426516,Luikersteenweg,186,,,,,Y
323975,"HASSELT - FH05","BUILDING template",2426517,,2426517,Luikersteenweg,188,,,,,Y
323976,"HASSELT - FH05","BUILDING template",4896871,,4896871,Luikersteenweg,190,,,,,Y
323977,"HASSELT - FH05","BUILDING template",2426522,,2426522,Luikersteenweg,192,,,,,Y
323978,"HASSELT - FH05","BUILDING template",2426526,,2426526,Luikersteenweg,194,,,,,Y
323979,"HASSELT - FH05","BUILDING template",4896959,,4896959,Luikersteenweg,196,,,,,Y
323980,"HASSELT - FH05","BUILDING template",1190701,,1190701,Luikersteenweg,198,,,,,Y
323981,"HASSELT - FH05","BUILDING template",1481618,,1481618,Luikersteenweg,200,,,,,Y
323982,"HASSELT - FH05","BUILDING template",2426533,,2426533,Luikersteenweg,202,,,,,Y
323983,"HASSELT - FH05","BUILDING template",4896963,,4896963,Luikersteenweg,204,,,,,Y
323984,"HASSELT - FH05","BUILDING template",2426536,,2426536,Luikersteenweg,206,,,,,Y
323985,"HASSELT - FH05","BUILDING template",327202,,327202,Luikersteenweg,208,,,,,Y
323986,"HASSELT - FH05","BUILDING template",2426540,,2426540,Luikersteenweg,210,,,,,Y
323987,"HASSELT - FH05","BUILDING template",2426542,,2426542,Luikersteenweg,212,,,,,Y
323988,"HASSELT - FH05","BUILDING template",1441625,,1441625,Luikersteenweg,214,,,,,Y
323989,"HASSELT - FH05","BUILDING template",328557,,328557,Luikersteenweg,216,,,,,Y
323990,"HASSELT - FH05","BUILDING template",328559,,328559,Luikersteenweg,218,,,,,Y
323991,"HASSELT - FH05","BUILDING template",2426545,,2426545,Luikersteenweg,220,,,,,Y
323992,"HASSELT - FH05","BUILDING template",4896855,,4896855,Luikersteenweg,222,,,,,Y
323993,"HASSELT - FH05","BUILDING template",2426547,,2426547,Luikersteenweg,224,,,,,Y
323994,"HASSELT - FH05","BUILDING template",1510695,,1510695,Luikersteenweg,226,,,,,Y
323995,"HASSELT - FH05","BUILDING template",1164602,,1164602,Luikersteenweg,228,,,,,Y
323996,"HASSELT - FH05","BUILDING template",328553,,328553,Luikersteenweg,230,,,,,Y
323997,"HASSELT - FH05","BUILDING template",2426562,,2426562,Luikersteenweg,232,,,,,Y
323998,"HASSELT - FH05","BUILDING template",2426288,,2426288,"Oude Luikerbaan",79,,,,,Y
323999,"HASSELT - FH05","BUILDING template",328576,,328576,"Oude Luikerbaan",81,,,,,Y
324000,"HASSELT - FH05","BUILDING template",2426291,,2426291,"Oude Luikerbaan",81,A,,,,Y
324001,"HASSELT - FH05","BUILDING template",328577,,328577,"Oude Luikerbaan",83,,,,,Y
324002,"HASSELT - FH05","BUILDING template",328544,,328544,"Oude Luikerbaan",89,,,,,Y
324003,"HASSELT - FH05","BUILDING template",4896742,,4896742,"Oude Luikerbaan",91,,,,,Y
324004,"HASSELT - FH05","BUILDING template",2426295,,2426295,"Oude Luikerbaan",93,,,,,Y
324005,"HASSELT - FH05","BUILDING template",2426296,,2426296,"Oude Luikerbaan",95,,,,,Y
324006,"HASSELT - FH05","BUILDING template",2426298,,2426298,"Oude Luikerbaan",96,,,,,Y
324007,"HASSELT - FH05","BUILDING template",2426301,,2426301,"Oude Luikerbaan",97,,,,,Y
324008,"HASSELT - FH05","BUILDING template",2426304,,2426304,"Oude Luikerbaan",99,,,,,Y
324009,"HASSELT - FH05","BUILDING template",2426306,,2426306,"Oude Luikerbaan",100,,,,,Y
324010,"HASSELT - FH05","BUILDING template",2426309,,2426309,"Oude Luikerbaan",101,,,,,Y
324011,"HASSELT - FH05","BUILDING template",2426310,,2426310,"Oude Luikerbaan",102,,,,,Y
324012,"HASSELT - FH05","BUILDING template",328541,,328541,"Oude Luikerbaan",103,,,,,Y
324013,"HASSELT - FH05","BUILDING template",2426312,,2426312,"Oude Luikerbaan",104,,,,,Y
324014,"HASSELT - FH05","BUILDING template",2426313,,2426313,"Oude Luikerbaan",105,,,,,Y
324015,"HASSELT - FH05","BUILDING template",2426315,,2426315,"Oude Luikerbaan",106,,,,,Y
324016,"HASSELT - FH05","BUILDING template",328542,,328542,"Oude Luikerbaan",107,,,,,Y
324017,"HASSELT - FH05","BUILDING template",2426317,,2426317,"Oude Luikerbaan",108,,,,,Y
324018,"HASSELT - FH05","BUILDING template",4227121,,4227121,"Oude Luikerbaan",110,,,,,Y
324019,"HASSELT - FH05","BUILDING template",2426318,,2426318,"Oude Luikerbaan",112,,,,,Y
324020,"HASSELT - FH05","BUILDING template",2426319,,2426319,"Oude Luikerbaan",118,,,,,Y
324021,"HASSELT - FH05","BUILDING template",2426320,,2426320,"Oude Luikerbaan",120,,,,,Y
324022,"HASSELT - FH05","BUILDING template",4896735,,4896735,"Oude Luikerbaan",121,,,,,Y
324023,"HASSELT - FH05","BUILDING template",2426322,,2426322,"Oude Luikerbaan",122,,,,,Y
324024,"HASSELT - FH05","BUILDING template",4896736,,4896736,"Oude Luikerbaan",123,,,,,Y
324025,"HASSELT - FH05","BUILDING template",4896738,,4896738,"Oude Luikerbaan",125,,,,,Y
324026,"HASSELT - FH05","BUILDING template",2426323,,2426323,"Oude Luikerbaan",126,,,,,Y
324027,"HASSELT - FH05","BUILDING template",3922303,,3922303,"Oude Luikerbaan",127,,,,,Y
324028,"HASSELT - FH05","BUILDING template",328546,,328546,"Oude Luikerbaan",138,,,,,Y
324029,"HASSELT - FH05","BUILDING template",2426326,,2426326,"Oude Luikerbaan",140,,,,,Y
324030,"HASSELT - FH05","BUILDING template",328540,,328540,"Oude Luikerbaan",142,,,,,Y
324031,"HASSELT - FH05","BUILDING template",2426330,,2426330,"Oude Luikerbaan",144,,,,,Y
324032,"HASSELT - FH05","BUILDING template",2426331,,2426331,"Oude Luikerbaan",146,,,,,Y
324033,"HASSELT - FH05","BUILDING template",2426332,,2426332,"Oude Luikerbaan",148,,,,,Y
324034,"HASSELT - FH05","BUILDING template",2426333,,2426333,"Oude Luikerbaan",150,,,,,Y
324035,"HASSELT - FH05","BUILDING template",3990101,,3990101,"Oude Luikerbaan",152,,,,,Y
324036,"HASSELT - FH05","BUILDING template",328543,,328543,"Oude Luikerbaan",156,,,,,Y
324037,"HASSELT - FH05","BUILDING template",2426334,,2426334,"Oude Luikerbaan",160,,,,,Y
324042,"HASSELT - FH05","BUILDING template",2406760,,2406760,Vier-Bundersstraat,2,,,,,Y
324043,"HASSELT - FH05","BUILDING template",4897745,,4897745,Vier-Bundersstraat,3,,,,,Y
324044,"HASSELT - FH05","BUILDING template",4897748,,4897748,Vier-Bundersstraat,4,,,,,Y
324045,"HASSELT - FH05","BUILDING template",2406762,,2406762,Vier-Bundersstraat,8,,,,,Y
324046,"HASSELT - FH05","BUILDING template",708909,,708909,Winterstraat,1,,,,,Y
324047,"HASSELT - FH05","BUILDING template",328362,,328362,Winterstraat,3,,,,,Y
324048,"HASSELT - FH05","BUILDING template",328366,,328366,Winterstraat,5,,,,,Y
324049,"HASSELT - FH05","BUILDING template",328365,,328365,Winterstraat,7,,,,,Y
324050,"HASSELT - FH05","BUILDING template",328368,,328368,Winterstraat,8,,,,,Y
324051,"HASSELT - FH05","BUILDING template",328364,,328364,Winterstraat,9,,,,,Y
324052,"HASSELT - FH05","BUILDING template",328367,,328367,Winterstraat,10,,,,,Y
324053,"HASSELT - FH05","BUILDING template",5751543,,5751543,Winterstraat,12,,,,,Y
324054,"HASSELT - FH05","BUILDING template",4896908,,4896908,Winterstraat,13,,,,,Y
324055,"HASSELT - FH05","BUILDING template",6391167,,6391167,Winterstraat,14,,,,,Y
324056,"HASSELT - FH05","BUILDING template",4896910,,4896910,Winterstraat,15,,,,,Y
324057,"HASSELT - FH05","BUILDING template",5908229,,5908229,Winterstraat,16,,,,,Y
324058,"HASSELT - FH05","BUILDING template",1319342,,1319342,Winterstraat,17,,,,,Y
324059,"HASSELT - FH05","BUILDING template",5751546,,5751546,Winterstraat,18,,,,,Y
324060,"HASSELT - FH05","BUILDING template",4896914,,4896914,Winterstraat,19,,,,,Y
324061,"HASSELT - FH05","BUILDING template",4176413,,4176413,Winterstraat,21,,,,,Y
324062,"HASSELT - FH05","BUILDING template",2407039,,2407039,Winterstraat,23,,,,,Y
324063,"HASSELT - FH05","BUILDING template",2407041,,2407041,Winterstraat,25,,,,,Y
324064,"HASSELT - FH05","BUILDING template",2407043,,2407043,Winterstraat,27,,,,,Y
324065,"HASSELT - FH05","BUILDING template",5751544,,5751544,Winterstraat,28,,,,,Y
324066,"HASSELT - FH05","BUILDING template",5431280,,5431280,Winterstraat,29,,,,,Y
324067,"HASSELT - FH05","BUILDING template",5778252,,5778252,Winterstraat,37,,,,,Y
324068,"HASSELT - FH05","BUILDING template",6199761,,6199761,Winterstraat,40,,,,,Y
324069,"HASSELT - FH05","BUILDING template",328567,,328567,Zomerstraat,1,,,,,Y
324070,"HASSELT - FH05","BUILDING template",328571,,328571,Zomerstraat,3,,,,,Y
324071,"HASSELT - FH05","BUILDING template",328575,,328575,Zomerstraat,4,,,,,Y
324072,"HASSELT - FH05","BUILDING template",328573,,328573,Zomerstraat,6,,,,,Y
324073,"HASSELT - FH05","BUILDING template",328570,,328570,Zomerstraat,10,,,,,Y
324074,"HASSELT - FH05","BUILDING template",328574,,328574,Zomerstraat,14,,,,,Y
324075,"HASSELT - FH05","BUILDING template",4896784,,4896784,Zomerstraat,16,,,,,Y
324076,"HASSELT - FH05","BUILDING template",328569,,328569,Zomerstraat,17,,,,,Y
324077,"HASSELT - FH05","BUILDING template",2448942,,2448942,Zomerstraat,18,,,,,Y
324078,"HASSELT - FH05","BUILDING template",2448946,,2448946,Zomerstraat,19,,,,,Y
324079,"HASSELT - FH05","BUILDING template",2448949,,2448949,Zomerstraat,20,,,,,Y
324080,"HASSELT - FH05","BUILDING template",2448953,,2448953,Zomerstraat,21,,,,,Y
324081,"HASSELT - FH05","BUILDING template",2448957,,2448957,Zomerstraat,22,,,,,Y
324082,"HASSELT - FH05","BUILDING template",4215406,,4215406,Zomerstraat,23,,,,,Y
324083,"HASSELT - FH05","BUILDING template",2448961,,2448961,Zomerstraat,24,,,,,Y
324084,"HASSELT - FH05","BUILDING template",2448963,,2448963,Zomerstraat,24,A,,,,Y
324085,"HASSELT - FH05","BUILDING template",2448966,,2448966,Zomerstraat,25,,,,,Y
324086,"HASSELT - FH05","BUILDING template",2448969,,2448969,Zomerstraat,26,,,,,Y
324088,"HASSELT - FH05","BUILDING template",4152416,,4152416,Zomerstraat,28,,,,,Y
324089,"HASSELT - FH05","BUILDING template",1516949,,1516949,Zomerstraat,30,,,,,Y
324090,"HASSELT - FH05","BUILDING template",2448974,,2448974,Zomerstraat,31,,,,,Y
324091,"HASSELT - FH05","BUILDING template",2448977,,2448977,Zomerstraat,32,,,,,Y
324092,"HASSELT - FH05","BUILDING template",4896791,,4896791,Zomerstraat,34,,,,,Y
324093,"HASSELT - FH05","BUILDING template",2448979,,2448979,Zomerstraat,40,,,,,Y
324094,"HASSELT - FH05","BUILDING template",2448980,,2448980,Zomerstraat,41,,,,,Y
324095,"HASSELT - FH05","BUILDING template",4232036,,4232036,Zomerstraat,42,,,,,Y
324096,"HASSELT - FH05","BUILDING template",2448981,,2448981,Zomerstraat,44,,,,,Y
324097,"HASSELT - FH05","BUILDING template",2448982,,2448982,Zomerstraat,46,,,,,Y
324098,"HASSELT - FH05","BUILDING template",4896825,,4896825,Zomerstraat,47,,,,,Y
324099,"HASSELT - FH05","BUILDING template",4896800,,4896800,Zomerstraat,48,,,,,Y
324100,"HASSELT - FH05","BUILDING template",2448983,,2448983,Zomerstraat,49,,,,,Y
324101,"HASSELT - FH05","BUILDING template",2448985,,2448985,Zomerstraat,51,,,,,Y
330493,"HASSELT - FH05","BUILDING template",6632807,,6632807,Zomerstraat,39,,,,,
344679,"HASSELT - FH05","BUILDING template",6632809,,6632809,Winterstraat,35,,,,,
376045,"HASSELT - FH05","BUILDING template",6632810,,6632810,Lentestraat,50,,,,,
376049,"HASSELT - FH05","BUILDING template",6632811,,6632811,Zomerstraat,29,,,,,
376051,"HASSELT - FH05","BUILDING template",6643766,,6643766,Zomerstraat,33,,,,,
376053,"HASSELT - FH05","BUILDING template",6632813,,6632813,Zomerstraat,45,,,,,
376079,"HASSELT - FH05","BUILDING template",6632824,,6632824,Winterstraat,11,,,,,
376083,"HASSELT - FH05","BUILDING template",6632825,,6632825,Winterstraat,31,,,,,
376087,"HASSELT - FH05","BUILDING template",6632826,,6632826,Winterstraat,39,,,,,
376089,"HASSELT - FH05","BUILDING template",6632827,,6632827,Winterstraat,42,,,,,
376091,"HASSELT - FH05","BUILDING template",6632828,,6632828,Winterstraat,38,,,,,
376093,"HASSELT - FH05","BUILDING template",6632829,,6632829,Winterstraat,36,,,,,
376095,"HASSELT - FH05","BUILDING template",6632830,,6632830,Winterstraat,34,,,,,
376103,"HASSELT - FH05","BUILDING template",6632831,,6632831,Winterstraat,32,,NEW,,,
386540,"HASSELT - FH05","BUILDING template",21906,,21906,Lentestraat,2,,,,,
386541,"HASSELT - FH05","BUILDING template",2412558,,2412558,Danielsstraat,2,A,,,,
386542,"HASSELT - FH05","BUILDING template",4896927,,4896927,Luikersteenweg,148,,,,,
386543,"HASSELT - FH05","BUILDING template",4897773,,4897773,Kroonwinningstraat,29,,,,,
386544,"HASSELT - FH05","BUILDING template",4897817,,4897817,Kroonwinningstraat,78,,,,,
386545,"HASSELT - FH05","BUILDING template",5927168,,5927168,Kroonwinningstraat,27,A,,,,
386546,"HASSELT - FH05","BUILDING template",5934865,,5934865,"Oude Luikerbaan",94,,,,,
386547,"HASSELT - FH05","BUILDING template",6019633,,6019633,Zomerstraat,37,,,,,
386548,"HASSELT - FH05","BUILDING template",6086484,,6086484,"Oude Luikerbaan",98,,,,,
386549,"HASSELT - FH05","BUILDING template",6149157,,6149157,Zomerstraat,43,,,,,
386550,"HASSELT - FH05","BUILDING template",6353281,,6353281,Zomerstraat,9,,,,,
386551,"HASSELT - FH05","BUILDING template",6536978,,6536978,Herfststraat,5,,,,,
386552,"HASSELT - FH05","BUILDING template",6550136,,6550136,Herfststraat,11,,,,,
386553,"HASSELT - FH05","BUILDING template",6556554,,6556554,Kroonwinningstraat,68,,,,,
386554,"HASSELT - FH05","BUILDING template",6556771,,6556771,Winterstraat,6,,,,,
386555,"HASSELT - FH05","BUILDING template",6590585,,6590585,"Gouverneur Roppesingel",129,,,,,
386556,"HASSELT - FH05","BUILDING template",6590586,,6590586,"Gouverneur Roppesingel",127,,,,,
386557,"HASSELT - FH05","BUILDING template",6590587,,6590587,"Gouverneur Roppesingel",125,,,,,
386558,"HASSELT - FH05","BUILDING template",6590588,,6590588,"Gouverneur Roppesingel",163,,,,,
386559,"HASSELT - FH05","BUILDING template",6590589,,6590589,"Gouverneur Roppesingel",161,,,,,
386560,"HASSELT - FH05","BUILDING template",6590590,,6590590,"Gouverneur Roppesingel",159,,,,,
386561,"HASSELT - FH05","BUILDING template",6590591,,6590591,"Gouverneur Roppesingel",157,,,,,
386562,"HASSELT - FH05","BUILDING template",6590592,,6590592,Herfststraat,12,,,,,
386563,"HASSELT - FH05","BUILDING template",6590593,,6590593,Herfststraat,10,,,,,
386564,"HASSELT - FH05","BUILDING template",6590594,,6590594,Herfststraat,4,,,,,
386565,"HASSELT - FH05","BUILDING template",6590595,,6590595,Herfststraat,33,,,,,
386634,"HASSELT - FH05","(L/B/S)U template",11138388,,21906,Lentestraat,2,,,,LU,
386635,"HASSELT - FH05","(L/B/S)U template",1189156,,21916,Kroonwinningstraat,86,,,,BU,
386636,"HASSELT - FH05","(L/B/S)U template",1165595,,327202,Luikersteenweg,208,,,,LU,
386637,"HASSELT - FH05","(L/B/S)U template",1171616,,328362,Winterstraat,3,,,,LU,
386638,"HASSELT - FH05","(L/B/S)U template",1190245,,328364,Winterstraat,9,,,,LU,
386639,"HASSELT - FH05","(L/B/S)U template",1186290,,328365,Winterstraat,7,,,,LU,
386640,"HASSELT - FH05","(L/B/S)U template",1180685,,328366,Winterstraat,5,,,,LU,
386641,"HASSELT - FH05","(L/B/S)U template",1153708,,328367,Winterstraat,10,,,,LU,
386642,"HASSELT - FH05","(L/B/S)U template",1188342,,328368,Winterstraat,8,,,,LU,
386643,"HASSELT - FH05","(L/B/S)U template",1188339,,328370,Lentestraat,8,,,,LU,
386644,"HASSELT - FH05","(L/B/S)U template",1171614,,328371,Lentestraat,3,,,,LU,
386645,"HASSELT - FH05","(L/B/S)U template",1175473,,328372,Lentestraat,38,,,,LU,
386646,"HASSELT - FH05","(L/B/S)U template",1177127,,328373,Lentestraat,40,,,,LU,
386647,"HASSELT - FH05","(L/B/S)U template",1169602,,328374,Lentestraat,27,,,,LU,
386648,"HASSELT - FH05","(L/B/S)U template",1181507,,328375,Lentestraat,52,,,,LU,
386649,"HASSELT - FH05","(L/B/S)U template",1164756,,328376,Kroonwinningstraat,2,,,,LU,
386650,"HASSELT - FH05","(L/B/S)U template",1152998,,328377,Kroonwinningstraat,1,,,,LU,
386651,"HASSELT - FH05","(L/B/S)U template",1153709,,328378,Kroonwinningstraat,10,,,,LU,
386652,"HASSELT - FH05","(L/B/S)U template",1156473,,328379,Kroonwinningstraat,12,,,,LU,
386653,"HASSELT - FH05","(L/B/S)U template",1158874,,328380,Kroonwinningstraat,14,,,,LU,
386654,"HASSELT - FH05","(L/B/S)U template",1168547,,328381,Kroonwinningstraat,25,,,,LU,
386655,"HASSELT - FH05","(L/B/S)U template",1179699,,328382,Kroonwinningstraat,48,,,,LU,
386656,"HASSELT - FH05","(L/B/S)U template",1184207,,328384,Kroonwinningstraat,61,,,,LU,
386657,"HASSELT - FH05","(L/B/S)U template",1182784,,328385,Kroonwinningstraat,58,,,,LU,
386658,"HASSELT - FH05","(L/B/S)U template",1159040,,328540,"Oude Luikerbaan",142,,,,LU,
386659,"HASSELT - FH05","(L/B/S)U template",1154118,,328541,"Oude Luikerbaan",103,,,,LU,
386660,"HASSELT - FH05","(L/B/S)U template",1154326,,328542,"Oude Luikerbaan",107,,,,LU,
386661,"HASSELT - FH05","(L/B/S)U template",1160357,,328543,"Oude Luikerbaan",156,,,,LU,
386662,"HASSELT - FH05","(L/B/S)U template",1189428,,328544,"Oude Luikerbaan",89,,,,LU,
386663,"HASSELT - FH05","(L/B/S)U template",1158283,,328546,"Oude Luikerbaan",138,,,,LU,
386664,"HASSELT - FH05","(L/B/S)U template",1171613,,328547,Danielsstraat,3,,,,LU,
386665,"HASSELT - FH05","(L/B/S)U template",1156471,,328548,Danielsstraat,12,,,,LU,
386666,"HASSELT - FH05","(L/B/S)U template",1166172,,328549,Danielsstraat,21,,,,LU,
386667,"HASSELT - FH05","(L/B/S)U template",1169062,,328550,Danielsstraat,26,,,,LU,
386668,"HASSELT - FH05","(L/B/S)U template",1168543,,328551,Danielsstraat,25,,,,LU,
386669,"HASSELT - FH05","(L/B/S)U template",1167505,,328553,Luikersteenweg,230,,,,BU,
386670,"HASSELT - FH05","(L/B/S)U template",11138424,,328553,Luikersteenweg,230,,,,SU,
386671,"HASSELT - FH05","(L/B/S)U template",1161266,,328556,Luikersteenweg,166,,,,LU,
386672,"HASSELT - FH05","(L/B/S)U template",1166344,,328557,Luikersteenweg,216,,,,LU,
386673,"HASSELT - FH05","(L/B/S)U template",1161161,,328558,Luikersteenweg,164,,,,LU,
386674,"HASSELT - FH05","(L/B/S)U template",1166375,,328559,Luikersteenweg,218,,,,LU,
386675,"HASSELT - FH05","(L/B/S)U template",1160089,,328565,Luikersteenweg,150,,,,LU,
386676,"HASSELT - FH05","(L/B/S)U template",1159110,,328566,Luikersteenweg,144,,,,LU,
386677,"HASSELT - FH05","(L/B/S)U template",1152994,,328567,Zomerstraat,1,,,,LU,
386678,"HASSELT - FH05","(L/B/S)U template",1161867,,328569,Zomerstraat,17,,,,LU,
386679,"HASSELT - FH05","(L/B/S)U template",1153705,,328570,Zomerstraat,10,,,,LU,
386680,"HASSELT - FH05","(L/B/S)U template",1170804,,328571,Zomerstraat,3,,,,LU,
386681,"HASSELT - FH05","(L/B/S)U template",1170810,,328571,Zomerstraat,3,,,,LU,
386682,"HASSELT - FH05","(L/B/S)U template",1170847,,328571,Zomerstraat,3,,,,LU,
386683,"HASSELT - FH05","(L/B/S)U template",1170880,,328571,Zomerstraat,3,,,,LU,
386684,"HASSELT - FH05","(L/B/S)U template",1170904,,328571,Zomerstraat,3,,,,LU,
386685,"HASSELT - FH05","(L/B/S)U template",1183774,,328573,Zomerstraat,6,,,,LU,
386686,"HASSELT - FH05","(L/B/S)U template",1158872,,328574,Zomerstraat,14,,,,LU,
386687,"HASSELT - FH05","(L/B/S)U template",1176764,,328575,Zomerstraat,4,,,,LU,
386688,"HASSELT - FH05","(L/B/S)U template",1188597,,328576,"Oude Luikerbaan",81,,,,LU,
386689,"HASSELT - FH05","(L/B/S)U template",1188817,,328577,"Oude Luikerbaan",83,,,,BU,
386690,"HASSELT - FH05","(L/B/S)U template",11138427,,328577,"Oude Luikerbaan",83,,,,SU,
386691,"HASSELT - FH05","(L/B/S)U template",1152996,,328580,Herfststraat,1,,,,LU,
386692,"HASSELT - FH05","(L/B/S)U template",1183776,,328582,Herfststraat,6,,,,LU,
386697,"HASSELT - FH05","(L/B/S)U template",1182218,,708707,Kroonwinningstraat,55,,,,LU,
386698,"HASSELT - FH05","(L/B/S)U template",1188933,,708907,Kroonwinningstraat,84,,,,LU,
386699,"HASSELT - FH05","(L/B/S)U template",1188689,,708908,Kroonwinningstraat,82,,,,LU,
386700,"HASSELT - FH05","(L/B/S)U template",1152997,,708909,Winterstraat,1,,,,LU,
386701,"HASSELT - FH05","(L/B/S)U template",1167012,,1164602,Luikersteenweg,228,,,,BU,
386702,"HASSELT - FH05","(L/B/S)U template",11138423,,1164602,Luikersteenweg,228,,,,SU,
386703,"HASSELT - FH05","(L/B/S)U template",1163841,,1190701,Luikersteenweg,198,,,,LU,
386704,"HASSELT - FH05","(L/B/S)U template",1161869,,1319342,Winterstraat,17,,,,LU,
386705,"HASSELT - FH05","(L/B/S)U template",1154532,,1323149,"Anne Frankplein",11,,,,LU,
386706,"HASSELT - FH05","(L/B/S)U template",1154533,,1323149,"Anne Frankplein",11,,,,LU,
386707,"HASSELT - FH05","(L/B/S)U template",1154565,,1323149,"Anne Frankplein",11,,,,LU,
386708,"HASSELT - FH05","(L/B/S)U template",1154566,,1323149,"Anne Frankplein",11,,,,LU,
386709,"HASSELT - FH05","(L/B/S)U template",1154593,,1323149,"Anne Frankplein",11,,,,LU,
386710,"HASSELT - FH05","(L/B/S)U template",1154594,,1323149,"Anne Frankplein",11,,,,LU,
386711,"HASSELT - FH05","(L/B/S)U template",1154625,,1323149,"Anne Frankplein",11,,,,LU,
386712,"HASSELT - FH05","(L/B/S)U template",1154626,,1323149,"Anne Frankplein",11,,,,BU,
386713,"HASSELT - FH05","(L/B/S)U template",11125006,,1323149,"Anne Frankplein",11,,,,SU,
386714,"HASSELT - FH05","(L/B/S)U template",1186293,,1366867,Kroonwinningstraat,7,,,,LU,
386715,"HASSELT - FH05","(L/B/S)U template",1166321,,1441625,Luikersteenweg,214,,,,LU,
386716,"HASSELT - FH05","(L/B/S)U template",1165396,,1481618,Luikersteenweg,200,,,,LU,
386717,"HASSELT - FH05","(L/B/S)U template",1166971,,1510695,Luikersteenweg,226,,,,LU,
386718,"HASSELT - FH05","(L/B/S)U template",1153706,,1512520,Lentestraat,10,,,,LU,
386719,"HASSELT - FH05","(L/B/S)U template",1171990,,1516949,Zomerstraat,30,,,,LU,
386720,"HASSELT - FH05","(L/B/S)U template",1157965,,2405870,"Gouverneur Roppesingel",131,,,,BU,
386721,"HASSELT - FH05","(L/B/S)U template",11138410,,2405870,"Gouverneur Roppesingel",131,,,,SU,
386722,"HASSELT - FH05","(L/B/S)U template",10734943,,2405872,"Gouverneur Roppesingel",133,,,,BU,
386723,"HASSELT - FH05","(L/B/S)U template",11138412,,2405872,"Gouverneur Roppesingel",133,,,,SU,
386724,"HASSELT - FH05","(L/B/S)U template",1161178,,2405875,"Gouverneur Roppesingel",165,,,,BU,
386725,"HASSELT - FH05","(L/B/S)U template",11138411,,2405875,"Gouverneur Roppesingel",165,,,,SU,
386726,"HASSELT - FH05","(L/B/S)U template",1164765,,2406760,Vier-Bundersstraat,2,,,,LU,
386727,"HASSELT - FH05","(L/B/S)U template",1188350,,2406762,Vier-Bundersstraat,8,,,,LU,
386728,"HASSELT - FH05","(L/B/S)U template",1167474,,2407039,Winterstraat,23,,,,LU,
386729,"HASSELT - FH05","(L/B/S)U template",1168548,,2407041,Winterstraat,25,,,,LU,
386730,"HASSELT - FH05","(L/B/S)U template",1169604,,2407043,Winterstraat,27,,,,LU,
386731,"HASSELT - FH05","(L/B/S)U template",1152148,,2407163,"Anne Frankplein",1,,,,LU,
386732,"HASSELT - FH05","(L/B/S)U template",1152149,,2407163,"Anne Frankplein",1,,,,LU,
386733,"HASSELT - FH05","(L/B/S)U template",1152240,,2407163,"Anne Frankplein",1,,,,LU,
386734,"HASSELT - FH05","(L/B/S)U template",1152241,,2407163,"Anne Frankplein",1,,,,LU,
386735,"HASSELT - FH05","(L/B/S)U template",1152242,,2407163,"Anne Frankplein",1,,,,LU,
386736,"HASSELT - FH05","(L/B/S)U template",1152312,,2407163,"Anne Frankplein",1,,,,LU,
386737,"HASSELT - FH05","(L/B/S)U template",11124997,,2407163,"Anne Frankplein",1,,,,SU,
386738,"HASSELT - FH05","(L/B/S)U template",1170799,,2407166,"Anne Frankplein",3,,,,LU,
386739,"HASSELT - FH05","(L/B/S)U template",1170866,,2407166,"Anne Frankplein",3,,,,LU,
386740,"HASSELT - FH05","(L/B/S)U template",1170867,,2407166,"Anne Frankplein",3,,,,LU,
386741,"HASSELT - FH05","(L/B/S)U template",1170927,,2407166,"Anne Frankplein",3,,,,LU,
386742,"HASSELT - FH05","(L/B/S)U template",1170979,,2407166,"Anne Frankplein",3,,,,LU,
386743,"HASSELT - FH05","(L/B/S)U template",11124998,,2407166,"Anne Frankplein",3,,,,LU,
386744,"HASSELT - FH05","(L/B/S)U template",11124999,,2407166,"Anne Frankplein",3,,,,LU,
386745,"HASSELT - FH05","(L/B/S)U template",11125000,,2407166,"Anne Frankplein",3,,,,SU,
386746,"HASSELT - FH05","(L/B/S)U template",1175968,,2407169,"Anne Frankplein",4,,,,LU,
386747,"HASSELT - FH05","(L/B/S)U template",1175973,,2407169,"Anne Frankplein",4,,,,LU,
386748,"HASSELT - FH05","(L/B/S)U template",1176008,,2407169,"Anne Frankplein",4,,,,LU,
386749,"HASSELT - FH05","(L/B/S)U template",1176020,,2407169,"Anne Frankplein",4,,,,LU,
386750,"HASSELT - FH05","(L/B/S)U template",1176055,,2407169,"Anne Frankplein",4,,,,LU,
386751,"HASSELT - FH05","(L/B/S)U template",1176072,,2407169,"Anne Frankplein",4,,,,LU,
386752,"HASSELT - FH05","(L/B/S)U template",11125001,,2407169,"Anne Frankplein",4,,,,SU,
386753,"HASSELT - FH05","(L/B/S)U template",1180004,,2407170,"Anne Frankplein",5,,,,LU,
386754,"HASSELT - FH05","(L/B/S)U template",1180060,,2407170,"Anne Frankplein",5,,,,LU,
386755,"HASSELT - FH05","(L/B/S)U template",1180117,,2407170,"Anne Frankplein",5,,,,LU,
386756,"HASSELT - FH05","(L/B/S)U template",1180154,,2407170,"Anne Frankplein",5,,,,LU,
386757,"HASSELT - FH05","(L/B/S)U template",11125002,,2407170,"Anne Frankplein",5,,,,SU,
386758,"HASSELT - FH05","(L/B/S)U template",1183017,,2407172,"Anne Frankplein",6,,,,LU,
386759,"HASSELT - FH05","(L/B/S)U template",1183019,,2407172,"Anne Frankplein",6,,,,LU,
386760,"HASSELT - FH05","(L/B/S)U template",1183086,,2407172,"Anne Frankplein",6,,,,LU,
386761,"HASSELT - FH05","(L/B/S)U template",1183091,,2407172,"Anne Frankplein",6,,,,LU,
386762,"HASSELT - FH05","(L/B/S)U template",1183156,,2407172,"Anne Frankplein",6,,,,LU,
386764,"HASSELT - FH05","(L/B/S)U template",1183173,,2407172,"Anne Frankplein",6,,,,LU,
386765,"HASSELT - FH05","(L/B/S)U template",11125003,,2407172,"Anne Frankplein",6,,,,SU,
386766,"HASSELT - FH05","(L/B/S)U template",1187623,,2407173,"Anne Frankplein",8,,,,LU,
386767,"HASSELT - FH05","(L/B/S)U template",1187624,,2407173,"Anne Frankplein",8,,,,LU,
386768,"HASSELT - FH05","(L/B/S)U template",1187649,,2407173,"Anne Frankplein",8,,,,LU,
386769,"HASSELT - FH05","(L/B/S)U template",1187650,,2407173,"Anne Frankplein",8,,,,LU,
386770,"HASSELT - FH05","(L/B/S)U template",1187694,,2407173,"Anne Frankplein",8,,,,LU,
386771,"HASSELT - FH05","(L/B/S)U template",1187695,,2407173,"Anne Frankplein",8,,,,LU,
386772,"HASSELT - FH05","(L/B/S)U template",1187725,,2407173,"Anne Frankplein",8,,,,LU,
386773,"HASSELT - FH05","(L/B/S)U template",1187726,,2407173,"Anne Frankplein",8,,,,LU,
386774,"HASSELT - FH05","(L/B/S)U template",1187748,,2407173,"Anne Frankplein",8,,,,LU,
386775,"HASSELT - FH05","(L/B/S)U template",11138409,,2407173,"Anne Frankplein",8,,,,SU,
386776,"HASSELT - FH05","(L/B/S)U template",1189447,,2407175,"Anne Frankplein",9,,,,LU,
386777,"HASSELT - FH05","(L/B/S)U template",1189448,,2407175,"Anne Frankplein",9,,,,LU,
386778,"HASSELT - FH05","(L/B/S)U template",1189488,,2407175,"Anne Frankplein",9,,,,LU,
386779,"HASSELT - FH05","(L/B/S)U template",1189489,,2407175,"Anne Frankplein",9,,,,LU,
386780,"HASSELT - FH05","(L/B/S)U template",1189531,,2407175,"Anne Frankplein",9,,,,LU,
386781,"HASSELT - FH05","(L/B/S)U template",1189532,,2407175,"Anne Frankplein",9,,,,LU,
386782,"HASSELT - FH05","(L/B/S)U template",1189574,,2407175,"Anne Frankplein",9,,,,LU,
386783,"HASSELT - FH05","(L/B/S)U template",1189575,,2407175,"Anne Frankplein",9,,,,LU,
386784,"HASSELT - FH05","(L/B/S)U template",1189597,,2407175,"Anne Frankplein",9,,,,LU,
386785,"HASSELT - FH05","(L/B/S)U template",1189612,,2407175,"Anne Frankplein",9,,,,LU,
386786,"HASSELT - FH05","(L/B/S)U template",11125004,,2407175,"Anne Frankplein",9,,,,SU,
386787,"HASSELT - FH05","(L/B/S)U template",1153049,,2407176,"Anne Frankplein",10,,,,LU,
386788,"HASSELT - FH05","(L/B/S)U template",1153050,,2407176,"Anne Frankplein",10,,,,LU,
386789,"HASSELT - FH05","(L/B/S)U template",1153101,,2407176,"Anne Frankplein",10,,,,LU,
386790,"HASSELT - FH05","(L/B/S)U template",1153102,,2407176,"Anne Frankplein",10,,,,LU,
386791,"HASSELT - FH05","(L/B/S)U template",1153135,,2407176,"Anne Frankplein",10,,,,LU,
386792,"HASSELT - FH05","(L/B/S)U template",1153136,,2407176,"Anne Frankplein",10,,,,LU,
386793,"HASSELT - FH05","(L/B/S)U template",1153170,,2407176,"Anne Frankplein",10,,,,LU,
386794,"HASSELT - FH05","(L/B/S)U template",1153171,,2407176,"Anne Frankplein",10,,,,LU,
386795,"HASSELT - FH05","(L/B/S)U template",1153203,,2407176,"Anne Frankplein",10,,,,LU,
386796,"HASSELT - FH05","(L/B/S)U template",11125005,,2407176,"Anne Frankplein",10,,,,SU,
386797,"HASSELT - FH05","(L/B/S)U template",1155925,,2407181,"Anne Frankplein",12,,,,LU,
386807,"HASSELT - FH05","(L/B/S)U template",11125008,,2407181,"Anne Frankplein",12,,,,LU,
386809,"HASSELT - FH05","(L/B/S)U template",1157150,,2407182,"Anne Frankplein",13,,,,LU,
386810,"HASSELT - FH05","(L/B/S)U template",1157179,,2407182,"Anne Frankplein",13,,,,LU,
386811,"HASSELT - FH05","(L/B/S)U template",1157180,,2407182,"Anne Frankplein",13,,,,LU,
386812,"HASSELT - FH05","(L/B/S)U template",1157216,,2407182,"Anne Frankplein",13,,,,LU,
386813,"HASSELT - FH05","(L/B/S)U template",1157217,,2407182,"Anne Frankplein",13,,,,LU,
386814,"HASSELT - FH05","(L/B/S)U template",1157250,,2407182,"Anne Frankplein",13,,,,LU,
386815,"HASSELT - FH05","(L/B/S)U template",1157251,,2407182,"Anne Frankplein",13,,,,LU,
386816,"HASSELT - FH05","(L/B/S)U template",1157270,,2407182,"Anne Frankplein",13,,,,LU,
386817,"HASSELT - FH05","(L/B/S)U template",1157271,,2407182,"Anne Frankplein",13,,,,LU,
386818,"HASSELT - FH05","(L/B/S)U template",1157359,,2407182,"Anne Frankplein",13,,,,BU,
386819,"HASSELT - FH05","(L/B/S)U template",11125011,,2407182,"Anne Frankplein",13,,,,SU,
386820,"HASSELT - FH05","(L/B/S)U template",1158348,,2407184,"Anne Frankplein",14,,,,LU,
386821,"HASSELT - FH05","(L/B/S)U template",1158349,,2407184,"Anne Frankplein",14,,,,LU,
386822,"HASSELT - FH05","(L/B/S)U template",1158368,,2407184,"Anne Frankplein",14,,,,LU,
386823,"HASSELT - FH05","(L/B/S)U template",1158369,,2407184,"Anne Frankplein",14,,,,LU,
386824,"HASSELT - FH05","(L/B/S)U template",1158392,,2407184,"Anne Frankplein",14,,,,LU,
386825,"HASSELT - FH05","(L/B/S)U template",1158393,,2407184,"Anne Frankplein",14,,,,LU,
386826,"HASSELT - FH05","(L/B/S)U template",1158420,,2407184,"Anne Frankplein",14,,,,LU,
386827,"HASSELT - FH05","(L/B/S)U template",11125012,,2407184,"Anne Frankplein",14,,,,BU,
386828,"HASSELT - FH05","(L/B/S)U template",11125013,,2407184,"Anne Frankplein",14,,,,SU,
386829,"HASSELT - FH05","(L/B/S)U template",1159350,,2407186,"Anne Frankplein",15,,,,LU,
386830,"HASSELT - FH05","(L/B/S)U template",1159401,,2407186,"Anne Frankplein",15,,,,LU,
386831,"HASSELT - FH05","(L/B/S)U template",1159402,,2407186,"Anne Frankplein",15,,,,LU,
386832,"HASSELT - FH05","(L/B/S)U template",1159457,,2407186,"Anne Frankplein",15,,,,LU,
386833,"HASSELT - FH05","(L/B/S)U template",1159458,,2407186,"Anne Frankplein",15,,,,LU,
386834,"HASSELT - FH05","(L/B/S)U template",1159505,,2407186,"Anne Frankplein",15,,,,LU,
386835,"HASSELT - FH05","(L/B/S)U template",1159506,,2407186,"Anne Frankplein",15,,,,LU,
386836,"HASSELT - FH05","(L/B/S)U template",11125014,,2407186,"Anne Frankplein",15,,,,LU,
386837,"HASSELT - FH05","(L/B/S)U template",1160476,,2407189,"Anne Frankplein",16,,,,LU,
386838,"HASSELT - FH05","(L/B/S)U template",1160477,,2407189,"Anne Frankplein",16,,,,LU,
386839,"HASSELT - FH05","(L/B/S)U template",1160497,,2407189,"Anne Frankplein",16,,,,LU,
386840,"HASSELT - FH05","(L/B/S)U template",1160498,,2407189,"Anne Frankplein",16,,,,LU,
386841,"HASSELT - FH05","(L/B/S)U template",1160515,,2407189,"Anne Frankplein",16,,,,LU,
386842,"HASSELT - FH05","(L/B/S)U template",1160528,,2407189,"Anne Frankplein",16,,,,LU,
386843,"HASSELT - FH05","(L/B/S)U template",11125018,,2407189,"Anne Frankplein",16,,,,SU,
386844,"HASSELT - FH05","(L/B/S)U template",1161340,,2407191,"Anne Frankplein",17,,,,BU,
386845,"HASSELT - FH05","(L/B/S)U template",1186292,,2407321,Herfststraat,7,,,,LU,
386846,"HASSELT - FH05","(L/B/S)U template",1188343,,2407322,Herfststraat,8,,,,LU,
386847,"HASSELT - FH05","(L/B/S)U template",1152993,,2412553,Danielsstraat,1,,,,LU,
386848,"HASSELT - FH05","(L/B/S)U template",1164752,,2412555,Danielsstraat,2,,,,LU,
386849,"HASSELT - FH05","(L/B/S)U template",11138369,,2412558,Danielsstraat,2,A,,,BU,
386851,"HASSELT - FH05","(L/B/S)U template",1186288,,2412560,Danielsstraat,7,,,,LU,
386852,"HASSELT - FH05","(L/B/S)U template",1188340,,2412563,Danielsstraat,8,,,,LU,
386853,"HASSELT - FH05","(L/B/S)U template",1190243,,2412565,Danielsstraat,9,,,,LU,
386854,"HASSELT - FH05","(L/B/S)U template",1155180,,2412568,Danielsstraat,11,,,,LU,
386855,"HASSELT - FH05","(L/B/S)U template",1157831,,2412572,Danielsstraat,13,,,,LU,
386856,"HASSELT - FH05","(L/B/S)U template",1158871,,2412574,Danielsstraat,14,,,,LU,
386857,"HASSELT - FH05","(L/B/S)U template",1160918,,2412575,Danielsstraat,16,,,,LU,
386858,"HASSELT - FH05","(L/B/S)U template",1161865,,2412577,Danielsstraat,17,,,,LU,
386859,"HASSELT - FH05","(L/B/S)U template",1162665,,2412580,Danielsstraat,18,,,,LU,
386860,"HASSELT - FH05","(L/B/S)U template",1163533,,2412582,Danielsstraat,19,,,,LU,
386861,"HASSELT - FH05","(L/B/S)U template",1167471,,2412585,Danielsstraat,23,,,,LU,
386862,"HASSELT - FH05","(L/B/S)U template",1168045,,2412588,Danielsstraat,24,,,,LU,
386863,"HASSELT - FH05","(L/B/S)U template",1169603,,2412591,Danielsstraat,27,,,,LU,
386864,"HASSELT - FH05","(L/B/S)U template",1170644,,2412594,Danielsstraat,29,,,,LU,
386865,"HASSELT - FH05","(L/B/S)U template",1172138,,2412597,Danielsstraat,31,,,,LU,
386866,"HASSELT - FH05","(L/B/S)U template",1172139,,2412597,Danielsstraat,31,,,,LU,
386867,"HASSELT - FH05","(L/B/S)U template",1172153,,2412597,Danielsstraat,31,,,,LU,
386868,"HASSELT - FH05","(L/B/S)U template",1172154,,2412597,Danielsstraat,31,,,,LU,
386869,"HASSELT - FH05","(L/B/S)U template",1172156,,2412597,Danielsstraat,31,,,,LU,
386870,"HASSELT - FH05","(L/B/S)U template",1172175,,2412597,Danielsstraat,31,,,,LU,
386871,"HASSELT - FH05","(L/B/S)U template",1171617,,2423284,Kroonwinningstraat,3,,,,LU,
386872,"HASSELT - FH05","(L/B/S)U template",1176766,,2423285,Kroonwinningstraat,4,,,,LU,
386873,"HASSELT - FH05","(L/B/S)U template",1180686,,2423287,Kroonwinningstraat,5,,,,LU,
386874,"HASSELT - FH05","(L/B/S)U template",1183777,,2423288,Kroonwinningstraat,6,,,,LU,
386875,"HASSELT - FH05","(L/B/S)U template",1186291,,2423291,Kroonwinningstraat,7,A,,,LU,
386876,"HASSELT - FH05","(L/B/S)U template",1188344,,2423293,Kroonwinningstraat,8,,,,LU,
386877,"HASSELT - FH05","(L/B/S)U template",1190246,,2423296,Kroonwinningstraat,9,,,,LU,
386878,"HASSELT - FH05","(L/B/S)U template",1160019,,2423298,Kroonwinningstraat,15,,,,LU,
386879,"HASSELT - FH05","(L/B/S)U template",1166174,,2423299,Kroonwinningstraat,21,,,,LU,
386880,"HASSELT - FH05","(L/B/S)U template",1169605,,2423301,Kroonwinningstraat,27,,,,LU,
386881,"HASSELT - FH05","(L/B/S)U template",1172459,,2423305,Kroonwinningstraat,31,,,,LU,
386882,"HASSELT - FH05","(L/B/S)U template",1172901,,2423306,Kroonwinningstraat,32,,,,LU,
386883,"HASSELT - FH05","(L/B/S)U template",1175474,,2423307,Kroonwinningstraat,38,,,,LU,
386884,"HASSELT - FH05","(L/B/S)U template",1177489,,2423310,Kroonwinningstraat,41,,,,LU,
386885,"HASSELT - FH05","(L/B/S)U template",1177849,,2423313,Kroonwinningstraat,42,,,,LU,
386886,"HASSELT - FH05","(L/B/S)U template",1178238,,2423318,Kroonwinningstraat,43,,,,LU,
386887,"HASSELT - FH05","(L/B/S)U template",1178562,,2423320,Kroonwinningstraat,44,,,,LU,
386888,"HASSELT - FH05","(L/B/S)U template",1178823,,2423323,Kroonwinningstraat,45,,,,LU,
386889,"HASSELT - FH05","(L/B/S)U template",1179130,,2423325,Kroonwinningstraat,46,,,,LU,
386890,"HASSELT - FH05","(L/B/S)U template",1179927,,2423328,Kroonwinningstraat,49,,,,LU,
386891,"HASSELT - FH05","(L/B/S)U template",1180955,,2423331,Kroonwinningstraat,50,,,,LU,
386892,"HASSELT - FH05","(L/B/S)U template",10731225,,2423335,Kroonwinningstraat,51,,,,LU,
386893,"HASSELT - FH05","(L/B/S)U template",10731227,,2423337,Kroonwinningstraat,53,,,,LU,
386894,"HASSELT - FH05","(L/B/S)U template",1181968,,2423340,Kroonwinningstraat,54,,,,LU,
386895,"HASSELT - FH05","(L/B/S)U template",1182575,,2423343,Kroonwinningstraat,57,A,,,LU,
386896,"HASSELT - FH05","(L/B/S)U template",11124972,,2423343,Kroonwinningstraat,57,A,,,BU,
386897,"HASSELT - FH05","(L/B/S)U template",1183996,,2423346,Kroonwinningstraat,60,,,,LU,
386898,"HASSELT - FH05","(L/B/S)U template",1184362,,2423347,Kroonwinningstraat,62,,,,LU,
386899,"HASSELT - FH05","(L/B/S)U template",1184712,,2423348,Kroonwinningstraat,64,,,,LU,
386900,"HASSELT - FH05","(L/B/S)U template",1184859,,2423350,Kroonwinningstraat,65,,,,LU,
386901,"HASSELT - FH05","(L/B/S)U template",1186497,,2423352,Kroonwinningstraat,70,,,,LU,
386902,"HASSELT - FH05","(L/B/S)U template",1186745,,2423355,Kroonwinningstraat,72,,,,LU,
386903,"HASSELT - FH05","(L/B/S)U template",1186289,,2425666,Lentestraat,7,,,,LU,
386904,"HASSELT - FH05","(L/B/S)U template",11124973,,2425666,Lentestraat,7,,,,LU,
386905,"HASSELT - FH05","(L/B/S)U template",1190242,,2425667,Lentestraat,9,,,,LU,
386906,"HASSELT - FH05","(L/B/S)U template",1155181,,2425670,Lentestraat,11,,,,LU,
386907,"HASSELT - FH05","(L/B/S)U template",10731220,,2425673,Lentestraat,12,,,,LU,
386908,"HASSELT - FH05","(L/B/S)U template",10734942,,2425674,Lentestraat,14,,,,BU,
386909,"HASSELT - FH05","(L/B/S)U template",10735383,,2425674,Lentestraat,14,,,,LU,
386910,"HASSELT - FH05","(L/B/S)U template",1158869,,2425675,Lentestraat,14,A,,,BU,
386911,"HASSELT - FH05","(L/B/S)U template",1160016,,2425678,Lentestraat,15,,,,LU,
386912,"HASSELT - FH05","(L/B/S)U template",1160919,,2425681,Lentestraat,16,,,,LU,
386913,"HASSELT - FH05","(L/B/S)U template",1161866,,2425682,Lentestraat,17,,,,LU,
386914,"HASSELT - FH05","(L/B/S)U template",1162156,,2425686,Lentestraat,18,,,,LU,
386915,"HASSELT - FH05","(L/B/S)U template",1162169,,2425686,Lentestraat,18,,,,BU,
386916,"HASSELT - FH05","(L/B/S)U template",1163532,,2425690,Lentestraat,19,,,,LU,
386917,"HASSELT - FH05","(L/B/S)U template",1165327,,2425694,Lentestraat,20,,,,LU,
386918,"HASSELT - FH05","(L/B/S)U template",1166788,,2425698,Lentestraat,22,,,,LU,
386919,"HASSELT - FH05","(L/B/S)U template",1167472,,2425701,Lentestraat,23,,,,LU,
386920,"HASSELT - FH05","(L/B/S)U template",1168544,,2425703,Lentestraat,25,,,,LU,
386921,"HASSELT - FH05","(L/B/S)U template",1170164,,2425705,Lentestraat,28,,,,LU,
386922,"HASSELT - FH05","(L/B/S)U template",1177847,,2425708,Lentestraat,42,,,,LU,
386923,"HASSELT - FH05","(L/B/S)U template",1178560,,2425710,Lentestraat,44,,,,LU,
386924,"HASSELT - FH05","(L/B/S)U template",1179128,,2425711,Lentestraat,46,,,,LU,
386925,"HASSELT - FH05","(L/B/S)U template",1179696,,2425713,Lentestraat,48,,,,LU,
386926,"HASSELT - FH05","(L/B/S)U template",1187600,,2426288,"Oude Luikerbaan",79,,,,BU,
386927,"HASSELT - FH05","(L/B/S)U template",11138425,,2426288,"Oude Luikerbaan",79,,,,SU,
386928,"HASSELT - FH05","(L/B/S)U template",1188596,,2426291,"Oude Luikerbaan",81,A,,,BU,
386929,"HASSELT - FH05","(L/B/S)U template",11138426,,2426291,"Oude Luikerbaan",81,A,,,SU,
386930,"HASSELT - FH05","(L/B/S)U template",1190681,,2426295,"Oude Luikerbaan",93,,,,LU,
386931,"HASSELT - FH05","(L/B/S)U template",1190854,,2426296,"Oude Luikerbaan",95,,,,LU,
386932,"HASSELT - FH05","(L/B/S)U template",1190936,,2426298,"Oude Luikerbaan",96,,,,LU,
386933,"HASSELT - FH05","(L/B/S)U template",10734116,,2426298,"Oude Luikerbaan",96,,,,LU,
386934,"HASSELT - FH05","(L/B/S)U template",10734117,,2426298,"Oude Luikerbaan",96,,,,LU,
386935,"HASSELT - FH05","(L/B/S)U template",10734118,,2426298,"Oude Luikerbaan",96,,,,LU,
386936,"HASSELT - FH05","(L/B/S)U template",11124976,,2426298,"Oude Luikerbaan",96,,,,LU,
386937,"HASSELT - FH05","(L/B/S)U template",1191031,,2426301,"Oude Luikerbaan",97,,,,LU,
386938,"HASSELT - FH05","(L/B/S)U template",1191217,,2426304,"Oude Luikerbaan",99,,,,LU,
386939,"HASSELT - FH05","(L/B/S)U template",1153858,,2426306,"Oude Luikerbaan",100,,,,BU,
386940,"HASSELT - FH05","(L/B/S)U template",1153930,,2426309,"Oude Luikerbaan",101,,,,LU,
386941,"HASSELT - FH05","(L/B/S)U template",1154051,,2426310,"Oude Luikerbaan",102,,,,BU,
386942,"HASSELT - FH05","(L/B/S)U template",11138428,,2426310,"Oude Luikerbaan",102,,,,SU,
386943,"HASSELT - FH05","(L/B/S)U template",1154181,,2426312,"Oude Luikerbaan",104,,,,LU,
386944,"HASSELT - FH05","(L/B/S)U template",1154187,,2426313,"Oude Luikerbaan",105,,,,LU,
386945,"HASSELT - FH05","(L/B/S)U template",1154188,,2426313,"Oude Luikerbaan",105,,,,LU,
386946,"HASSELT - FH05","(L/B/S)U template",11124977,,2426313,"Oude Luikerbaan",105,,,,LU,
386947,"HASSELT - FH05","(L/B/S)U template",11124978,,2426313,"Oude Luikerbaan",105,,,,LU,
386948,"HASSELT - FH05","(L/B/S)U template",11124979,,2426313,"Oude Luikerbaan",105,,,,LU,
386949,"HASSELT - FH05","(L/B/S)U template",11124980,,2426313,"Oude Luikerbaan",105,,,,LU,
386950,"HASSELT - FH05","(L/B/S)U template",1154320,,2426315,"Oude Luikerbaan",106,,,,LU,
386951,"HASSELT - FH05","(L/B/S)U template",1154464,,2426317,"Oude Luikerbaan",108,,,,LU,
386952,"HASSELT - FH05","(L/B/S)U template",1155460,,2426318,"Oude Luikerbaan",112,,,,LU,
386953,"HASSELT - FH05","(L/B/S)U template",10731228,,2426319,"Oude Luikerbaan",118,,,,BU,
386954,"HASSELT - FH05","(L/B/S)U template",11124981,,2426319,"Oude Luikerbaan",118,,,,BU,
386955,"HASSELT - FH05","(L/B/S)U template",11138429,,2426319,"Oude Luikerbaan",118,,,,SU,
386956,"HASSELT - FH05","(L/B/S)U template",11138430,,2426319,"Oude Luikerbaan",118,,,,SU,
386957,"HASSELT - FH05","(L/B/S)U template",10731229,,2426320,"Oude Luikerbaan",120,,,,LU,
386958,"HASSELT - FH05","(L/B/S)U template",1156665,,2426322,"Oude Luikerbaan",122,,,,LU,
386959,"HASSELT - FH05","(L/B/S)U template",1157002,,2426323,"Oude Luikerbaan",126,,,,LU,
386960,"HASSELT - FH05","(L/B/S)U template",1158954,,2426326,"Oude Luikerbaan",140,,,,LU,
386961,"HASSELT - FH05","(L/B/S)U template",1159113,,2426330,"Oude Luikerbaan",144,,,,LU,
386962,"HASSELT - FH05","(L/B/S)U template",1159190,,2426331,"Oude Luikerbaan",146,,,,LU,
386963,"HASSELT - FH05","(L/B/S)U template",1159273,,2426332,"Oude Luikerbaan",148,,,,LU,
386964,"HASSELT - FH05","(L/B/S)U template",1160090,,2426333,"Oude Luikerbaan",150,,,,LU,
386965,"HASSELT - FH05","(L/B/S)U template",10734731,,2426334,"Oude Luikerbaan",160,,,,LU,
386966,"HASSELT - FH05","(L/B/S)U template",10734739,,2426334,"Oude Luikerbaan",160,,,,LU,
386967,"HASSELT - FH05","(L/B/S)U template",10734808,,2426334,"Oude Luikerbaan",160,,,,LU,
386968,"HASSELT - FH05","(L/B/S)U template",10734813,,2426334,"Oude Luikerbaan",160,,,,LU,
386969,"HASSELT - FH05","(L/B/S)U template",1158282,,2426459,Luikersteenweg,138,,,,LU,
386970,"HASSELT - FH05","(L/B/S)U template",1158909,,2426463,Luikersteenweg,140,A,,,LU,
386971,"HASSELT - FH05","(L/B/S)U template",1158920,,2426463,Luikersteenweg,140,A,,,LU,
386972,"HASSELT - FH05","(L/B/S)U template",11138413,,2426463,Luikersteenweg,140,A,,,LU,
386973,"HASSELT - FH05","(L/B/S)U template",11138414,,2426463,Luikersteenweg,140,A,,,LU,
386974,"HASSELT - FH05","(L/B/S)U template",11138415,,2426463,Luikersteenweg,140,A,,,LU,
386975,"HASSELT - FH05","(L/B/S)U template",11138416,,2426463,Luikersteenweg,140,A,,,LU,
386976,"HASSELT - FH05","(L/B/S)U template",11138417,,2426463,Luikersteenweg,140,A,,,LU,
386977,"HASSELT - FH05","(L/B/S)U template",11138418,,2426463,Luikersteenweg,140,A,,,LU,
386978,"HASSELT - FH05","(L/B/S)U template",1158917,,2426466,Luikersteenweg,140,B,,,LU,
386979,"HASSELT - FH05","(L/B/S)U template",1158921,,2426466,Luikersteenweg,140,B,,,LU,
386980,"HASSELT - FH05","(L/B/S)U template",11138419,,2426466,Luikersteenweg,140,B,,,LU,
386981,"HASSELT - FH05","(L/B/S)U template",11138420,,2426466,Luikersteenweg,140,B,,,LU,
386982,"HASSELT - FH05","(L/B/S)U template",11138421,,2426466,Luikersteenweg,140,B,,,LU,
386983,"HASSELT - FH05","(L/B/S)U template",1159111,,2426469,Luikersteenweg,144,A,,,LU,
386984,"HASSELT - FH05","(L/B/S)U template",1159112,,2426473,Luikersteenweg,144,B,,,LU,
386985,"HASSELT - FH05","(L/B/S)U template",1159188,,2426475,Luikersteenweg,146,,,,LU,
386986,"HASSELT - FH05","(L/B/S)U template",1159189,,2426476,Luikersteenweg,146,A,,,LU,
386987,"HASSELT - FH05","(L/B/S)U template",1160259,,2426482,Luikersteenweg,154,,,,LU,
386988,"HASSELT - FH05","(L/B/S)U template",1160356,,2426484,Luikersteenweg,156,,,,LU,
386989,"HASSELT - FH05","(L/B/S)U template",1160430,,2426488,Luikersteenweg,158,,,,LU,
386990,"HASSELT - FH05","(L/B/S)U template",1160992,,2426493,Luikersteenweg,160,,,,LU,
386991,"HASSELT - FH05","(L/B/S)U template",1161081,,2426494,Luikersteenweg,162,,,,LU,
386992,"HASSELT - FH05","(L/B/S)U template",1161288,,2426499,Luikersteenweg,168,,,,LU,
386993,"HASSELT - FH05","(L/B/S)U template",1161289,,2426499,Luikersteenweg,168,,,,LU,
386994,"HASSELT - FH05","(L/B/S)U template",1161291,,2426499,Luikersteenweg,168,,,,LU,
386995,"HASSELT - FH05","(L/B/S)U template",11124988,,2426499,Luikersteenweg,168,,,,LU,
386996,"HASSELT - FH05","(L/B/S)U template",1161930,,2426502,Luikersteenweg,170,,,,LU,
386997,"HASSELT - FH05","(L/B/S)U template",1161980,,2426503,Luikersteenweg,172,,,,LU,
386998,"HASSELT - FH05","(L/B/S)U template",10731215,,2426504,Luikersteenweg,174,,,,LU,
386999,"HASSELT - FH05","(L/B/S)U template",1162060,,2426506,Luikersteenweg,176,,,,LU,
387000,"HASSELT - FH05","(L/B/S)U template",1162114,,2426507,Luikersteenweg,178,,,,LU,
387001,"HASSELT - FH05","(L/B/S)U template",1162725,,2426509,Luikersteenweg,180,,,,LU,
387002,"HASSELT - FH05","(L/B/S)U template",1162817,,2426514,Luikersteenweg,184,,,,LU,
387003,"HASSELT - FH05","(L/B/S)U template",1162859,,2426516,Luikersteenweg,186,,,,LU,
387004,"HASSELT - FH05","(L/B/S)U template",1162913,,2426517,Luikersteenweg,188,,,,LU,
387005,"HASSELT - FH05","(L/B/S)U template",1163665,,2426522,Luikersteenweg,192,,,,BU,
387006,"HASSELT - FH05","(L/B/S)U template",11138422,,2426522,Luikersteenweg,192,,,,SU,
387007,"HASSELT - FH05","(L/B/S)U template",1163712,,2426526,Luikersteenweg,194,,,,LU,
387008,"HASSELT - FH05","(L/B/S)U template",1165427,,2426533,Luikersteenweg,202,,,,LU,
387009,"HASSELT - FH05","(L/B/S)U template",1165542,,2426536,Luikersteenweg,206,,,,LU,
387010,"HASSELT - FH05","(L/B/S)U template",1166225,,2426540,Luikersteenweg,210,,,,LU,
387011,"HASSELT - FH05","(L/B/S)U template",1166287,,2426542,Luikersteenweg,212,,,,LU,
387012,"HASSELT - FH05","(L/B/S)U template",1166846,,2426545,Luikersteenweg,220,,,,LU,
387013,"HASSELT - FH05","(L/B/S)U template",1166908,,2426547,Luikersteenweg,224,,,,LU,
387014,"HASSELT - FH05","(L/B/S)U template",1167539,,2426562,Luikersteenweg,232,,,,LU,
387015,"HASSELT - FH05","(L/B/S)U template",1167540,,2426562,Luikersteenweg,232,,,,BU,
387016,"HASSELT - FH05","(L/B/S)U template",1167541,,2426562,Luikersteenweg,232,,,,BU,
387017,"HASSELT - FH05","(L/B/S)U template",1167542,,2426562,Luikersteenweg,232,,,,BU,
387018,"HASSELT - FH05","(L/B/S)U template",1167548,,2426562,Luikersteenweg,232,,,,LU,
387019,"HASSELT - FH05","(L/B/S)U template",1167549,,2426562,Luikersteenweg,232,,,,LU,
387020,"HASSELT - FH05","(L/B/S)U template",1167550,,2426562,Luikersteenweg,232,,,,LU,
387021,"HASSELT - FH05","(L/B/S)U template",1538971,,2426562,Luikersteenweg,232,,,,LU,
387022,"HASSELT - FH05","(L/B/S)U template",1546164,,2426562,Luikersteenweg,232,,,,LU,
387023,"HASSELT - FH05","(L/B/S)U template",1550165,,2426562,Luikersteenweg,232,,,,LU,
387024,"HASSELT - FH05","(L/B/S)U template",11124989,,2426562,Luikersteenweg,232,,,,LU,
387025,"HASSELT - FH05","(L/B/S)U template",11124990,,2426562,Luikersteenweg,232,,,,BU,
387027,"HASSELT - FH05","(L/B/S)U template",11124991,,2426562,Luikersteenweg,232,,,,BU,
387028,"HASSELT - FH05","(L/B/S)U template",11124992,,2426562,Luikersteenweg,232,,,,BU,
387029,"HASSELT - FH05","(L/B/S)U template",11124993,,2426562,Luikersteenweg,232,,,,BU,
387030,"HASSELT - FH05","(L/B/S)U template",11124994,,2426562,Luikersteenweg,232,,,,BU,
387031,"HASSELT - FH05","(L/B/S)U template",1162666,,2448942,Zomerstraat,18,,,,LU,
387032,"HASSELT - FH05","(L/B/S)U template",1163534,,2448946,Zomerstraat,19,,,,LU,
387033,"HASSELT - FH05","(L/B/S)U template",1165328,,2448949,Zomerstraat,20,,,,LU,
387034,"HASSELT - FH05","(L/B/S)U template",1166173,,2448953,Zomerstraat,21,,,,LU,
387035,"HASSELT - FH05","(L/B/S)U template",1166790,,2448957,Zomerstraat,22,,,,LU,
387036,"HASSELT - FH05","(L/B/S)U template",1168046,,2448961,Zomerstraat,24,,,,LU,
387037,"HASSELT - FH05","(L/B/S)U template",1168043,,2448963,Zomerstraat,24,A,,,LU,
387038,"HASSELT - FH05","(L/B/S)U template",1168545,,2448966,Zomerstraat,25,,,,LU,
387039,"HASSELT - FH05","(L/B/S)U template",1169063,,2448969,Zomerstraat,26,,,,LU,
387040,"HASSELT - FH05","(L/B/S)U template",1172457,,2448974,Zomerstraat,31,,,,LU,
387041,"HASSELT - FH05","(L/B/S)U template",1172899,,2448977,Zomerstraat,32,,,,LU,
387042,"HASSELT - FH05","(L/B/S)U template",1177128,,2448979,Zomerstraat,40,,,,LU,
387043,"HASSELT - FH05","(L/B/S)U template",1177487,,2448980,Zomerstraat,41,,,,LU,
387044,"HASSELT - FH05","(L/B/S)U template",1178559,,2448981,Zomerstraat,44,,,,LU,
387045,"HASSELT - FH05","(L/B/S)U template",1179127,,2448982,Zomerstraat,46,,,,LU,
387046,"HASSELT - FH05","(L/B/S)U template",1179925,,2448983,Zomerstraat,49,,,,LU,
387047,"HASSELT - FH05","(L/B/S)U template",1181263,,2448985,Zomerstraat,51,,,,LU,
387048,"HASSELT - FH05","(L/B/S)U template",1157046,,3922303,"Oude Luikerbaan",127,,,,LU,
387049,"HASSELT - FH05","(L/B/S)U template",10734714,,3937166,"Gouverneur Roppesingel",135,,,,SU,
387050,"HASSELT - FH05","(L/B/S)U template",10734747,,3937166,"Gouverneur Roppesingel",135,,,,LU,
387051,"HASSELT - FH05","(L/B/S)U template",10734819,,3937166,"Gouverneur Roppesingel",135,,,,LU,
387052,"HASSELT - FH05","(L/B/S)U template",10734825,,3937166,"Gouverneur Roppesingel",135,,,,LU,
387053,"HASSELT - FH05","(L/B/S)U template",1185481,,3937179,"Anne Frankplein",7,,,,LU,
387054,"HASSELT - FH05","(L/B/S)U template",1185482,,3937179,"Anne Frankplein",7,,,,LU,
387055,"HASSELT - FH05","(L/B/S)U template",1185555,,3937179,"Anne Frankplein",7,,,,LU,
387056,"HASSELT - FH05","(L/B/S)U template",1185556,,3937179,"Anne Frankplein",7,,,,LU,
387057,"HASSELT - FH05","(L/B/S)U template",1185600,,3937179,"Anne Frankplein",7,,,,LU,
387058,"HASSELT - FH05","(L/B/S)U template",1185601,,3937179,"Anne Frankplein",7,,,,LU,
387059,"HASSELT - FH05","(L/B/S)U template",1185647,,3937179,"Anne Frankplein",7,,,,LU,
387060,"HASSELT - FH05","(L/B/S)U template",11138407,,3937179,"Anne Frankplein",7,,,,LU,
387061,"HASSELT - FH05","(L/B/S)U template",11138408,,3937179,"Anne Frankplein",7,,,,SU,
387062,"HASSELT - FH05","(L/B/S)U template",1171992,,3937439,Kroonwinningstraat,30,,,,LU,
387063,"HASSELT - FH05","(L/B/S)U template",10731230,,3937439,Kroonwinningstraat,30,,,,LU,
387064,"HASSELT - FH05","(L/B/S)U template",10731231,,3937439,Kroonwinningstraat,30,,,,LU,
387065,"HASSELT - FH05","(L/B/S)U template",10731214,,3937481,Lentestraat,26,,,,LU,
387066,"HASSELT - FH05","(L/B/S)U template",11124974,,3937481,Lentestraat,26,,,,LU,
387067,"HASSELT - FH05","(L/B/S)U template",11124975,,3937481,Lentestraat,26,,,,LU,
387068,"HASSELT - FH05","(L/B/S)U template",1182576,,3959995,Kroonwinningstraat,57,,,,LU,
387069,"HASSELT - FH05","(L/B/S)U template",11124971,,3959995,Kroonwinningstraat,57,,,,LU,
387070,"HASSELT - FH05","(L/B/S)U template",1160183,,3990101,"Oude Luikerbaan",152,,,,LU,
387071,"HASSELT - FH05","(L/B/S)U template",1180684,,4022873,Lentestraat,5,,,,LU,
387072,"HASSELT - FH05","(L/B/S)U template",1178237,,4093037,Kroonwinningstraat,43,A,,,LU,
387073,"HASSELT - FH05","(L/B/S)U template",1170163,,4152416,Zomerstraat,28,,,,LU,
387074,"HASSELT - FH05","(L/B/S)U template",1166175,,4176413,Winterstraat,21,,,,LU,
387075,"HASSELT - FH05","(L/B/S)U template",1166789,,4182542,Danielsstraat,22,,,,LU,
387076,"HASSELT - FH05","(L/B/S)U template",1152995,,4193754,Lentestraat,1,,,,LU,
387077,"HASSELT - FH05","(L/B/S)U template",1160017,,4201644,Danielsstraat,15,,,,LU,
387078,"HASSELT - FH05","(L/B/S)U template",1168044,,4209906,Lentestraat,24,,,,LU,
387079,"HASSELT - FH05","(L/B/S)U template",1167470,,4215406,Zomerstraat,23,,,,LU,
387080,"HASSELT - FH05","(L/B/S)U template",1155328,,4227121,"Oude Luikerbaan",110,,,,LU,
387081,"HASSELT - FH05","(L/B/S)U template",1177846,,4232036,Zomerstraat,42,,,,LU,
387082,"HASSELT - FH05","(L/B/S)U template",1156621,,4896735,"Oude Luikerbaan",121,,,,LU,
387083,"HASSELT - FH05","(L/B/S)U template",1156732,,4896736,"Oude Luikerbaan",123,,,,LU,
387084,"HASSELT - FH05","(L/B/S)U template",1156937,,4896738,"Oude Luikerbaan",125,,,,LU,
387085,"HASSELT - FH05","(L/B/S)U template",1190498,,4896742,"Oude Luikerbaan",91,,,,LU,
387086,"HASSELT - FH05","(L/B/S)U template",1170166,,4896766,Kroonwinningstraat,28,,,,LU,
387087,"HASSELT - FH05","(L/B/S)U template",1173791,,4896769,Kroonwinningstraat,34,,,,LU,
387088,"HASSELT - FH05","(L/B/S)U template",1174679,,4896770,Kroonwinningstraat,36,,,,LU,
387089,"HASSELT - FH05","(L/B/S)U template",1177129,,4896772,Kroonwinningstraat,40,,,,LU,
387090,"HASSELT - FH05","(L/B/S)U template",1160920,,4896784,Zomerstraat,16,,,,LU,
387091,"HASSELT - FH05","(L/B/S)U template",1173789,,4896791,Zomerstraat,34,,,,LU,
387092,"HASSELT - FH05","(L/B/S)U template",1179697,,4896800,Zomerstraat,48,,,,LU,
387093,"HASSELT - FH05","(L/B/S)U template",1179376,,4896825,Zomerstraat,47,,,,LU,
387094,"HASSELT - FH05","(L/B/S)U template",1190247,,4896844,Herfststraat,9,,,,LU,
387096,"HASSELT - FH05","(L/B/S)U template",1166876,,4896855,Luikersteenweg,222,,,,LU,
387097,"HASSELT - FH05","(L/B/S)U template",1162778,,4896868,Luikersteenweg,182,,,,LU,
387098,"HASSELT - FH05","(L/B/S)U template",1163588,,4896871,Luikersteenweg,190,,,,LU,
387099,"HASSELT - FH05","(L/B/S)U template",1164755,,4896901,Herfststraat,2,,,,LU,
387100,"HASSELT - FH05","(L/B/S)U template",1171615,,4896902,Herfststraat,3,,,,LU,
387101,"HASSELT - FH05","(L/B/S)U template",1157833,,4896908,Winterstraat,13,,,,LU,
387102,"HASSELT - FH05","(L/B/S)U template",1160020,,4896910,Winterstraat,15,,,,LU,
387103,"HASSELT - FH05","(L/B/S)U template",1163535,,4896914,Winterstraat,19,,,,LU,
387104,"HASSELT - FH05","(L/B/S)U template",1155183,,4896918,Kroonwinningstraat,11,,,,LU,
387105,"HASSELT - FH05","(L/B/S)U template",11138389,,4896927,Luikersteenweg,148,,,,LU,
387106,"HASSELT - FH05","(L/B/S)U template",1160182,,4896928,Luikersteenweg,152,,,,LU,
387107,"HASSELT - FH05","(L/B/S)U template",1163797,,4896959,Luikersteenweg,196,,,,LU,
387108,"HASSELT - FH05","(L/B/S)U template",1165470,,4896963,Luikersteenweg,204,,,,LU,
387109,"HASSELT - FH05","(L/B/S)U template",1166171,,4896985,Lentestraat,21,,,,LU,
387110,"HASSELT - FH05","(L/B/S)U template",1171625,,4897745,Vier-Bundersstraat,3,,,,LU,
387111,"HASSELT - FH05","(L/B/S)U template",1176773,,4897748,Vier-Bundersstraat,4,,,,LU,
387112,"HASSELT - FH05","(L/B/S)U template",1167473,,4897771,Kroonwinningstraat,23,,,,LU,
387113,"HASSELT - FH05","(L/B/S)U template",11138385,,4897773,Kroonwinningstraat,29,,,,LU,
387114,"HASSELT - FH05","(L/B/S)U template",1182966,,4897797,Kroonwinningstraat,59,,,,LU,
387115,"HASSELT - FH05","(L/B/S)U template",11138386,,4897817,Kroonwinningstraat,78,,,,LU,
387116,"HASSELT - FH05","(L/B/S)U template",1188481,,4897819,Kroonwinningstraat,80,,,,LU,
387117,"HASSELT - FH05","(L/B/S)U template",1181509,,4897827,Kroonwinningstraat,52,,,,LU,
387118,"HASSELT - FH05","(L/B/S)U template",1170645,,5431280,Winterstraat,29,,,,LU,
387119,"HASSELT - FH05","(L/B/S)U template",11124965,,5751543,Winterstraat,12,,,,BU,
387120,"HASSELT - FH05","(L/B/S)U template",11124966,,5751543,Winterstraat,12,,,,LU,
387121,"HASSELT - FH05","(L/B/S)U template",11138431,,5751543,Winterstraat,12,,,,SU,
387122,"HASSELT - FH05","(L/B/S)U template",10731223,,5751544,Winterstraat,28,,,,LU,
387123,"HASSELT - FH05","(L/B/S)U template",11124968,,5751546,Winterstraat,18,,,,LU,
387124,"HASSELT - FH05","(L/B/S)U template",10731224,,5778252,Winterstraat,37,,,,LU,
387125,"HASSELT - FH05","(L/B/S)U template",10731226,,5908229,Winterstraat,16,,,,LU,
387126,"HASSELT - FH05","(L/B/S)U template",11138384,,5927168,Kroonwinningstraat,27,A,,,BU,
387127,"HASSELT - FH05","(L/B/S)U template",11138391,,5934865,"Oude Luikerbaan",94,,,,LU,
387128,"HASSELT - FH05","(L/B/S)U template",11138394,,6019633,Zomerstraat,37,,,,LU,
387129,"HASSELT - FH05","(L/B/S)U template",11138390,,6086484,"Oude Luikerbaan",98,,,,LU,
387130,"HASSELT - FH05","(L/B/S)U template",11138393,,6149157,Zomerstraat,43,,,,LU,
387131,"HASSELT - FH05","(L/B/S)U template",11124969,,6199761,Winterstraat,40,,,,LU,
387132,"HASSELT - FH05","(L/B/S)U template",11138395,,6353281,Zomerstraat,9,,,,LU,
387133,"HASSELT - FH05","(L/B/S)U template",11124967,,6391167,Winterstraat,14,,,,LU,
387134,"HASSELT - FH05","(L/B/S)U template",11138382,,6536978,Herfststraat,5,,,,LU,
387135,"HASSELT - FH05","(L/B/S)U template",11138379,,6550136,Herfststraat,11,,,,LU,
387136,"HASSELT - FH05","(L/B/S)U template",11138387,,6556554,Kroonwinningstraat,68,,,,LU,
387137,"HASSELT - FH05","(L/B/S)U template",11138392,,6556771,Winterstraat,6,,,,LU,
387138,"HASSELT - FH05","(L/B/S)U template",11138371,,6590585,"Gouverneur Roppesingel",129,,,,LU,
387139,"HASSELT - FH05","(L/B/S)U template",11138372,,6590586,"Gouverneur Roppesingel",127,,,,LU,
387140,"HASSELT - FH05","(L/B/S)U template",11138373,,6590587,"Gouverneur Roppesingel",125,,,,LU,
387141,"HASSELT - FH05","(L/B/S)U template",11138374,,6590588,"Gouverneur Roppesingel",163,,,,LU,
387142,"HASSELT - FH05","(L/B/S)U template",11138375,,6590589,"Gouverneur Roppesingel",161,,,,LU,
387143,"HASSELT - FH05","(L/B/S)U template",11138376,,6590590,"Gouverneur Roppesingel",159,,,,LU,
387144,"HASSELT - FH05","(L/B/S)U template",11138377,,6590591,"Gouverneur Roppesingel",157,,,,LU,
387145,"HASSELT - FH05","(L/B/S)U template",11138378,,6590592,Herfststraat,12,,,,LU,
387146,"HASSELT - FH05","(L/B/S)U template",11138380,,6590593,Herfststraat,10,,,,LU,
387147,"HASSELT - FH05","(L/B/S)U template",11138381,,6590594,Herfststraat,4,,,,LU,
387148,"HASSELT - FH05","(L/B/S)U template",11138383,,6590595,Herfststraat,33,,,,LU,
673998,"HASSELT - FH05","BUILDING template",6632814,,6632814,Winterstraat,20,,,,,
674000,"HASSELT - FH05","BUILDING template",6632815,,6632815,Winterstraat,22,,,,,
674002,"HASSELT - FH05","BUILDING template",6632821,,6632821,Winterstraat,24,,,,,
674004,"HASSELT - FH05","BUILDING template",6632822,,6632822,Winterstraat,26,,,,,
674015,"HASSELT - FH05","BUILDING template",6632823,,6632823,Winterstraat,30,,,,,
736076,"HASSELT - FH05","(L/B/S)U template",11323527,,6632807,Zomerstraat,39,,,,LU,
736077,"HASSELT - FH05","(L/B/S)U template",11323549,,6632809,Winterstraat,35,,,,LU,
736078,"HASSELT - FH05","(L/B/S)U template",11323465,,6632810,Lentestraat,50,,,,LU,
736079,"HASSELT - FH05","(L/B/S)U template",11323466,,6632811,Zomerstraat,29,,,,LU,
736080,"HASSELT - FH05","(L/B/S)U template",11323489,,6632813,Zomerstraat,45,,,,LU,
736081,"HASSELT - FH05","(L/B/S)U template",11323550,,6632814,Winterstraat,20,,,,LU,
736082,"HASSELT - FH05","(L/B/S)U template",11323597,,6632815,Winterstraat,22,,,,LU,
736083,"HASSELT - FH05","(L/B/S)U template",11323598,,6632821,Winterstraat,24,,,,LU,
736084,"HASSELT - FH05","(L/B/S)U template",11323599,,6632822,Winterstraat,26,,,,LU,
736085,"HASSELT - FH05","(L/B/S)U template",11323600,,6632823,Winterstraat,30,,,,LU,
736086,"HASSELT - FH05","(L/B/S)U template",11323457,,6632824,Winterstraat,11,,,,LU,
736087,"HASSELT - FH05","(L/B/S)U template",11323458,,6632825,Winterstraat,31,,,,LU,
736088,"HASSELT - FH05","(L/B/S)U template",11323459,,6632826,Winterstraat,39,,,,LU,
736089,"HASSELT - FH05","(L/B/S)U template",11323460,,6632827,Winterstraat,42,,,,LU,
736090,"HASSELT - FH05","(L/B/S)U template",11323461,,6632828,Winterstraat,38,,,,LU,
736091,"HASSELT - FH05","(L/B/S)U template",11323462,,6632829,Winterstraat,36,,,,LU,
736092,"HASSELT - FH05","(L/B/S)U template",11323463,,6632830,Winterstraat,34,,,,LU,
736093,"HASSELT - FH05","(L/B/S)U template",11323464,,6632831,Winterstraat,32,,,,LU,
750461,"HASSELT - FH05","(L/B/S)U template",11334842,,6643766,Zomerstraat,33,,,,LU,
