LAM MK;xPos;yPos;Street;Nr;Suffix
701267;217004,847;181016,267;Alverbergstraat;1;
701614;217069,652;180796,28;Ambachtsschoolstraat;1;
2408077;217082,034;180770,42;Ambachtsschoolstraat;2;
2408078;217055,3;180807,914;Ambachtsschoolstraat;3;
701611;217074,394;180777,327;Ambachtsschoolstraat;4;
4888731;217053,318;180827,095;Ambachtsschoolstraat;5;
4253694;217046,809;180830,41;Ambachtsschoolstraat;5;A
2408079;217065,137;180781,986;Ambachtsschoolstraat;6;
3987979;217039,662;180834,312;Ambachtsschoolstraat;7;
4888743;217056,08;180786,545;Ambachtsschoolstraat;8;
2408080;217034,131;180819,664;Ambachtsschoolstraat;9;
2408082;217046,701;180786,879;Ambachtsschoolstraat;10;
2408083;217022,753;180826,461;Ambachtsschoolstraat;11;
2408084;217041,869;180789,082;Ambachtsschoolstraat;12;
701617;217018,034;180828,708;Ambachtsschoolstraat;13;
701615;217037,108;180791,782;Ambachtsschoolstraat;14;
701608;217012,52;180831,649;Ambachtsschoolstraat;15;
701616;217032,631;180793,985;Ambachtsschoolstraat;16;
2408085;217002,144;180838,613;Ambachtsschoolstraat;17;
2408086;217027,94;180796,259;Ambachtsschoolstraat;18;
701607;216990,88;180843,93;Ambachtsschoolstraat;19;
2408087;217022,967;180798,607;Ambachtsschoolstraat;20;
2408088;217018,773;180801,02;Ambachtsschoolstraat;22;
2408089;216975,794;180850,112;Ambachtsschoolstraat;23;
4888749;217014,083;180803,721;Ambachtsschoolstraat;24;
2408090;216969,952;180852,778;Ambachtsschoolstraat;25;
2408091;217009,251;180805,853;Ambachtsschoolstraat;26;
2408092;216964,394;180855,33;Ambachtsschoolstraat;27;
2408093;217004,418;180808,198;Ambachtsschoolstraat;28;
4888772;216957,305;180860,661;Ambachtsschoolstraat;29;
701605;216999,586;180810,472;Ambachtsschoolstraat;30;
2408095;216950,386;180864,121;Ambachtsschoolstraat;31;
701610;216978,907;180820,989;Ambachtsschoolstraat;32;
4888774;216944,885;180866,503;Ambachtsschoolstraat;33;
2408096;216974,501;180823,69;Ambachtsschoolstraat;34;
2408097;216935;180872;Ambachtsschoolstraat;35;
2408098;216969,668;180826,532;Ambachtsschoolstraat;36;
2408100;216964,339;180829,019;Ambachtsschoolstraat;38;
2408101;216959,222;180831,791;Ambachtsschoolstraat;40;
701612;216953,963;180834,349;Ambachtsschoolstraat;42;
701606;216923,983;180876,008;Ambachtsschoolstraat;43;
701613;216948,563;180836,907;Ambachtsschoolstraat;44;
3994616;216913,249;180879,006;Ambachtsschoolstraat;45;
4888632;216941,812;180839,75;Ambachtsschoolstraat;46;
6404474;216939;180843;Ambachtsschoolstraat;48;
6399932;216934;180847;Ambachtsschoolstraat;50;
4888642;216921,914;180849,983;Ambachtsschoolstraat;56;
2408102;216916,229;180852,897;Ambachtsschoolstraat;58;
2408103;216910,899;180855,597;Ambachtsschoolstraat;60;
4210544;216905,498;180857,942;Ambachtsschoolstraat;62;
2408104;216900,288;180859,942;Ambachtsschoolstraat;64;
701609;216890,788;180870,378;Ambachtsschoolstraat;66;
4888627;216879,013;180873,963;Ambachtsschoolstraat;68;
701310;217866,084;180925,883;Armand Hertzstraat;2;
700925;217875,292;181083,655;Armand Hertzstraat;36;
4882284;217872,508;181118,433;Armand Hertzstraat;38;
2417959;217877,52;181126,866;Armand Hertzstraat;40;
5914868;217877,307;181131,906;Armand Hertzstraat;40;A
2417961;217877,329;181136,967;Armand Hertzstraat;42;A
2417963;217877,218;181141,514;Armand Hertzstraat;42;B
1373085;217876,247;181145,71;Armand Hertzstraat;44;
4882294;217875,663;181150,533;Armand Hertzstraat;46;
2418811;217714,581;180873,698;Blijde-Inkomststraat;1;
701336;217694,388;180861,394;Blijde-Inkomststraat;2;
2418814;217692,024;180864,858;Blijde-Inkomststraat;4;
701337;217714,415;180883,651;Blijde-Inkomststraat;5;
2418815;217687,908;180869,744;Blijde-Inkomststraat;6;
2418817;217710,202;180888,553;Blijde-Inkomststraat;7;
4889008;217684,409;180874,166;Blijde-Inkomststraat;8;
2418818;217706,853;180892,176;Blijde-Inkomststraat;9;
2418819;217680,821;180878,374;Blijde-Inkomststraat;10;
701335;217704,092;180896,178;Blijde-Inkomststraat;11;
2418823;217677,873;180882,024;Blijde-Inkomststraat;12;
701333;217690,786;180910,796;Blijde-Inkomststraat;13;
5425138;217688,382;180916,017;Blijde-Inkomststraat;13;A
4889010;217676,366;180884,502;Blijde-Inkomststraat;14;
4888814;217685,07;180921,13;Blijde-Inkomststraat;15;
2418825;217673,606;180887,882;Blijde-Inkomststraat;16;
4211666;217681,933;180925,12;Blijde-Inkomststraat;17;
2418828;217670,13;180890,984;Blijde-Inkomststraat;18;
2418830;217678,941;180929,261;Blijde-Inkomststraat;19;
701334;217666,221;180895,775;Blijde-Inkomststraat;20;
2418833;217676,128;180933,579;Blijde-Inkomststraat;21;
701332;217662,712;180899,748;Blijde-Inkomststraat;22;
1445547;217673,116;180937,627;Blijde-Inkomststraat;23;
2418835;217660,16;180902,546;Blijde-Inkomststraat;24;
4888818;217670,301;180941,445;Blijde-Inkomststraat;25;
2418837;217657,463;180905,783;Blijde-Inkomststraat;26;
2418846;217667,08;180945,47;Blijde-Inkomststraat;27;
2418848;217655,32;180910,394;Blijde-Inkomststraat;28;
4888820;217663,888;180949,121;Blijde-Inkomststraat;29;
2418849;217653,506;180916,359;Blijde-Inkomststraat;30;
1523345;217660,971;180953,239;Blijde-Inkomststraat;31;
701331;217647,328;180922,689;Blijde-Inkomststraat;32;
701338;217658,321;180958,276;Blijde-Inkomststraat;33;
701330;217656,246;180960,956;Blijde-Inkomststraat;35;
4062353;217635,01;180942,144;Blijde-Inkomststraat;36;
2418864;217652,673;180964,57;Blijde-Inkomststraat;37;
2418866;217648,633;180969,07;Blijde-Inkomststraat;39;
2418868;217646,557;180972,51;Blijde-Inkomststraat;41;
2418870;217644,94;180979,115;Blijde-Inkomststraat;43;
701329;217637;180979;Blijde-Inkomststraat;45;
700968;217565,96;180996,235;Breestraat;2;
2410912;217561,979;181000,366;Breestraat;4;
1505853;217557,013;181002,419;Breestraat;6;
2410927;217553,551;181007,992;Breestraat;8;
4227480;217548,372;181010,674;Breestraat;10;
2410934;217543,557;181014,169;Breestraat;12;
4243120;217538,427;181017,79;Breestraat;14;
700967;217535,25;181021,082;Breestraat;16;
700966;217530,048;181024,378;Breestraat;18;
4886697;217526,35;181030,265;Breestraat;20;
2410943;217521,797;181038,332;Breestraat;22;
701163;217517,855;181044,984;Breestraat;24;
2410949;217509,382;181052,185;Breestraat;26;
2410951;217501,651;181062,773;Breestraat;28;
2410955;217491,373;181078,882;Breestraat;28;A
701168;217484,668;181038,631;Breestraat;28;B
701167;217479,619;181034,382;Breestraat;28;C
701166;217474,649;181031,085;Breestraat;28;D
701165;217470,149;181028,752;Breestraat;28;E
701169;217446,974;181050,343;Breestraat;28;F
701170;217451,965;181054,502;Breestraat;28;G
701171;217458,047;181059,891;Breestraat;28;H
701172;217459,786;181063,532;Breestraat;28;I
701173;217462,248;181069,178;Breestraat;28;J
2410967;217486,318;181089,421;Breestraat;30;
700952;217475,465;181107,232;Breestraat;32;
700953;217471,8;181112,266;Breestraat;34;
2410977;217468,04;181116,964;Breestraat;36;
4235083;217465,114;181121,197;Breestraat;38;
2410985;217462,011;181125,513;Breestraat;40;
4244661;217459,106;181128,773;Breestraat;42;
2410993;217455,084;181133,148;Breestraat;44;
2410997;217451,785;181136,879;Breestraat;46;
2411001;217448,381;181140,972;Breestraat;48;
701164;217444,925;181144,982;Breestraat;50;
2411010;217441,567;181148,655;Breestraat;52;
2411013;217438,497;181152,823;Breestraat;54;
2411016;217434,855;181157,601;Breestraat;56;
2411019;217431,52;181161,905;Breestraat;58;
2411022;217425,245;181170,463;Breestraat;62;
2411026;217421,419;181174,904;Breestraat;64;
700946;217419,258;181181,087;Breestraat;66;
700924;217720,64;180977,396;Eeuwfeeststraat;1;
700923;217706,704;180944,002;Eeuwfeeststraat;2;
700922;217715,602;180977,566;Eeuwfeeststraat;3;
2414379;217703,361;180948,237;Eeuwfeeststraat;4;
4882433;217708,101;180990,224;Eeuwfeeststraat;5;
2414380;217700,123;180952,046;Eeuwfeeststraat;6;
2414382;217704,96;180994,24;Eeuwfeeststraat;7;
700920;217697,87;180956,579;Eeuwfeeststraat;8;
2414384;217702,154;180998,281;Eeuwfeeststraat;9;
700921;217695,006;180960,412;Eeuwfeeststraat;10;
2414385;217699,135;181002,136;Eeuwfeeststraat;11;
2414387;217696,225;181006,301;Eeuwfeeststraat;13;
2414388;217692,03;180964,818;Eeuwfeeststraat;14;
2414390;217686,684;180973,217;Eeuwfeeststraat;16;
4882441;217689,688;181013,826;Eeuwfeeststraat;17;
2414392;217682,207;180981,16;Eeuwfeeststraat;18;
2414394;217686,453;181017,909;Eeuwfeeststraat;19;
2414395;217679,574;180985,582;Eeuwfeeststraat;20;
700919;217683,407;181022,064;Eeuwfeeststraat;21;
2414398;217676,866;180989,858;Eeuwfeeststraat;22;
700918;217674,322;180994,23;Eeuwfeeststraat;24;
701689;217114,822;180833,702;Goetsbloetsstraat;1;
5552886;217111,482;180828,088;Goetsbloetsstraat;1;A
701692;217131;180819;Goetsbloetsstraat;2;
2415928;217109,379;180822,766;Goetsbloetsstraat;3;
4893066;217106,963;180817,436;Goetsbloetsstraat;5;
4893069;217104,618;180812,959;Goetsbloetsstraat;7;
2415930;217102,415;180808,553;Goetsbloetsstraat;9;
2415932;217126,332;180809,088;Goetsbloetsstraat;10;
701690;217099,999;180804,36;Goetsbloetsstraat;11;
2415934;217123,448;180802,799;Goetsbloetsstraat;12;
701696;217097,796;180799,528;Goetsbloetsstraat;13;
4170997;217095,522;180795,335;Goetsbloetsstraat;15;
4893099;217123,633;180796,322;Goetsbloetsstraat;16;
2415938;217093,532;180791,214;Goetsbloetsstraat;17;
2415940;217121,272;180791,635;Goetsbloetsstraat;18;
701691;217091,187;180786,381;Goetsbloetsstraat;19;
2415942;217119,37;180787,937;Goetsbloetsstraat;20;
701693;217116,965;180783,575;Goetsbloetsstraat;22;
701694;217115,106;180779,267;Goetsbloetsstraat;24;
4893057;217078,966;180763,689;Goetsbloetsstraat;25;
2415946;217113,265;180774,299;Goetsbloetsstraat;26;
2415949;217077,486;180758,946;Goetsbloetsstraat;27;
2415951;217111,411;180769,816;Goetsbloetsstraat;28;
2415953;217074,23;180754,99;Goetsbloetsstraat;29;
2415955;217109,277;180765,191;Goetsbloetsstraat;30;
2415957;217072,561;180750,4;Goetsbloetsstraat;31;
2415959;217106,72;180760,08;Goetsbloetsstraat;32;
2415960;217070,623;180745,853;Goetsbloetsstraat;33;
3937323;217103,594;180757,095;Goetsbloetsstraat;34;
2415962;217067,577;180741,637;Goetsbloetsstraat;35;
4011002;217101,507;180752,231;Goetsbloetsstraat;36;
2415964;217066,072;180737,269;Goetsbloetsstraat;37;
701697;217099,474;180748,071;Goetsbloetsstraat;38;
1121142;217064,153;180732,578;Goetsbloetsstraat;39;
701698;217097,482;180743,309;Goetsbloetsstraat;40;
701688;217061,998;180727,615;Goetsbloetsstraat;41;
2415969;217095,705;180738,69;Goetsbloetsstraat;42;
2415971;217093,438;180734,036;Goetsbloetsstraat;44;
2415972;217091,125;180729,602;Goetsbloetsstraat;46;
2415974;217089,31;180725,33;Goetsbloetsstraat;48;
1121141;217087,062;180721,048;Goetsbloetsstraat;50;
701695;217084,335;180716,62;Goetsbloetsstraat;52;
2410760;217068,624;180695,799;Grote Breemstraat;4;
1121144;217320;180696;Grote Breemstraat;7;
2410768;217313,302;180697,047;Grote Breemstraat;9;
1121145;217291,934;180696,42;Grote Breemstraat;15;
1121094;217280,906;180700,164;Grote Breemstraat;17;
701699;217254,532;180707,351;Grote Breemstraat;19;
701700;217216,188;180690,943;Grote Breemstraat;21;
3954984;217207,447;180688,74;Grote Breemstraat;21;A
701668;217165,135;180694,346;Grote Breemstraat;35;
2410791;217160,444;180695,625;Grote Breemstraat;37;
2410793;217154,759;180698,042;Grote Breemstraat;39;
2410796;217149,942;180700,318;Grote Breemstraat;41;
2410799;217145,769;180701,956;Grote Breemstraat;43;
2410802;217140,305;180704,528;Grote Breemstraat;45;
2410809;217136,173;180706,839;Grote Breemstraat;47;
701667;217130,882;180709,554;Grote Breemstraat;49;
701619;217048,038;180741,537;Grote Breemstraat;63;
2410815;217043,513;180743,895;Grote Breemstraat;65;
2410818;217038,713;180746,365;Grote Breemstraat;67;
4888685;217034,093;180747,999;Grote Breemstraat;69;
4175832;217029,261;180750,415;Grote Breemstraat;71;
4888689;217023,931;180752,76;Grote Breemstraat;73;
4221994;217018,459;180755,034;Grote Breemstraat;75;
2410821;217012,348;180757,593;Grote Breemstraat;77;
4888710;216988,613;180771,308;Grote Breemstraat;95;
4888712;216984;180784;Grote Breemstraat;97;
2410825;216931,554;180819,61;Grote Breemstraat;105;
4888721;216917,62;180828,372;Grote Breemstraat;107;
1130473;216911,056;180830,472;Grote Breemstraat;109;
1130472;216904,332;180833,346;Grote Breemstraat;111;
6624713;216899,685;180834,14;Grote Breemstraat;113;
701618;216858,14;180845,783;Grote Breemstraat;115;
3937363;217251,259;180997,135;Heilig-Hartplein;1;
2417575;217242,752;180999,12;Heilig-Hartplein;2;
3937364;217236,797;181001,105;Heilig-Hartplein;3;
2417576;217232,542;181003,299;Heilig-Hartplein;4;
2417578;217226,979;181007,236;Heilig-Hartplein;5;
2417580;217219,046;181010,463;Heilig-Hartplein;6;
2417581;217214,894;181013,239;Heilig-Hartplein;7;
3937365;217207,306;181015,964;Heilig-Hartplein;8;
2417583;217201,635;181018,857;Heilig-Hartplein;9;
2417586;217195,566;181021,919;Heilig-Hartplein;10;
2417589;217192,19;181025,245;Heilig-Hartplein;11;
2417590;217185,925;181028,215;Heilig-Hartplein;12;
2417593;217180,084;181031,05;Heilig-Hartplein;13;
2417595;217175,717;181038,31;Heilig-Hartplein;14;
5309827;217172,654;181033,432;Heilig-Hartplein;14;A
701128;217164,828;181037,005;Heilig-Hartplein;15;
3937366;217158,816;181040,521;Heilig-Hartplein;16;
4890456;217166,939;181057,443;Heilig-Hartplein;17;
2417600;217171,389;181063,086;Heilig-Hartplein;18;
701110;217174,749;181069,326;Heilig-Hartplein;19;
701145;217225,676;181099,601;Heilig-Hartplein;21;
2417605;217239,502;181091,401;Heilig-Hartplein;22;
3937367;217251,478;181088,777;Heilig-Hartplein;23;
3937368;217264,624;181077,293;Heilig-Hartplein;24;
3937369;217279,932;181068,247;Heilig-Hartplein;25;
701162;217185,812;181103,757;Hekkelaarstraat;1;
701161;217165,378;181082,587;Hekkelaarstraat;2;
2417609;217176,142;181077,584;Hekkelaarstraat;2;A
2417610;217167,491;181113,686;Hekkelaarstraat;3;
2417612;217159,089;181085,181;Hekkelaarstraat;4;
2417614;217162,7;181117,42;Hekkelaarstraat;5;
2417615;217141,167;181089,61;Hekkelaarstraat;6;
701160;217155,144;181120,31;Hekkelaarstraat;7;
2417617;217133,558;181093,332;Hekkelaarstraat;8;
1421;216649,879;180996,552;Hendrik van Veldekesingel;39;
701620;216935,229;180934,439;Kleine Breemstraat;2;
2410853;216932,005;180930,498;Kleine Breemstraat;4;
1309645;216841,102;180882,65;Kleine Breemstraat;5;
2410870;216928,417;180926,197;Kleine Breemstraat;6;
4206079;216738,197;180799,036;Kleine Breemstraat;7;
2410873;216924,513;180922,678;Kleine Breemstraat;8;
2410876;216920,706;180918,844;Kleine Breemstraat;10;
2410878;216917,457;180915,299;Kleine Breemstraat;12;
1506439;216914,807;180911,524;Kleine Breemstraat;14;
4197189;216911,041;180907,829;Kleine Breemstraat;16;
4888673;216907,687;180903,681;Kleine Breemstraat;18;
2410885;216903,864;180900,225;Kleine Breemstraat;20;
2410889;216900,595;180896,743;Kleine Breemstraat;22;
2410893;216897,61;180893,19;Kleine Breemstraat;24;
701621;216894,658;180889,082;Kleine Breemstraat;26;
701622;216874,982;180868,239;Kleine Breemstraat;32;
4888653;216871,998;180863,477;Kleine Breemstraat;34;
2410899;216868,444;180859,142;Kleine Breemstraat;36;
2410902;216865,176;180854,737;Kleine Breemstraat;38;
701623;216861,836;180850,331;Kleine Breemstraat;40;
701317;217419,508;180712,662;Kuringersteenweg;1;
3937448;217414,356;180714,943;Kuringersteenweg;3;
3937449;217410,022;180717,645;Kuringersteenweg;5;
701708;217362,347;180712,547;Kuringersteenweg;6;
2423707;217406,955;180719,316;Kuringersteenweg;7;
4210264;217356,893;180713,044;Kuringersteenweg;8;
2423708;217399,824;180722,903;Kuringersteenweg;9;
4893022;217351,706;180714,891;Kuringersteenweg;10;
2423710;217393,735;180726,18;Kuringersteenweg;11;
2423712;217348,224;180716,455;Kuringersteenweg;12;
4888984;217388,497;180729,615;Kuringersteenweg;13;
2423713;217343,178;180719,653;Kuringersteenweg;14;
2423714;217382,559;180732,042;Kuringersteenweg;15;
2423715;217338,061;180721,927;Kuringersteenweg;16;
701316;217376,691;180734,112;Kuringersteenweg;17;
2423717;217334,793;180723,703;Kuringersteenweg;18;
2423718;217329,605;180726,688;Kuringersteenweg;20;
4893024;217325,768;180728,891;Kuringersteenweg;22;
701736;217345,517;180753,437;Kuringersteenweg;23;
2423720;217321,291;180731,52;Kuringersteenweg;24;
3937450;217339,959;180755,592;Kuringersteenweg;25;
2423722;217315,819;180734,221;Kuringersteenweg;26;
2423726;217335,819;180758,314;Kuringersteenweg;27;
2423734;217309,281;180738,342;Kuringersteenweg;28;
701735;217331,452;180760,469;Kuringersteenweg;29;
2423741;217293,505;180747,012;Kuringersteenweg;30;
4890650;217327,414;180763,061;Kuringersteenweg;31;
2423746;217288,388;180749,926;Kuringersteenweg;32;
3937451;217323,512;180765,176;Kuringersteenweg;33;
4893029;217281,566;180754,19;Kuringersteenweg;34;
2423750;217322,058;180767,818;Kuringersteenweg;35;
2423754;217276,861;180756,867;Kuringersteenweg;36;
2423759;217314,949;180771,698;Kuringersteenweg;37;
3937452;217269,561;180761,234;Kuringersteenweg;38;
2423763;217309,504;180773,967;Kuringersteenweg;41;
2423768;217261,453;180766,449;Kuringersteenweg;42;
2423771;217304,797;180777,256;Kuringersteenweg;43;
701706;217255,628;180768,829;Kuringersteenweg;44;
2423779;217301,451;180778,844;Kuringersteenweg;45;
701705;217208,229;180784,036;Kuringersteenweg;46;
2423786;217296,176;180782,247;Kuringersteenweg;47;
4273082;217287;180782;Kuringersteenweg;51;
2423790;217200,078;180799,329;Kuringersteenweg;52;
2423793;217283,302;180786,274;Kuringersteenweg;53;
2423794;217193,732;180801,589;Kuringersteenweg;54;
6624711;217279,449;180787,792;Kuringersteenweg;55;
2423795;217188,473;180804,005;Kuringersteenweg;56;
2423797;217275,816;180791,775;Kuringersteenweg;57;
2423798;217183,356;180806,848;Kuringersteenweg;58;
4890663;217271,619;180793,59;Kuringersteenweg;59;
4893007;217176,89;180807,771;Kuringersteenweg;60;
4890666;217267,309;180796,199;Kuringersteenweg;61;
2423801;217171,631;180810,33;Kuringersteenweg;62;
2423803;217262,772;180798,637;Kuringersteenweg;63;
2423804;217162,748;180815,304;Kuringersteenweg;64;
2423806;217257,498;180800,622;Kuringersteenweg;65;
2423810;217155,128;180820,138;Kuringersteenweg;66;
2423814;217253,017;180802,948;Kuringersteenweg;67;
2423817;217150,626;180822,349;Kuringersteenweg;68;
2423818;217248,253;180805,386;Kuringersteenweg;69;
2423819;217146,261;180824,898;Kuringersteenweg;70;
2423820;217243,149;180808,052;Kuringersteenweg;71;
2423821;217141,863;180827,218;Kuringersteenweg;72;
2423822;217238,329;180813,043;Kuringersteenweg;73;
4229254;217137,524;180829,805;Kuringersteenweg;74;
2423826;217234,756;180817,75;Kuringersteenweg;75;
439292;217133,032;180831,877;Kuringersteenweg;76;
2423829;217229,935;180820,699;Kuringersteenweg;77;
701704;217117,765;180839,892;Kuringersteenweg;78;
2423830;217224,32;180823,932;Kuringersteenweg;79;
701709;217111,795;180842,521;Kuringersteenweg;80;
2423831;217217,571;180828,299;Kuringersteenweg;81;
439291;217105,826;180845,506;Kuringersteenweg;82;
2423841;217211,446;180831,645;Kuringersteenweg;83;
2423844;217101,989;180848,207;Kuringersteenweg;84;
2423845;217207,249;180833,346;Kuringersteenweg;85;
2423846;217096,73;180851,262;Kuringersteenweg;86;
2423848;217202,542;180835,218;Kuringersteenweg;87;
2423851;217091,755;180854,318;Kuringersteenweg;88;
4890682;217197,041;180837,657;Kuringersteenweg;89;
701710;217087,088;180856,501;Kuringersteenweg;90;
701734;217190,065;180841,286;Kuringersteenweg;91;
701711;217079,817;180859,15;Kuringersteenweg;92;
701737;217172;180849;Kuringersteenweg;93;
2423858;217163,637;180856,485;Kuringersteenweg;95;
3937453;217067,878;180865,546;Kuringersteenweg;96;
2423861;217159,496;180857,847;Kuringersteenweg;97;
4893113;217065;180867;Kuringersteenweg;98;
3937454;217154,222;180861,363;Kuringersteenweg;99;
4893114;217050,397;180871,373;Kuringersteenweg;100;
2423863;217151,557;180867,998;Kuringersteenweg;101;
4893117;217041,798;180875,992;Kuringersteenweg;102;
2423864;217146,963;180870,097;Kuringersteenweg;103;
2423865;217036,752;180878,977;Kuringersteenweg;104;
2423868;217142,142;180867,034;Kuringersteenweg;105;
701703;217031,494;180881,606;Kuringersteenweg;106;
2423878;217138,512;180874,123;Kuringersteenweg;107;
701604;217026,306;180884,662;Kuringersteenweg;108;
2423885;217022,087;180892,026;Kuringersteenweg;110;
2423890;217133,238;180875,768;Kuringersteenweg;111;
2423892;217017,913;180897,173;Kuringersteenweg;112;
6628540;217013,268;180889,96;Kuringersteenweg;112;A
2423894;217016,783;180888,18;Kuringersteenweg;112;B
6194247;217020,337;180886,368;Kuringersteenweg;112;C
2423897;217129,608;180880,022;Kuringersteenweg;113;
4888754;217011,525;180895,179;Kuringersteenweg;114;
2423901;217125,128;180880,135;Kuringersteenweg;115;
2423904;217006,337;180897,809;Kuringersteenweg;116;
2423905;217120,648;180882,063;Kuringersteenweg;117;
4070200;217000,794;180901,078;Kuringersteenweg;118;
4890731;217116,337;180883,821;Kuringersteenweg;119;
2423906;216995,18;180903,849;Kuringersteenweg;120;
701738;217111,8;180885,523;Kuringersteenweg;121;
2423907;216989,987;180906,691;Kuringersteenweg;122;
701739;217099,834;180892,102;Kuringersteenweg;123;
2423911;216980,896;180911,311;Kuringersteenweg;124;
4232557;217095,183;180894,03;Kuringersteenweg;125;
2423914;217091,043;180896,525;Kuringersteenweg;127;
2423918;217086,733;180899,021;Kuringersteenweg;129;
3937455;216942,096;180936,538;Kuringersteenweg;130;
2423921;217082,649;180901,459;Kuringersteenweg;131;
28297;216935,629;180942,295;Kuringersteenweg;132;
4268275;217078,056;180904,238;Kuringersteenweg;133;
1309642;216911,021;180947,886;Kuringersteenweg;134;
2423926;217073,632;180906,677;Kuringersteenweg;135;
4890698;217069,265;180909,399;Kuringersteenweg;137;
2423932;217065,295;180911,895;Kuringersteenweg;139;
2423936;217061,155;180914,39;Kuringersteenweg;141;
2423937;217048,961;180919,551;Kuringersteenweg;143;
3994305;217044,027;180921,99;Kuringersteenweg;145;
2423938;216852,555;180979,646;Kuringersteenweg;146;
2423941;217039,887;180924,315;Kuringersteenweg;147;
2423945;216844,796;180984,053;Kuringersteenweg;148;
2423949;217035,18;180926,697;Kuringersteenweg;149;
2423953;216839,681;180985,828;Kuringersteenweg;150;
2423957;217030,473;180928,966;Kuringersteenweg;151;
4887654;216834,633;180988,04;Kuringersteenweg;152;
4890705;217025,425;180931,688;Kuringersteenweg;153;
2423961;216829,075;180990,365;Kuringersteenweg;154;
2423966;217020,321;180934,921;Kuringersteenweg;155;
2423970;217014,877;180937,926;Kuringersteenweg;157;
2423973;217003,534;180944,505;Kuringersteenweg;159;
2423974;217008,695;180940,875;Kuringersteenweg;159;A
2423975;216998,089;180948,362;Kuringersteenweg;161;
2423976;216806,73;181001,368;Kuringersteenweg;162;
2423978;216992,872;180950,347;Kuringersteenweg;163;
4255024;216802,028;181003,719;Kuringersteenweg;164;
2423980;216987,541;180953,976;Kuringersteenweg;165;
2423983;216796,627;181006,576;Kuringersteenweg;166;
2423986;216982,947;180955,564;Kuringersteenweg;167;
2423990;216977,105;180959,194;Kuringersteenweg;169;
1280895;216786,767;181012,087;Kuringersteenweg;170;
2423994;216778,657;181016,17;Kuringersteenweg;170;A
2423998;216772,815;181018,779;Kuringersteenweg;170;B
2424001;216767,654;181020,707;Kuringersteenweg;170;C
2424006;216972,455;180961,179;Kuringersteenweg;171;
1355665;216755,858;181024,79;Kuringersteenweg;172;
701275;216967,237;180964,412;Kuringersteenweg;173;
1309643;216736,473;180991,593;Kuringersteenweg;174;
701274;216951,13;180974,337;Kuringersteenweg;175;
1309644;216728,012;181044,527;Kuringersteenweg;176;
4155674;216946,423;180976,435;Kuringersteenweg;177;
4887675;216721,83;181046,795;Kuringersteenweg;178;
2424017;216941,489;180980,065;Kuringersteenweg;179;
2424018;216714,117;181049,291;Kuringersteenweg;180;
2424019;216937,576;180982,05;Kuringersteenweg;181;
2424023;216708,672;181051,729;Kuringersteenweg;182;
2424027;216933,152;180984,829;Kuringersteenweg;183;
2424031;216693;181059;Kuringersteenweg;184;
4884349;216928,502;180987,267;Kuringersteenweg;185;
2424040;216922,66;180990,613;Kuringersteenweg;187;
2424043;216916,648;180993,222;Kuringersteenweg;189;
2424049;216911,658;180995,434;Kuringersteenweg;191;
2424053;216906,61;180998,043;Kuringersteenweg;193;
2424056;216901,392;181000,538;Kuringersteenweg;195;
2424059;216896,345;181003,317;Kuringersteenweg;197;
4038250;216891,694;181005,926;Kuringersteenweg;199;
4884354;216885,91;181009,612;Kuringersteenweg;201;
4884356;216881,599;181010,974;Kuringersteenweg;203;
2424069;216876,688;181013,669;Kuringersteenweg;205;
701273;216870,937;181016,248;Kuringersteenweg;207;
701272;216865,152;181018,403;Kuringersteenweg;209;
2424089;216860,275;181020,898;Kuringersteenweg;211;
701276;216855,419;181023,153;Kuringersteenweg;213;
701277;216851,031;181027,024;Kuringersteenweg;215;
2424107;216845,978;181029,717;Kuringersteenweg;217;
2424114;216840,539;181033,602;Kuringersteenweg;219;
4884366;216837,192;181035,814;Kuringersteenweg;221;
4193975;216832,258;181038,536;Kuringersteenweg;223;
4026719;216827,891;181042,109;Kuringersteenweg;225;
3937458;216822,674;181045,569;Kuringersteenweg;227;
2424131;216817,513;181044,151;Kuringersteenweg;229;
4161577;216812,068;181046,363;Kuringersteenweg;229;A
4884371;216808,212;181051,864;Kuringersteenweg;231;
2424141;216802,711;181054,246;Kuringersteenweg;233;
1334543;216797,89;181056,912;Kuringersteenweg;235;
1334544;216793,183;181059,124;Kuringersteenweg;237;
4051441;216788,419;181061,335;Kuringersteenweg;239;
3937460;216782,804;181063,547;Kuringersteenweg;239;A
2424163;216778,38;181065,759;Kuringersteenweg;241;
2424171;216773,503;181068,198;Kuringersteenweg;243;
2424176;216768,909;181070,296;Kuringersteenweg;245;
3937461;216763,351;181073,359;Kuringersteenweg;247;
4884338;216759,722;181074,89;Kuringersteenweg;249;
3937462;216754,447;181078,917;Kuringersteenweg;251;
701271;216749,23;181081,639;Kuringersteenweg;253;
701340;217370,078;180740,319;Lazarijstraat;1;
4000925;217372,88;180750,924;Lazarijstraat;1;A
700982;217361,557;180789,822;Lazarijstraat;2;
2425135;217375,226;180755,368;Lazarijstraat;3;
4886722;217363;180795;Lazarijstraat;4;
2425137;217377,97;180759,734;Lazarijstraat;5;
2425139;217370,007;180798,767;Lazarijstraat;6;
2425143;217379,902;180764,557;Lazarijstraat;7;
2425144;217371,497;180806,771;Lazarijstraat;8;
4888884;217383,242;180768,402;Lazarijstraat;9;
4886724;217375,203;180811,464;Lazarijstraat;10;
2425145;217385,727;180772,756;Lazarijstraat;11;
2425148;217379,612;180816,3;Lazarijstraat;12;
2425151;217388,252;180777,081;Lazarijstraat;13;
4886725;217383,036;180821,247;Lazarijstraat;14;
4027961;217391,035;180781,221;Lazarijstraat;15;
2425154;217385,412;180827,347;Lazarijstraat;16;
4008415;217392,92;180785,775;Lazarijstraat;17;
2425155;217388,431;180832,174;Lazarijstraat;18;
2425156;217395,742;180790,303;Lazarijstraat;19;
4886728;217392,066;180836,631;Lazarijstraat;20;
2425157;217398,286;180794,231;Lazarijstraat;21;
2425161;217396,395;180840,957;Lazarijstraat;22;
2425165;217401,444;180845,492;Lazarijstraat;24;
2425168;217406,776;180848,756;Lazarijstraat;26;
2425171;217409,553;180853,856;Lazarijstraat;28;
2425174;217413,494;180858,491;Lazarijstraat;30;
2425178;217403,782;180800,43;Lazarijstraat;31;
2425182;217417,286;180863,226;Lazarijstraat;32;
2425185;217406,105;180803,999;Lazarijstraat;33;
2425188;217421,259;180867,928;Lazarijstraat;34;
2425191;217409,258;180807,596;Lazarijstraat;35;
4886734;217427,553;180880,169;Lazarijstraat;36;
4888896;217412,536;180811,553;Lazarijstraat;37;
4886736;217436,084;180890,939;Lazarijstraat;38;
4065012;217415,622;180815,043;Lazarijstraat;39;
4886739;217452,186;180903,736;Lazarijstraat;40;
2425194;217418,979;180819,16;Lazarijstraat;41;
2425197;217421,42;180824,989;Lazarijstraat;43;
2425206;217426,443;180830,105;Lazarijstraat;45;
4888902;217430,051;180833,95;Lazarijstraat;47;
700984;217470,727;180922,477;Lazarijstraat;48;
2425210;217433,318;180837,925;Lazarijstraat;49;
2425215;217477,022;180925,47;Lazarijstraat;50;
2425219;217436,884;180841,582;Lazarijstraat;51;
2425222;217481,696;180928,676;Lazarijstraat;52;
2425224;217440,657;180844,721;Lazarijstraat;53;
2425227;217484,72;180933,013;Lazarijstraat;54;
4154331;217444,289;180848,199;Lazarijstraat;55;
2425231;217488,331;180936,605;Lazarijstraat;56;
2425235;217447,02;180852,899;Lazarijstraat;57;
4886751;217492,219;180940,31;Lazarijstraat;58;
2425239;217451,494;180855,945;Lazarijstraat;59;
2425242;217497,821;180943,591;Lazarijstraat;60;
2425246;217454,707;180860,333;Lazarijstraat;61;
2425249;217501,864;180947,283;Lazarijstraat;62;
2425251;217459,289;180863,592;Lazarijstraat;63;
2425253;217506,598;180952,366;Lazarijstraat;64;
2425261;217460,037;180869,619;Lazarijstraat;65;
3937472;217512,603;180954,821;Lazarijstraat;66;
2425262;217466,985;180870,235;Lazarijstraat;67;
2425263;217517,14;180959,891;Lazarijstraat;68;
4888911;217470,641;180873,95;Lazarijstraat;69;
2425265;217474,552;180877,223;Lazarijstraat;71;
2425266;217492,656;181001,976;Lazarijstraat;72;
2425268;217476,848;180882,204;Lazarijstraat;73;
2425271;217529,758;180964,35;Lazarijstraat;74;
2425274;217480,836;180885,684;Lazarijstraat;75;
3937473;217533,943;180966,724;Lazarijstraat;76;
2425275;217483,1;180890,715;Lazarijstraat;77;
2425276;217540,411;180967,226;Lazarijstraat;78;
701339;217484,16;180896,952;Lazarijstraat;79;
2425278;217544,746;180968,917;Lazarijstraat;80;
2425281;217549,594;180969,92;Lazarijstraat;82;
701341;217510,648;180928,556;Lazarijstraat;83;
4886759;217554,685;180971,589;Lazarijstraat;84;
2425289;217514,094;180932,079;Lazarijstraat;85;
2425294;217559,421;180972,894;Lazarijstraat;86;
2425297;217519,432;180933,435;Lazarijstraat;87;
2425299;217564,626;180974,1;Lazarijstraat;88;
2425301;217523,215;180936,281;Lazarijstraat;89;
2425304;217569,045;180976,306;Lazarijstraat;90;
2425305;217526,686;180940,126;Lazarijstraat;91;
2425306;217575,179;180978,11;Lazarijstraat;92;
2425307;217534,282;180938,312;Lazarijstraat;93;
3937474;217578,718;180980,457;Lazarijstraat;94;
2425309;217537,841;180940,744;Lazarijstraat;95;
2425311;217585,27;180981,58;Lazarijstraat;96;
4888867;217541,597;180943,7;Lazarijstraat;97;
700985;217591,962;180983,244;Lazarijstraat;98;
4235790;217545,86;180949,23;Lazarijstraat;99;
2425312;217553,375;180949,079;Lazarijstraat;101;
4888871;217563,408;180952,231;Lazarijstraat;105;
2425316;217571,37;180953,918;Lazarijstraat;109;
4157483;217579,419;180957,597;Lazarijstraat;111;
700903;217639,099;180987,077;Lazarijstraat;115;
4192624;217641,408;180991,166;Lazarijstraat;117;
701344;217644,539;180995,296;Lazarijstraat;119;
701343;217646,98;180999,614;Lazarijstraat;121;
2425334;217649,876;181003,954;Lazarijstraat;123;
2425338;217652,751;181008,055;Lazarijstraat;125;
4889004;217655,013;181012,546;Lazarijstraat;127;
700904;217657,224;181017,348;Lazarijstraat;129;
700905;217672,479;181034,722;Lazarijstraat;131;
4882429;217675,141;181039,182;Lazarijstraat;133;
2425353;217678,092;181043,708;Lazarijstraat;135;
2425359;217681,029;181048,448;Lazarijstraat;137;
2425362;217691,622;181061,583;Lazarijstraat;139;
2425371;217698,294;181072,335;Lazarijstraat;141;
2425377;217705,14;181077,864;Lazarijstraat;149;
3937477;217707,325;181083,953;Lazarijstraat;151;
2425378;217714,846;181088,29;Lazarijstraat;153;
2425380;217722,474;181094,084;Lazarijstraat;155;
700907;217728,03;181097,173;Lazarijstraat;157;
700914;217834,296;181092,983;Lijmstraat;2;
700912;217856,657;181119,425;Lijmstraat;3;
4177736;217847,436;181122,56;Lijmstraat;5;
3937201;217843,04;181119,462;Lijmstraat;7;
2407509;217837,165;181118,789;Lijmstraat;9;
2407511;217824,308;181119,006;Lijmstraat;11;
4269620;217817,022;181121,345;Lijmstraat;13;
3937202;217810,888;181121,245;Lijmstraat;15;
700913;217804,444;181120,588;Lijmstraat;17;
701350;217577,064;180811,561;Mouterijstraat;1;
2430859;217551,616;180813,097;Mouterijstraat;3;
700981;217351,684;180802,569;Oude Kuringerbaan;1;
2423609;217351,908;180769,491;Oude Kuringerbaan;2;
2423610;217346,744;180806,81;Oude Kuringerbaan;3;
701740;217343,66;180772,226;Oude Kuringerbaan;4;
2423611;217342,001;180810,69;Oude Kuringerbaan;5;
4249149;217340,073;180776,633;Oude Kuringerbaan;6;
700980;217332,241;180818,392;Oude Kuringerbaan;7;
2423615;217337,974;180779,695;Oude Kuringerbaan;8;
700979;217330,14;180822,518;Oude Kuringerbaan;9;
2423616;217334,005;180782,02;Oude Kuringerbaan;10;
4080760;217324,382;180827,431;Oude Kuringerbaan;11;
3937440;217321,698;180793,647;Oude Kuringerbaan;12;
2423617;217319,481;180830,863;Oude Kuringerbaan;13;
4082991;217316,877;180797,333;Oude Kuringerbaan;14;A
2423618;217312,283;180801,36;Oude Kuringerbaan;14;B
701741;217303,606;180808,449;Oude Kuringerbaan;16;
2423619;217296,914;180813,667;Oude Kuringerbaan;18;
2423621;217292,83;180816,672;Oude Kuringerbaan;20;
701144;217312,593;180872,873;Oude Kuringerbaan;21;
2423624;217288,86;180819,792;Oude Kuringerbaan;22;
701140;217284,947;180822,684;Oude Kuringerbaan;24;
701138;217279,616;180827,278;Oude Kuringerbaan;26;
4890710;217271,166;180833,97;Oude Kuringerbaan;28;
3937441;217262,092;180840,946;Oude Kuringerbaan;30;
2423635;217259,142;180842,364;Oude Kuringerbaan;32;
4234089;217255,116;180844,349;Oude Kuringerbaan;34;
3937442;217262,768;180875,779;Oude Kuringerbaan;37;
2423636;217249,898;180852,175;Oude Kuringerbaan;38;
2423637;217250,301;180885,641;Oude Kuringerbaan;39;
2423639;217244,964;180856,145;Oude Kuringerbaan;40;
701142;217238,225;180895,6;Oude Kuringerbaan;41;
2423645;217241,278;180859,661;Oude Kuringerbaan;42;
4890715;217237,138;180863,008;Oude Kuringerbaan;44;
2423648;217232,26;180865,049;Oude Kuringerbaan;46;
2423651;217228,404;180867,885;Oude Kuringerbaan;48;
4890718;217224,264;180871,061;Oude Kuringerbaan;50;
701136;217212,354;180917,623;Oude Kuringerbaan;51;
2423653;217220,464;180874,123;Oude Kuringerbaan;52;
4890472;217209,461;180918,814;Oude Kuringerbaan;53;
2423655;217216,38;180877,186;Oude Kuringerbaan;54;
2423657;217205,945;180921,196;Oude Kuringerbaan;55;
701137;217212,807;180880,192;Oude Kuringerbaan;56;
2423658;217201,918;180923,578;Oude Kuringerbaan;57;
701133;217197,178;180896,84;Oude Kuringerbaan;58;
2423659;217193,808;180923,748;Oude Kuringerbaan;59;
3937443;217188,647;180901,289;Oude Kuringerbaan;62;
2423661;217183,146;180935,488;Oude Kuringerbaan;65;
2423662;217185,074;180903,444;Oude Kuringerbaan;66;
2423664;217178,529;180937,833;Oude Kuringerbaan;67;
2423666;217181,672;180905,543;Oude Kuringerbaan;68;
2423667;217171,803;180942,634;Oude Kuringerbaan;69;
4890624;217178,382;180907,755;Oude Kuringerbaan;70;
2423669;217167,266;180944,165;Oude Kuringerbaan;71;
3937444;217172,881;180909,059;Oude Kuringerbaan;72;
2423670;217159,78;180947,284;Oude Kuringerbaan;73;
3937445;217162,162;180915,581;Oude Kuringerbaan;74;
2423671;217150,536;180951,991;Oude Kuringerbaan;75;
4890481;217142,879;180954,6;Oude Kuringerbaan;77;
2423674;217154,336;180920,062;Oude Kuringerbaan;78;
2423676;217136,957;180957,04;Oude Kuringerbaan;79;
2423677;217148,267;180923,011;Oude Kuringerbaan;80;
2423678;217131,537;180960,328;Oude Kuringerbaan;81;
2423679;217144,411;180924,599;Oude Kuringerbaan;82;
701135;217125,582;180962,54;Oude Kuringerbaan;83;
5371650;217119,627;180964,922;Oude Kuringerbaan;83;A
2423680;217139,817;180926,981;Oude Kuringerbaan;84;
701134;217113,445;180969,402;Oude Kuringerbaan;85;
701132;217134,883;180929,022;Oude Kuringerbaan;86;
701284;217120,481;180933,128;Oude Kuringerbaan;88;
2423681;217104,03;180973,259;Oude Kuringerbaan;89;
4884374;217116,054;180935,147;Oude Kuringerbaan;90;
4890598;217096,431;180976,265;Oude Kuringerbaan;91;
2423682;217111,347;180937,416;Oude Kuringerbaan;92;
2423684;217106,583;180939,231;Oude Kuringerbaan;94;
2423685;217083,405;180982,676;Oude Kuringerbaan;95;
2423686;217101,989;180941,726;Oude Kuringerbaan;96;
4070087;217076,797;180984,498;Oude Kuringerbaan;97;
4884380;217097,849;180943,541;Oude Kuringerbaan;98;
2423687;217070,172;180986,757;Oude Kuringerbaan;99;
4036932;217092,744;180945,696;Oude Kuringerbaan;100;
701286;217064,614;180988,685;Oude Kuringerbaan;101;
4884384;217087,47;180948,192;Oude Kuringerbaan;102;
2423688;217082,933;180950,063;Oude Kuringerbaan;104;
2423689;217069,719;180956,075;Oude Kuringerbaan;106;
2423690;217042,78;181011,087;Oude Kuringerbaan;107;
2423691;217065,182;180957,606;Oude Kuringerbaan;108;
4884389;217060,644;180959,364;Oude Kuringerbaan;110;
4048027;217021,002;181010,18;Oude Kuringerbaan;111;
2423692;217055,474;180961,345;Oude Kuringerbaan;112;
4890612;217014,877;181012,165;Oude Kuringerbaan;113;
2423693;217050,096;180963,901;Oude Kuringerbaan;114;
701131;217009,545;181014,32;Oude Kuringerbaan;115;
4884392;217045,162;180966,113;Oude Kuringerbaan;116;
701130;216972,908;181031,334;Oude Kuringerbaan;117;
2423694;217039,887;180968,098;Oude Kuringerbaan;118;
701283;216966,443;181033,943;Oude Kuringerbaan;119;
2423695;217034,953;180969,799;Oude Kuringerbaan;120;
701278;216959,184;181037,005;Oude Kuringerbaan;121;
4884393;217028,374;180972,692;Oude Kuringerbaan;122;
4884395;217019,414;180976,322;Oude Kuringerbaan;124;
4884398;217008,298;180981,936;Oude Kuringerbaan;128;
3937446;216996,671;180986,19;Oude Kuringerbaan;130;
2423697;216987,257;180988,912;Oude Kuringerbaan;132;
701282;216982,153;180991,407;Oude Kuringerbaan;134;
2423698;216930,713;181011,654;Oude Kuringerbaan;148;
2423699;216921,412;181014,83;Oude Kuringerbaan;150;
2423700;216918,633;181017,949;Oude Kuringerbaan;152;
2423701;216914,947;181019,594;Oude Kuringerbaan;154;
2423702;216911,771;181021,069;Oude Kuringerbaan;156;
4884293;216907,291;181023,564;Oude Kuringerbaan;158;A
2423703;216899,181;181029,406;Oude Kuringerbaan;160;
2423704;216879,964;181039,905;Oude Kuringerbaan;168;
4884300;216876;181047;Oude Kuringerbaan;170;
2423705;216856,729;181052,111;Oude Kuringerbaan;192;
4247492;216849,909;181056,206;Oude Kuringerbaan;194;
4192825;216844,493;181058,707;Oude Kuringerbaan;196;
28291;217440,867;180910,333;Palmstraat;2;
700974;217455,665;180930,788;Palmstraat;3;
700973;217420,2;180921,457;Palmstraat;4;
4886776;217450,186;180932,685;Palmstraat;5;
4886785;217410,987;180923,133;Palmstraat;6;
4167790;217445,305;180935,1;Palmstraat;7;
2433761;217407,487;180924,682;Palmstraat;8;
2433764;217440,834;180937,313;Palmstraat;9;
700976;217403,208;180927,071;Palmstraat;10;
2433768;217434,598;180941,7;Palmstraat;11;
700977;217397,565;180929,71;Palmstraat;12;
2433769;217430,571;180943,505;Palmstraat;13;
4886792;217392,264;180932,304;Palmstraat;14;
2433771;217425,568;180945,529;Palmstraat;15;
2433773;217385,109;180935,505;Palmstraat;16;
1519743;217417,864;180949,765;Palmstraat;17;
4886796;217380;180937,879;Palmstraat;18;
1519742;217413,021;180950,895;Palmstraat;19;
2433778;217374,667;180940,835;Palmstraat;20;
700971;217368,634;180943,433;Palmstraat;22;
2433783;217405,743;180953,378;Palmstraat;23;
700970;217362,395;180945,874;Palmstraat;24;
1313109;217397,404;180957,891;Palmstraat;25;
4200835;217392,351;180959,951;Palmstraat;27;
3937579;217351;180952;Palmstraat;28;
4030628;217387,762;180962,278;Palmstraat;29;
2433785;217343,983;180953,051;Palmstraat;30;
700972;217380,33;180966,647;Palmstraat;31;
2433786;217337,926;180953,445;Palmstraat;32;
2433788;217333,751;180956,824;Palmstraat;34;
2433791;217330,828;180958,96;Palmstraat;36;
2433794;217324,453;180960,664;Palmstraat;38;
2433797;217318,01;180962,58;Palmstraat;40;
3937580;217310,55;180965,452;Palmstraat;42;
2433798;217306,372;180967,554;Palmstraat;44;
3937581;217299,264;180970,432;Palmstraat;44;A
3937583;217293,89;180972,897;Palmstraat;46;
700969;217288,694;180975,838;Palmstraat;48;
4882254;217749,874;181056,992;Permekelaan;1;
700938;217750,5;181111,913;Permekelaan;2;
2405812;217755,616;181050,439;Permekelaan;3;
4882243;217755,974;181110,091;Permekelaan;4;
4882258;217760,065;181043,589;Permekelaan;5;
2405813;217769,112;181107,62;Permekelaan;6;
700915;217764,122;181038,146;Permekelaan;7;
2405815;217781,968;181109,757;Permekelaan;8;
2405817;217792,138;181111,788;Permekelaan;10;
4069145;217781,252;181083,699;Permekelaan;11;
700916;217779,204;181073,511;Permekelaan;13;
700917;217781,869;181059,069;Permekelaan;15;
5412014;217785,122;181050,106;Permekelaan;17;
701744;217198,459;180846,617;Plantenstraat;1;
701745;217176,397;180859,094;Plantenstraat;2;
4890633;217201,294;180850,701;Plantenstraat;3;
26194;217179,913;180866,524;Plantenstraat;4;
4890635;217203,903;180854,444;Plantenstraat;5;
701743;217183,997;180872,365;Plantenstraat;6;
2434181;217206,342;180857,62;Plantenstraat;7;
3937586;217183,997;180878,093;Plantenstraat;8;
2434182;217209,178;180862,043;Plantenstraat;9;
4890688;217187,229;180882,347;Plantenstraat;10;
701146;217211,163;180866,07;Plantenstraat;11;
701151;217189,611;180886,374;Plantenstraat;12;
701153;217192,561;180889,776;Plantenstraat;14;
701154;217198;180895;Plantenstraat;16;
2434190;217214,099;180930,063;Plantenstraat;18;
2434194;217219,103;180932,709;Plantenstraat;20;
2434197;217221,711;180936,508;Plantenstraat;22;
2434200;217223,295;180940,189;Plantenstraat;24;
4890571;217223,47;180946,32;Plantenstraat;26;
2434204;217230,518;180903,152;Plantenstraat;27;
4890573;217226,461;180950,532;Plantenstraat;28;
2434206;217239,1;180916,341;Plantenstraat;29;
4890576;217233,047;180953,561;Plantenstraat;30;
700945;217252;180927;Plantenstraat;31;
6020151;217236,277;180959,024;Plantenstraat;32;
4890530;217260;180937;Plantenstraat;33;
2434209;217240,773;180965,512;Plantenstraat;34;
3937587;217245,43;180972,04;Plantenstraat;36;
1515285;217248,081;180977,514;Plantenstraat;38;
2434214;217251,51;180982,2;Plantenstraat;40;
701152;217255,809;180986,776;Plantenstraat;42;
701155;217258,292;180993,279;Plantenstraat;44;
2434219;217262,632;180951,101;Plantenstraat;47;
2434222;217269,476;180959,543;Plantenstraat;49;
701150;217296,301;181059,876;Plantenstraat;50;
2434225;217273,378;180966,417;Plantenstraat;51;
2434228;217305,248;181069,077;Plantenstraat;52;
2434231;217276,756;180971,992;Plantenstraat;53;
4890520;217307,932;181073,391;Plantenstraat;54;
2434235;217278,687;180977,276;Plantenstraat;55;
2434238;217311,455;181077,721;Plantenstraat;56;
701147;217284,024;180981,586;Plantenstraat;57;
2434249;217315,01;181081,628;Plantenstraat;58;
2434251;217318,088;181085,62;Plantenstraat;60;
4890523;217321,038;181089,668;Plantenstraat;62;
2434254;217324,601;181094,644;Plantenstraat;64;
2434256;217326,874;181100,417;Plantenstraat;66;
4199842;217330,368;181105,891;Plantenstraat;68;
2434258;217333,193;181110,644;Plantenstraat;70;
3937588;217336,414;181115,116;Plantenstraat;72;
701156;217339,534;181122,22;Plantenstraat;74;
701149;217349,284;181004,851;Plantenstraat;75;
701157;217344,919;181141,658;Plantenstraat;76;
5434130;217354,153;181138,611;Plantenstraat;78;A
701148;217341,37;181067,164;Plantenstraat;79;
2434264;217352,339;181149,361;Plantenstraat;80;
2434267;217344,791;181073,613;Plantenstraat;81;
4890496;217355,532;181153,635;Plantenstraat;82;
4890547;217347,671;181078,087;Plantenstraat;83;
2434270;217357,771;181157,507;Plantenstraat;84;
4890500;217362,339;181160,896;Plantenstraat;86;
4218408;217354,359;181086,754;Plantenstraat;87;
2434272;217365,572;181164,745;Plantenstraat;88;
2434275;217356,822;181091,256;Plantenstraat;89;
4890505;217368,253;181168,398;Plantenstraat;90;
2434277;217371,258;181172,768;Plantenstraat;92;
2434279;217361,981;181098,149;Plantenstraat;93;
4243740;217372,713;181176,161;Plantenstraat;94;
4256885;217364,254;181103,444;Plantenstraat;95;
2434282;217375,634;181179,837;Plantenstraat;96;
2434283;217366,329;181107,775;Plantenstraat;97;
4890509;217378,857;181182,77;Plantenstraat;98;
4051194;217368,163;181113,903;Plantenstraat;99;
2434284;217380,902;181186,199;Plantenstraat;100;
2434287;217368,751;181119,741;Plantenstraat;101;
4890510;217384,079;181189,76;Plantenstraat;102;
2434290;217374,361;181122,536;Plantenstraat;103;
2434294;217386,892;181193,492;Plantenstraat;104;
2434296;217377,615;181127,168;Plantenstraat;105;
2434298;217389,538;181197,23;Plantenstraat;106;
700941;217391,852;181200,61;Plantenstraat;108;
2434301;217384,092;181135,988;Plantenstraat;109;
700943;217394,665;181203,682;Plantenstraat;110;
2434304;217386,945;181141,075;Plantenstraat;111;
4890560;217390,945;181145,598;Plantenstraat;113;
4890562;217395;181152;Plantenstraat;115;
4890564;217398,962;181158,921;Plantenstraat;119;
4251150;217399,143;181165,653;Plantenstraat;121;
4056106;217405,629;181167,725;Plantenstraat;123;
700942;217409,743;181171,523;Plantenstraat;125;
700939;217411,376;181183,979;Plantenstraat;127;
701345;217713,501;180910,601;Prinsenstraat;1;
2434515;217725,158;180924,427;Prinsenstraat;1;A
700926;217732,404;180986,477;Prinsenstraat;2;
2434517;217728,982;180927,854;Prinsenstraat;3;
2434519;217736,504;180989,8;Prinsenstraat;4;
2434521;217732,037;180931,851;Prinsenstraat;5;
4185473;217740,308;180992,909;Prinsenstraat;6;
2434525;217735,13;180935,741;Prinsenstraat;7;
2434528;217744,929;180995,287;Prinsenstraat;8;
701346;217738,392;180939,515;Prinsenstraat;9;
2434531;217748,608;180998,513;Prinsenstraat;10;
2434534;217741,883;180943,111;Prinsenstraat;11;
2434537;217752,081;181001,812;Prinsenstraat;12;
2434540;217745,39;180946,695;Prinsenstraat;13;
2434542;217756,116;181005,247;Prinsenstraat;14;
4888933;217747,949;180951,097;Prinsenstraat;15;
700929;217761,456;181006,498;Prinsenstraat;16;
4888935;217750,087;180955,912;Prinsenstraat;17;
700928;217765,376;181009,924;Prinsenstraat;18;
2434545;217757,456;180965,223;Prinsenstraat;19;
2434546;217769,197;181013,201;Prinsenstraat;20;
2434547;217760,954;180969,086;Prinsenstraat;21;
2434549;217774,56;181018,085;Prinsenstraat;22;
2434551;217764,833;180972,837;Prinsenstraat;23;
2434553;217779,224;181020,782;Prinsenstraat;24;
2434555;217768,939;180977,06;Prinsenstraat;25;
700927;217783,394;181026,908;Prinsenstraat;26;
4888941;217782,092;180974,541;Prinsenstraat;27;
4882343;217798,058;181031,73;Prinsenstraat;28;
2434556;217780,107;180985,196;Prinsenstraat;29;
4882346;217803,604;181033,697;Prinsenstraat;30;
2434558;217783,15;180989,403;Prinsenstraat;31;
2434560;217809,311;181036,119;Prinsenstraat;32;
2434562;217786,701;180993,094;Prinsenstraat;33;
4153862;217814,611;181038,39;Prinsenstraat;34;
701349;217790,817;180996,191;Prinsenstraat;35;
700931;217832,317;181046,865;Prinsenstraat;36;
701348;217793,936;180999,791;Prinsenstraat;37;
700930;217862,235;181058,219;Prinsenstraat;38;
4888947;217794,906;181005,245;Prinsenstraat;39;
2434568;217800,314;181005,953;Prinsenstraat;41;
2434571;217806,464;181007,38;Prinsenstraat;43;
2434572;217812,527;181010,779;Prinsenstraat;45;
4888949;217817,577;181012,547;Prinsenstraat;47;
2434574;217823,173;181014,552;Prinsenstraat;49;
2434576;217828,71;181016,215;Prinsenstraat;51;
2434578;217845,931;181022,779;Prinsenstraat;55;
2434581;217851,653;181026,224;Prinsenstraat;57;
2434584;217856,624;181027,915;Prinsenstraat;59;
701347;217862,526;181030,139;Prinsenstraat;61;
701325;217658,886;180848,154;Rozenstraat;1;
3937613;217671;180853;Rozenstraat;1;A
701324;217626,169;180826,179;Rozenstraat;2;
2436615;217653,286;180845,341;Rozenstraat;3;
2436618;217621,043;180829,883;Rozenstraat;4;
2436619;217643,594;180848,7;Rozenstraat;5;
2436620;217616,042;180832,221;Rozenstraat;6;
2436621;217641,11;180850,632;Rozenstraat;7;
4888833;217610,913;180835,434;Rozenstraat;8;
2436622;217635,351;180853,058;Rozenstraat;9;
2436623;217604,369;180839,866;Rozenstraat;10;
2436624;217629,974;180856,061;Rozenstraat;11;
654134;217600,028;180842,485;Rozenstraat;12;
4888785;217625,809;180858,289;Rozenstraat;13;
654132;217595,354;180845,631;Rozenstraat;14;
701328;217620,605;180861,403;Rozenstraat;15;
4888837;217589,052;180848,108;Rozenstraat;16;
701327;217590,875;180880,443;Rozenstraat;17;
2436632;217583,215;180850,132;Rozenstraat;18;
701326;217561,176;180892,746;Rozenstraat;19;
2436633;217578,763;180853,68;Rozenstraat;20;
4274274;217551,443;180896,107;Rozenstraat;21;
4888839;217573,802;180856,539;Rozenstraat;22;
2436637;217547;180898;Rozenstraat;23;
2436642;217567,021;180859,718;Rozenstraat;24;
701322;217539,983;180900,641;Rozenstraat;25;
701323;217562,613;180863,151;Rozenstraat;26;
701320;217531,712;180905,276;Rozenstraat;27;
2436655;217547,782;180869,547;Rozenstraat;28;
6624710;217526,495;180908,593;Rozenstraat;29;
2436663;217516,385;180914,253;Rozenstraat;31;
701318;217503,498;180922,905;Rozenstraat;33;
2436673;217523,961;180883,218;Rozenstraat;44;A
2436674;217514,507;180888,638;Rozenstraat;44;B
2436676;217504,43;180894,024;Rozenstraat;44;C
2436677;217498,997;180897,368;Rozenstraat;48;
2436678;217492,706;180901,343;Rozenstraat;50;
701319;217487;180904;Rozenstraat;52;
3937648;217717,733;180869,867;Stokerijstraat;2;
2442014;217724,091;180872,935;Stokerijstraat;4;
2442016;217729,093;180875,257;Stokerijstraat;6;
2442019;217733,733;180877,272;Stokerijstraat;8;
2442021;217738,35;180878,931;Stokerijstraat;10;
2442024;217743,314;180880,963;Stokerijstraat;12;
2442027;217748,663;180882,871;Stokerijstraat;14;
2442030;217754,564;180885,034;Stokerijstraat;16;
4888848;217763,019;180888,685;Stokerijstraat;18;
2442035;217771,09;180890,713;Stokerijstraat;22;
2442039;217776,212;180892,302;Stokerijstraat;24;
3937649;217781,544;180893,761;Stokerijstraat;26;
2442043;217787,644;180895,289;Stokerijstraat;28;
2442047;217793,604;180897,25;Stokerijstraat;30;
2442052;217799,936;180899,252;Stokerijstraat;32;
2442056;217806,302;180900,111;Stokerijstraat;34;
2442058;217811,82;180901,657;Stokerijstraat;36;
2442060;217816,978;180902,688;Stokerijstraat;38;
2442063;217826,378;180903,129;Stokerijstraat;40;
2442070;217834,083;180906,282;Stokerijstraat;44;
4700797;217839,187;180909,068;Stokerijstraat;46;
3937650;217845,267;180909,338;Stokerijstraat;48;
2442073;217850,067;180910,492;Stokerijstraat;50;
2442077;217855,464;180911,61;Stokerijstraat;52;
