LAM MK;xPos;yPos;Street;Nr;Suffix
337214;75090;227173;Bevrijdingslaan;1;
2758098;75079,779;227173,625;Bevrijdingslaan;3;
4345831;75075,02;227172,21;Bevrijdingslaan;5;
337213;75068,02;227172,59;Bevrijdingslaan;7;
337212;75058,779;227172,624;Bevrijdingslaan;9;
337210;75047,27;227171,76;Bevrijdingslaan;11;
2758779;75145,548;227316,174;Diksmuidestraat;3;
2758780;75142,548;227319,174;Diksmuidestraat;5;
2758781;75138,548;227323,174;Diksmuidestraat;7;
2758782;75133,548;227329,174;Diksmuidestraat;9;
2758784;75127,111;227336,133;Diksmuidestraat;13;
2758785;75124,548;227340,174;Diksmuidestraat;15;
72445;75120,65;227344,38;Diksmuidestraat;17;
72444;75116,548;227348,174;Diksmuidestraat;19;
76545;75060,54;227414,152;Diksmuidestraat;23;
2758790;75050,104;227425,807;Diksmuidestraat;25;
76547;75042,209;227435,736;Diksmuidestraat;27;
76546;75034,664;227430,411;Diksmuidestraat;29;
76544;75036,547;227441,173;Diksmuidestraat;31;
335722;75001,646;227477,975;Diksmuidestraat;33;
335721;74995,402;227490,547;Diksmuidestraat;35;
1488876;74990,629;227495,569;Diksmuidestraat;37;
335719;74982,547;227506,172;Diksmuidestraat;37;A
76549;75090,054;227434,9;Diksmuidestraat;38;
335718;74969,089;227521,426;Diksmuidestraat;39;
2758797;75080;227427;Diksmuidestraat;40;
2758799;74963,406;227528,616;Diksmuidestraat;41;
1343714;75071,44;227436,85;Diksmuidestraat;42;
1327495;74959,293;227532,489;Diksmuidestraat;43;
2758800;75066,547;227442,173;Diksmuidestraat;44;
2758802;74954,091;227533,615;Diksmuidestraat;45;
2758803;75062,547;227446,173;Diksmuidestraat;46;
2758804;74956;227538;Diksmuidestraat;47;
5579323;75058,42;227451,694;Diksmuidestraat;48;
337041;74951,39;227542,399;Diksmuidestraat;49;
335720;75024,704;227496,646;Diksmuidestraat;50;
2758806;75048,768;227461,407;Diksmuidestraat;50;A
6524258;74947,185;227539,022;Diksmuidestraat;51;
4197377;75019,29;227503,36;Diksmuidestraat;52;
2758808;75011,93;227509,89;Diksmuidestraat;54;
5579324;74989,239;227540,62;Diksmuidestraat;56;
335716;75002,93;227528,14;Diksmuidestraat;58;
335121;75173,821;227588,125;Driehoeksplein;1;
4275251;75179,488;227588,314;Driehoeksplein;2;
4345066;75179,308;227593,195;Driehoeksplein;3;
2758932;75183;227596;Driehoeksplein;4;
2758933;75188,175;227601,598;Driehoeksplein;5;
2758934;75193,409;227606,008;Driehoeksplein;6;
4345064;75197,823;227610,823;Driehoeksplein;7;
2758935;75203,815;227611,14;Driehoeksplein;8;
2758937;75203,581;227615,775;Driehoeksplein;9;
335122;75210,265;227618,626;Driehoeksplein;10;
2758938;75209,832;227623,19;Driehoeksplein;10;A
335090;75215,887;227620,562;Driehoeksplein;11;
337084;75132,656;227601,04;Driehoeksplein;12;
4347395;75131,69;227607,509;Driehoeksplein;13;
13046;75125,579;227605,637;Driehoeksplein;15;
336625;74923,514;227187,731;Duinviooltjesstraat;1;
1024244;74954,549;227194,173;Duinviooltjesstraat;2;
2759168;74924,741;227189,815;Duinviooltjesstraat;3;
336632;74939,549;227210,172;Duinviooltjesstraat;4;
2759171;74920;227198,514;Duinviooltjesstraat;5;
2759174;74915,93;227202,87;Duinviooltjesstraat;7;
336633;74926,708;227224,192;Duinviooltjesstraat;8;
336626;74910,549;227207,172;Duinviooltjesstraat;9;
1273698;74918,565;227233,907;Duinviooltjesstraat;10;
5567532;74907,235;227212,224;Duinviooltjesstraat;11;
2759181;74924,807;227239,435;Duinviooltjesstraat;12;
6525402;74903;227217;Duinviooltjesstraat;13;
336629;74912,09;227240,27;Duinviooltjesstraat;14;
2759182;74898,549;227221,172;Duinviooltjesstraat;15;
2759183;74907,549;227245,172;Duinviooltjesstraat;16;
4344963;74894,549;227226,172;Duinviooltjesstraat;17;
2759186;74903;227252;Duinviooltjesstraat;18;
336628;74891,359;227230,973;Duinviooltjesstraat;19;
336630;74901,377;227268,403;Duinviooltjesstraat;20;
336631;74887,549;227235,172;Duinviooltjesstraat;21;
336806;74894,978;227261,973;Duinviooltjesstraat;22;
2759189;74884;227241;Duinviooltjesstraat;23;
336809;74883,549;227274,172;Duinviooltjesstraat;24;
2759193;74880,05;227245,09;Duinviooltjesstraat;25;
336810;74873,549;227285,172;Duinviooltjesstraat;26;
2759194;74875,85;227249,42;Duinviooltjesstraat;27;
2759196;74869,549;227256,172;Duinviooltjesstraat;29;
1327499;74863,549;227261,172;Duinviooltjesstraat;31;
2759197;74859,549;227267,172;Duinviooltjesstraat;33;
336808;74846,98;227275,684;Duinviooltjesstraat;35;
336814;74806,748;227251,022;Dumortierlaan;10;
5579338;74812,331;227249,443;Dumortierlaan;12;
2759224;74813,87;227257,79;Dumortierlaan;14;
2759226;74818,739;227262,375;Dumortierlaan;16;
2759229;74823,802;227266,692;Dumortierlaan;18;
2759233;74828,689;227270,742;Dumortierlaan;20;
2759236;74836,336;227276,571;Dumortierlaan;22;
4060716;74844,389;227282,443;Dumortierlaan;24;
336815;74863,758;227296,458;Dumortierlaan;28;
5579339;74865;227303;Dumortierlaan;30;
6462591;74871,394;227300,212;Dumortierlaan;30;A
2759240;74872,631;227305,929;Dumortierlaan;32;
2759244;74876,005;227303,805;Dumortierlaan;34;
2759247;74881,322;227305,769;Dumortierlaan;36;
2759249;74877,488;227315,042;Dumortierlaan;38;
2759253;74883,687;227317,961;Dumortierlaan;40;
2759255;74886,276;227324,543;Dumortierlaan;42;
2759260;74892,231;227323,086;Dumortierlaan;44;
4346602;74891,402;227328,218;Dumortierlaan;46;
336816;74895,218;227331,918;Dumortierlaan;48;
5579341;74899,788;227335,598;Dumortierlaan;50;
3923032;74958,72;227357,92;Dumortierlaan;52;
76555;74982,078;227411,736;Dumortierlaan;54;
5579342;74986,887;227411,353;Dumortierlaan;56;
2759279;74990,611;227417,743;Dumortierlaan;58;
2759281;74994,801;227421,503;Dumortierlaan;60;
2759284;74999,181;227425,883;Dumortierlaan;62;
2759287;75004,5;227429,14;Dumortierlaan;64;
1327500;75007,547;227433,173;Dumortierlaan;66;
2759288;75013,21;227437,17;Dumortierlaan;68;
2759290;75016,914;227441,729;Dumortierlaan;70;
2759294;75021,547;227446,173;Dumortierlaan;72;
76556;75029,498;227449,335;Dumortierlaan;74;
2759301;75028,366;227454,788;Dumortierlaan;76;
76557;75044,547;227466,173;Dumortierlaan;78;
2759308;75049,167;227472,961;Dumortierlaan;80;
2759310;75053,01;227476,39;Dumortierlaan;82;
2759312;75057,773;227479,779;Dumortierlaan;84;
2759314;75063,733;227478,325;Dumortierlaan;86;
2759316;75062,154;227483,267;Dumortierlaan;88;
335870;75067,17;227486,31;Dumortierlaan;90;
335866;75099;227520;Dumortierlaan;92;
337048;74965,421;227432,285;Dumortierlaan;93;
2759320;75105,632;227524,538;Dumortierlaan;94;
2759324;75113,956;227524,168;Dumortierlaan;94;A
2759325;75110,339;227529,363;Dumortierlaan;94;B
5579344;74968,86;227438,217;Dumortierlaan;95;
2759327;75114,759;227533,793;Dumortierlaan;96;
2759329;74975,08;227445,392;Dumortierlaan;97;
2759330;75120,281;227532,592;Dumortierlaan;98;
2759333;74978,892;227448,494;Dumortierlaan;99;
2759335;75120,086;227537,408;Dumortierlaan;100;
2759336;74983,957;227452,338;Dumortierlaan;101;
2759338;75125,546;227540,173;Dumortierlaan;102;
2759340;74989,194;227457,607;Dumortierlaan;103;
335869;75129,8;227545,427;Dumortierlaan;104;
6430502;75136,589;227536,623;Dumortierlaan;104;A
2759341;74994,458;227461,248;Dumortierlaan;105;
335867;75133,546;227549,173;Dumortierlaan;106;
4030850;74993,551;227466,041;Dumortierlaan;107;
2759343;74999,565;227463,19;Dumortierlaan;107;B
2759345;75138;227554;Dumortierlaan;108;
2759346;75001,324;227469,118;Dumortierlaan;109;
5579345;75144;227559;Dumortierlaan;110;
335723;75009,394;227474,168;Dumortierlaan;111;
3993747;75148,75;227563,99;Dumortierlaan;112;
335725;75025,984;227489,601;Dumortierlaan;113;
2759350;75152,73;227567,43;Dumortierlaan;114;
2759352;75034,512;227497,375;Dumortierlaan;115;
335868;75157,996;227571,658;Dumortierlaan;116;
2759353;75039,091;227502,347;Dumortierlaan;117;
2759355;75038,818;227507,182;Dumortierlaan;119;
2759357;75045,493;227506,226;Dumortierlaan;121;
2759358;75048,118;227512,022;Dumortierlaan;123;
2759360;75053,046;227516,104;Dumortierlaan;125;
2759362;75055,978;227520,402;Dumortierlaan;127;
337088;75082,274;227542,371;Dumortierlaan;131;
3939550;75091,64;227552,258;Dumortierlaan;133;
2759365;75098,626;227556,71;Dumortierlaan;135;
2759367;75099,592;227561,942;Dumortierlaan;137;
2759368;75104,986;227561,747;Dumortierlaan;139;
337091;75111,113;227566,521;Dumortierlaan;141;
5579346;75108,499;227572,06;Dumortierlaan;143;
337090;75116,846;227571,733;Dumortierlaan;145;
5579347;75114,754;227576,874;Dumortierlaan;147;
2759373;75121,521;227577,62;Dumortierlaan;149;
2759374;75120,963;227583,59;Dumortierlaan;151;
2759375;75127,533;227581,958;Dumortierlaan;153;
337089;75132,568;227587,537;Dumortierlaan;155;
2759377;75133,697;227592,856;Dumortierlaan;157;
5579348;75138,793;227593,686;Dumortierlaan;159;
336811;74817,87;227240,71;Ferdinand Mosselmanstraat;2;
4346599;74822,549;227233,171;Ferdinand Mosselmanstraat;4;
2763870;74822,549;227233,171;Ferdinand Mosselmanstraat;6;
4153963;74829,549;227224,172;Ferdinand Mosselmanstraat;8;
2763876;74834,486;227219,995;Ferdinand Mosselmanstraat;10;
2763877;74838,278;227215,075;Ferdinand Mosselmanstraat;12;
336636;74841,549;227210,172;Ferdinand Mosselmanstraat;14;
336635;74848,549;227203,172;Ferdinand Mosselmanstraat;16;
2763881;74854,732;227196,533;Ferdinand Mosselmanstraat;18;
2763882;74858,916;227190,633;Ferdinand Mosselmanstraat;20;
2763885;74862,575;227186,323;Ferdinand Mosselmanstraat;22;
4344959;74867;227182;Ferdinand Mosselmanstraat;24;
6382973;74869;227175;Ferdinand Mosselmanstraat;30;
76560;74991,548;227352,173;Heilig-Hartlaan;1;
72436;74976,662;227302,872;Heilig-Hartlaan;2;
76559;75031,097;227388,215;Heilig-Hartlaan;3;
72437;74998,353;227320,595;Heilig-Hartlaan;4;
6524118;75008,651;227329,606;Heilig-Hartlaan;6;
2760061;75042,097;227397,215;Heilig-Hartlaan;7;
76558;75052,237;227406,329;Heilig-Hartlaan;11;
337085;75067,638;227591,696;Ieperstraat;1;
335715;75046,597;227574,112;Ieperstraat;2;
2760529;75068,883;227585,87;Ieperstraat;3;
2760531;75050,669;227565,427;Ieperstraat;4;
2760532;75070,556;227579,631;Ieperstraat;5;
2760534;75052,061;227555,594;Ieperstraat;6;
2760535;75074,408;227568,37;Ieperstraat;7;
337086;75056,632;227543,933;Ieperstraat;8;
4347388;75081,096;227570,408;Ieperstraat;9;
13066;75057,686;227531,159;Ieperstraat;10;
2760538;75077,78;227557,756;Ieperstraat;11;
2760539;75079,721;227548,885;Ieperstraat;13;
2760541;75079,82;227548,74;Ieperstraat;15;
335873;75103,077;227514,053;Ieperstraat;17;
2760542;75111,85;227507,29;Ieperstraat;19;
2760544;75123,187;227493,793;Ieperstraat;23;
2760546;75128,507;227487,104;Ieperstraat;25;
2760547;75133,134;227481,371;Ieperstraat;27;
4346441;75140,434;227471,948;Ieperstraat;31;
335872;75147,62;227462,733;Ieperstraat;33;
4009567;75157,956;227451,34;Ieperstraat;39;
13052;75166,453;227440,783;Ieperstraat;41;
76554;74950,548;227310,172;Jef Mennekenslaan;1;
5579499;74904,321;227320,057;Jef Mennekenslaan;2;
72442;74968,985;227287,744;Jef Mennekenslaan;3;
2763778;74914,023;227320,563;Jef Mennekenslaan;4;
2763779;74918,918;227314,498;Jef Mennekenslaan;6;
336805;74918,601;227308,226;Jef Mennekenslaan;8;
813983;74930,34;227300,9;Jef Mennekenslaan;10;
2763782;74930,64;227270,916;Jef Mennekenslaan;12;
3939621;74937,384;227288,898;Jef Mennekenslaan;12;A
3939622;74944,957;227280,991;Jef Mennekenslaan;12;B
336639;74950,915;227274,376;Jef Mennekenslaan;14;
336638;74966,549;227255,173;Jef Mennekenslaan;18;
2763784;74971,372;227250,44;Jef Mennekenslaan;18;A
2763785;74975,408;227244,947;Jef Mennekenslaan;20;
2763787;74995;227257;Jef Mennekenslaan;21;
336640;74988,505;227228,642;Jef Mennekenslaan;22;
72440;75007,3;227254,851;Jef Mennekenslaan;23;
336637;74993,679;227224,693;Jef Mennekenslaan;24;
2763790;75001,028;227250,341;Jef Mennekenslaan;25;
2763791;75007,549;227242,173;Jef Mennekenslaan;27;
3939623;75012,29;227235,88;Jef Mennekenslaan;31;
2763793;75015,549;227232,173;Jef Mennekenslaan;33;
72441;75022,957;227227,264;Jef Mennekenslaan;35;
335854;75181,824;227552,158;Kemmelbergstraat;1;
335124;75198;227571;Kemmelbergstraat;2;
2761150;75174,166;227559,821;Kemmelbergstraat;3;
2761151;75189,988;227575,693;Kemmelbergstraat;4;
335855;75165,65;227565,617;Kemmelbergstraat;5;
335123;75182,721;227581,847;Kemmelbergstraat;6;
335710;74877,342;227532,666;Kustlaan;2;
2762272;74881,017;227534,06;Kustlaan;4;
6089749;74885,267;227535,264;Kustlaan;6;
335711;74891,549;227538,198;Kustlaan;8;
2762276;74911,827;227539,657;Kustlaan;10;
2762278;74906,921;227542,882;Kustlaan;12;
4346088;74917,723;227546,23;Kustlaan;14;
2762282;74925,468;227544,26;Kustlaan;16;
2762285;74928,682;227550,177;Kustlaan;18;
1148172;74933,454;227543,745;Kustlaan;20;
2762288;74936,981;227548,582;Kustlaan;22;
2762290;74940,316;227553,69;Kustlaan;24;
13048;74976,445;227555,48;Kustlaan;30;
2762295;74984,506;227558,035;Kustlaan;32;
2762297;74996,29;227571,9;Kustlaan;34;
335712;75006,267;227564,846;Kustlaan;36;
335713;75013,546;227576,173;Kustlaan;38;
2762302;75019,729;227578,572;Kustlaan;40;
2762304;75024,546;227580,173;Kustlaan;42;
2762306;75032,067;227581,919;Kustlaan;44;
335714;75041,387;227584,477;Kustlaan;46;
6419836;75040,521;227577,89;Kustlaan;46;A
337092;75064,448;227594,36;Kustlaan;48;
337104;75071,546;227595,173;Kustlaan;50;
337105;75075,546;227597,173;Kustlaan;52;
337106;75080,546;227598,173;Kustlaan;54;
2762315;75086,912;227601,694;Kustlaan;56;
2762317;75094,546;227604,173;Kustlaan;58;
6433115;75097,394;227598,035;Kustlaan;58;B
2762320;75101,119;227606,466;Kustlaan;60;
2762321;75106,546;227607,173;Kustlaan;62;
2762323;75111,419;227609,314;Kustlaan;64;
337093;75119,771;227612,417;Kustlaan;66;
5579423;75126,13;227614,709;Kustlaan;68;
337193;75083,645;227202,091;Montgomerylaan;1;
337192;75089,879;227178,544;Montgomerylaan;3;
2763887;74951,227;227107,837;Mussenpad;1;
2763889;74967,839;227118,063;Mussenpad;2;
4038434;74975,892;227130,041;Mussenpad;2;A
2763891;74950,768;227131,761;Mussenpad;3;
338540;74966,803;227149,644;Mussenpad;4;
2763892;74941,995;227149,611;Mussenpad;5;
338541;74964,326;227163,875;Mussenpad;6;
72448;75134,64;227253,225;Nieuwpoortstraat;1;
2764308;75140,223;227255,813;Nieuwpoortstraat;1;A
2764312;75148,548;227283,174;Nieuwpoortstraat;3;
4347728;75149,879;227289,427;Nieuwpoortstraat;5;
2764315;75150,73;227295,83;Nieuwpoortstraat;7;
4070898;75152,041;227305,201;Nieuwpoortstraat;9;
335845;75174,752;227442,18;Nieuwpoortstraat;15;
2764322;75175,25;227452,71;Nieuwpoortstraat;17;
2764326;75176,616;227460,09;Nieuwpoortstraat;19;
2764327;75177,536;227466,942;Nieuwpoortstraat;21;
2764329;75177,729;227475,103;Nieuwpoortstraat;23;
2764332;75181,386;227497,823;Nieuwpoortstraat;29;
2764336;75183,626;227512,99;Nieuwpoortstraat;31;
2764337;75186,766;227528,09;Nieuwpoortstraat;35;
335846;75188,31;227542,348;Nieuwpoortstraat;39;
335125;75202,095;227591,578;Nieuwpoortstraat;41;
4345058;75209;227601;Nieuwpoortstraat;45;
335126;75211;227607;Nieuwpoortstraat;47;
6148072;74840,488;227069,705;Piers de Raveschootlaan;80;
338488;74836,55;227083,172;Piers de Raveschootlaan;82;
2765562;74840,161;227102,842;Piers de Raveschootlaan;84;
2765569;74840,592;227114,44;Piers de Raveschootlaan;88;
338491;74840,958;227122,214;Piers de Raveschootlaan;90;
6526789;74840,805;227130,171;Piers de Raveschootlaan;92;
337043;74883,163;227529,479;Van Bunnenlaan;1;
2758482;74891,067;227516,059;Van Bunnenlaan;3;
1360225;74895,99;227511,072;Van Bunnenlaan;5;
2758488;74900,56;227506,136;Van Bunnenlaan;7;
2758491;74904,561;227501,502;Van Bunnenlaan;9;
2758494;74910,564;227494,971;Van Bunnenlaan;11;
2758499;74917,117;227487,932;Van Bunnenlaan;15;
2758503;74925,649;227479,476;Van Bunnenlaan;17;
2758506;74934,398;227468,172;Van Bunnenlaan;19;
2758508;74939,104;227470,843;Van Bunnenlaan;21;
2758510;74941,624;227459,946;Van Bunnenlaan;23;
1453096;74947,308;227454,53;Van Bunnenlaan;25;
4346075;74952,434;227446,693;Van Bunnenlaan;27;
337045;74958,498;227440,82;Van Bunnenlaan;29;
76551;74991,358;227402,376;Van Bunnenlaan;31;
76552;74998,837;227393,087;Van Bunnenlaan;33;
76553;75008,104;227382,363;Van Bunnenlaan;35;
76550;75016,312;227372,925;Van Bunnenlaan;37;
72433;75033,502;227351,804;Van Bunnenlaan;39;
72430;75055,548;227325,173;Van Bunnenlaan;41;
72431;75027,548;227313,173;Van Bunnenlaan;42;
2758528;75031,548;227308,173;Van Bunnenlaan;44;
3939531;75077,052;227308,829;Van Bunnenlaan;45;
4347755;75035,17;227304,09;Van Bunnenlaan;46;
2758530;75072;227308;Van Bunnenlaan;47;
2758531;75038,548;227298,173;Van Bunnenlaan;48;
2758533;75075,282;227303,931;Van Bunnenlaan;49;
2758534;75043,168;227293,44;Van Bunnenlaan;50;
2758535;75081,887;227297,19;Van Bunnenlaan;51;
72435;75049,05;227287,71;Van Bunnenlaan;52;
2758537;75086,837;227291,366;Van Bunnenlaan;53;
72432;75053,08;227280,104;Van Bunnenlaan;54;
72428;75093,548;227281,174;Van Bunnenlaan;55;
5579292;75062,159;227271,276;Van Bunnenlaan;56;
1297112;75104,435;227272,341;Van Bunnenlaan;57;
2758544;75069,022;227263,105;Van Bunnenlaan;58;
72434;75121,098;227250,259;Van Bunnenlaan;59;
2758547;75078,94;227248,76;Van Bunnenlaan;60;
2758549;75084,46;227242,26;Van Bunnenlaan;62;
289;74843,993;227062,81;Winston Churchilllaan;1;
2758620;74874,006;227066,164;Winston Churchilllaan;3;
338555;74892,517;227069,081;Winston Churchilllaan;5;
338556;74907,05;227074,03;Winston Churchilllaan;7;
338557;74922,516;227083,081;Winston Churchilllaan;9;
2758627;74931,516;227089,081;Winston Churchilllaan;11;
3939533;74937,29;227092,503;Winston Churchilllaan;13;
2758629;74943,606;227099,349;Winston Churchilllaan;15;
338559;74975;227127;Winston Churchilllaan;19;
2758631;74980,005;227113,713;Winston Churchilllaan;21;
2758634;74992,005;227111,713;Winston Churchilllaan;23;
2758635;75018,616;227114,872;Winston Churchilllaan;25;
2758639;75027,556;227136,289;Winston Churchilllaan;27;
2758640;75026,7;227151,31;Winston Churchilllaan;29;
2758641;75026,006;227162,214;Winston Churchilllaan;31;
337187;75036,719;227186,043;Winston Churchilllaan;32;
2758642;75022,584;227172,832;Winston Churchilllaan;33;
337188;75018;227189;Winston Churchilllaan;35;
338535;74845,55;227135,172;Zoutelaan;24;
2768180;74853,283;227137,792;Zoutelaan;26;
2768183;74860,025;227138,239;Zoutelaan;28;
2768185;74865,234;227133,141;Zoutelaan;28;A
336642;74872,908;227167,291;Zoutelaan;33;
3939677;74875,023;227174,55;Zoutelaan;35;
2768190;74885,191;227173,065;Zoutelaan;37;
2768192;74890,191;227175,065;Zoutelaan;39;
3939678;74896,894;227175,915;Zoutelaan;41;
2768195;74903,796;227176,95;Zoutelaan;43;
2768196;74908,191;227180,065;Zoutelaan;45;
2768198;74914,191;227182,065;Zoutelaan;47;
2768199;74920,584;227183,355;Zoutelaan;49;
2768203;74935,175;227155,355;Zoutelaan;50;
336643;74927,017;227183,923;Zoutelaan;51;
2768204;74919,516;227151,27;Zoutelaan;52;
5579597;74931,279;227185,175;Zoutelaan;53;
336645;74968,642;227198,403;Zoutelaan;55;
4347645;74966,945;227169,832;Zoutelaan;56;
336646;74977,173;227201,972;Zoutelaan;57;
338538;74958,334;227172,24;Zoutelaan;58;
336644;74996,98;227208,664;Zoutelaan;59;
2768208;74975,94;227176,391;Zoutelaan;60;
72418;75031;227217;Zoutelaan;61;
2768211;74985,549;227179,173;Zoutelaan;62;
72419;75053,174;227225,352;Zoutelaan;63;
2768215;74993,549;227181,173;Zoutelaan;64;
2768216;75064,072;227227,267;Zoutelaan;65;
2768218;75002,026;227184,041;Zoutelaan;66;
72421;75072,947;227229,991;Zoutelaan;67;
337216;75009,549;227186,173;Zoutelaan;68;
72423;75089,91;227235,86;Zoutelaan;69;
337215;75035;227193;Zoutelaan;70;
2768221;75045,549;227198,173;Zoutelaan;72;
2768223;75140,767;227262,076;Zoutelaan;73;
2768225;75045,549;227198,173;Zoutelaan;74;
4345837;75046;227199;Zoutelaan;76;
2768227;75058,549;227201,173;Zoutelaan;78;
2768229;75067,549;227205,173;Zoutelaan;80;
2768231;75073,549;227207,173;Zoutelaan;82;
