LAM MK;Area Type;Area FID;Area Version;Area Name;Zoning FID;Zoning Version;Zoning Name;Zoning Id;Zoning Tech;BG Version;Building FID;Building Version;BG Id;LAM City Code;LAM Street Code
59563;Zoning;6809230;20191109094845;W03-C-Antwerpen-West-FH09;6809230;20191109094845;W03-C-Antwerpen-West-FH09;19086;FTTH-Cu;;714132;20200331134251;;1630000;774
1736221;Zoning;6809230;20191109094845;W03-C-Antwerpen-West-FH09;6809230;20191109094845;W03-C-Antwerpen-West-FH09;19086;FTTH-Cu;;623657;20200330183928;;1630000;774
1736222;Zoning;6809230;20191109094845;W03-C-Antwerpen-West-FH09;6809230;20191109094845;W03-C-Antwerpen-West-FH09;19086;FTTH-Cu;;623658;20200330183928;;1630000;774
55497;Zoning;6809230;20191109094845;W03-C-Antwerpen-West-FH09;6809230;20191109094845;W03-C-Antwerpen-West-FH09;19086;FTTH-Cu;;33070309;20200330183930;;1630000;774
6326783;Zoning;6809230;20191109094845;W03-C-Antwerpen-West-FH09;6809230;20191109094845;W03-C-Antwerpen-West-FH09;19086;FTTH-Cu;;33070311;20200330183930;;1630000;774
1736224;Zoning;6809230;20191109094845;W03-C-Antwerpen-West-FH09;6809230;20191109094845;W03-C-Antwerpen-West-FH09;19086;FTTH-Cu;;623659;20200331134306;;1630000;774
1736225;Zoning;6809230;20191109094845;W03-C-Antwerpen-West-FH09;6809230;20191109094845;W03-C-Antwerpen-West-FH09;19086;FTTH-Cu;;623660;20200330183928;;1630000;774
4506658;Zoning;6809230;20191109094845;W03-C-Antwerpen-West-FH09;6809230;20191109094845;W03-C-Antwerpen-West-FH09;19086;FTTH-Cu;;33070312;20200331134312;;1630000;774
1736226;Zoning;6809230;20191109094845;W03-C-Antwerpen-West-FH09;6809230;20191109094845;W03-C-Antwerpen-West-FH09;19086;FTTH-Cu;;623661;20200330183928;;1630000;774
1736227;Zoning;6809230;20191109094845;W03-C-Antwerpen-West-FH09;6809230;20191109094845;W03-C-Antwerpen-West-FH09;19086;FTTH-Cu;;33070314;20200331134319;;1630000;774
4504675;Zoning;6809230;20191109094845;W03-C-Antwerpen-West-FH09;6809230;20191109094845;W03-C-Antwerpen-West-FH09;19086;FTTH-Cu;;33070315;20200331134537;;1630000;774
59564;Zoning;6809230;20191109094845;W03-C-Antwerpen-West-FH09;6809230;20191109094845;W03-C-Antwerpen-West-FH09;19086;FTTH-Cu;;714133;20200330183933;;1630000;774
1736228;Zoning;6809230;20191109094845;W03-C-Antwerpen-West-FH09;6809230;20191109094845;W03-C-Antwerpen-West-FH09;19086;FTTH-Cu;;623662;20200330183928;;1630000;774
55498;Zoning;6809230;20191109094845;W03-C-Antwerpen-West-FH09;6809230;20191109094845;W03-C-Antwerpen-West-FH09;19086;FTTH-Cu;;712018;20200330183936;;1630000;774
1736231;Zoning;6809230;20191109094845;W03-C-Antwerpen-West-FH09;6809230;20191109094845;W03-C-Antwerpen-West-FH09;19086;FTTH-Cu;;623663;20200330183928;;1630000;774
6524093;Zoning;6809230;20191109094845;W03-C-Antwerpen-West-FH09;6809230;20191109094845;W03-C-Antwerpen-West-FH09;19086;FTTH-Cu;;33070316;20200331134544;;1630000;774
1736232;Zoning;6809230;20191109094845;W03-C-Antwerpen-West-FH09;6809230;20191109094845;W03-C-Antwerpen-West-FH09;19086;FTTH-Cu;;623664;20200330183928;;1630000;774
55499;Zoning;6809230;20191109094845;W03-C-Antwerpen-West-FH09;6809230;20191109094845;W03-C-Antwerpen-West-FH09;19086;FTTH-Cu;;712019;20200330183936;;1630000;774
6339370;Zoning;6809230;20191109094845;W03-C-Antwerpen-West-FH09;6809230;20191109094845;W03-C-Antwerpen-West-FH09;19086;FTTH-Cu;;33070317;20200428090821;;1630000;774
1736233;Zoning;6809230;20191109094845;W03-C-Antwerpen-West-FH09;6809230;20191109094845;W03-C-Antwerpen-West-FH09;19086;FTTH-Cu;;623665;20200330183929;;1630000;774
59579;Zoning;6809230;20191109094845;W03-C-Antwerpen-West-FH09;6809230;20191109094845;W03-C-Antwerpen-West-FH09;19086;FTTH-Cu;;714143;20200330183933;;1630000;774
55144;Zoning;6809230;20191109094845;W03-C-Antwerpen-West-FH09;6809230;20191109094845;W03-C-Antwerpen-West-FH09;19086;FTTH-Cu;;711935;20200330183935;;1630000;774
59583;Zoning;6809230;20191109094845;W03-C-Antwerpen-West-FH09;6809230;20191109094845;W03-C-Antwerpen-West-FH09;19086;FTTH-Cu;;714147;20200331134904;;1630000;774
197322;Zoning;6809230;20191109094845;W03-C-Antwerpen-West-FH09;6809230;20191109094845;W03-C-Antwerpen-West-FH09;19086;FTTH-Cu;;654826;20200330183920;;1630000;774
1736234;Zoning;6809230;20191109094845;W03-C-Antwerpen-West-FH09;6809230;20191109094845;W03-C-Antwerpen-West-FH09;19086;FTTH-Cu;;623666;20200330183929;;1630000;774
59581;Zoning;6809230;20191109094845;W03-C-Antwerpen-West-FH09;6809230;20191109094845;W03-C-Antwerpen-West-FH09;19086;FTTH-Cu;;714145;20200331134910;;1630000;774
4504282;Zoning;6809230;20191109094845;W03-C-Antwerpen-West-FH09;6809230;20191109094845;W03-C-Antwerpen-West-FH09;19086;FTTH-Cu;;705744;20200331135940;;1630000;774
1736235;Zoning;6809230;20191109094845;W03-C-Antwerpen-West-FH09;6809230;20191109094845;W03-C-Antwerpen-West-FH09;19086;FTTH-Cu;;33070322;20200331134915;;1630000;774
4504277;Zoning;6809230;20191109094845;W03-C-Antwerpen-West-FH09;6809230;20191109094845;W03-C-Antwerpen-West-FH09;19086;FTTH-Cu;;33070327;20200331134926;;1630000;774
4504279;Zoning;6809230;20191109094845;W03-C-Antwerpen-West-FH09;6809230;20191109094845;W03-C-Antwerpen-West-FH09;19086;FTTH-Cu;;33070329;20200331134931;;1630000;774
4504280;Zoning;6809230;20191109094845;W03-C-Antwerpen-West-FH09;6809230;20191109094845;W03-C-Antwerpen-West-FH09;19086;FTTH-Cu;;705743;20200331134952;;1630000;774
4504281;Zoning;6809230;20191109094845;W03-C-Antwerpen-West-FH09;6809230;20191109094845;W03-C-Antwerpen-West-FH09;19086;FTTH-Cu;;33070331;20200331134944;;1630000;774
12629;Zoning;6809230;20191109094845;W03-C-Antwerpen-West-FH09;6809230;20191109094845;W03-C-Antwerpen-West-FH09;19086;FTTH-Cu;;615310;20200331135046;;1630000;774
55121;Zoning;6809230;20191109094845;W03-C-Antwerpen-West-FH09;6809230;20191109094845;W03-C-Antwerpen-West-FH09;19086;FTTH-Cu;;711932;20200428084932;;1630000;799
55118;Zoning;6809230;20191109094845;W03-C-Antwerpen-West-FH09;6809230;20191109094845;W03-C-Antwerpen-West-FH09;19086;FTTH-Cu;;711929;20200331130913;;1630000;799
1736396;Zoning;6809230;20191109094845;W03-C-Antwerpen-West-FH09;6809230;20191109094845;W03-C-Antwerpen-West-FH09;19086;FTTH-Cu;;623811;20200428084944;;1630000;799
4036544;Zoning;6809230;20191109094845;W03-C-Antwerpen-West-FH09;6809230;20191109094845;W03-C-Antwerpen-West-FH09;19086;FTTH-Cu;;692550;20200331130920;;1630000;799
4510715;Zoning;6809230;20191109094845;W03-C-Antwerpen-West-FH09;6809230;20191109094845;W03-C-Antwerpen-West-FH09;19086;FTTH-Cu;;707119;20200428084950;;1630000;799
55119;Zoning;6809230;20191109094845;W03-C-Antwerpen-West-FH09;6809230;20191109094845;W03-C-Antwerpen-West-FH09;19086;FTTH-Cu;;711930;20200331130944;;1630000;799
1736397;Zoning;6809230;20191109094845;W03-C-Antwerpen-West-FH09;6809230;20191109094845;W03-C-Antwerpen-West-FH09;19086;FTTH-Cu;;623812;20200428084958;;1630000;799
1736398;Zoning;6809230;20191109094845;W03-C-Antwerpen-West-FH09;6809230;20191109094845;W03-C-Antwerpen-West-FH09;19086;FTTH-Cu;;623813;20200428085014;;1630000;799
55120;Zoning;6809230;20191109094845;W03-C-Antwerpen-West-FH09;6809230;20191109094845;W03-C-Antwerpen-West-FH09;19086;FTTH-Cu;;711931;20200428085031;;1630000;799
137988;Zoning;6809230;20191109094845;W03-C-Antwerpen-West-FH09;6809230;20191109094845;W03-C-Antwerpen-West-FH09;19086;FTTH-Cu;;617652;20200330183939;;1630000;2706
11962;Zoning;6809230;20191109094845;W03-C-Antwerpen-West-FH09;6809230;20191109094845;W03-C-Antwerpen-West-FH09;19086;FTTH-Cu;;614569;20200331121021;;1630000;2706
5393989;Zoning;6809230;20191109094845;W03-C-Antwerpen-West-FH09;6809230;20191109094845;W03-C-Antwerpen-West-FH09;19086;FTTH-Cu;;711194;20200331120451;;1630000;3736
137975;Zoning;6809230;20191109094845;W03-C-Antwerpen-West-FH09;6809230;20191109094845;W03-C-Antwerpen-West-FH09;19086;FTTH-Cu;;33070285;20200428091129;;1630000;3736
1773210;Zoning;6809230;20191109094845;W03-C-Antwerpen-West-FH09;6809230;20191109094845;W03-C-Antwerpen-West-FH09;19086;FTTH-Cu;;631354;20200428091143;;1630000;3736
137976;Zoning;6809230;20191109094845;W03-C-Antwerpen-West-FH09;6809230;20191109094845;W03-C-Antwerpen-West-FH09;19086;FTTH-Cu;;617647;20200428091149;;1630000;3736
5575216;Zoning;6809230;20191109094845;W03-C-Antwerpen-West-FH09;6809230;20191109094845;W03-C-Antwerpen-West-FH09;19086;FTTH-Cu;;33070290;20200428091119;;1630000;3736
5575217;Zoning;6809230;20191109094845;W03-C-Antwerpen-West-FH09;6809230;20191109094845;W03-C-Antwerpen-West-FH09;19086;FTTH-Cu;;33070295;20200428091103;;1630000;3736
1773251;Zoning;6809230;20191109094845;W03-C-Antwerpen-West-FH09;6809230;20191109094845;W03-C-Antwerpen-West-FH09;19086;FTTH-Cu;;631356;20200428091051;;1630000;3736
137979;Zoning;6809230;20191109094845;W03-C-Antwerpen-West-FH09;6809230;20191109094845;W03-C-Antwerpen-West-FH09;19086;FTTH-Cu;;617650;20200331120931;;1630000;3736
137689;Zoning;6809230;20191109094845;W03-C-Antwerpen-West-FH09;6809230;20191109094845;W03-C-Antwerpen-West-FH09;19086;FTTH-Cu;;617576;20200427165024;;1630000;9218
5575539;Zoning;6809230;20191109094845;W03-C-Antwerpen-West-FH09;6809230;20191109094845;W03-C-Antwerpen-West-FH09;19086;FTTH-Cu;;712319;20200427164957;;1630000;9218
137688;Zoning;6809230;20191109094845;W03-C-Antwerpen-West-FH09;6809230;20191109094845;W03-C-Antwerpen-West-FH09;19086;FTTH-Cu;;33070333;20200331124832;;1630000;9218
137681;Zoning;6809230;20191109094845;W03-C-Antwerpen-West-FH09;6809230;20191109094845;W03-C-Antwerpen-West-FH09;19086;FTTH-Cu;;617571;20200331124806;;1630000;9218
137680;Zoning;6809230;20191109094845;W03-C-Antwerpen-West-FH09;6809230;20191109094845;W03-C-Antwerpen-West-FH09;19086;FTTH-Cu;;617570;20200331124759;;1630000;9218
137686;Zoning;6809230;20191109094845;W03-C-Antwerpen-West-FH09;6809230;20191109094845;W03-C-Antwerpen-West-FH09;19086;FTTH-Cu;;617574;20200331124731;;1630000;9218
11956;Zoning;6809230;20191109094845;W03-C-Antwerpen-West-FH09;6809230;20191109094845;W03-C-Antwerpen-West-FH09;19086;FTTH-Cu;;614566;20200427164720;;1630000;9218
1873898;Zoning;6809230;20191109094845;W03-C-Antwerpen-West-FH09;6809230;20191109094845;W03-C-Antwerpen-West-FH09;19086;FTTH-Cu;;33070335;20200331124705;;1630000;9218
5575540;Zoning;6809230;20191109094845;W03-C-Antwerpen-West-FH09;6809230;20191109094845;W03-C-Antwerpen-West-FH09;19086;FTTH-Cu;;33070338;20200331124658;;1630000;9218
137679;Zoning;6809230;20191109094845;W03-C-Antwerpen-West-FH09;6809230;20191109094845;W03-C-Antwerpen-West-FH09;19086;FTTH-Cu;;617569;20200330183939;;1630000;9218
137683;Zoning;6809230;20191109094845;W03-C-Antwerpen-West-FH09;6809230;20191109094845;W03-C-Antwerpen-West-FH09;19086;FTTH-Cu;;33070341;20200331124500;;1630000;9218
137682;Zoning;6809230;20191109094845;W03-C-Antwerpen-West-FH09;6809230;20191109094845;W03-C-Antwerpen-West-FH09;19086;FTTH-Cu;;33070343;20200331124453;;1630000;9218
1873944;Zoning;6809230;20191109094845;W03-C-Antwerpen-West-FH09;6809230;20191109094845;W03-C-Antwerpen-West-FH09;19086;FTTH-Cu;;642554;20200331124439;;1630000;9218
1873950;Zoning;6809230;20191109094845;W03-C-Antwerpen-West-FH09;6809230;20191109094845;W03-C-Antwerpen-West-FH09;19086;FTTH-Cu;;33070342;20200331124446;;1630000;9218
50917;Zoning;6809230;20191109094845;W03-C-Antwerpen-West-FH09;6809230;20191109094845;W03-C-Antwerpen-West-FH09;19086;FTTH-Cu;;710666;20200427163020;;1630000;9218
50918;Zoning;6809230;20191109094845;W03-C-Antwerpen-West-FH09;6809230;20191109094845;W03-C-Antwerpen-West-FH09;19086;FTTH-Cu;;710667;20200330183934;;1630000;9218
50916;Zoning;6809230;20191109094845;W03-C-Antwerpen-West-FH09;6809230;20191109094845;W03-C-Antwerpen-West-FH09;19086;FTTH-Cu;;710665;20200330183934;;1630000;9218
50915;Zoning;6809230;20191109094845;W03-C-Antwerpen-West-FH09;6809230;20191109094845;W03-C-Antwerpen-West-FH09;19086;FTTH-Cu;;710664;20200427164023;;1630000;9218
1874000;Zoning;6809230;20191109094845;W03-C-Antwerpen-West-FH09;6809230;20191109094845;W03-C-Antwerpen-West-FH09;19086;FTTH-Cu;;33070344;20200331124313;;1630000;9218
1874010;Zoning;6809230;20191109094845;W03-C-Antwerpen-West-FH09;6809230;20191109094845;W03-C-Antwerpen-West-FH09;19086;FTTH-Cu;;642555;20200331124251;;1630000;9218
1874020;Zoning;6809230;20191109094845;W03-C-Antwerpen-West-FH09;6809230;20191109094845;W03-C-Antwerpen-West-FH09;19086;FTTH-Cu;;642556;20200331124245;;1630000;9218
50895;Zoning;6809230;20191109094845;W03-C-Antwerpen-West-FH09;6809230;20191109094845;W03-C-Antwerpen-West-FH09;19086;FTTH-Cu;;710649;20200331124213;;1630000;9218
5575542;Zoning;6809230;20191109094845;W03-C-Antwerpen-West-FH09;6809230;20191109094845;W03-C-Antwerpen-West-FH09;19086;FTTH-Cu;;712321;20200427160721;;1630000;9218
5575543;Zoning;6809230;20191109094845;W03-C-Antwerpen-West-FH09;6809230;20191109094845;W03-C-Antwerpen-West-FH09;19086;FTTH-Cu;;712322;20200427155636;;1630000;9218
50913;Zoning;6809230;20191109094845;W03-C-Antwerpen-West-FH09;6809230;20191109094845;W03-C-Antwerpen-West-FH09;19086;FTTH-Cu;;33070346;20200427155708;;1630000;9218
50896;Zoning;6809230;20191109094845;W03-C-Antwerpen-West-FH09;6809230;20191109094845;W03-C-Antwerpen-West-FH09;19086;FTTH-Cu;;710650;20200331124127;;1630000;9218
6458252;Zoning;6809230;20191109094845;W03-C-Antwerpen-West-FH09;6809230;20191109094845;W03-C-Antwerpen-West-FH09;19086;FTTH-Cu;;33070347;20200331124120;;1630000;9218
1874083;Zoning;6809230;20191109094845;W03-C-Antwerpen-West-FH09;6809230;20191109094845;W03-C-Antwerpen-West-FH09;19086;FTTH-Cu;;642557;20200330183923;;1630000;9218
6518756;Zoning;6809230;20191109094845;W03-C-Antwerpen-West-FH09;6809230;20191109094845;W03-C-Antwerpen-West-FH09;19086;FTTH-Cu;;33070349;20200331124105;;1630000;9218
1874110;Zoning;6809230;20191109094845;W03-C-Antwerpen-West-FH09;6809230;20191109094845;W03-C-Antwerpen-West-FH09;19086;FTTH-Cu;;642559;20200331123947;;1630000;9218
50910;Zoning;6809230;20191109094845;W03-C-Antwerpen-West-FH09;6809230;20191109094845;W03-C-Antwerpen-West-FH09;19086;FTTH-Cu;;33070359;20200330183931;;1630000;9218
5403554;Zoning;6809230;20191109094845;W03-C-Antwerpen-West-FH09;6809230;20191109094845;W03-C-Antwerpen-West-FH09;19086;FTTH-Cu;;711289;20200330183932;;1630000;9218
50902;Zoning;6809230;20191109094845;W03-C-Antwerpen-West-FH09;6809230;20191109094845;W03-C-Antwerpen-West-FH09;19086;FTTH-Cu;;710656;20200331122658;;1630000;9218
50909;Zoning;6809230;20191109094845;W03-C-Antwerpen-West-FH09;6809230;20191109094845;W03-C-Antwerpen-West-FH09;19086;FTTH-Cu;;710662;20200331122652;;1630000;9218
50901;Zoning;6809230;20191109094845;W03-C-Antwerpen-West-FH09;6809230;20191109094845;W03-C-Antwerpen-West-FH09;19086;FTTH-Cu;;710655;20200331122646;;1630000;9218
50908;Zoning;6809230;20191109094845;W03-C-Antwerpen-West-FH09;6809230;20191109094845;W03-C-Antwerpen-West-FH09;19086;FTTH-Cu;;710661;20200331122639;;1630000;9218
50900;Zoning;6809230;20191109094845;W03-C-Antwerpen-West-FH09;6809230;20191109094845;W03-C-Antwerpen-West-FH09;19086;FTTH-Cu;;710654;20200331122620;;1630000;9218
50899;Zoning;6809230;20191109094845;W03-C-Antwerpen-West-FH09;6809230;20191109094845;W03-C-Antwerpen-West-FH09;19086;FTTH-Cu;;710653;20200331122625;;1630000;9218
50907;Zoning;6809230;20191109094845;W03-C-Antwerpen-West-FH09;6809230;20191109094845;W03-C-Antwerpen-West-FH09;19086;FTTH-Cu;;710660;20200331122615;;1630000;9218
50898;Zoning;6809230;20191109094845;W03-C-Antwerpen-West-FH09;6809230;20191109094845;W03-C-Antwerpen-West-FH09;19086;FTTH-Cu;;710652;20200330183934;;1630000;9218
50912;Zoning;6809230;20191109094845;W03-C-Antwerpen-West-FH09;6809230;20191109094845;W03-C-Antwerpen-West-FH09;19086;FTTH-Cu;;710663;20200331122540;;1630000;9218
50905;Zoning;6809230;20191109094845;W03-C-Antwerpen-West-FH09;6809230;20191109094845;W03-C-Antwerpen-West-FH09;19086;FTTH-Cu;;710658;20200331122533;;1630000;9218
50897;Zoning;6809230;20191109094845;W03-C-Antwerpen-West-FH09;6809230;20191109094845;W03-C-Antwerpen-West-FH09;19086;FTTH-Cu;;710651;20200331122508;;1630000;9218
50904;Zoning;6809230;20191109094845;W03-C-Antwerpen-West-FH09;6809230;20191109094845;W03-C-Antwerpen-West-FH09;19086;FTTH-Cu;;710657;20200331122501;;1630000;9218
5575544;Zoning;6809230;20191109094845;W03-C-Antwerpen-West-FH09;6809230;20191109094845;W03-C-Antwerpen-West-FH09;19086;FTTH-Cu;;712323;20200331122454;;1630000;9218
50903;Zoning;6809230;20191109094845;W03-C-Antwerpen-West-FH09;6809230;20191109094845;W03-C-Antwerpen-West-FH09;19086;FTTH-Cu;;33070360;20200331122447;;1630000;9218
5575545;Zoning;6809230;20191109094845;W03-C-Antwerpen-West-FH09;6809230;20191109094845;W03-C-Antwerpen-West-FH09;19086;FTTH-Cu;;712324;20200330183932;;1630000;9218
50911;Zoning;6809230;20191109094845;W03-C-Antwerpen-West-FH09;6809230;20191109094845;W03-C-Antwerpen-West-FH09;19086;FTTH-Cu;;33070364;20200331121047;;1630000;9218
137989;Zoning;6809230;20191109094845;W03-C-Antwerpen-West-FH09;6809230;20191109094845;W03-C-Antwerpen-West-FH09;19086;FTTH-Cu;;617653;20200330183939;;1630000;9218
55157;Zoning;6809230;20191109094845;W03-C-Antwerpen-West-FH09;6809230;20191109094845;W03-C-Antwerpen-West-FH09;19086;FTTH-Cu;;711940;20200330183935;;1630000;10431
55172;Zoning;6809230;20191109094845;W03-C-Antwerpen-West-FH09;6809230;20191109094845;W03-C-Antwerpen-West-FH09;19086;FTTH-Cu;;711945;20200428085656;;1630000;10431
1911794;Zoning;6809230;20191109094845;W03-C-Antwerpen-West-FH09;6809230;20191109094845;W03-C-Antwerpen-West-FH09;19086;FTTH-Cu;;645194;20200331130658;;1630000;10431
5322665;Zoning;6809230;20191109094845;W03-C-Antwerpen-West-FH09;6809230;20191109094845;W03-C-Antwerpen-West-FH09;19086;FTTH-Cu;;710758;20200428090409;;1630000;10431
55163;Zoning;6809230;20191109094845;W03-C-Antwerpen-West-FH09;6809230;20191109094845;W03-C-Antwerpen-West-FH09;19086;FTTH-Cu;;711943;20200331130708;;1630000;10431
55171;Zoning;6809230;20191109094845;W03-C-Antwerpen-West-FH09;6809230;20191109094845;W03-C-Antwerpen-West-FH09;19086;FTTH-Cu;;33069924;20200330183941;;1630000;10431
55161;Zoning;6809230;20191109094845;W03-C-Antwerpen-West-FH09;6809230;20191109094845;W03-C-Antwerpen-West-FH09;19086;FTTH-Cu;;711942;20200331130714;;1630000;10431
55165;Zoning;6809230;20191109094845;W03-C-Antwerpen-West-FH09;6809230;20191109094845;W03-C-Antwerpen-West-FH09;19086;FTTH-Cu;;711944;20200331130721;;1630000;10431
4510709;Zoning;6809230;20191109094845;W03-C-Antwerpen-West-FH09;6809230;20191109094845;W03-C-Antwerpen-West-FH09;19086;FTTH-Cu;;33069925;20200331130728;;1630000;10431
1911814;Zoning;6809230;20191109094845;W03-C-Antwerpen-West-FH09;6809230;20191109094845;W03-C-Antwerpen-West-FH09;19086;FTTH-Cu;;645195;20200331130736;;1630000;10431
55159;Zoning;6809230;20191109094845;W03-C-Antwerpen-West-FH09;6809230;20191109094845;W03-C-Antwerpen-West-FH09;19086;FTTH-Cu;;711941;20200330183935;;1630000;10431
59602;Zoning;6809230;20191109094845;W03-C-Antwerpen-West-FH09;6809230;20191109094845;W03-C-Antwerpen-West-FH09;19086;FTTH-Cu;;33069926;20200331135437;;1630000;12465
137980;Zoning;6809230;20191109094845;W03-C-Antwerpen-West-FH09;6809230;20191109094845;W03-C-Antwerpen-West-FH09;19086;FTTH-Cu;;33069927;20200331121834;;1630000;12465
1937953;Zoning;6809230;20191109094845;W03-C-Antwerpen-West-FH09;6809230;20191109094845;W03-C-Antwerpen-West-FH09;19086;FTTH-Cu;;649179;20200331135430;;1630000;12465
4510428;Zoning;6809230;20191109094845;W03-C-Antwerpen-West-FH09;6809230;20191109094845;W03-C-Antwerpen-West-FH09;19086;FTTH-Cu;;33069931;20200331121935;;1630000;12465
1937954;Zoning;6809230;20191109094845;W03-C-Antwerpen-West-FH09;6809230;20191109094845;W03-C-Antwerpen-West-FH09;19086;FTTH-Cu;;649180;20200330183925;;1630000;12465
3927678;Zoning;6809230;20191109094845;W03-C-Antwerpen-West-FH09;6809230;20191109094845;W03-C-Antwerpen-West-FH09;19086;FTTH-Cu;;33069932;20200331121928;;1630000;12465
59604;Zoning;6809230;20191109094845;W03-C-Antwerpen-West-FH09;6809230;20191109094845;W03-C-Antwerpen-West-FH09;19086;FTTH-Cu;;714161;20200330183934;;1630000;12465
1937955;Zoning;6809230;20191109094845;W03-C-Antwerpen-West-FH09;6809230;20191109094845;W03-C-Antwerpen-West-FH09;19086;FTTH-Cu;;33069933;20200331121914;;1630000;12465
4510431;Zoning;6809230;20191109094845;W03-C-Antwerpen-West-FH09;6809230;20191109094845;W03-C-Antwerpen-West-FH09;19086;FTTH-Cu;;33069937;20200331121949;;1630000;12465
4510433;Zoning;6809230;20191109094845;W03-C-Antwerpen-West-FH09;6809230;20191109094845;W03-C-Antwerpen-West-FH09;19086;FTTH-Cu;;33069938;20200331122038;;1630000;12465
1937959;Zoning;6809230;20191109094845;W03-C-Antwerpen-West-FH09;6809230;20191109094845;W03-C-Antwerpen-West-FH09;19086;FTTH-Cu;;33069939;20200331122031;;1630000;12465
4510436;Zoning;6809230;20191109094845;W03-C-Antwerpen-West-FH09;6809230;20191109094845;W03-C-Antwerpen-West-FH09;19086;FTTH-Cu;;33069941;20200331122006;;1630000;12465
1937962;Zoning;6809230;20191109094845;W03-C-Antwerpen-West-FH09;6809230;20191109094845;W03-C-Antwerpen-West-FH09;19086;FTTH-Cu;;649181;20200428091611;;1630000;12465
4205074;Zoning;6809230;20191109094845;W03-C-Antwerpen-West-FH09;6809230;20191109094845;W03-C-Antwerpen-West-FH09;19086;FTTH-Cu;;695428;20200428091606;;1630000;12465
1937963;Zoning;6809230;20191109094845;W03-C-Antwerpen-West-FH09;6809230;20191109094845;W03-C-Antwerpen-West-FH09;19086;FTTH-Cu;;649182;20200428091600;;1630000;12465
5575693;Zoning;6809230;20191109094845;W03-C-Antwerpen-West-FH09;6809230;20191109094845;W03-C-Antwerpen-West-FH09;19086;FTTH-Cu;;712363;20200331122122;;1630000;12465
182863;Zoning;6809230;20191109094845;W03-C-Antwerpen-West-FH09;6809230;20191109094845;W03-C-Antwerpen-West-FH09;19086;FTTH-Cu;;637774;20200331130018;;1630000;13292
1944470;Zoning;6809230;20191109094845;W03-C-Antwerpen-West-FH09;6809230;20191109094845;W03-C-Antwerpen-West-FH09;19086;FTTH-Cu;;649981;20200331130009;;1630000;13292
1944471;Zoning;6809230;20191109094845;W03-C-Antwerpen-West-FH09;6809230;20191109094845;W03-C-Antwerpen-West-FH09;19086;FTTH-Cu;;33069942;20200331125855;;1630000;13292
1944472;Zoning;6809230;20191109094845;W03-C-Antwerpen-West-FH09;6809230;20191109094845;W03-C-Antwerpen-West-FH09;19086;FTTH-Cu;;649982;20200331125957;;1630000;13292
1944474;Zoning;6809230;20191109094845;W03-C-Antwerpen-West-FH09;6809230;20191109094845;W03-C-Antwerpen-West-FH09;19086;FTTH-Cu;;649984;20200331125947;;1630000;13292
4510463;Zoning;6809230;20191109094845;W03-C-Antwerpen-West-FH09;6809230;20191109094845;W03-C-Antwerpen-West-FH09;19086;FTTH-Cu;;707092;20200331125911;;1630000;13292
1944477;Zoning;6809230;20191109094845;W03-C-Antwerpen-West-FH09;6809230;20191109094845;W03-C-Antwerpen-West-FH09;19086;FTTH-Cu;;649987;20200331125926;;1630000;13292
1944478;Zoning;6809230;20191109094845;W03-C-Antwerpen-West-FH09;6809230;20191109094845;W03-C-Antwerpen-West-FH09;19086;FTTH-Cu;;649988;20200331125940;;1630000;13292
61860;Zoning;6809230;20191109094845;W03-C-Antwerpen-West-FH09;6809230;20191109094845;W03-C-Antwerpen-West-FH09;19086;FTTH-Cu;;716582;20200331125801;;1630000;13292
1944480;Zoning;6809230;20191109094845;W03-C-Antwerpen-West-FH09;6809230;20191109094845;W03-C-Antwerpen-West-FH09;19086;FTTH-Cu;;33069944;20200331125808;;1630000;13292
61859;Zoning;6809230;20191109094845;W03-C-Antwerpen-West-FH09;6809230;20191109094845;W03-C-Antwerpen-West-FH09;19086;FTTH-Cu;;33069946;20200331125706;;1630000;13292
1944486;Zoning;6809230;20191109094845;W03-C-Antwerpen-West-FH09;6809230;20191109094845;W03-C-Antwerpen-West-FH09;19086;FTTH-Cu;;649992;20200331124944;;1630000;13292
1944489;Zoning;6809230;20191109094845;W03-C-Antwerpen-West-FH09;6809230;20191109094845;W03-C-Antwerpen-West-FH09;19086;FTTH-Cu;;649993;20200331124952;;1630000;13292
1944490;Zoning;6809230;20191109094845;W03-C-Antwerpen-West-FH09;6809230;20191109094845;W03-C-Antwerpen-West-FH09;19086;FTTH-Cu;;33069948;20200331125008;;1630000;13292
1944491;Zoning;6809230;20191109094845;W03-C-Antwerpen-West-FH09;6809230;20191109094845;W03-C-Antwerpen-West-FH09;19086;FTTH-Cu;;649994;20200331124908;;1630000;13292
1317360;Zoning;6809230;20191109094845;W03-C-Antwerpen-West-FH09;6809230;20191109094845;W03-C-Antwerpen-West-FH09;19086;FTTH-Cu;;616200;20200331124854;;1630000;13292
1489809;Zoning;6809230;20191109094845;W03-C-Antwerpen-West-FH09;6809230;20191109094845;W03-C-Antwerpen-West-FH09;19086;FTTH-Cu;;618996;20200331124901;;1630000;13292
1944494;Zoning;6809230;20191109094845;W03-C-Antwerpen-West-FH09;6809230;20191109094845;W03-C-Antwerpen-West-FH09;19086;FTTH-Cu;;649996;20200330183926;;1630000;13292
110420;Zoning;6809230;20191109094845;W03-C-Antwerpen-West-FH09;6809230;20191109094845;W03-C-Antwerpen-West-FH09;19086;FTTH-Cu;;613165;20200330183939;;1630000;13292
12627;Zoning;6809230;20191109094845;W03-C-Antwerpen-West-FH09;6809230;20191109094845;W03-C-Antwerpen-West-FH09;19086;FTTH-Cu;;615295;20200331133931;;1630000;13494
1945644;Zoning;6809230;20191109094845;W03-C-Antwerpen-West-FH09;6809230;20191109094845;W03-C-Antwerpen-West-FH09;19086;FTTH-Cu;;33069950;20200330183941;;1630000;13494
59561;Zoning;6809230;20191109094845;W03-C-Antwerpen-West-FH09;6809230;20191109094845;W03-C-Antwerpen-West-FH09;19086;FTTH-Cu;;714131;20200331133948;;1630000;13494
1945666;Zoning;6809230;20191109094845;W03-C-Antwerpen-West-FH09;6809230;20191109094845;W03-C-Antwerpen-West-FH09;19086;FTTH-Cu;;33069952;20200331133954;;1630000;13494
59562;Zoning;6809230;20191109094845;W03-C-Antwerpen-West-FH09;6809230;20191109094845;W03-C-Antwerpen-West-FH09;19086;FTTH-Cu;;33069953;20200331134001;;1630000;13494
60806;Zoning;6809230;20191109094845;W03-C-Antwerpen-West-FH09;6809230;20191109094845;W03-C-Antwerpen-West-FH09;19086;FTTH-Cu;;714577;20200428085202;;1630000;15164
1960785;Zoning;6809230;20191109094845;W03-C-Antwerpen-West-FH09;6809230;20191109094845;W03-C-Antwerpen-West-FH09;19086;FTTH-Cu;;652353;20200330183921;;1630000;15164
1960787;Zoning;6809230;20191109094845;W03-C-Antwerpen-West-FH09;6809230;20191109094845;W03-C-Antwerpen-West-FH09;19086;FTTH-Cu;;652354;20200330183921;;1630000;15164
1960790;Zoning;6809230;20191109094845;W03-C-Antwerpen-West-FH09;6809230;20191109094845;W03-C-Antwerpen-West-FH09;19086;FTTH-Cu;;652356;20200331133640;;1630000;15164
1960791;Zoning;6809230;20191109094845;W03-C-Antwerpen-West-FH09;6809230;20191109094845;W03-C-Antwerpen-West-FH09;19086;FTTH-Cu;;33069967;20200330183941;;1630000;15164
1960792;Zoning;6809230;20191109094845;W03-C-Antwerpen-West-FH09;6809230;20191109094845;W03-C-Antwerpen-West-FH09;19086;FTTH-Cu;;652357;20200330183921;;1630000;15164
1960793;Zoning;6809230;20191109094845;W03-C-Antwerpen-West-FH09;6809230;20191109094845;W03-C-Antwerpen-West-FH09;19086;FTTH-Cu;;652358;20200330183921;;1630000;15164
55147;Zoning;6809230;20191109094845;W03-C-Antwerpen-West-FH09;6809230;20191109094845;W03-C-Antwerpen-West-FH09;19086;FTTH-Cu;;33069968;20200331130957;;1630000;15164
59569;Zoning;6809230;20191109094845;W03-C-Antwerpen-West-FH09;6809230;20191109094845;W03-C-Antwerpen-West-FH09;19086;FTTH-Cu;;714136;20200331133746;;1630000;5377
874369;Zoning;6809230;20191109094845;W03-C-Antwerpen-West-FH09;6809230;20191109094845;W03-C-Antwerpen-West-FH09;19086;FTTH-Cu;;724192;20200330183932;;1630000;5377
5575370;Zoning;6809230;20191109094845;W03-C-Antwerpen-West-FH09;6809230;20191109094845;W03-C-Antwerpen-West-FH09;19086;FTTH-Cu;;712270;20200428085329;;1630000;5377
1803179;Zoning;6809230;20191109094845;W03-C-Antwerpen-West-FH09;6809230;20191109094845;W03-C-Antwerpen-West-FH09;19086;FTTH-Cu;;634612;20200330183928;;1630000;5377
1803183;Zoning;6809230;20191109094845;W03-C-Antwerpen-West-FH09;6809230;20191109094845;W03-C-Antwerpen-West-FH09;19086;FTTH-Cu;;634613;20200331134407;;1630000;5377
1803187;Zoning;6809230;20191109094845;W03-C-Antwerpen-West-FH09;6809230;20191109094845;W03-C-Antwerpen-West-FH09;19086;FTTH-Cu;;634614;20200331133812;;1630000;5377
1803193;Zoning;6809230;20191109094845;W03-C-Antwerpen-West-FH09;6809230;20191109094845;W03-C-Antwerpen-West-FH09;19086;FTTH-Cu;;33070305;20200428085335;;1630000;5377
1803210;Zoning;6809230;20191109094845;W03-C-Antwerpen-West-FH09;6809230;20191109094845;W03-C-Antwerpen-West-FH09;19086;FTTH-Cu;;634615;20200428085340;;1630000;5377
4504355;Zoning;6809230;20191109094845;W03-C-Antwerpen-West-FH09;6809230;20191109094845;W03-C-Antwerpen-West-FH09;19086;FTTH-Cu;;33070306;20200331133820;;1630000;5377
1803212;Zoning;6809230;20191109094845;W03-C-Antwerpen-West-FH09;6809230;20191109094845;W03-C-Antwerpen-West-FH09;19086;FTTH-Cu;;634616;20200428085345;;1630000;5377
60802;Zoning;6809230;20191109094845;W03-C-Antwerpen-West-FH09;6809230;20191109094845;W03-C-Antwerpen-West-FH09;19086;FTTH-Cu;;714566;20200331133828;;1630000;5377
1803223;Zoning;6809230;20191109094845;W03-C-Antwerpen-West-FH09;6809230;20191109094845;W03-C-Antwerpen-West-FH09;19086;FTTH-Cu;;634617;20200331134340;;1630000;5377
1803228;Zoning;6809230;20191109094845;W03-C-Antwerpen-West-FH09;6809230;20191109094845;W03-C-Antwerpen-West-FH09;19086;FTTH-Cu;;33070307;20200331133857;;1630000;5377
4506647;Zoning;6809230;20191109094845;W03-C-Antwerpen-West-FH09;6809230;20191109094845;W03-C-Antwerpen-West-FH09;19086;FTTH-Cu;;33070308;20200331134335;;1630000;5377
60803;Zoning;6809230;20191109094845;W03-C-Antwerpen-West-FH09;6809230;20191109094845;W03-C-Antwerpen-West-FH09;19086;FTTH-Cu;;714567;20200428085230;;1630000;5377
59566;Zoning;6809230;20191109094845;W03-C-Antwerpen-West-FH09;6809230;20191109094845;W03-C-Antwerpen-West-FH09;19086;FTTH-Cu;;714134;20200330183933;;1630000;5377
138241;Zoning;6809230;20191109094845;W03-C-Antwerpen-West-FH09;6809230;20191109094845;W03-C-Antwerpen-West-FH09;19086;FTTH-Cu;;617777;20200330183940;;1630000;911
138242;Zoning;6809230;20191109094845;W03-C-Antwerpen-West-FH09;6809230;20191109094845;W03-C-Antwerpen-West-FH09;19086;FTTH-Cu;;617778;20200330183940;;1630000;911
138243;Zoning;6809230;20191109094845;W03-C-Antwerpen-West-FH09;6809230;20191109094845;W03-C-Antwerpen-West-FH09;19086;FTTH-Cu;;617779;20200330183940;;1630000;911
198086;Zoning;6809230;20191109094845;W03-C-Antwerpen-West-FH09;6809230;20191109094845;W03-C-Antwerpen-West-FH09;19086;FTTH-Cu;;33070365;20200331134008;;1630000;9476
1884975;Zoning;6809230;20191109094845;W03-C-Antwerpen-West-FH09;6809230;20191109094845;W03-C-Antwerpen-West-FH09;19086;FTTH-Cu;;643460;20200428085425;;1630000;9476
1884981;Zoning;6809230;20191109094845;W03-C-Antwerpen-West-FH09;6809230;20191109094845;W03-C-Antwerpen-West-FH09;19086;FTTH-Cu;;643461;20200428085432;;1630000;9476
1884986;Zoning;6809230;20191109094845;W03-C-Antwerpen-West-FH09;6809230;20191109094845;W03-C-Antwerpen-West-FH09;19086;FTTH-Cu;;643462;20200331134043;;1630000;9476
4506651;Zoning;6809230;20191109094845;W03-C-Antwerpen-West-FH09;6809230;20191109094845;W03-C-Antwerpen-West-FH09;19086;FTTH-Cu;;33070371;20200331134050;;1630000;9476
1884994;Zoning;6809230;20191109094845;W03-C-Antwerpen-West-FH09;6809230;20191109094845;W03-C-Antwerpen-West-FH09;19086;FTTH-Cu;;643464;20200331134057;;1630000;9476
1885032;Zoning;6809230;20191109094845;W03-C-Antwerpen-West-FH09;6809230;20191109094845;W03-C-Antwerpen-West-FH09;19086;FTTH-Cu;;643465;20200331134226;;1630000;9476
6453942;Zoning;6809230;20191109094845;W03-C-Antwerpen-West-FH09;6809230;20191109094845;W03-C-Antwerpen-West-FH09;19086;FTTH-Cu;;33070374;20200331134114;;1630000;9476
6453941;Zoning;6809230;20191109094845;W03-C-Antwerpen-West-FH09;6809230;20191109094845;W03-C-Antwerpen-West-FH09;19086;FTTH-Cu;;33070375;20200331134217;;1630000;9476
4506654;Zoning;6809230;20191109094845;W03-C-Antwerpen-West-FH09;6809230;20191109094845;W03-C-Antwerpen-West-FH09;19086;FTTH-Cu;;33070378;20200331134125;;1630000;9476
1885040;Zoning;6809230;20191109094845;W03-C-Antwerpen-West-FH09;6809230;20191109094845;W03-C-Antwerpen-West-FH09;19086;FTTH-Cu;;643467;20200331134233;;1630000;9476
59565;Zoning;6809230;20191109094845;W03-C-Antwerpen-West-FH09;6809230;20191109094845;W03-C-Antwerpen-West-FH09;19086;FTTH-Cu;;33070380;20200331134243;;1630000;9476
55493;Zoning;6809230;20191109094845;W03-C-Antwerpen-West-FH09;6809230;20191109094845;W03-C-Antwerpen-West-FH09;19086;FTTH-Cu;;712016;20200330183936;;1630000;9476
6400223;Zoning;6809230;20191109094845;W03-C-Antwerpen-West-FH09;6809230;20191109094845;W03-C-Antwerpen-West-FH09;19086;FTTH-Cu;;33070382;20200330183931;;1630000;9476
4504674;Zoning;6809230;20191109094845;W03-C-Antwerpen-West-FH09;6809230;20191109094845;W03-C-Antwerpen-West-FH09;19086;FTTH-Cu;;33070383;20200330183931;;1630000;9476
1885133;Zoning;6809230;20191109094845;W03-C-Antwerpen-West-FH09;6809230;20191109094845;W03-C-Antwerpen-West-FH09;19086;FTTH-Cu;;643471;20200330183922;;1630000;9476
1885147;Zoning;6809230;20191109094845;W03-C-Antwerpen-West-FH09;6809230;20191109094845;W03-C-Antwerpen-West-FH09;19086;FTTH-Cu;;643472;20200331134618;;1630000;9476
4504673;Zoning;6809230;20191109094845;W03-C-Antwerpen-West-FH09;6809230;20191109094845;W03-C-Antwerpen-West-FH09;19086;FTTH-Cu;;33070384;20200331134624;;1630000;9476
55494;Zoning;6809230;20191109094845;W03-C-Antwerpen-West-FH09;6809230;20191109094845;W03-C-Antwerpen-West-FH09;19086;FTTH-Cu;;712017;20200331134629;;1630000;9476
6627640;Zoning;6809230;20191109094845;W03-C-Antwerpen-West-FH09;6809230;20191109094845;W03-C-Antwerpen-West-FH09;19086;FTTH-Cu;;33070385;20200330183931;;1630000;9476
4504671;Zoning;6809230;20191109094845;W03-C-Antwerpen-West-FH09;6809230;20191109094845;W03-C-Antwerpen-West-FH09;19086;FTTH-Cu;;705903;20200330183936;;1630000;9476
55496;Zoning;6809230;20191109094845;W03-C-Antwerpen-West-FH09;6809230;20191109094845;W03-C-Antwerpen-West-FH09;19086;FTTH-Cu;;33070386;20200331134641;;1630000;9476
6086665;Zoning;6809230;20191109094845;W03-C-Antwerpen-West-FH09;6809230;20191109094845;W03-C-Antwerpen-West-FH09;19086;FTTH-Cu;;33070387;20200330183932;;1630000;9476
5774151;Zoning;6809230;20191109094845;W03-C-Antwerpen-West-FH09;6809230;20191109094845;W03-C-Antwerpen-West-FH09;19086;FTTH-Cu;;33069970;20200331124929;;1630000;17901
138343;Zoning;6809230;20191109094845;W03-C-Antwerpen-West-FH09;6809230;20191109094845;W03-C-Antwerpen-West-FH09;19086;FTTH-Cu;;617800;20200330183940;;1630000;17901
1982834;Zoning;6809230;20191109094845;W03-C-Antwerpen-West-FH09;6809230;20191109094845;W03-C-Antwerpen-West-FH09;19086;FTTH-Cu;;656825;20200331125100;;1630000;17901
4066768;Zoning;6809230;20191109094845;W03-C-Antwerpen-West-FH09;6809230;20191109094845;W03-C-Antwerpen-West-FH09;19086;FTTH-Cu;;693045;20200330183923;;1630000;17901
6086731;Zoning;6809230;20191109094845;W03-C-Antwerpen-West-FH09;6809230;20191109094845;W03-C-Antwerpen-West-FH09;19086;FTTH-Cu;;33069973;20200331125207;;1630000;17901
55489;Zoning;6809230;20191109094845;W03-C-Antwerpen-West-FH09;6809230;20191109094845;W03-C-Antwerpen-West-FH09;19086;FTTH-Cu;;712012;20200330183935;;1630000;18541
43814;Zoning;6809230;20191109094845;W03-C-Antwerpen-West-FH09;6809230;20191109094845;W03-C-Antwerpen-West-FH09;19086;FTTH-Cu;;697160;20200330183928;;1630000;18541
1988443;Zoning;6809230;20191109094845;W03-C-Antwerpen-West-FH09;6809230;20191109094845;W03-C-Antwerpen-West-FH09;19086;FTTH-Cu;;658286;20200330183923;;1630000;18541
1988446;Zoning;6809230;20191109094845;W03-C-Antwerpen-West-FH09;6809230;20191109094845;W03-C-Antwerpen-West-FH09;19086;FTTH-Cu;;658287;20200330183923;;1630000;18541
1988452;Zoning;6809230;20191109094845;W03-C-Antwerpen-West-FH09;6809230;20191109094845;W03-C-Antwerpen-West-FH09;19086;FTTH-Cu;;658288;20200428090605;;1630000;18541
55490;Zoning;6809230;20191109094845;W03-C-Antwerpen-West-FH09;6809230;20191109094845;W03-C-Antwerpen-West-FH09;19086;FTTH-Cu;;712013;20200428091202;;1630000;18541
6339383;Zoning;6809230;20191109094845;W03-C-Antwerpen-West-FH09;6809230;20191109094845;W03-C-Antwerpen-West-FH09;19086;FTTH-Cu;;33069974;20200331121343;;1630000;18541
1988457;Zoning;6809230;20191109094845;W03-C-Antwerpen-West-FH09;6809230;20191109094845;W03-C-Antwerpen-West-FH09;19086;FTTH-Cu;;33069975;20200331121421;;1630000;18541
55169;Zoning;6809230;20191109094845;W03-C-Antwerpen-West-FH09;6809230;20191109094845;W03-C-Antwerpen-West-FH09;19086;FTTH-Cu;;33069976;20200330183941;;1630000;18549
59571;Zoning;6809230;20191109094845;W03-C-Antwerpen-West-FH09;6809230;20191109094845;W03-C-Antwerpen-West-FH09;19086;FTTH-Cu;;714138;20200330183933;;1630000;18549
1988660;Zoning;6809230;20191109094845;W03-C-Antwerpen-West-FH09;6809230;20191109094845;W03-C-Antwerpen-West-FH09;19086;FTTH-Cu;;33069977;20200330183941;;1630000;18549
6524099;Zoning;6809230;20191109094845;W03-C-Antwerpen-West-FH09;6809230;20191109094845;W03-C-Antwerpen-West-FH09;19086;FTTH-Cu;;33069985;20200330183942;;1630000;18549
1988665;Zoning;6809230;20191109094845;W03-C-Antwerpen-West-FH09;6809230;20191109094845;W03-C-Antwerpen-West-FH09;19086;FTTH-Cu;;658346;20200330183923;;1630000;18549
4065098;Zoning;6809230;20191109094845;W03-C-Antwerpen-West-FH09;6809230;20191109094845;W03-C-Antwerpen-West-FH09;19086;FTTH-Cu;;693030;20200330183923;;1630000;18549
1988667;Zoning;6809230;20191109094845;W03-C-Antwerpen-West-FH09;6809230;20191109094845;W03-C-Antwerpen-West-FH09;19086;FTTH-Cu;;658347;20200330183923;;1630000;18549
1988671;Zoning;6809230;20191109094845;W03-C-Antwerpen-West-FH09;6809230;20191109094845;W03-C-Antwerpen-West-FH09;19086;FTTH-Cu;;658348;20200330183923;;1630000;18549
1988674;Zoning;6809230;20191109094845;W03-C-Antwerpen-West-FH09;6809230;20191109094845;W03-C-Antwerpen-West-FH09;19086;FTTH-Cu;;658349;20200330183923;;1630000;18549
1988676;Zoning;6809230;20191109094845;W03-C-Antwerpen-West-FH09;6809230;20191109094845;W03-C-Antwerpen-West-FH09;19086;FTTH-Cu;;658350;20200330183923;;1630000;18549
6518745;Zoning;6809230;20191109094845;W03-C-Antwerpen-West-FH09;6809230;20191109094845;W03-C-Antwerpen-West-FH09;19086;FTTH-Cu;;33069988;20200330183942;;1630000;18549
1988678;Zoning;6809230;20191109094845;W03-C-Antwerpen-West-FH09;6809230;20191109094845;W03-C-Antwerpen-West-FH09;19086;FTTH-Cu;;658351;20200330183923;;1630000;18549
59570;Zoning;6809230;20191109094845;W03-C-Antwerpen-West-FH09;6809230;20191109094845;W03-C-Antwerpen-West-FH09;19086;FTTH-Cu;;714137;20200330183933;;1630000;18549
59591;Zoning;6809230;20191109094845;W03-C-Antwerpen-West-FH09;6809230;20191109094845;W03-C-Antwerpen-West-FH09;19086;FTTH-Cu;;714152;20200330183933;;1630000;18549
55488;Zoning;6809230;20191109094845;W03-C-Antwerpen-West-FH09;6809230;20191109094845;W03-C-Antwerpen-West-FH09;19086;FTTH-Cu;;712011;20200330183935;;1630000;18549
1988686;Zoning;6809230;20191109094845;W03-C-Antwerpen-West-FH09;6809230;20191109094845;W03-C-Antwerpen-West-FH09;19086;FTTH-Cu;;658352;20200330183924;;1630000;18549
1988688;Zoning;6809230;20191109094845;W03-C-Antwerpen-West-FH09;6809230;20191109094845;W03-C-Antwerpen-West-FH09;19086;FTTH-Cu;;658353;20200330183924;;1630000;18549
1988690;Zoning;6809230;20191109094845;W03-C-Antwerpen-West-FH09;6809230;20191109094845;W03-C-Antwerpen-West-FH09;19086;FTTH-Cu;;658354;20200330183924;;1630000;18549
1988692;Zoning;6809230;20191109094845;W03-C-Antwerpen-West-FH09;6809230;20191109094845;W03-C-Antwerpen-West-FH09;19086;FTTH-Cu;;658355;20200330183924;;1630000;18549
59592;Zoning;6809230;20191109094845;W03-C-Antwerpen-West-FH09;6809230;20191109094845;W03-C-Antwerpen-West-FH09;19086;FTTH-Cu;;714153;20200330183933;;1630000;18549
59600;Zoning;6809230;20191109094845;W03-C-Antwerpen-West-FH09;6809230;20191109094845;W03-C-Antwerpen-West-FH09;19086;FTTH-Cu;;714160;20200330183934;;1630000;18549
59593;Zoning;6809230;20191109094845;W03-C-Antwerpen-West-FH09;6809230;20191109094845;W03-C-Antwerpen-West-FH09;19086;FTTH-Cu;;714154;20200331135712;;1630000;18549
55487;Zoning;6809230;20191109094845;W03-C-Antwerpen-West-FH09;6809230;20191109094845;W03-C-Antwerpen-West-FH09;19086;FTTH-Cu;;712010;20200330183935;;1630000;18549
1988697;Zoning;6809230;20191109094845;W03-C-Antwerpen-West-FH09;6809230;20191109094845;W03-C-Antwerpen-West-FH09;19086;FTTH-Cu;;658356;20200331135749;;1630000;18549
1988701;Zoning;6809230;20191109094845;W03-C-Antwerpen-West-FH09;6809230;20191109094845;W03-C-Antwerpen-West-FH09;19086;FTTH-Cu;;658357;20200331134814;;1630000;18549
1988705;Zoning;6809230;20191109094845;W03-C-Antwerpen-West-FH09;6809230;20191109094845;W03-C-Antwerpen-West-FH09;19086;FTTH-Cu;;658358;20200331135757;;1630000;18549
5373816;Zoning;6809230;20191109094845;W03-C-Antwerpen-West-FH09;6809230;20191109094845;W03-C-Antwerpen-West-FH09;19086;FTTH-Cu;;710944;20200331135723;;1630000;18549
4504261;Zoning;6809230;20191109094845;W03-C-Antwerpen-West-FH09;6809230;20191109094845;W03-C-Antwerpen-West-FH09;19086;FTTH-Cu;;33069989;20200330183942;;1630000;18549
1988707;Zoning;6809230;20191109094845;W03-C-Antwerpen-West-FH09;6809230;20191109094845;W03-C-Antwerpen-West-FH09;19086;FTTH-Cu;;658359;20200331135620;;1630000;18549
59594;Zoning;6809230;20191109094845;W03-C-Antwerpen-West-FH09;6809230;20191109094845;W03-C-Antwerpen-West-FH09;19086;FTTH-Cu;;714155;20200331135610;;1630000;18549
1988714;Zoning;6809230;20191109094845;W03-C-Antwerpen-West-FH09;6809230;20191109094845;W03-C-Antwerpen-West-FH09;19086;FTTH-Cu;;33069990;20200331135615;;1630000;18549
59595;Zoning;6809230;20191109094845;W03-C-Antwerpen-West-FH09;6809230;20191109094845;W03-C-Antwerpen-West-FH09;19086;FTTH-Cu;;714156;20200331135603;;1630000;18549
4504266;Zoning;6809230;20191109094845;W03-C-Antwerpen-West-FH09;6809230;20191109094845;W03-C-Antwerpen-West-FH09;19086;FTTH-Cu;;33069991;20200330183942;;1630000;18549
59596;Zoning;6809230;20191109094845;W03-C-Antwerpen-West-FH09;6809230;20191109094845;W03-C-Antwerpen-West-FH09;19086;FTTH-Cu;;714157;20200331135551;;1630000;18549
59597;Zoning;6809230;20191109094845;W03-C-Antwerpen-West-FH09;6809230;20191109094845;W03-C-Antwerpen-West-FH09;19086;FTTH-Cu;;714158;20200331135540;;1630000;18549
59599;Zoning;6809230;20191109094845;W03-C-Antwerpen-West-FH09;6809230;20191109094845;W03-C-Antwerpen-West-FH09;19086;FTTH-Cu;;714159;20200331135533;;1630000;18549
5364225;Zoning;6809230;20191109094845;W03-C-Antwerpen-West-FH09;6809230;20191109094845;W03-C-Antwerpen-West-FH09;19086;FTTH-Cu;;710843;20200330183935;;1630000;18549
1988729;Zoning;6809230;20191109094845;W03-C-Antwerpen-West-FH09;6809230;20191109094845;W03-C-Antwerpen-West-FH09;19086;FTTH-Cu;;33069992;20200331135528;;1630000;18549
1988733;Zoning;6809230;20191109094845;W03-C-Antwerpen-West-FH09;6809230;20191109094845;W03-C-Antwerpen-West-FH09;19086;FTTH-Cu;;658360;20200331135457;;1630000;18549
5575914;Zoning;6809230;20191109094845;W03-C-Antwerpen-West-FH09;6809230;20191109094845;W03-C-Antwerpen-West-FH09;19086;FTTH-Cu;;33069993;20200331135509;;1630000;18549
1988736;Zoning;6809230;20191109094845;W03-C-Antwerpen-West-FH09;6809230;20191109094845;W03-C-Antwerpen-West-FH09;19086;FTTH-Cu;;33069994;20200331135519;;1630000;18549
1988737;Zoning;6809230;20191109094845;W03-C-Antwerpen-West-FH09;6809230;20191109094845;W03-C-Antwerpen-West-FH09;19086;FTTH-Cu;;658361;20200331135451;;1630000;18549
59598;Zoning;6809230;20191109094845;W03-C-Antwerpen-West-FH09;6809230;20191109094845;W03-C-Antwerpen-West-FH09;19086;FTTH-Cu;;33069995;20200331135442;;1630000;18549
1988739;Zoning;6809230;20191109094845;W03-C-Antwerpen-West-FH09;6809230;20191109094845;W03-C-Antwerpen-West-FH09;19086;FTTH-Cu;;658362;20200331121902;;1630000;18549
5451365;Zoning;6809230;20191109094845;W03-C-Antwerpen-West-FH09;6809230;20191109094845;W03-C-Antwerpen-West-FH09;19086;FTTH-Cu;;33069996;20200331121845;;1630000;18549
1988741;Zoning;6809230;20191109094845;W03-C-Antwerpen-West-FH09;6809230;20191109094845;W03-C-Antwerpen-West-FH09;19086;FTTH-Cu;;658363;20200331121824;;1630000;18549
1988743;Zoning;6809230;20191109094845;W03-C-Antwerpen-West-FH09;6809230;20191109094845;W03-C-Antwerpen-West-FH09;19086;FTTH-Cu;;658364;20200428091635;;1630000;18549
1988747;Zoning;6809230;20191109094845;W03-C-Antwerpen-West-FH09;6809230;20191109094845;W03-C-Antwerpen-West-FH09;19086;FTTH-Cu;;658365;20200331121754;;1630000;18549
1988748;Zoning;6809230;20191109094845;W03-C-Antwerpen-West-FH09;6809230;20191109094845;W03-C-Antwerpen-West-FH09;19086;FTTH-Cu;;658366;20200428091640;;1630000;18549
1988752;Zoning;6809230;20191109094845;W03-C-Antwerpen-West-FH09;6809230;20191109094845;W03-C-Antwerpen-West-FH09;19086;FTTH-Cu;;658367;20200428091650;;1630000;18549
1988753;Zoning;6809230;20191109094845;W03-C-Antwerpen-West-FH09;6809230;20191109094845;W03-C-Antwerpen-West-FH09;19086;FTTH-Cu;;658368;20200331121644;;1630000;18549
1988754;Zoning;6809230;20191109094845;W03-C-Antwerpen-West-FH09;6809230;20191109094845;W03-C-Antwerpen-West-FH09;19086;FTTH-Cu;;658369;20200331121630;;1630000;18549
1988760;Zoning;6809230;20191109094845;W03-C-Antwerpen-West-FH09;6809230;20191109094845;W03-C-Antwerpen-West-FH09;19086;FTTH-Cu;;658370;20200331121622;;1630000;18549
1988763;Zoning;6809230;20191109094845;W03-C-Antwerpen-West-FH09;6809230;20191109094845;W03-C-Antwerpen-West-FH09;19086;FTTH-Cu;;658371;20200428091704;;1630000;18549
1988766;Zoning;6809230;20191109094845;W03-C-Antwerpen-West-FH09;6809230;20191109094845;W03-C-Antwerpen-West-FH09;19086;FTTH-Cu;;658372;20200331121600;;1630000;18549
1988771;Zoning;6809230;20191109094845;W03-C-Antwerpen-West-FH09;6809230;20191109094845;W03-C-Antwerpen-West-FH09;19086;FTTH-Cu;;33069997;20200331121607;;1630000;18549
1988773;Zoning;6809230;20191109094845;W03-C-Antwerpen-West-FH09;6809230;20191109094845;W03-C-Antwerpen-West-FH09;19086;FTTH-Cu;;658373;20200428091722;;1630000;18549
1988777;Zoning;6809230;20191109094845;W03-C-Antwerpen-West-FH09;6809230;20191109094845;W03-C-Antwerpen-West-FH09;19086;FTTH-Cu;;658374;20200331121524;;1630000;18549
2046490;Zoning;6809230;20191109094845;W03-C-Antwerpen-West-FH09;6809230;20191109094845;W03-C-Antwerpen-West-FH09;19086;FTTH-Cu;;33070066;20200330183938;;1630000;25433
55151;Zoning;6809230;20191109094845;W03-C-Antwerpen-West-FH09;6809230;20191109094845;W03-C-Antwerpen-West-FH09;19086;FTTH-Cu;;711938;20200331130759;;1630000;25433
55153;Zoning;6809230;20191109094845;W03-C-Antwerpen-West-FH09;6809230;20191109094845;W03-C-Antwerpen-West-FH09;19086;FTTH-Cu;;711939;20200331130807;;1630000;25433
55155;Zoning;6809230;20191109094845;W03-C-Antwerpen-West-FH09;6809230;20191109094845;W03-C-Antwerpen-West-FH09;19086;FTTH-Cu;;33070067;20200331130829;;1630000;25433
5544236;Zoning;6809230;20191109094845;W03-C-Antwerpen-West-FH09;6809230;20191109094845;W03-C-Antwerpen-West-FH09;19086;FTTH-Cu;;33070069;20200331130836;;1630000;25433
1999491;Zoning;6809230;20191109094845;W03-C-Antwerpen-West-FH09;6809230;20191109094845;W03-C-Antwerpen-West-FH09;19086;FTTH-Cu;;33070001;20200428090721;;1630000;20127
4504666;Zoning;6809230;20191109094845;W03-C-Antwerpen-West-FH09;6809230;20191109094845;W03-C-Antwerpen-West-FH09;19086;FTTH-Cu;;33070002;20200428090736;;1630000;20127
1999494;Zoning;6809230;20191109094845;W03-C-Antwerpen-West-FH09;6809230;20191109094845;W03-C-Antwerpen-West-FH09;19086;FTTH-Cu;;661186;20200428090704;;1630000;20127
5575964;Zoning;6809230;20191109094845;W03-C-Antwerpen-West-FH09;6809230;20191109094845;W03-C-Antwerpen-West-FH09;19086;FTTH-Cu;;712436;20200331134708;;1630000;20127
55517;Zoning;6809230;20191109094845;W03-C-Antwerpen-West-FH09;6809230;20191109094845;W03-C-Antwerpen-West-FH09;19086;FTTH-Cu;;33070003;20200331134702;;1630000;20127
55518;Zoning;6809230;20191109094845;W03-C-Antwerpen-West-FH09;6809230;20191109094845;W03-C-Antwerpen-West-FH09;19086;FTTH-Cu;;712032;20200428090653;;1630000;20127
1999505;Zoning;6809230;20191109094845;W03-C-Antwerpen-West-FH09;6809230;20191109094845;W03-C-Antwerpen-West-FH09;19086;FTTH-Cu;;661189;20200330183921;;1630000;20127
1999508;Zoning;6809230;20191109094845;W03-C-Antwerpen-West-FH09;6809230;20191109094845;W03-C-Antwerpen-West-FH09;19086;FTTH-Cu;;661191;20200330183921;;1630000;20127
55516;Zoning;6809230;20191109094845;W03-C-Antwerpen-West-FH09;6809230;20191109094845;W03-C-Antwerpen-West-FH09;19086;FTTH-Cu;;712031;20200428090640;;1630000;20127
1139937;Zoning;6809230;20191109094845;W03-C-Antwerpen-West-FH09;6809230;20191109094845;W03-C-Antwerpen-West-FH09;19086;FTTH-Cu;;614075;20200330183939;;1630000;20127
1139909;Zoning;6809230;20191109094845;W03-C-Antwerpen-West-FH09;6809230;20191109094845;W03-C-Antwerpen-West-FH09;19086;FTTH-Cu;;614055;20200331140238;;1630000;20127
1139908;Zoning;6809230;20191109094845;W03-C-Antwerpen-West-FH09;6809230;20191109094845;W03-C-Antwerpen-West-FH09;19086;FTTH-Cu;;614054;20200331140245;;1630000;20127
4506553;Zoning;6809230;20191109094845;W03-C-Antwerpen-West-FH09;6809230;20191109094845;W03-C-Antwerpen-West-FH09;19086;FTTH-Cu;;33070004;20200331140251;;1630000;20127
1139911;Zoning;6809230;20191109094845;W03-C-Antwerpen-West-FH09;6809230;20191109094845;W03-C-Antwerpen-West-FH09;19086;FTTH-Cu;;614057;20200331140257;;1630000;20127
1008481;Zoning;6809230;20191109094845;W03-C-Antwerpen-West-FH09;6809230;20191109094845;W03-C-Antwerpen-West-FH09;19086;FTTH-Cu;;610945;20200331125605;;1630000;20393
12659;Zoning;6809230;20191109094845;W03-C-Antwerpen-West-FH09;6809230;20191109094845;W03-C-Antwerpen-West-FH09;19086;FTTH-Cu;;33070005;20200330183942;;1630000;20393
61857;Zoning;6809230;20191109094845;W03-C-Antwerpen-West-FH09;6809230;20191109094845;W03-C-Antwerpen-West-FH09;19086;FTTH-Cu;;33070007;20200331125621;;1630000;20393
6481788;Zoning;6809230;20191109094845;W03-C-Antwerpen-West-FH09;6809230;20191109094845;W03-C-Antwerpen-West-FH09;19086;FTTH-Cu;;33070008;20200331125629;;1630000;20393
4259171;Zoning;6809230;20191109094845;W03-C-Antwerpen-West-FH09;6809230;20191109094845;W03-C-Antwerpen-West-FH09;19086;FTTH-Cu;;33070010;20200331125614;;1630000;20393
2001563;Zoning;6809230;20191109094845;W03-C-Antwerpen-West-FH09;6809230;20191109094845;W03-C-Antwerpen-West-FH09;19086;FTTH-Cu;;661675;20200428084657;;1630000;20393
182853;Zoning;6809230;20191109094845;W03-C-Antwerpen-West-FH09;6809230;20191109094845;W03-C-Antwerpen-West-FH09;19086;FTTH-Cu;;33070011;20200331125408;;1630000;20393
2001572;Zoning;6809230;20191109094845;W03-C-Antwerpen-West-FH09;6809230;20191109094845;W03-C-Antwerpen-West-FH09;19086;FTTH-Cu;;661677;20200331125422;;1630000;20393
6663033;Zoning;6809230;20191109094845;W03-C-Antwerpen-West-FH09;6809230;20191109094845;W03-C-Antwerpen-West-FH09;19086;FTTH-Cu;;33070012;20200331125415;;1630000;20393
59585;Zoning;6809230;20191109094845;W03-C-Antwerpen-West-FH09;6809230;20191109094845;W03-C-Antwerpen-West-FH09;19086;FTTH-Cu;;714149;20200331123740;;1630000;22398
6626037;Zoning;6809230;20191109094845;W03-C-Antwerpen-West-FH09;6809230;20191109094845;W03-C-Antwerpen-West-FH09;19086;FTTH-Cu;;33070013;20200331123746;;1630000;22398
2027536;Zoning;6809230;20191109094845;W03-C-Antwerpen-West-FH09;6809230;20191109094845;W03-C-Antwerpen-West-FH09;19086;FTTH-Cu;;664730;20200428091823;;1630000;22398
6626036;Zoning;6809230;20191109094845;W03-C-Antwerpen-West-FH09;6809230;20191109094845;W03-C-Antwerpen-West-FH09;19086;FTTH-Cu;;33070023;20200331123755;;1630000;22398
2027542;Zoning;6809230;20191109094845;W03-C-Antwerpen-West-FH09;6809230;20191109094845;W03-C-Antwerpen-West-FH09;19086;FTTH-Cu;;664731;20200428091819;;1630000;22398
2027545;Zoning;6809230;20191109094845;W03-C-Antwerpen-West-FH09;6809230;20191109094845;W03-C-Antwerpen-West-FH09;19086;FTTH-Cu;;664732;20200428091850;;1630000;22398
2027548;Zoning;6809230;20191109094845;W03-C-Antwerpen-West-FH09;6809230;20191109094845;W03-C-Antwerpen-West-FH09;19086;FTTH-Cu;;664733;20200428091856;;1630000;22398
1506990;Zoning;6809230;20191109094845;W03-C-Antwerpen-West-FH09;6809230;20191109094845;W03-C-Antwerpen-West-FH09;19086;FTTH-Cu;;619295;20200331123821;;1630000;22398
2027556;Zoning;6809230;20191109094845;W03-C-Antwerpen-West-FH09;6809230;20191109094845;W03-C-Antwerpen-West-FH09;19086;FTTH-Cu;;664734;20200428091903;;1630000;22398
2027561;Zoning;6809230;20191109094845;W03-C-Antwerpen-West-FH09;6809230;20191109094845;W03-C-Antwerpen-West-FH09;19086;FTTH-Cu;;664735;20200428091910;;1630000;22398
2027566;Zoning;6809230;20191109094845;W03-C-Antwerpen-West-FH09;6809230;20191109094845;W03-C-Antwerpen-West-FH09;19086;FTTH-Cu;;664736;20200428091915;;1630000;22398
59584;Zoning;6809230;20191109094845;W03-C-Antwerpen-West-FH09;6809230;20191109094845;W03-C-Antwerpen-West-FH09;19086;FTTH-Cu;;714148;20200331123904;;1630000;22398
6625954;Zoning;6809230;20191109094845;W03-C-Antwerpen-West-FH09;6809230;20191109094845;W03-C-Antwerpen-West-FH09;19086;FTTH-Cu;;33070024;20200428091921;;1630000;22398
55149;Zoning;6809230;20191109094845;W03-C-Antwerpen-West-FH09;6809230;20191109094845;W03-C-Antwerpen-West-FH09;19086;FTTH-Cu;;711937;20200428085636;;1630000;23344
2034543;Zoning;6809230;20191109094845;W03-C-Antwerpen-West-FH09;6809230;20191109094845;W03-C-Antwerpen-West-FH09;19086;FTTH-Cu;;666135;20200330183927;;1630000;23344
6663034;Zoning;6809230;20191109094845;W03-C-Antwerpen-West-FH09;6809230;20191109094845;W03-C-Antwerpen-West-FH09;19086;FTTH-Cu;;33070025;20200330183942;;1630000;23344
2034549;Zoning;6809230;20191109094845;W03-C-Antwerpen-West-FH09;6809230;20191109094845;W03-C-Antwerpen-West-FH09;19086;FTTH-Cu;;666136;20200330183927;;1630000;23344
6625955;Zoning;6809230;20191109094845;W03-C-Antwerpen-West-FH09;6809230;20191109094845;W03-C-Antwerpen-West-FH09;19086;FTTH-Cu;;33070027;20200330183942;;1630000;23344
2034554;Zoning;6809230;20191109094845;W03-C-Antwerpen-West-FH09;6809230;20191109094845;W03-C-Antwerpen-West-FH09;19086;FTTH-Cu;;666137;20200330183927;;1630000;23344
2034557;Zoning;6809230;20191109094845;W03-C-Antwerpen-West-FH09;6809230;20191109094845;W03-C-Antwerpen-West-FH09;19086;FTTH-Cu;;666138;20200330183927;;1630000;23344
2034560;Zoning;6809230;20191109094845;W03-C-Antwerpen-West-FH09;6809230;20191109094845;W03-C-Antwerpen-West-FH09;19086;FTTH-Cu;;666139;20200330183927;;1630000;23344
12603;Zoning;6809230;20191109094845;W03-C-Antwerpen-West-FH09;6809230;20191109094845;W03-C-Antwerpen-West-FH09;19086;FTTH-Cu;;615251;20200428085627;;1630000;23344
59575;Zoning;6809230;20191109094845;W03-C-Antwerpen-West-FH09;6809230;20191109094845;W03-C-Antwerpen-West-FH09;19086;FTTH-Cu;;33070028;20200331135041;;1630000;23542
2036456;Zoning;6809230;20191109094845;W03-C-Antwerpen-West-FH09;6809230;20191109094845;W03-C-Antwerpen-West-FH09;19086;FTTH-Cu;;666561;20200331135105;;1630000;23542
2036457;Zoning;6809230;20191109094845;W03-C-Antwerpen-West-FH09;6809230;20191109094845;W03-C-Antwerpen-West-FH09;19086;FTTH-Cu;;666562;20200331135122;;1630000;23542
2036462;Zoning;6809230;20191109094845;W03-C-Antwerpen-West-FH09;6809230;20191109094845;W03-C-Antwerpen-West-FH09;19086;FTTH-Cu;;666563;20200331135128;;1630000;23542
2036463;Zoning;6809230;20191109094845;W03-C-Antwerpen-West-FH09;6809230;20191109094845;W03-C-Antwerpen-West-FH09;19086;FTTH-Cu;;666564;20200331135142;;1630000;23542
2036464;Zoning;6809230;20191109094845;W03-C-Antwerpen-West-FH09;6809230;20191109094845;W03-C-Antwerpen-West-FH09;19086;FTTH-Cu;;33070029;20200331135136;;1630000;23542
2036474;Zoning;6809230;20191109094845;W03-C-Antwerpen-West-FH09;6809230;20191109094845;W03-C-Antwerpen-West-FH09;19086;FTTH-Cu;;666565;20200331135156;;1630000;23542
2036477;Zoning;6809230;20191109094845;W03-C-Antwerpen-West-FH09;6809230;20191109094845;W03-C-Antwerpen-West-FH09;19086;FTTH-Cu;;666566;20200331135202;;1630000;23542
2036484;Zoning;6809230;20191109094845;W03-C-Antwerpen-West-FH09;6809230;20191109094845;W03-C-Antwerpen-West-FH09;19086;FTTH-Cu;;666567;20200331135207;;1630000;23542
2036485;Zoning;6809230;20191109094845;W03-C-Antwerpen-West-FH09;6809230;20191109094845;W03-C-Antwerpen-West-FH09;19086;FTTH-Cu;;666568;20200331135213;;1630000;23542
2036487;Zoning;6809230;20191109094845;W03-C-Antwerpen-West-FH09;6809230;20191109094845;W03-C-Antwerpen-West-FH09;19086;FTTH-Cu;;666569;20200331135220;;1630000;23542
2036488;Zoning;6809230;20191109094845;W03-C-Antwerpen-West-FH09;6809230;20191109094845;W03-C-Antwerpen-West-FH09;19086;FTTH-Cu;;666570;20200330183927;;1630000;23542
2036491;Zoning;6809230;20191109094845;W03-C-Antwerpen-West-FH09;6809230;20191109094845;W03-C-Antwerpen-West-FH09;19086;FTTH-Cu;;666571;20200331135258;;1630000;23542
4504286;Zoning;6809230;20191109094845;W03-C-Antwerpen-West-FH09;6809230;20191109094845;W03-C-Antwerpen-West-FH09;19086;FTTH-Cu;;33070036;20200331135305;;1630000;23542
2036496;Zoning;6809230;20191109094845;W03-C-Antwerpen-West-FH09;6809230;20191109094845;W03-C-Antwerpen-West-FH09;19086;FTTH-Cu;;33070037;20200331135250;;1630000;23542
59573;Zoning;6809230;20191109094845;W03-C-Antwerpen-West-FH09;6809230;20191109094845;W03-C-Antwerpen-West-FH09;19086;FTTH-Cu;;714140;20200331123730;;1630000;23542
2036500;Zoning;6809230;20191109094845;W03-C-Antwerpen-West-FH09;6809230;20191109094845;W03-C-Antwerpen-West-FH09;19086;FTTH-Cu;;666572;20200330183927;;1630000;23542
4504301;Zoning;6809230;20191109094845;W03-C-Antwerpen-West-FH09;6809230;20191109094845;W03-C-Antwerpen-West-FH09;19086;FTTH-Cu;;33070038;20200428091832;;1630000;23542
2036502;Zoning;6809230;20191109094845;W03-C-Antwerpen-West-FH09;6809230;20191109094845;W03-C-Antwerpen-West-FH09;19086;FTTH-Cu;;666573;20200331135322;;1630000;23542
2036505;Zoning;6809230;20191109094845;W03-C-Antwerpen-West-FH09;6809230;20191109094845;W03-C-Antwerpen-West-FH09;19086;FTTH-Cu;;33070042;20200331135316;;1630000;23542
2036511;Zoning;6809230;20191109094845;W03-C-Antwerpen-West-FH09;6809230;20191109094845;W03-C-Antwerpen-West-FH09;19086;FTTH-Cu;;33070046;20200331135330;;1630000;23542
59577;Zoning;6809230;20191109094845;W03-C-Antwerpen-West-FH09;6809230;20191109094845;W03-C-Antwerpen-West-FH09;19086;FTTH-Cu;;714141;20200331123657;;1630000;23542
59576;Zoning;6809230;20191109094845;W03-C-Antwerpen-West-FH09;6809230;20191109094845;W03-C-Antwerpen-West-FH09;19086;FTTH-Cu;;33070054;20200331123703;;1630000;23542
59574;Zoning;6809230;20191109094845;W03-C-Antwerpen-West-FH09;6809230;20191109094845;W03-C-Antwerpen-West-FH09;19086;FTTH-Cu;;33070055;20200331135358;;1630000;23542
59578;Zoning;6809230;20191109094845;W03-C-Antwerpen-West-FH09;6809230;20191109094845;W03-C-Antwerpen-West-FH09;19086;FTTH-Cu;;714142;20200331123610;;1630000;23542
2036532;Zoning;6809230;20191109094845;W03-C-Antwerpen-West-FH09;6809230;20191109094845;W03-C-Antwerpen-West-FH09;19086;FTTH-Cu;;666574;20200331123604;;1630000;23542
2036538;Zoning;6809230;20191109094845;W03-C-Antwerpen-West-FH09;6809230;20191109094845;W03-C-Antwerpen-West-FH09;19086;FTTH-Cu;;33070056;20200331122129;;1630000;23542
2036543;Zoning;6809230;20191109094845;W03-C-Antwerpen-West-FH09;6809230;20191109094845;W03-C-Antwerpen-West-FH09;19086;FTTH-Cu;;33070058;20200331123557;;1630000;23542
4510440;Zoning;6809230;20191109094845;W03-C-Antwerpen-West-FH09;6809230;20191109094845;W03-C-Antwerpen-West-FH09;19086;FTTH-Cu;;33070059;20200331122134;;1630000;23542
2036550;Zoning;6809230;20191109094845;W03-C-Antwerpen-West-FH09;6809230;20191109094845;W03-C-Antwerpen-West-FH09;19086;FTTH-Cu;;666575;20200428092100;;1630000;23542
4510441;Zoning;6809230;20191109094845;W03-C-Antwerpen-West-FH09;6809230;20191109094845;W03-C-Antwerpen-West-FH09;19086;FTTH-Cu;;33070060;20200331122140;;1630000;23542
2036552;Zoning;6809230;20191109094845;W03-C-Antwerpen-West-FH09;6809230;20191109094845;W03-C-Antwerpen-West-FH09;19086;FTTH-Cu;;666576;20200331123544;;1630000;23542
2036554;Zoning;6809230;20191109094845;W03-C-Antwerpen-West-FH09;6809230;20191109094845;W03-C-Antwerpen-West-FH09;19086;FTTH-Cu;;666577;20200428091459;;1630000;23542
4504306;Zoning;6809230;20191109094845;W03-C-Antwerpen-West-FH09;6809230;20191109094845;W03-C-Antwerpen-West-FH09;19086;FTTH-Cu;;33070061;20200331123536;;1630000;23542
2036557;Zoning;6809230;20191109094845;W03-C-Antwerpen-West-FH09;6809230;20191109094845;W03-C-Antwerpen-West-FH09;19086;FTTH-Cu;;666578;20200428091452;;1630000;23542
59572;Zoning;6809230;20191109094845;W03-C-Antwerpen-West-FH09;6809230;20191109094845;W03-C-Antwerpen-West-FH09;19086;FTTH-Cu;;714139;20200428092107;;1630000;23542
2036561;Zoning;6809230;20191109094845;W03-C-Antwerpen-West-FH09;6809230;20191109094845;W03-C-Antwerpen-West-FH09;19086;FTTH-Cu;;666579;20200428091445;;1630000;23542
2036564;Zoning;6809230;20191109094845;W03-C-Antwerpen-West-FH09;6809230;20191109094845;W03-C-Antwerpen-West-FH09;19086;FTTH-Cu;;666580;20200428091352;;1630000;23542
6449296;Zoning;6809230;20191109094845;W03-C-Antwerpen-West-FH09;6809230;20191109094845;W03-C-Antwerpen-West-FH09;19086;FTTH-Cu;;33070062;20200428091358;;1630000;23542
4510444;Zoning;6809230;20191109094845;W03-C-Antwerpen-West-FH09;6809230;20191109094845;W03-C-Antwerpen-West-FH09;19086;FTTH-Cu;;707091;20200428091411;;1630000;23542
2036567;Zoning;6809230;20191109094845;W03-C-Antwerpen-West-FH09;6809230;20191109094845;W03-C-Antwerpen-West-FH09;19086;FTTH-Cu;;666581;20200428091424;;1630000;23542
2036569;Zoning;6809230;20191109094845;W03-C-Antwerpen-West-FH09;6809230;20191109094845;W03-C-Antwerpen-West-FH09;19086;FTTH-Cu;;666582;20200428091344;;1630000;23542
2036570;Zoning;6809230;20191109094845;W03-C-Antwerpen-West-FH09;6809230;20191109094845;W03-C-Antwerpen-West-FH09;19086;FTTH-Cu;;666583;20200428091327;;1630000;23542
4510446;Zoning;6809230;20191109094845;W03-C-Antwerpen-West-FH09;6809230;20191109094845;W03-C-Antwerpen-West-FH09;19086;FTTH-Cu;;33070064;20200331122256;;1630000;23542
2036572;Zoning;6809230;20191109094845;W03-C-Antwerpen-West-FH09;6809230;20191109094845;W03-C-Antwerpen-West-FH09;19086;FTTH-Cu;;666584;20200428091301;;1630000;23542
137986;Zoning;6809230;20191109094845;W03-C-Antwerpen-West-FH09;6809230;20191109094845;W03-C-Antwerpen-West-FH09;19086;FTTH-Cu;;617651;20200331122309;;1630000;23542
1139921;Zoning;6809230;20191109094845;W03-C-Antwerpen-West-FH09;6809230;20191109094845;W03-C-Antwerpen-West-FH09;19086;FTTH-Cu;;614065;20200330183939;;1630000;27400
4506554;Zoning;6809230;20191109094845;W03-C-Antwerpen-West-FH09;6809230;20191109094845;W03-C-Antwerpen-West-FH09;19086;FTTH-Cu;;706557;20200331140309;;1630000;27400
2050654;Zoning;6809230;20191109094845;W03-C-Antwerpen-West-FH09;6809230;20191109094845;W03-C-Antwerpen-West-FH09;19086;FTTH-Cu;;33070072;20200331140303;;1630000;27400
2050655;Zoning;6809230;20191109094845;W03-C-Antwerpen-West-FH09;6809230;20191109094845;W03-C-Antwerpen-West-FH09;19086;FTTH-Cu;;673966;20200330183926;;1630000;27400
2050657;Zoning;6809230;20191109094845;W03-C-Antwerpen-West-FH09;6809230;20191109094845;W03-C-Antwerpen-West-FH09;19086;FTTH-Cu;;673968;20200331140317;;1630000;27400
2050658;Zoning;6809230;20191109094845;W03-C-Antwerpen-West-FH09;6809230;20191109094845;W03-C-Antwerpen-West-FH09;19086;FTTH-Cu;;673969;20200331140126;;1630000;27400
2050660;Zoning;6809230;20191109094845;W03-C-Antwerpen-West-FH09;6809230;20191109094845;W03-C-Antwerpen-West-FH09;19086;FTTH-Cu;;673970;20200331140118;;1630000;27400
2050662;Zoning;6809230;20191109094845;W03-C-Antwerpen-West-FH09;6809230;20191109094845;W03-C-Antwerpen-West-FH09;19086;FTTH-Cu;;673972;20200331140145;;1630000;27400
4506555;Zoning;6809230;20191109094845;W03-C-Antwerpen-West-FH09;6809230;20191109094845;W03-C-Antwerpen-West-FH09;19086;FTTH-Cu;;706558;20200331140150;;1630000;27400
2050665;Zoning;6809230;20191109094845;W03-C-Antwerpen-West-FH09;6809230;20191109094845;W03-C-Antwerpen-West-FH09;19086;FTTH-Cu;;673975;20200330183927;;1630000;27400
4506556;Zoning;6809230;20191109094845;W03-C-Antwerpen-West-FH09;6809230;20191109094845;W03-C-Antwerpen-West-FH09;19086;FTTH-Cu;;33070073;20200428090950;;1630000;27400
4506557;Zoning;6809230;20191109094845;W03-C-Antwerpen-West-FH09;6809230;20191109094845;W03-C-Antwerpen-West-FH09;19086;FTTH-Cu;;33070078;20200331140048;;1630000;27400
4092421;Zoning;6809230;20191109094845;W03-C-Antwerpen-West-FH09;6809230;20191109094845;W03-C-Antwerpen-West-FH09;19086;FTTH-Cu;;33070080;20200428090939;;1630000;27400
60790;Zoning;6809230;20191109094845;W03-C-Antwerpen-West-FH09;6809230;20191109094845;W03-C-Antwerpen-West-FH09;19086;FTTH-Cu;;33070087;20200331133753;;1630000;27902
2052248;Zoning;6809230;20191109094845;W03-C-Antwerpen-West-FH09;6809230;20191109094845;W03-C-Antwerpen-West-FH09;19086;FTTH-Cu;;675373;20200331133800;;1630000;27902
2052250;Zoning;6809230;20191109094845;W03-C-Antwerpen-West-FH09;6809230;20191109094845;W03-C-Antwerpen-West-FH09;19086;FTTH-Cu;;675375;20200331133839;;1630000;27902
2052251;Zoning;6809230;20191109094845;W03-C-Antwerpen-West-FH09;6809230;20191109094845;W03-C-Antwerpen-West-FH09;19086;FTTH-Cu;;675376;20200331133846;;1630000;27902
60792;Zoning;6809230;20191109094845;W03-C-Antwerpen-West-FH09;6809230;20191109094845;W03-C-Antwerpen-West-FH09;19086;FTTH-Cu;;33070088;20200331133711;;1630000;27902
2052256;Zoning;6809230;20191109094845;W03-C-Antwerpen-West-FH09;6809230;20191109094845;W03-C-Antwerpen-West-FH09;19086;FTTH-Cu;;675378;20200331133702;;1630000;27902
2052258;Zoning;6809230;20191109094845;W03-C-Antwerpen-West-FH09;6809230;20191109094845;W03-C-Antwerpen-West-FH09;19086;FTTH-Cu;;675380;20200330183926;;1630000;27902
2052260;Zoning;6809230;20191109094845;W03-C-Antwerpen-West-FH09;6809230;20191109094845;W03-C-Antwerpen-West-FH09;19086;FTTH-Cu;;675382;20200331133654;;1630000;27902
2052262;Zoning;6809230;20191109094845;W03-C-Antwerpen-West-FH09;6809230;20191109094845;W03-C-Antwerpen-West-FH09;19086;FTTH-Cu;;675384;20200331133625;;1630000;27902
2052264;Zoning;6809230;20191109094845;W03-C-Antwerpen-West-FH09;6809230;20191109094845;W03-C-Antwerpen-West-FH09;19086;FTTH-Cu;;675386;20200331132122;;1630000;27902
2052266;Zoning;6809230;20191109094845;W03-C-Antwerpen-West-FH09;6809230;20191109094845;W03-C-Antwerpen-West-FH09;19086;FTTH-Cu;;33070089;20200331132114;;1630000;27902
2052268;Zoning;6809230;20191109094845;W03-C-Antwerpen-West-FH09;6809230;20191109094845;W03-C-Antwerpen-West-FH09;19086;FTTH-Cu;;675389;20200331132101;;1630000;27902
2052270;Zoning;6809230;20191109094845;W03-C-Antwerpen-West-FH09;6809230;20191109094845;W03-C-Antwerpen-West-FH09;19086;FTTH-Cu;;675391;20200331132054;;1630000;27902
60793;Zoning;6809230;20191109094845;W03-C-Antwerpen-West-FH09;6809230;20191109094845;W03-C-Antwerpen-West-FH09;19086;FTTH-Cu;;714532;20200331132046;;1630000;27902
55140;Zoning;6809230;20191109094845;W03-C-Antwerpen-West-FH09;6809230;20191109094845;W03-C-Antwerpen-West-FH09;19086;FTTH-Cu;;711933;20200428084925;;1630000;27902
3928407;Zoning;6809230;20191109094845;W03-C-Antwerpen-West-FH09;6809230;20191109094845;W03-C-Antwerpen-West-FH09;19086;FTTH-Cu;;33070091;20200330183929;;1630000;27902
5414438;Zoning;6809230;20191109094845;W03-C-Antwerpen-West-FH09;6809230;20191109094845;W03-C-Antwerpen-West-FH09;19086;FTTH-Cu;;711377;20200331130553;;1630000;27902
5414440;Zoning;6809230;20191109094845;W03-C-Antwerpen-West-FH09;6809230;20191109094845;W03-C-Antwerpen-West-FH09;19086;FTTH-Cu;;711378;20200331130535;;1630000;27902
2052275;Zoning;6809230;20191109094845;W03-C-Antwerpen-West-FH09;6809230;20191109094845;W03-C-Antwerpen-West-FH09;19086;FTTH-Cu;;675396;20200428084916;;1630000;27902
1298909;Zoning;6809230;20191109094845;W03-C-Antwerpen-West-FH09;6809230;20191109094845;W03-C-Antwerpen-West-FH09;19086;FTTH-Cu;;615870;20200428084903;;1630000;27902
2052279;Zoning;6809230;20191109094845;W03-C-Antwerpen-West-FH09;6809230;20191109094845;W03-C-Antwerpen-West-FH09;19086;FTTH-Cu;;675400;20200331130504;;1630000;27902
2052280;Zoning;6809230;20191109094845;W03-C-Antwerpen-West-FH09;6809230;20191109094845;W03-C-Antwerpen-West-FH09;19086;FTTH-Cu;;675401;20200331130456;;1630000;27902
2052282;Zoning;6809230;20191109094845;W03-C-Antwerpen-West-FH09;6809230;20191109094845;W03-C-Antwerpen-West-FH09;19086;FTTH-Cu;;675402;20200331130449;;1630000;27902
2052284;Zoning;6809230;20191109094845;W03-C-Antwerpen-West-FH09;6809230;20191109094845;W03-C-Antwerpen-West-FH09;19086;FTTH-Cu;;675404;20200428084851;;1630000;27902
6581082;Zoning;6809230;20191109094845;W03-C-Antwerpen-West-FH09;6809230;20191109094845;W03-C-Antwerpen-West-FH09;19086;FTTH-Cu;;33070092;20200331130443;;1630000;27902
55142;Zoning;6809230;20191109094845;W03-C-Antwerpen-West-FH09;6809230;20191109094845;W03-C-Antwerpen-West-FH09;19086;FTTH-Cu;;711934;20200331130437;;1630000;27902
55491;Zoning;6809230;20191109094845;W03-C-Antwerpen-West-FH09;6809230;20191109094845;W03-C-Antwerpen-West-FH09;19086;FTTH-Cu;;712014;20200428090646;;1630000;14176
1139906;Zoning;6809230;20191109094845;W03-C-Antwerpen-West-FH09;6809230;20191109094845;W03-C-Antwerpen-West-FH09;19086;FTTH-Cu;;614052;20200330183938;;1630000;14176
1959505;Zoning;6809230;20191109094845;W03-C-Antwerpen-West-FH09;6809230;20191109094845;W03-C-Antwerpen-West-FH09;19086;FTTH-Cu;;651367;20200330183924;;1630000;14176
1959506;Zoning;6809230;20191109094845;W03-C-Antwerpen-West-FH09;6809230;20191109094845;W03-C-Antwerpen-West-FH09;19086;FTTH-Cu;;651368;20200331140233;;1630000;14176
1959507;Zoning;6809230;20191109094845;W03-C-Antwerpen-West-FH09;6809230;20191109094845;W03-C-Antwerpen-West-FH09;19086;FTTH-Cu;;651369;20200330183924;;1630000;14176
4506561;Zoning;6809230;20191109094845;W03-C-Antwerpen-West-FH09;6809230;20191109094845;W03-C-Antwerpen-West-FH09;19086;FTTH-Cu;;33069964;20200331140227;;1630000;14176
4215132;Zoning;6809230;20191109094845;W03-C-Antwerpen-West-FH09;6809230;20191109094845;W03-C-Antwerpen-West-FH09;19086;FTTH-Cu;;695662;20200330183928;;1630000;14176
1959508;Zoning;6809230;20191109094845;W03-C-Antwerpen-West-FH09;6809230;20191109094845;W03-C-Antwerpen-West-FH09;19086;FTTH-Cu;;651370;20200331140221;;1630000;14176
4504679;Zoning;6809230;20191109094845;W03-C-Antwerpen-West-FH09;6809230;20191109094845;W03-C-Antwerpen-West-FH09;19086;FTTH-Cu;;705906;20200330183936;;1630000;14176
1334889;Zoning;6809230;20191109094845;W03-C-Antwerpen-West-FH09;6809230;20191109094845;W03-C-Antwerpen-West-FH09;19086;FTTH-Cu;;616765;20200331140215;;1630000;14176
1959509;Zoning;6809230;20191109094845;W03-C-Antwerpen-West-FH09;6809230;20191109094845;W03-C-Antwerpen-West-FH09;19086;FTTH-Cu;;651371;20200330183925;;1630000;14176
1959510;Zoning;6809230;20191109094845;W03-C-Antwerpen-West-FH09;6809230;20191109094845;W03-C-Antwerpen-West-FH09;19086;FTTH-Cu;;651372;20200331140208;;1630000;14176
1959511;Zoning;6809230;20191109094845;W03-C-Antwerpen-West-FH09;6809230;20191109094845;W03-C-Antwerpen-West-FH09;19086;FTTH-Cu;;651373;20200330183925;;1630000;14176
1959512;Zoning;6809230;20191109094845;W03-C-Antwerpen-West-FH09;6809230;20191109094845;W03-C-Antwerpen-West-FH09;19086;FTTH-Cu;;651374;20200331140203;;1630000;14176
1959513;Zoning;6809230;20191109094845;W03-C-Antwerpen-West-FH09;6809230;20191109094845;W03-C-Antwerpen-West-FH09;19086;FTTH-Cu;;651375;20200330183925;;1630000;14176
1959515;Zoning;6809230;20191109094845;W03-C-Antwerpen-West-FH09;6809230;20191109094845;W03-C-Antwerpen-West-FH09;19086;FTTH-Cu;;651376;20200331140156;;1630000;14176
4504681;Zoning;6809230;20191109094845;W03-C-Antwerpen-West-FH09;6809230;20191109094845;W03-C-Antwerpen-West-FH09;19086;FTTH-Cu;;705908;20200330183936;;1630000;14176
1959516;Zoning;6809230;20191109094845;W03-C-Antwerpen-West-FH09;6809230;20191109094845;W03-C-Antwerpen-West-FH09;19086;FTTH-Cu;;651377;20200331140111;;1630000;14176
1959517;Zoning;6809230;20191109094845;W03-C-Antwerpen-West-FH09;6809230;20191109094845;W03-C-Antwerpen-West-FH09;19086;FTTH-Cu;;651378;20200330183925;;1630000;14176
1959518;Zoning;6809230;20191109094845;W03-C-Antwerpen-West-FH09;6809230;20191109094845;W03-C-Antwerpen-West-FH09;19086;FTTH-Cu;;651379;20200331140106;;1630000;14176
4504682;Zoning;6809230;20191109094845;W03-C-Antwerpen-West-FH09;6809230;20191109094845;W03-C-Antwerpen-West-FH09;19086;FTTH-Cu;;705909;20200330183936;;1630000;14176
1959519;Zoning;6809230;20191109094845;W03-C-Antwerpen-West-FH09;6809230;20191109094845;W03-C-Antwerpen-West-FH09;19086;FTTH-Cu;;651380;20200331140100;;1630000;14176
1959520;Zoning;6809230;20191109094845;W03-C-Antwerpen-West-FH09;6809230;20191109094845;W03-C-Antwerpen-West-FH09;19086;FTTH-Cu;;651381;20200330183925;;1630000;14176
1959521;Zoning;6809230;20191109094845;W03-C-Antwerpen-West-FH09;6809230;20191109094845;W03-C-Antwerpen-West-FH09;19086;FTTH-Cu;;651382;20200331140053;;1630000;14176
1959522;Zoning;6809230;20191109094845;W03-C-Antwerpen-West-FH09;6809230;20191109094845;W03-C-Antwerpen-West-FH09;19086;FTTH-Cu;;651383;20200330183925;;1630000;14176
1959523;Zoning;6809230;20191109094845;W03-C-Antwerpen-West-FH09;6809230;20191109094845;W03-C-Antwerpen-West-FH09;19086;FTTH-Cu;;651384;20200331140043;;1630000;14176
1959524;Zoning;6809230;20191109094845;W03-C-Antwerpen-West-FH09;6809230;20191109094845;W03-C-Antwerpen-West-FH09;19086;FTTH-Cu;;651385;20200330183925;;1630000;14176
1959525;Zoning;6809230;20191109094845;W03-C-Antwerpen-West-FH09;6809230;20191109094845;W03-C-Antwerpen-West-FH09;19086;FTTH-Cu;;651386;20200331140036;;1630000;14176
1959526;Zoning;6809230;20191109094845;W03-C-Antwerpen-West-FH09;6809230;20191109094845;W03-C-Antwerpen-West-FH09;19086;FTTH-Cu;;651387;20200428090616;;1630000;14176
1959527;Zoning;6809230;20191109094845;W03-C-Antwerpen-West-FH09;6809230;20191109094845;W03-C-Antwerpen-West-FH09;19086;FTTH-Cu;;651388;20200428090902;;1630000;14176
4056675;Zoning;6809230;20191109094845;W03-C-Antwerpen-West-FH09;6809230;20191109094845;W03-C-Antwerpen-West-FH09;19086;FTTH-Cu;;692877;20200331134732;;1630000;14176
1139905;Zoning;6809230;20191109094845;W03-C-Antwerpen-West-FH09;6809230;20191109094845;W03-C-Antwerpen-West-FH09;19086;FTTH-Cu;;614051;20200428090933;;1630000;14176
1959528;Zoning;6809230;20191109094845;W03-C-Antwerpen-West-FH09;6809230;20191109094845;W03-C-Antwerpen-West-FH09;19086;FTTH-Cu;;651389;20200330183925;;1630000;14176
1959529;Zoning;6809230;20191109094845;W03-C-Antwerpen-West-FH09;6809230;20191109094845;W03-C-Antwerpen-West-FH09;19086;FTTH-Cu;;651390;20200330183925;;1630000;14176
1959530;Zoning;6809230;20191109094845;W03-C-Antwerpen-West-FH09;6809230;20191109094845;W03-C-Antwerpen-West-FH09;19086;FTTH-Cu;;651391;20200331134739;;1630000;14176
6614100;Zoning;6809230;20191109094845;W03-C-Antwerpen-West-FH09;6809230;20191109094845;W03-C-Antwerpen-West-FH09;19086;FTTH-Cu;;33069965;20200331134745;;1630000;14176
55492;Zoning;6809230;20191109094845;W03-C-Antwerpen-West-FH09;6809230;20191109094845;W03-C-Antwerpen-West-FH09;19086;FTTH-Cu;;712015;20200331134750;;1630000;14176
6614101;Zoning;6809230;20191109094845;W03-C-Antwerpen-West-FH09;6809230;20191109094845;W03-C-Antwerpen-West-FH09;19086;FTTH-Cu;;33069966;20200330183941;;1630000;14176
55174;Zoning;6809230;20191109094845;W03-C-Antwerpen-West-FH09;6809230;20191109094845;W03-C-Antwerpen-West-FH09;19086;FTTH-Cu;;33070000;20200330183942;;1630000;20003
55173;Zoning;6809230;20191109094845;W03-C-Antwerpen-West-FH09;6809230;20191109094845;W03-C-Antwerpen-West-FH09;19086;FTTH-Cu;;711946;20200330183935;;1630000;20003
11946;Zoning;6809230;20191109094845;W03-C-Antwerpen-West-FH09;6809230;20191109094845;W03-C-Antwerpen-West-FH09;19086;FTTH-Cu;;614559;20200331123934;;1630000;29845
5312008;Zoning;6809230;20191109094845;W03-C-Antwerpen-West-FH09;6809230;20191109094845;W03-C-Antwerpen-West-FH09;19086;FTTH-Cu;;710691;20200331122721;;1630000;29845
188991;Zoning;6809230;20191109094845;W03-C-Antwerpen-West-FH09;6809230;20191109094845;W03-C-Antwerpen-West-FH09;19086;FTTH-Cu;;643806;20200330183923;;1630000;30111
138337;Zoning;6809230;20191109094845;W03-C-Antwerpen-West-FH09;6809230;20191109094845;W03-C-Antwerpen-West-FH09;19086;FTTH-Cu;;617794;20200330183940;;1630000;30111
1008475;Zoning;6809230;20191109094845;W03-C-Antwerpen-West-FH09;6809230;20191109094845;W03-C-Antwerpen-West-FH09;19086;FTTH-Cu;;610944;20200330183939;;1630000;30111
1479167;Zoning;6809230;20191109094845;W03-C-Antwerpen-West-FH09;6809230;20191109094845;W03-C-Antwerpen-West-FH09;19086;FTTH-Cu;;618890;20200330183940;;1630000;30111
5569323;Zoning;6809230;20191109094845;W03-C-Antwerpen-West-FH09;6809230;20191109094845;W03-C-Antwerpen-West-FH09;19086;FTTH-Cu;;712128;20200331124746;;1630000;30111
2056034;Zoning;6809230;20191109094845;W03-C-Antwerpen-West-FH09;6809230;20191109094845;W03-C-Antwerpen-West-FH09;19086;FTTH-Cu;;678734;20200330183921;;1630000;30111
4164856;Zoning;6809230;20191109094845;W03-C-Antwerpen-West-FH09;6809230;20191109094845;W03-C-Antwerpen-West-FH09;19086;FTTH-Cu;;694479;20200330183923;;1630000;30111
2056037;Zoning;6809230;20191109094845;W03-C-Antwerpen-West-FH09;6809230;20191109094845;W03-C-Antwerpen-West-FH09;19086;FTTH-Cu;;678735;20200330183921;;1630000;30111
2056038;Zoning;6809230;20191109094845;W03-C-Antwerpen-West-FH09;6809230;20191109094845;W03-C-Antwerpen-West-FH09;19086;FTTH-Cu;;678736;20200331124549;;1630000;30111
2056039;Zoning;6809230;20191109094845;W03-C-Antwerpen-West-FH09;6809230;20191109094845;W03-C-Antwerpen-West-FH09;19086;FTTH-Cu;;678737;20200330183921;;1630000;30111
4511477;Zoning;6809230;20191109094845;W03-C-Antwerpen-West-FH09;6809230;20191109094845;W03-C-Antwerpen-West-FH09;19086;FTTH-Cu;;33070093;20200330183929;;1630000;30111
2056040;Zoning;6809230;20191109094845;W03-C-Antwerpen-West-FH09;6809230;20191109094845;W03-C-Antwerpen-West-FH09;19086;FTTH-Cu;;678738;20200330183921;;1630000;30111
2056041;Zoning;6809230;20191109094845;W03-C-Antwerpen-West-FH09;6809230;20191109094845;W03-C-Antwerpen-West-FH09;19086;FTTH-Cu;;678739;20200330183922;;1630000;30111
4511411;Zoning;6809230;20191109094845;W03-C-Antwerpen-West-FH09;6809230;20191109094845;W03-C-Antwerpen-West-FH09;19086;FTTH-Cu;;707188;20200330183936;;1630000;30111
4027899;Zoning;6809230;20191109094845;W03-C-Antwerpen-West-FH09;6809230;20191109094845;W03-C-Antwerpen-West-FH09;19086;FTTH-Cu;;692392;20200331124515;;1630000;30111
2056042;Zoning;6809230;20191109094845;W03-C-Antwerpen-West-FH09;6809230;20191109094845;W03-C-Antwerpen-West-FH09;19086;FTTH-Cu;;678740;20200330183922;;1630000;30111
2056043;Zoning;6809230;20191109094845;W03-C-Antwerpen-West-FH09;6809230;20191109094845;W03-C-Antwerpen-West-FH09;19086;FTTH-Cu;;33070094;20200330183929;;1630000;30111
2056044;Zoning;6809230;20191109094845;W03-C-Antwerpen-West-FH09;6809230;20191109094845;W03-C-Antwerpen-West-FH09;19086;FTTH-Cu;;678741;20200330183922;;1630000;30111
50888;Zoning;6809230;20191109094845;W03-C-Antwerpen-West-FH09;6809230;20191109094845;W03-C-Antwerpen-West-FH09;19086;FTTH-Cu;;33070096;20200427163611;;1630000;30111
138339;Zoning;6809230;20191109094845;W03-C-Antwerpen-West-FH09;6809230;20191109094845;W03-C-Antwerpen-West-FH09;19086;FTTH-Cu;;617796;20200330183940;;1630000;30111
2056045;Zoning;6809230;20191109094845;W03-C-Antwerpen-West-FH09;6809230;20191109094845;W03-C-Antwerpen-West-FH09;19086;FTTH-Cu;;33070097;20200427163619;;1630000;30111
2056046;Zoning;6809230;20191109094845;W03-C-Antwerpen-West-FH09;6809230;20191109094845;W03-C-Antwerpen-West-FH09;19086;FTTH-Cu;;678742;20200330183922;;1630000;30111
4507596;Zoning;6809230;20191109094845;W03-C-Antwerpen-West-FH09;6809230;20191109094845;W03-C-Antwerpen-West-FH09;19086;FTTH-Cu;;33070098;20200427163627;;1630000;30111
2056047;Zoning;6809230;20191109094845;W03-C-Antwerpen-West-FH09;6809230;20191109094845;W03-C-Antwerpen-West-FH09;19086;FTTH-Cu;;678743;20200330183922;;1630000;30111
1313434;Zoning;6809230;20191109094845;W03-C-Antwerpen-West-FH09;6809230;20191109094845;W03-C-Antwerpen-West-FH09;19086;FTTH-Cu;;616139;20200331124326;;1630000;30111
1351640;Zoning;6809230;20191109094845;W03-C-Antwerpen-West-FH09;6809230;20191109094845;W03-C-Antwerpen-West-FH09;19086;FTTH-Cu;;617140;20200330183939;;1630000;30111
138338;Zoning;6809230;20191109094845;W03-C-Antwerpen-West-FH09;6809230;20191109094845;W03-C-Antwerpen-West-FH09;19086;FTTH-Cu;;617795;20200331125141;;1630000;30111
2056050;Zoning;6809230;20191109094845;W03-C-Antwerpen-West-FH09;6809230;20191109094845;W03-C-Antwerpen-West-FH09;19086;FTTH-Cu;;33070105;20200331125157;;1630000;30111
6001713;Zoning;6809230;20191109094845;W03-C-Antwerpen-West-FH09;6809230;20191109094845;W03-C-Antwerpen-West-FH09;19086;FTTH-Cu;;33070106;20200331125149;;1630000;30111
2056051;Zoning;6809230;20191109094845;W03-C-Antwerpen-West-FH09;6809230;20191109094845;W03-C-Antwerpen-West-FH09;19086;FTTH-Cu;;33070107;20200331124258;;1630000;30111
187741;Zoning;6809230;20191109094845;W03-C-Antwerpen-West-FH09;6809230;20191109094845;W03-C-Antwerpen-West-FH09;19086;FTTH-Cu;;33070109;20200331125130;;1630000;30111
4507598;Zoning;6809230;20191109094845;W03-C-Antwerpen-West-FH09;6809230;20191109094845;W03-C-Antwerpen-West-FH09;19086;FTTH-Cu;;33070110;20200331124220;;1630000;30111
2056055;Zoning;6809230;20191109094845;W03-C-Antwerpen-West-FH09;6809230;20191109094845;W03-C-Antwerpen-West-FH09;19086;FTTH-Cu;;678744;20200330183922;;1630000;30111
2056056;Zoning;6809230;20191109094845;W03-C-Antwerpen-West-FH09;6809230;20191109094845;W03-C-Antwerpen-West-FH09;19086;FTTH-Cu;;33070111;20200331124112;;1630000;30111
138340;Zoning;6809230;20191109094845;W03-C-Antwerpen-West-FH09;6809230;20191109094845;W03-C-Antwerpen-West-FH09;19086;FTTH-Cu;;617797;20200330183940;;1630000;30111
2056057;Zoning;6809230;20191109094845;W03-C-Antwerpen-West-FH09;6809230;20191109094845;W03-C-Antwerpen-West-FH09;19086;FTTH-Cu;;33070113;20200331124057;;1630000;30111
2056058;Zoning;6809230;20191109094845;W03-C-Antwerpen-West-FH09;6809230;20191109094845;W03-C-Antwerpen-West-FH09;19086;FTTH-Cu;;678745;20200331124049;;1630000;30111
1468919;Zoning;6809230;20191109094845;W03-C-Antwerpen-West-FH09;6809230;20191109094845;W03-C-Antwerpen-West-FH09;19086;FTTH-Cu;;33070120;20200331123954;;1630000;30111
50887;Zoning;6809230;20191109094845;W03-C-Antwerpen-West-FH09;6809230;20191109094845;W03-C-Antwerpen-West-FH09;19086;FTTH-Cu;;33070122;20200331124008;;1630000;30111
50890;Zoning;6809230;20191109094845;W03-C-Antwerpen-West-FH09;6809230;20191109094845;W03-C-Antwerpen-West-FH09;19086;FTTH-Cu;;33070124;20200331124001;;1630000;30111
2056060;Zoning;6809230;20191109094845;W03-C-Antwerpen-West-FH09;6809230;20191109094845;W03-C-Antwerpen-West-FH09;19086;FTTH-Cu;;678746;20200331122729;;1630000;30111
2056061;Zoning;6809230;20191109094845;W03-C-Antwerpen-West-FH09;6809230;20191109094845;W03-C-Antwerpen-West-FH09;19086;FTTH-Cu;;678747;20200331122735;;1630000;30111
1508534;Zoning;6809230;20191109094845;W03-C-Antwerpen-West-FH09;6809230;20191109094845;W03-C-Antwerpen-West-FH09;19086;FTTH-Cu;;619309;20200331122742;;1630000;30111
138351;Zoning;6809230;20191109094845;W03-C-Antwerpen-West-FH09;6809230;20191109094845;W03-C-Antwerpen-West-FH09;19086;FTTH-Cu;;617802;20200330183940;;1630000;30111
1508535;Zoning;6809230;20191109094845;W03-C-Antwerpen-West-FH09;6809230;20191109094845;W03-C-Antwerpen-West-FH09;19086;FTTH-Cu;;619310;20200331122811;;1630000;30111
2056062;Zoning;6809230;20191109094845;W03-C-Antwerpen-West-FH09;6809230;20191109094845;W03-C-Antwerpen-West-FH09;19086;FTTH-Cu;;33070125;20200331122759;;1630000;30111
2056063;Zoning;6809230;20191109094845;W03-C-Antwerpen-West-FH09;6809230;20191109094845;W03-C-Antwerpen-West-FH09;19086;FTTH-Cu;;678748;20200331122818;;1630000;30111
5308666;Zoning;6809230;20191109094845;W03-C-Antwerpen-West-FH09;6809230;20191109094845;W03-C-Antwerpen-West-FH09;19086;FTTH-Cu;;710688;20200331122601;;1630000;30111
50893;Zoning;6809230;20191109094845;W03-C-Antwerpen-West-FH09;6809230;20191109094845;W03-C-Antwerpen-West-FH09;19086;FTTH-Cu;;33070127;20200331122833;;1630000;30111
5576303;Zoning;6809230;20191109094845;W03-C-Antwerpen-West-FH09;6809230;20191109094845;W03-C-Antwerpen-West-FH09;19086;FTTH-Cu;;712534;20200331122856;;1630000;30111
50891;Zoning;6809230;20191109094845;W03-C-Antwerpen-West-FH09;6809230;20191109094845;W03-C-Antwerpen-West-FH09;19086;FTTH-Cu;;33070174;20200331122841;;1630000;30111
50892;Zoning;6809230;20191109094845;W03-C-Antwerpen-West-FH09;6809230;20191109094845;W03-C-Antwerpen-West-FH09;19086;FTTH-Cu;;710648;20200331122903;;1630000;30111
50889;Zoning;6809230;20191109094845;W03-C-Antwerpen-West-FH09;6809230;20191109094845;W03-C-Antwerpen-West-FH09;19086;FTTH-Cu;;710647;20200330183934;;1630000;30111
6457593;Zoning;6809230;20191109094845;W03-C-Antwerpen-West-FH09;6809230;20191109094845;W03-C-Antwerpen-West-FH09;19086;FTTH-Cu;;33070229;20200331122910;;1630000;30111
137973;Zoning;6809230;20191109094845;W03-C-Antwerpen-West-FH09;6809230;20191109094845;W03-C-Antwerpen-West-FH09;19086;FTTH-Cu;;617645;20200330183939;;1630000;30111
59587;Zoning;6809230;20191109094845;W03-C-Antwerpen-West-FH09;6809230;20191109094845;W03-C-Antwerpen-West-FH09;19086;FTTH-Cu;;714150;20200428091928;;1630000;30111
2056065;Zoning;6809230;20191109094845;W03-C-Antwerpen-West-FH09;6809230;20191109094845;W03-C-Antwerpen-West-FH09;19086;FTTH-Cu;;678749;20200428091937;;1630000;30111
59588;Zoning;6809230;20191109094845;W03-C-Antwerpen-West-FH09;6809230;20191109094845;W03-C-Antwerpen-West-FH09;19086;FTTH-Cu;;714151;20200330183933;;1630000;30111
2056067;Zoning;6809230;20191109094845;W03-C-Antwerpen-West-FH09;6809230;20191109094845;W03-C-Antwerpen-West-FH09;19086;FTTH-Cu;;678751;20200330183922;;1630000;30111
2056069;Zoning;6809230;20191109094845;W03-C-Antwerpen-West-FH09;6809230;20191109094845;W03-C-Antwerpen-West-FH09;19086;FTTH-Cu;;678752;20200331120354;;1630000;30111
2056070;Zoning;6809230;20191109094845;W03-C-Antwerpen-West-FH09;6809230;20191109094845;W03-C-Antwerpen-West-FH09;19086;FTTH-Cu;;678753;20200331120404;;1630000;30111
4054965;Zoning;6809230;20191109094845;W03-C-Antwerpen-West-FH09;6809230;20191109094845;W03-C-Antwerpen-West-FH09;19086;FTTH-Cu;;692854;20200428091029;;1630000;30111
3928479;Zoning;6809230;20191109094845;W03-C-Antwerpen-West-FH09;6809230;20191109094845;W03-C-Antwerpen-West-FH09;19086;FTTH-Cu;;691309;20200428092045;;1630000;30111
2056073;Zoning;6809230;20191109094845;W03-C-Antwerpen-West-FH09;6809230;20191109094845;W03-C-Antwerpen-West-FH09;19086;FTTH-Cu;;33070230;20200428092039;;1630000;30111
2056075;Zoning;6809230;20191109094845;W03-C-Antwerpen-West-FH09;6809230;20191109094845;W03-C-Antwerpen-West-FH09;19086;FTTH-Cu;;33070232;20200428092034;;1630000;30111
2056076;Zoning;6809230;20191109094845;W03-C-Antwerpen-West-FH09;6809230;20191109094845;W03-C-Antwerpen-West-FH09;19086;FTTH-Cu;;678756;20200428092114;;1630000;30111
59586;Zoning;6809230;20191109094845;W03-C-Antwerpen-West-FH09;6809230;20191109094845;W03-C-Antwerpen-West-FH09;19086;FTTH-Cu;;33070234;20200428092051;;1630000;30111
137974;Zoning;6809230;20191109094845;W03-C-Antwerpen-West-FH09;6809230;20191109094845;W03-C-Antwerpen-West-FH09;19086;FTTH-Cu;;617646;20200428091241;;1630000;30111
2056079;Zoning;6809230;20191109094845;W03-C-Antwerpen-West-FH09;6809230;20191109094845;W03-C-Antwerpen-West-FH09;19086;FTTH-Cu;;33070243;20200428091248;;1630000;30111
4510405;Zoning;6809230;20191109094845;W03-C-Antwerpen-West-FH09;6809230;20191109094845;W03-C-Antwerpen-West-FH09;19086;FTTH-Cu;;33070245;20200428091255;;1630000;30111
2056080;Zoning;6809230;20191109094845;W03-C-Antwerpen-West-FH09;6809230;20191109094845;W03-C-Antwerpen-West-FH09;19086;FTTH-Cu;;678757;20200428091316;;1630000;30111
4058591;Zoning;6809230;20191109094845;W03-C-Antwerpen-West-FH09;6809230;20191109094845;W03-C-Antwerpen-West-FH09;19086;FTTH-Cu;;33070246;20200331121719;;1630000;30111
6453451;Zoning;6809230;20191109094845;W03-C-Antwerpen-West-FH09;6809230;20191109094845;W03-C-Antwerpen-West-FH09;19086;FTTH-Cu;;33070252;20200331121742;;1630000;30111
4100450;Zoning;6809230;20191109094845;W03-C-Antwerpen-West-FH09;6809230;20191109094845;W03-C-Antwerpen-West-FH09;19086;FTTH-Cu;;33070257;20200331121735;;1630000;30111
2056082;Zoning;6809230;20191109094845;W03-C-Antwerpen-West-FH09;6809230;20191109094845;W03-C-Antwerpen-West-FH09;19086;FTTH-Cu;;33070265;20200331121542;;1630000;30111
4510407;Zoning;6809230;20191109094845;W03-C-Antwerpen-West-FH09;6809230;20191109094845;W03-C-Antwerpen-West-FH09;19086;FTTH-Cu;;707088;20200331121535;;1630000;30111
137971;Zoning;6809230;20191109094845;W03-C-Antwerpen-West-FH09;6809230;20191109094845;W03-C-Antwerpen-West-FH09;19086;FTTH-Cu;;33070267;20200331121509;;1630000;30111
138341;Zoning;6809230;20191109094845;W03-C-Antwerpen-West-FH09;6809230;20191109094845;W03-C-Antwerpen-West-FH09;19086;FTTH-Cu;;617798;20200331124838;;1630000;5663
59606;Zoning;6809230;20191109094845;W03-C-Antwerpen-West-FH09;6809230;20191109094845;W03-C-Antwerpen-West-FH09;19086;FTTH-Cu;;33070272;20200330183930;;1630000;30201
59607;Zoning;6809230;20191109094845;W03-C-Antwerpen-West-FH09;6809230;20191109094845;W03-C-Antwerpen-West-FH09;19086;FTTH-Cu;;714162;20200331135636;;1630000;30201
59580;Zoning;6809230;20191109094845;W03-C-Antwerpen-West-FH09;6809230;20191109094845;W03-C-Antwerpen-West-FH09;19086;FTTH-Cu;;13723863;20200331134856;;1630000;774
59582;Zoning;6809230;20191109094845;W03-C-Antwerpen-West-FH09;6809230;20191109094845;W03-C-Antwerpen-West-FH09;19086;FTTH-Cu;;13723864;20200331134921;;1630000;774
1773177;Zoning;6809230;20191109094845;W03-C-Antwerpen-West-FH09;6809230;20191109094845;W03-C-Antwerpen-West-FH09;19086;FTTH-Cu;;13723822;20200428091135;;1630000;3736
137977;Zoning;6809230;20191109094845;W03-C-Antwerpen-West-FH09;6809230;20191109094845;W03-C-Antwerpen-West-FH09;19086;FTTH-Cu;;13723787;20200428091111;;1630000;3736
137978;Zoning;6809230;20191109094845;W03-C-Antwerpen-West-FH09;6809230;20191109094845;W03-C-Antwerpen-West-FH09;19086;FTTH-Cu;;13723788;20200428091057;;1630000;3736
137687;Zoning;6809230;20191109094845;W03-C-Antwerpen-West-FH09;6809230;20191109094845;W03-C-Antwerpen-West-FH09;19086;FTTH-Cu;;13723786;20200331124812;;1630000;9218
137685;Zoning;6809230;20191109094845;W03-C-Antwerpen-West-FH09;6809230;20191109094845;W03-C-Antwerpen-West-FH09;19086;FTTH-Cu;;13723785;20200427164713;;1630000;9218
137684;Zoning;6809230;20191109094845;W03-C-Antwerpen-West-FH09;6809230;20191109094845;W03-C-Antwerpen-West-FH09;19086;FTTH-Cu;;13723784;20200331124540;;1630000;9218
5575541;Zoning;6809230;20191109094845;W03-C-Antwerpen-West-FH09;6809230;20191109094845;W03-C-Antwerpen-West-FH09;19086;FTTH-Cu;;13723860;20200331124506;;1630000;9218
1874116;Zoning;6809230;20191109094845;W03-C-Antwerpen-West-FH09;6809230;20191109094845;W03-C-Antwerpen-West-FH09;19086;FTTH-Cu;;13723842;20200331123941;;1630000;9218
50906;Zoning;6809230;20191109094845;W03-C-Antwerpen-West-FH09;6809230;20191109094845;W03-C-Antwerpen-West-FH09;19086;FTTH-Cu;;13723859;20200331122608;;1630000;9218
4510429;Zoning;6809230;20191109094845;W03-C-Antwerpen-West-FH09;6809230;20191109094845;W03-C-Antwerpen-West-FH09;19086;FTTH-Cu;;13723858;20200331121957;;1630000;12465
138345;Zoning;6809230;20191109094845;W03-C-Antwerpen-West-FH09;6809230;20191109094845;W03-C-Antwerpen-West-FH09;19086;FTTH-Cu;;13723801;20200331124936;;1630000;13292
1960788;Zoning;6809230;20191109094845;W03-C-Antwerpen-West-FH09;6809230;20191109094845;W03-C-Antwerpen-West-FH09;19086;FTTH-Cu;;13723850;20200331133646;;1630000;15164
59567;Zoning;6809230;20191109094845;W03-C-Antwerpen-West-FH09;6809230;20191109094845;W03-C-Antwerpen-West-FH09;19086;FTTH-Cu;;13723862;20200428085321;;1630000;5377
138342;Zoning;6809230;20191109094845;W03-C-Antwerpen-West-FH09;6809230;20191109094845;W03-C-Antwerpen-West-FH09;19086;FTTH-Cu;;13723790;20200331125233;;1630000;17901
138244;Zoning;6809230;20191109094845;W03-C-Antwerpen-West-FH09;6809230;20191109094845;W03-C-Antwerpen-West-FH09;19086;FTTH-Cu;;13723789;20200330183937;;1630000;20393
61858;Zoning;6809230;20191109094845;W03-C-Antwerpen-West-FH09;6809230;20191109094845;W03-C-Antwerpen-West-FH09;19086;FTTH-Cu;;13723865;20200330183937;;1630000;20393
2036448;Zoning;6809230;20191109094845;W03-C-Antwerpen-West-FH09;6809230;20191109094845;W03-C-Antwerpen-West-FH09;19086;FTTH-Cu;;13723852;20200330183937;;1630000;23542
197241;Zoning;6809230;20191109094845;W03-C-Antwerpen-West-FH09;6809230;20191109094845;W03-C-Antwerpen-West-FH09;19086;FTTH-Cu;;13723851;20200331135059;;1630000;23542
2036521;Zoning;6809230;20191109094845;W03-C-Antwerpen-West-FH09;6809230;20191109094845;W03-C-Antwerpen-West-FH09;19086;FTTH-Cu;;13723853;20200331135404;;1630000;23542
2052278;Zoning;6809230;20191109094845;W03-C-Antwerpen-West-FH09;6809230;20191109094845;W03-C-Antwerpen-West-FH09;19086;FTTH-Cu;;13723854;20200331130511;;1630000;27902
1008474;Zoning;6809230;20191109094845;W03-C-Antwerpen-West-FH09;6809230;20191109094845;W03-C-Antwerpen-West-FH09;19086;FTTH-Cu;;13723782;20200331124557;;1630000;30111
2056071;Zoning;6809230;20191109094845;W03-C-Antwerpen-West-FH09;6809230;20191109094845;W03-C-Antwerpen-West-FH09;19086;FTTH-Cu;;13723855;20200331120814;;1630000;30111
2056072;Zoning;6809230;20191109094845;W03-C-Antwerpen-West-FH09;6809230;20191109094845;W03-C-Antwerpen-West-FH09;19086;FTTH-Cu;;13723856;20200331120716;;1630000;30111
1008473;Zoning;6809230;20191109094845;W03-C-Antwerpen-West-FH09;6809230;20191109094845;W03-C-Antwerpen-West-FH09;19086;FTTH-Cu;;13723779;20200331120723;;1630000;30111
2056081;Zoning;6809230;20191109094845;W03-C-Antwerpen-West-FH09;6809230;20191109094845;W03-C-Antwerpen-West-FH09;19086;FTTH-Cu;;13723857;20200428091645;;1630000;30111
5906758;Zoning;6809230;20191109094845;W03-C-Antwerpen-West-FH09;6809230;20191109094845;W03-C-Antwerpen-West-FH09;19086;FTTH-Cu;;13723861;20200330183937;;1630000;30111
