LAM MK;xPos;yPos;Street;Nr;Suffix
;236040;148039;Rue Douffet;2;
680321.0;235968,548;147810,654;Rue du Fer;2;
3140425.0;235963,31;147805,451;Rue du Fer;4;
3140426.0;235955,054;147800,372;Rue du Fer;6;
3140427.0;235960,354;147778,84;Rue du Fer;7;
3140428.0;235949,776;147797,501;Rue du Fer;8;
3140429.0;235943,255;147794,745;Rue du Fer;10;
3140430.0;235950,947;147770,877;Rue du Fer;11;
3140431.0;235940,155;147789,897;Rue du Fer;12;
3140432.0;235948,022;147766,331;Rue du Fer;13;
3140433.0;235935,29;147786,28;Rue du Fer;14;
3140434.0;235930,207;147780,589;Rue du Fer;16;
5205500.0;235934,486;147758,12;Rue du Fer;17;
681415.0;235930,797;147752,232;Rue du Fer;21;
3140436.0;235926,452;147749,979;Rue du Fer;23;
3140437.0;235900,018;147761,379;Rue du Fer;24;
3140438.0;235921,377;147746,149;Rue du Fer;25;
3140439.0;235897,159;147755,633;Rue du Fer;26;
3140440.0;235917,276;147742,34;Rue du Fer;27;
3140441.0;235911,912;147739,114;Rue du Fer;29;
3140442.0;235885,524;147748,639;Rue du Fer;30;
3140443.0;235914,97;147718,617;Rue du Fer;31;
3140445.0;235879,868;147746,137;Rue du Fer;32;
3140446.0;235895,146;147725,862;Rue du Fer;33;
3140447.0;235877,01;147736,177;Rue du Fer;34;
3140448.0;235886,89;147721,62;Rue du Fer;35;
3140755.0;236066,449;147819,233;Rue Fisen;3;
5190351.0;236052,577;147811,26;Rue Fisen;4;
3140756.0;236071,159;147816,207;Rue Fisen;5;
3140757.0;236058,507;147809,619;Rue Fisen;6;
5190215.0;236075,914;147813,438;Rue Fisen;7;
3140758.0;236060,663;147804,037;Rue Fisen;8;
3140759.0;236081,709;147812,487;Rue Fisen;9;
3140760.0;236065,627;147803,496;Rue Fisen;10;
3140761.0;236086,078;147809,112;Rue Fisen;11;
3140762.0;236069,179;147799,169;Rue Fisen;12;
3140763.0;236090,232;147806,085;Rue Fisen;13;
5190360.0;236073,82;147797,006;Rue Fisen;14;
3140764.0;236094,625;147803,892;Rue Fisen;15;
5190361.0;236078,598;147794,762;Rue Fisen;16;
3140765.0;236103,026;147807,76;Rue Fisen;17;
3140766.0;236083,601;147792,437;Rue Fisen;18;
3140767.0;236108,154;147804,659;Rue Fisen;19;
3140768.0;236087,77;147791,786;Rue Fisen;20;
3140769.0;236114,841;147804,845;Rue Fisen;21;
3140770.0;236099,478;147759,095;Rue Fisen;22;
5190242.0;236118,971;147800,461;Rue Fisen;23;
4237600.0;236101,689;147764,006;Rue Fisen;24;
4084910.0;236124,437;147798,299;Rue Fisen;25;
5190364.0;236093,908;147793,128;Rue Fisen;26;
3140771.0;236129,795;147796,063;Rue Fisen;27;
5190365.0;236098,26;147791,148;Rue Fisen;28;
3140772.0;236135,085;147792,782;Rue Fisen;29;
3140773.0;236102,617;147787,165;Rue Fisen;30;
680373.0;236142,085;147787,73;Rue Fisen;31;
3140774.0;236106,347;147785,616;Rue Fisen;32;
3140775.0;236112,06;147783,877;Rue Fisen;34;
3140776.0;236115,251;147780,774;Rue Fisen;36;
3140777.0;236119,75;147777,794;Rue Fisen;38;
3140778.0;236125,211;147777,197;Rue Fisen;40;
3140779.0;236130,587;147777,258;Rue Fisen;42;
3140960.0;236212,491;147918,379;Impasse Foidart;1;
3140961.0;236191,707;147916,573;Impasse Foidart;3;
3140962.0;236187,174;147919,807;Impasse Foidart;4;
3140963.0;236183,777;147922,155;Impasse Foidart;5;
3140964.0;236179,994;147927,634;Impasse Foidart;6;
5197650.0;236169,217;147929,457;Impasse Foidart;7;
3140965.0;236205,739;147896,771;Impasse Foidart;8;
3140966.0;236202,402;147905,807;Impasse Foidart;9;
3143469.0;235653,607;147984,395;Rue Grétry;22;
3143470.0;235653,06;147976,283;Rue Grétry;24;
3143471.0;235658,15;147970,64;Rue Grétry;26;
680295.0;235677,605;148003,663;Rue Grétry;27;
3143472.0;235661,364;147964,596;Rue Grétry;28;
3143473.0;235680,152;147997,049;Rue Grétry;29;
3143474.0;235666,82;147958,075;Rue Grétry;30;
3143475.0;235682,64;147992,235;Rue Grétry;31;
3143476.0;235673,994;147952,657;Rue Grétry;32;
3143477.0;235696,112;147995,291;Rue Grétry;33;
3143478.0;235677,917;147948,222;Rue Grétry;34;
3143479.0;235692,536;147980,864;Rue Grétry;35;
3143480.0;235664,411;147941,993;Rue Grétry;36;
3143481.0;235696,009;147975,366;Rue Grétry;37;
3143482.0;235687,481;147938,259;Rue Grétry;38;
3143483.0;235714,277;147979,293;Rue Grétry;39;
681087.0;235691,81;147934,062;Rue Grétry;40;
3143488.0;235705,666;147964,176;Rue Grétry;41;
4027744.0;235707,984;147959,21;Rue Grétry;43;
3143498.0;235712,907;147955,523;Rue Grétry;47;
3143502.0;235714,494;147949,859;Rue Grétry;49;
3143505.0;235720,462;147946,929;Rue Grétry;51;
3143506.0;235723,73;147942,738;Rue Grétry;53;
5212004.0;235725,508;147936,202;Rue Grétry;55;
1364566.0;235729,525;147930,452;Rue Grétry;59;
3143520.0;235745,041;147913,192;Rue Grétry;65;
3143525.0;235746,969;147904,007;Rue Grétry;69;
1352843.0;235751,95;147896,857;Rue Grétry;71;
1486046.0;235758,893;147891,724;Rue Grétry;73;
3143533.0;235762,493;147886,475;Rue Grétry;75;
3143535.0;235766,66;147881,122;Rue Grétry;77;
3143537.0;235766,269;147872,78;Rue Grétry;79;
681089.0;235825,439;147734,071;Rue Grétry;80;
3143538.0;235775,94;147871,979;Rue Grétry;81;
3143541.0;235780,754;147866,873;Rue Grétry;83;
4011658.0;235829,821;147730,039;Rue Grétry;84;
3143542.0;235785,212;147861,904;Rue Grétry;85;
681088.0;235834,79;147728,153;Rue Grétry;86;
3143543.0;235789,438;147857,255;Rue Grétry;87;
3143544.0;235838,901;147724,469;Rue Grétry;88;
3143545.0;235788,632;147848,911;Rue Grétry;89;
3143546.0;235836,751;147717,304;Rue Grétry;90;
680294.0;235792,501;147839,581;Rue Grétry;91;
3143547.0;235843,381;147716,113;Rue Grétry;92;
3143548.0;235843,498;147707,761;Rue Grétry;94;
3143549.0;235805,931;147819,975;Rue Grétry;95;
3143550.0;235848,54;147700,591;Rue Grétry;96;
3143551.0;235814,8;147812,002;Rue Grétry;97;
3143552.0;235856,311;147698,425;Rue Grétry;98;
3143553.0;235822,938;147803,514;Rue Grétry;99;
3143554.0;235859,51;147693,547;Rue Grétry;100;
3143555.0;235827,199;147797,42;Rue Grétry;101;
3143556.0;235863,038;147689,62;Rue Grétry;102;
3143557.0;235850,084;147812,683;Rue Grétry;103;
3143558.0;235864,886;147683,662;Rue Grétry;104;
680292.0;235838,277;147783,939;Rue Grétry;105;
680570.0;235865,027;147676,922;Rue Grétry;106;
680291.0;235850,263;147764,54;Rue Grétry;107;
3143559.0;235868,267;147672,543;Rue Grétry;108;
3143560.0;235854,573;147757,681;Rue Grétry;109;
3143561.0;235871,351;147668,497;Rue Grétry;110;
3143562.0;235855,274;147748,957;Rue Grétry;111;
3143563.0;235874,926;147660,811;Rue Grétry;112;
5211702.0;235865,071;147738,971;Rue Grétry;113;
4263348.0;235879,632;147659,308;Rue Grétry;114;
3143566.0;235891,463;147655,129;Rue Grétry;116;
680288.0;235867,958;147730,884;Rue Grétry;117;
680567.0;235891,566;147646,324;Rue Grétry;118;
3143567.0;235879,362;147714,241;Rue Grétry;119;
3143568.0;235886,42;147709,244;Rue Grétry;121;
3143569.0;235890,302;147704,77;Rue Grétry;123;
680569.0;235915,889;147616,195;Rue Grétry;124;
3143571.0;235894,44;147700,499;Rue Grétry;125;
3143572.0;235899,974;147699,614;Rue Grétry;127;
3143574.0;235899,758;147690,618;Rue Grétry;129;
3143575.0;235918,007;147608,402;Rue Grétry;130;
3143576.0;235903,443;147684,765;Rue Grétry;131;
1453548.0;235920,634;147603,41;Rue Grétry;132;
3143577.0;235906,297;147679,077;Rue Grétry;133;
3143578.0;235925,741;147600,13;Rue Grétry;134;
3143579.0;235910,031;147673,476;Rue Grétry;135;
3143580.0;235928,262;147595,431;Rue Grétry;136;
680565.0;235913,07;147665,168;Rue Grétry;137;
3143581.0;235930,703;147590,569;Rue Grétry;138;
680564.0;235926,301;147647,207;Rue Grétry;139;
3143583.0;235919,666;147578,526;Rue Grétry;140;A
3143584.0;235940,966;147581,608;Rue Grétry;140;B
3143586.0;235939,461;147648,146;Rue Grétry;141;
1347840.0;235944,439;147575,431;Rue Grétry;142;
3143587.0;235951,958;147651,283;Rue Grétry;143;
1455340.0;235940,055;147562,004;Rue Grétry;144;
3143588.0;235942,186;147632,65;Rue Grétry;145;
3143589.0;235946,975;147627,672;Rue Grétry;147;
5205433.0;235954,196;147547,812;Rue Grétry;148;
3143590.0;235954,617;147621,64;Rue Grétry;149;
3143591.0;235939,91;147536,376;Rue Grétry;150;
3143592.0;235953,39;147613,384;Rue Grétry;151;
3143593.0;235957,008;147607,76;Rue Grétry;153;
3143594.0;235966,094;147524,262;Rue Grétry;154;
3143595.0;235959,608;147600,723;Rue Grétry;155;
3143596.0;235975,438;147515,294;Rue Grétry;156;
3143597.0;235968,364;147599,539;Rue Grétry;157;
1449325.0;235981,232;147508,241;Rue Grétry;158;
3143598.0;235969,626;147591,693;Rue Grétry;159;
680562.0;235970,091;147583,182;Rue Grétry;161;
3143599.0;235988,211;147494,905;Rue Grétry;162;
3143600.0;235976,553;147577,817;Rue Grétry;163;
3143602.0;235997,402;147491,521;Rue Grétry;166;
3941984.0;236009,993;147485,799;Rue Grétry;168;
681441.0;236031,2;147417,66;Rue Grétry;172;
3143605.0;236011,174;147545,078;Rue Grétry;173;
3143607.0;236010,784;147539,081;Rue Grétry;175;
3143608.0;236059,611;147357,915;Rue Grétry;176;
3143609.0;236021,102;147535,731;Rue Grétry;177;
3143611.0;236020,467;147523,89;Rue Grétry;181;
3143612.0;236019,371;147515,32;Rue Grétry;183;
3143613.0;236024,961;147512,19;Rue Grétry;185;
3143614.0;236028,114;147507,929;Rue Grétry;187;
1370428.0;236032,887;147501,21;Rue Grétry;189;
680561.0;236041,157;147485,625;Rue Grétry;191;
680560.0;236044,196;147480,125;Rue Grétry;193;
3143616.0;236066,152;147446,605;Rue Grétry;195;
681442.0;236106,15;147289,502;Rue Grétry;196;
3143617.0;236071,906;147440,544;Rue Grétry;197;
5207147.0;236082,898;147438,968;Rue Grétry;199;
3143619.0;236082,708;147427,975;Rue Grétry;203;
3143620.0;236092,895;147428,13;Rue Grétry;205;
3143622.0;236105,75;147435,929;Rue Grétry;207;
5207149.0;236109,884;147438,707;Rue Grétry;209;
3143623.0;236090,553;147418,448;Rue Grétry;213;
3143624.0;236135,225;147442,647;Rue Grétry;215;
3143625.0;236102,656;147408,531;Rue Grétry;217;
3143627.0;236102,404;147402,003;Rue Grétry;221;
5360304.0;236105,117;147397,328;Rue Grétry;223;A
3143630.0;236146,833;147372,104;Rue Grétry;227;
5207134.0;236217,652;147407,386;Rue Grétry;231;
3143632.0;236164,996;147337,73;Rue Grétry;237;
5207138.0;236155,929;147324,234;Rue Grétry;239;
3143633.0;236159,537;147319,009;Rue Grétry;241;
4256901.0;236163,226;147314,562;Rue Grétry;243;
3143636.0;236169,864;147319,146;Rue Grétry;245;
3143637.0;236168,404;147304,003;Rue Grétry;247;
680559.0;236172,614;147298,993;Rue Grétry;249;
3143516.0;235739,425;147920,937;Rue Grétry;63;
681075.0;235578,313;147869,285;Rue d'Harscamp;1;B
681076.0;235559,743;147842,291;Rue d'Harscamp;2;
1318902.0;235572,377;147836,026;Rue d'Harscamp;4;
3143923.0;235578,586;147834,176;Rue d'Harscamp;6;
681077.0;235583,088;147832,018;Rue d'Harscamp;8;
3143925.0;235564,372;147803,89;Rue d'Harscamp;12;
3143926.0;235588,603;147817,13;Rue d'Harscamp;14;
1509124.0;235592,909;147805,059;Rue d'Harscamp;16;
4081602.0;235819,313;147574,113;Rue d'Harscamp;17;
5200205.0;235594,737;147799,804;Rue d'Harscamp;18;
3143930.0;235596,802;147793,143;Rue d'Harscamp;20;
3143931.0;235606,378;147791,277;Rue d'Harscamp;22;
3143932.0;235602,975;147779,84;Rue d'Harscamp;24;
1501687.0;235614,524;147781,475;Rue d'Harscamp;26;
1482576.0;235617,675;147775,988;Rue d'Harscamp;28;
3143933.0;235620,77;147771,153;Rue d'Harscamp;30;
3143934.0;235624,377;147765,956;Rue d'Harscamp;32;
681093.0;235625,997;147758,948;Rue d'Harscamp;34;
681095.0;235659,49;147730,051;Rue d'Harscamp;44;
681096.0;235676,426;147699,907;Rue d'Harscamp;46;
3143935.0;235681,422;147689,135;Rue d'Harscamp;48;
3143936.0;235688,199;147679,834;Rue d'Harscamp;56;
3143937.0;235692,985;147666,129;Rue d'Harscamp;58;
681097.0;235668,918;147636,207;Rue d'Harscamp;60;
3144158.0;235834,486;147870,115;Cour Hénaux;1;
5331184.0;235840,3;147866,577;Cour Hénaux;2;
3144159.0;235848,036;147861,937;Cour Hénaux;3;
5324093.0;235855,317;147857,589;Cour Hénaux;4;
4150870.0;235860,655;147854,435;Cour Hénaux;5;
5329831.0;235865,511;147851,55;Cour Hénaux;6;
3144160.0;235869,813;147849,036;Cour Hénaux;7;
5324096.0;235874,098;147846,509;Cour Hénaux;8;
3144161.0;235878,999;147843,639;Cour Hénaux;9;
3150604.0;236200,027;148035,483;Rue Lairesse;2;B
3150607.0;236197,015;148032,432;Rue Lairesse;4;
3150609.0;236193,473;148029,114;Rue Lairesse;6;
670890.0;236201,07;148005,879;Rue Lairesse;7;
3150613.0;236190,043;148025,96;Rue Lairesse;8;
3942012.0;236196,89;148004,018;Rue Lairesse;9;
3150614.0;236176,092;148037,379;Rue Lairesse;10;
3150615.0;236194,473;147998,105;Rue Lairesse;11;
3150617.0;236159,513;148031,908;Rue Lairesse;12;
3150619.0;236179,67;148018,11;Rue Lairesse;14;
3150621.0;236169,516;147968,879;Rue Lairesse;15;
4027419.0;236173,035;148015,881;Rue Lairesse;16;
3150624.0;236160,472;147964,796;Rue Lairesse;17;
3150628.0;236170,626;148007,868;Rue Lairesse;18;
3150634.0;236152,849;147959,543;Rue Lairesse;21;
3150640.0;236150,981;147953,395;Rue Lairesse;23;
3150643.0;236148,073;147948,091;Rue Lairesse;25;
3150646.0;236142,834;147942,498;Rue Lairesse;27;
3150648.0;236153,855;147985,328;Rue Lairesse;28;
3150650.0;236138,772;147937,816;Rue Lairesse;29;
3150653.0;236149,984;147980,023;Rue Lairesse;30;
3150660.0;236133,268;147929,794;Rue Lairesse;31;
3150661.0;236138,169;147970,025;Rue Lairesse;32;
3150664.0;236126,557;147923,808;Rue Lairesse;33;
3150666.0;236132,349;147966,517;Rue Lairesse;34;
3150670.0;236122,168;147918,243;Rue Lairesse;35;
3150675.0;236128,151;147961,61;Rue Lairesse;36;
3150677.0;236116,995;147915,349;Rue Lairesse;37;
3150679.0;236124,809;147958,132;Rue Lairesse;38;
670889.0;236111,358;147910,237;Rue Lairesse;39;
3150683.0;236119,311;147955,693;Rue Lairesse;40;
3150684.0;236116,124;147948,298;Rue Lairesse;42;
3150686.0;236110,625;147941,636;Rue Lairesse;44;
3150689.0;236095,211;147886,914;Rue Lairesse;45;
3150690.0;236105,965;147938,024;Rue Lairesse;46;
3150692.0;236103,184;147932,693;Rue Lairesse;48;
3150694.0;236083,021;147876,621;Rue Lairesse;49;
3150696.0;236099,235;147928,289;Rue Lairesse;50;
3150697.0;236076,426;147868,632;Rue Lairesse;51;
3150700.0;236094,517;147923,717;Rue Lairesse;52;
3150701.0;236106,336;147832,045;Rue Lairesse;53;
3150703.0;236090,987;147919,125;Rue Lairesse;54;
4064437.0;236065,625;147861,237;Rue Lairesse;55;
3150704.0;236085,266;147915,659;Rue Lairesse;56;
3150707.0;236064,359;147854,756;Rue Lairesse;57;
3150708.0;236081,904;147910,142;Rue Lairesse;58;
3150710.0;236060,213;147849,146;Rue Lairesse;59;
3150713.0;236076,362;147906,51;Rue Lairesse;60;
3150716.0;236055,772;147845,25;Rue Lairesse;61;
3150721.0;236052,108;147840,508;Rue Lairesse;63;
3150724.0;236047,287;147837,171;Rue Lairesse;65;
3150725.0;236064,75;147890,648;Rue Lairesse;66;
680367.0;236044,158;147833,535;Rue Lairesse;67;
3150726.0;236060,573;147887,859;Rue Lairesse;68;
5211946.0;236056,617;147883,456;Rue Lairesse;70;
3150732.0;236031,076;147825,151;Rue Lairesse;71;
3150734.0;236054,275;147878,456;Rue Lairesse;72;
3150736.0;236034,007;147816,563;Rue Lairesse;73;
3150739.0;236049,234;147874,67;Rue Lairesse;74;
3150742.0;236025,351;147807,108;Rue Lairesse;75;
3150743.0;236046,496;147870,268;Rue Lairesse;76;
3150748.0;236020,577;147805,794;Rue Lairesse;77;
3150750.0;236042,596;147866,979;Rue Lairesse;78;
3150752.0;236014,044;147802,07;Rue Lairesse;79;
3150754.0;236040,042;147862,022;Rue Lairesse;80;
3150757.0;236031,918;147859,411;Rue Lairesse;82;
3150758.0;236029,066;147848,26;Rue Lairesse;84;
680322.0;236024,07;147843,236;Rue Lairesse;86;
3150761.0;236020,52;147838,77;Rue Lairesse;88;
3150765.0;235987,323;147758,213;Rue Lairesse;89;
3150771.0;235983,673;147749,916;Rue Lairesse;91;
5347284.0;236014,11;147830,495;Rue Lairesse;92;
3150774.0;235981,963;147743,474;Rue Lairesse;93;
5190389.0;235967,195;147727,336;Rue Lairesse;95;
681418.0;235982,084;147796,39;Rue Lairesse;96;
3150776.0;235976,537;147790,931;Rue Lairesse;98;
3150781.0;235972,746;147786,181;Rue Lairesse;100;
3150783.0;235968,518;147781,416;Rue Lairesse;102;
680364.0;235965,261;147699,01;Rue Lairesse;103;
3150784.0;235969,971;147773,678;Rue Lairesse;104;
3150786.0;235978,349;147686,897;Rue Lairesse;105;
3150790.0;235966,476;147768,921;Rue Lairesse;106;
3150794.0;235951,627;147688,881;Rue Lairesse;107;
3150796.0;235962,903;147764,82;Rue Lairesse;108;
3150799.0;235947,049;147682,931;Rue Lairesse;109;
3150801.0;235959,27;147760,35;Rue Lairesse;110;
3150803.0;235944,371;147678,172;Rue Lairesse;111;
3150805.0;235957,481;147755,481;Rue Lairesse;112;
3150808.0;235950,914;147670,122;Rue Lairesse;113;
3150809.0;235951,135;147752,344;Rue Lairesse;114;
3150810.0;235952,646;147662,615;Rue Lairesse;115;
3150812.0;235951,065;147745,798;Rue Lairesse;116;
3150814.0;235932,964;147663,976;Rue Lairesse;117;
3150818.0;235948,406;147740,119;Rue Lairesse;118;
3150823.0;235932,002;147655,291;Rue Lairesse;119;
3150828.0;235948,943;147733,578;Rue Lairesse;120;
3150834.0;235942,968;147729,482;Rue Lairesse;122;
3150837.0;235940,834;147724,805;Rue Lairesse;124;
3150838.0;235938,526;147720,43;Rue Lairesse;126;
3150839.0;235936,921;147714,878;Rue Lairesse;128;
3942013.0;235934,08;147709,355;Rue Lairesse;130;
3150842.0;235929,915;147705,051;Rue Lairesse;132;
3150843.0;235927,624;147698,491;Rue Lairesse;134;
3150844.0;235920,528;147697,782;Rue Lairesse;136;
3150846.0;235924,632;147687,368;Rue Lairesse;138;
3150849.0;235920,522;147683,232;Rue Lairesse;140;
681419.0;235919,272;147674,362;Rue Lairesse;142;
681079.0;235791,242;147479,65;Rue Latour;1;
681091.0;235727,029;147381,824;Rue Latour;2;
3151751.0;235731,442;147377,361;Rue Latour;4;
681090.0;235734,967;147373,074;Rue Latour;6;
3151757.0;235751,71;147406,347;Rue Latour;7;
3151759.0;235759,141;147468,988;Rue Latour;19;
3151760.0;235755,543;147465,332;Rue Latour;21;
3151763.0;235744,323;147461,642;Rue Latour;25;
3151765.0;235738,312;147462,102;Rue Latour;27;
3151770.0;235731,595;147452,988;Rue Latour;29;
5201476.0;235725,705;147456,842;Rue Latour;31;
3151772.0;235722,991;147451,873;Rue Latour;33;
3151775.0;235720,383;147446,981;Rue Latour;35;
3151776.0;235736,1;147445,336;Rue Latour;37;
5201571.0;235736,733;147418,321;Rue Latour;47;
5201575.0;235740,782;147419,879;Rue Latour;49;
5201580.0;235744,511;147421,329;Rue Latour;51;
5201588.0;235748,32;147422,788;Rue Latour;53;
681092.0;235746,631;147391,225;Rue Latour;61;
3153721.0;235681,493;147932,566;Rue Libotte;4;
3153723.0;235675,961;147929,719;Rue Libotte;6;
3153728.0;235652,231;147941,382;Rue Libotte;8;
3153732.0;235657,784;147915,486;Rue Libotte;12;
3153733.0;235645,197;147917,552;Rue Libotte;14;
3153734.0;235632,503;147918,353;Rue Libotte;16;
5200270.0;235630,18;147907,177;Rue Libotte;18;
3153736.0;235629,708;147892,337;Rue Libotte;22;
3153737.0;235619,849;147885,671;Rue Libotte;24;
3153738.0;235614,157;147878,224;Rue Libotte;26;
3153743.0;235607,541;147875,38;Rue Libotte;28;
3153748.0;235605,311;147871,194;Rue Libotte;30;
5200284.0;235597,871;147870,737;Rue Libotte;32;
1518932.0;235578,313;147869,285;Rue Libotte;34;
3153731.0;235652,59;147925,756;Rue Libotte;10;
680574.0;236272,035;147347,222;Rue de la Limite;2;
4011716.0;236263,814;147344,049;Rue de la Limite;4;
3154239.0;236223,476;147336,351;Rue de la Limite;8;
1465974.0;236186,398;147310,028;Rue de la Limite;16;
680573.0;236181,589;147306,741;Rue de la Limite;18;
4198131.0;236177,305;147303,083;Rue de la Limite;20;
680324.0;236132,772;148063,035;Quai de Longdoz;17;
3154482.0;236121,941;148060,934;Quai de Longdoz;19;
3154484.0;236111,108;148064,177;Quai de Longdoz;20;
3154486.0;236103,669;148049,151;Quai de Longdoz;21;
5561836.0;236080,28;148040,84;Quai de Longdoz;28;
680332.0;236038,209;148043,142;Quai de Longdoz;34;
3154495.0;236030,15;148049,445;Quai de Longdoz;35;
680331.0;236021,008;148045,665;Quai de Longdoz;36;
3154499.0;235979,764;148048,095;Quai de Longdoz;37;
1461228.0;235975,306;148046,046;Quai de Longdoz;39;
3154505.0;235970,885;148045,077;Quai de Longdoz;40;
5211779.0;235964,066;148048,917;Quai de Longdoz;41;
3154507.0;235957,448;148050,586;Quai de Longdoz;42;
3154508.0;235950,398;148045,347;Quai de Longdoz;43;
3154515.0;235936,779;148042,099;Quai de Longdoz;46;
3154517.0;235918,389;148023,707;Quai de Longdoz;47;
3154524.0;235905,998;148048,259;Quai de Longdoz;50;
3154526.0;235900,486;148049,706;Quai de Longdoz;51;
680327.0;235894,484;148051,6;Quai de Longdoz;52;
680328.0;235871,483;148053,155;Quai de Longdoz;53;
3154529.0;235861,645;148049,887;Quai de Longdoz;54;
3154531.0;235848,391;148049,571;Quai de Longdoz;55;A
680329.0;235836,111;148049,901;Quai de Longdoz;55;B
1359291.0;235809,727;148049,996;Quai de Longdoz;56;
3154542.0;235795,1;148043,911;Quai de Longdoz;58;
3154544.0;235784,986;148043,945;Quai de Longdoz;59;
3154547.0;235777,088;148036,215;Quai de Longdoz;60;
1445687.0;235766,711;148043,364;Quai de Longdoz;61;
3154552.0;235755,355;148039,971;Quai de Longdoz;63;
3154556.0;235750,288;148037,2;Quai de Longdoz;64;
3154559.0;235744,039;148041,333;Quai de Longdoz;65;
3154563.0;235712,81;148035,049;Quai de Longdoz;68;
3154565.0;235708,576;148030,461;Quai de Longdoz;69;
3154567.0;235705,726;148026,61;Quai de Longdoz;70;
5211886.0;235692,519;148017,4;Quai de Longdoz;71;
5320735.0;235717,937;147989,714;Quai de Longdoz;73;
4226852.0;235707,691;147992,327;Quai de Longdoz;76;
5329845.0;235704,628;147995,862;Quai de Longdoz;77;A
3154573.0;235679,302;148015,85;Quai de Longdoz;80;
680296.0;235673,675;148012,135;Quai de Longdoz;81;
680341.0;235836,205;148038,921;Rue Alfred Magis;1;
680339.0;235806,263;148034,221;Rue Alfred Magis;2;
2740795.0;235830,674;148033,459;Rue Alfred Magis;3;
2740797.0;235805,543;148025,672;Rue Alfred Magis;4;
2740804.0;235829,061;148027,293;Rue Alfred Magis;5;
5212095.0;235803,068;148019,035;Rue Alfred Magis;6;
2740807.0;235826,949;148021,25;Rue Alfred Magis;7;
2740811.0;235795,994;148009,505;Rue Alfred Magis;8;
2740815.0;235825,257;148014,732;Rue Alfred Magis;9;
2740828.0;235801,756;148005,381;Rue Alfred Magis;10;
2740838.0;235824,344;148007,594;Rue Alfred Magis;11;
2740841.0;235803,352;147997,404;Rue Alfred Magis;12;
2740849.0;235826,375;147997,539;Rue Alfred Magis;13;
2740855.0;235806,91;147989,548;Rue Alfred Magis;14;
680340.0;235834,172;147990,247;Rue Alfred Magis;15;
2740864.0;235809,774;147983,246;Rue Alfred Magis;16;
2740868.0;235771,592;147924,244;Rue Alfred Magis;20;
2740870.0;235826,908;147964,144;Rue Alfred Magis;24;
664113.0;236215,104;147450,613;Impasse Magnée;3;
5206963.0;236210,304;147450,774;Impasse Magnée;4;
2740876.0;236207,62;147446,497;Impasse Magnée;5;
2740877.0;236202,983;147446,304;Impasse Magnée;6;
4243427.0;236196,568;147445,645;Impasse Magnée;7;
5206969.0;236191,772;147443,854;Impasse Magnée;8;
3942037.0;236187,237;147442,132;Impasse Magnée;9;
2740880.0;236188,908;147437,639;Impasse Magnée;10;
5206974.0;236193,49;147439,342;Impasse Magnée;11;
2740884.0;236198,273;147441,087;Impasse Magnée;12;
2740887.0;236179,746;147438,56;Impasse Magnée;13;
5206978.0;236174,474;147438,046;Impasse Magnée;14;
2740895.0;236171,029;147434,654;Impasse Magnée;15;
664095.0;236163,615;147436,428;Impasse Magnée;16;
5332453.0;235834,965;147864,037;Cour Moreau;1;
2751570.0;235839,503;147861,318;Cour Moreau;2;
2751575.0;235843,722;147858,808;Cour Moreau;3;
5335623.0;235847,462;147856,609;Cour Moreau;4;
2751581.0;235851,719;147854,1;Cour Moreau;5;
2751584.0;235855,962;147851,62;Cour Moreau;6;
5326148.0;235859,965;147849,295;Cour Moreau;7;
2751588.0;235864,405;147846,711;Cour Moreau;8;
4038015.0;235867,936;147844,677;Cour Moreau;9;
5348634.0;235871,194;147842,755;Cour Moreau;10;
11388.0;236236,894;147555,415;Rue de Mulhouse;1;
664094.0;236234,596;147579,555;Rue de Mulhouse;2;
2754835.0;236231,616;147552,406;Rue de Mulhouse;3;
5203011.0;236225,83;147553,712;Rue de Mulhouse;5;
2754846.0;236218,802;147553,802;Rue de Mulhouse;7;
2754852.0;236218,196;147587,58;Rue de Mulhouse;8;
2754856.0;236212,392;147555,575;Rue de Mulhouse;9;
2754860.0;236206,047;147556,353;Rue de Mulhouse;11;
2754866.0;236207,282;147590,414;Rue de Mulhouse;12;
2754870.0;236198,78;147556,825;Rue de Mulhouse;13;
2754876.0;236202,329;147591,111;Rue de Mulhouse;14;
2754882.0;236191,002;147558,568;Rue de Mulhouse;15;
2754888.0;236184,554;147558,993;Rue de Mulhouse;17;
1297278.0;236177,16;147561,821;Rue de Mulhouse;19;
5206791.0;236194,443;147591,951;Rue de Mulhouse;20;
2754899.0;236170,608;147560,883;Rue de Mulhouse;21;
2754904.0;236188,275;147594,373;Rue de Mulhouse;22;
4148764.0;236161,258;147561,494;Rue de Mulhouse;23;
2754907.0;236180,884;147595,204;Rue de Mulhouse;24;
2754909.0;236156,696;147562,054;Rue de Mulhouse;25;
2754914.0;236174,049;147595,049;Rue de Mulhouse;26;
5203020.0;236148,329;147563,145;Rue de Mulhouse;27;
2754920.0;236166,258;147596,436;Rue de Mulhouse;28;
2754928.0;236142,522;147565,604;Rue de Mulhouse;29;
2754930.0;236159,253;147596,709;Rue de Mulhouse;30;
2754936.0;236152,05;147595,941;Rue de Mulhouse;32;
2754944.0;236091,444;147569,133;Rue de Mulhouse;33;
2754950.0;236053,237;147562,366;Rue de Mulhouse;33;A
2754958.0;236041,366;147574,859;Rue de Mulhouse;33;B
680572.0;236146,237;147597,42;Rue de Mulhouse;34;
2754973.0;236025,99;147578,735;Rue de Mulhouse;35;
664093.0;236018,131;147584,075;Rue de Mulhouse;39;
2754995.0;236076,006;147600,832;Rue de Mulhouse;46;
5206795.0;236070,031;147602,595;Rue de Mulhouse;48;
2755001.0;236063,989;147599,954;Rue de Mulhouse;50;
2755007.0;236058,014;147603,235;Rue de Mulhouse;52;
1194869.0;236050,185;147599,791;Rue de Mulhouse;54;
2755008.0;236054,246;147610,959;Rue de Mulhouse;56;
5206797.0;236050,031;147611,503;Rue de Mulhouse;58;
2755013.0;236046,026;147613,741;Rue de Mulhouse;60;
2755416.0;236292,019;147357,606;Rue du Beau-Mur;71;
2755426.0;236291,465;147362,553;Rue du Beau-Mur;73;
2755431.0;236297,023;147369,971;Rue du Beau-Mur;75;
2755451.0;236293,905;147373,812;Rue du Beau-Mur;77;
2755458.0;236293,73;147379,4;Rue du Beau-Mur;79;
680584.0;236295,958;147386,799;Rue du Beau-Mur;81;
5205502.0;235916,161;147592,917;Rue Natalis;3;
2757323.0;235915,72;147586,243;Rue Natalis;5;
2757325.0;235920,387;147567,971;Rue Natalis;9;A
2757328.0;235920,517;147563,584;Rue Natalis;9;B
2757334.0;235917,281;147556,017;Rue Natalis;11;
681110.0;235884,275;147498,796;Rue Natalis;12;
2757341.0;235920,378;147544,337;Rue Natalis;13;
2757351.0;235881,441;147494,047;Rue Natalis;14;
2757357.0;235878,149;147490,124;Rue Natalis;16;
2757364.0;235904,02;147502,464;Rue Natalis;17;
2757367.0;235874,824;147475,664;Rue Natalis;18;
2757373.0;235902,909;147498,096;Rue Natalis;19;
681116.0;235872,058;147462,28;Rue Natalis;20;
2757385.0;235902,481;147492,453;Rue Natalis;21;
681114.0;235857,692;147433,169;Rue Natalis;22;
5205515.0;235902,069;147487,553;Rue Natalis;23;
2757392.0;235834,586;147422,304;Rue Natalis;24;
2757396.0;235901,544;147481,83;Rue Natalis;25;
2757401.0;235841,047;147418,862;Rue Natalis;26;
2757406.0;235926,626;147467,839;Rue Natalis;27;
2757411.0;235862,361;147426,388;Rue Natalis;28;
2757420.0;235860,272;147421,729;Rue Natalis;30;
2757424.0;235894,504;147462,227;Rue Natalis;31;
2757435.0;235859,062;147416,856;Rue Natalis;32;
2757438.0;235895,081;147454,917;Rue Natalis;33;
2757441.0;235857,393;147411,536;Rue Natalis;34;
2757443.0;235895,477;147449,24;Rue Natalis;35;
5201498.0;235855,949;147406,191;Rue Natalis;36;
5205528.0;235888,722;147445,545;Rue Natalis;37;
2757446.0;235854,627;147401,058;Rue Natalis;38;
2757450.0;235890,273;147440,786;Rue Natalis;39;
2757451.0;235852,895;147396,241;Rue Natalis;40;
3995655.0;235812,002;147679,441;Rue Natalis;41;
4059724.0;235846,314;147383,053;Rue Natalis;42;
2757456.0;235888,028;147432,685;Rue Natalis;43;
2757459.0;235886,479;147427,131;Rue Natalis;45;
2757464.0;235885,772;147421,662;Rue Natalis;47;
681422.0;235886,867;147375,667;Rue Natalis;47;B
681421.0;235875,667;147331,676;Rue Natalis;49;
1286468.0;235815,611;147337,902;Rue Natalis;54;
2759829.0;235638,807;147984,015;Quai Orban;2;
1487757.0;235634,79;147980,837;Quai Orban;3;
1446198.0;235633,775;147974,313;Quai Orban;4;
2759840.0;235629,272;147969,623;Quai Orban;5;
2759841.0;235624,439;147964,696;Quai Orban;6;
2759842.0;235618,912;147958,661;Quai Orban;7;
2759844.0;235615,059;147952,461;Quai Orban;8;
2759846.0;235616,662;147940,577;Quai Orban;9;
1357718.0;235611,395;147933,544;Quai Orban;11;
1351191.0;235596,372;147930,815;Quai Orban;12;
2759873.0;235579,523;147912,49;Quai Orban;15;
1484820.0;235579,483;147890,298;Quai Orban;18;
1439386.0;235580,194;147868,331;Quai Orban;22;
5200315.0;235578,313;147869,285;Quai Orban;25;
2759935.0;235580,194;147868,331;Quai Orban;26;
1158695.0;235557,652;147837,853;Quai Orban;27;
2759943.0;235554,237;147832,372;Quai Orban;28;
1276940.0;235550,901;147827,337;Quai Orban;29;
2759950.0;235551,619;147821,698;Quai Orban;30;
1445614.0;235548,709;147790,77;Quai Orban;32;
1186645.0;235548,709;147790,77;Quai Orban;34;
2759987.0;235545,965;147773,916;Quai Orban;36;
2759989.0;235546,982;147767,609;Quai Orban;37;
2759992.0;235546,988;147761,119;Quai Orban;38;
2759995.0;235546,956;147754,506;Quai Orban;39;
681139.0;235550,332;147745,044;Quai Orban;40;
681141.0;235547,015;147717,353;Quai Orban;41;
1485075.0;235550,082;147698,307;Quai Orban;45;
2760022.0;235549,184;147688,778;Quai Orban;46;
1315623.0;235560,173;147677,313;Quai Orban;48;
1461159.0;235552,086;147662,193;Quai Orban;52;
2760035.0;235553,251;147651,838;Quai Orban;53;
4128041.0;235554,874;147644,361;Quai Orban;54;
2760036.0;235553,663;147635,955;Quai Orban;55;
681142.0;235552,561;147628,044;Quai Orban;56;
2765112.0;235683,091;147399,511;Boulevard Raymond-Poincaré;17;
2765114.0;235719,208;147347,906;Boulevard Raymond-Poincaré;23;
681144.0;235724,51;147345,719;Boulevard Raymond-Poincaré;25;
5454431.0;235777,461;147364,271;Boulevard Raymond-Poincaré;45;
681145.0;235792,097;147333,1;Boulevard Raymond-Poincaré;47;
1160567.0;235816,694;147311,518;Boulevard Raymond-Poincaré;49;
681431.0;235880,177;147279,308;Boulevard Raymond-Poincaré;67;
2765124.0;235885,448;147276,707;Boulevard Raymond-Poincaré;69;
4054648.0;235890,363;147274,746;Boulevard Raymond-Poincaré;71;
681429.0;235895,505;147272,421;Boulevard Raymond-Poincaré;73;
681430.0;235915,11;147277,699;Boulevard Raymond-Poincaré;75;
2765128.0;235949,11;147249,374;Boulevard Raymond-Poincaré;85;
670789.0;236400,015;147974,945;Rue des Prébendiers;1;
670888.0;236397,885;147997,281;Rue des Prébendiers;2;
2766567.0;236386,059;147964,562;Rue des Prébendiers;3;
670887.0;236390,354;147994,188;Rue des Prébendiers;4;
670790.0;236373,202;147953,053;Rue des Prébendiers;5;
4005982.0;236385,349;147991,243;Rue des Prébendiers;6;
5197589.0;236380,735;147987,665;Rue des Prébendiers;8;
5206276.0;236360,233;147911,449;Rue des Prébendiers;9;
2766574.0;236376,068;147984,791;Rue des Prébendiers;10;
2766575.0;236368,956;147983,108;Rue des Prébendiers;12;
2766578.0;236273,342;147860,676;Rue des Prébendiers;13;
2766582.0;236365,117;147976,171;Rue des Prébendiers;14;
2766585.0;236358,326;147974,661;Rue des Prébendiers;16;
2766587.0;236353,257;147971,097;Rue des Prébendiers;18;
2766589.0;236347,152;147966,741;Rue des Prébendiers;20;
2766592.0;236343,081;147963,935;Rue des Prébendiers;22;
2766594.0;236337,127;147958,709;Rue des Prébendiers;24;
2766595.0;236333,101;147956,453;Rue des Prébendiers;26;
2766597.0;236327,786;147953,336;Rue des Prébendiers;28;
2766600.0;236322,533;147950,32;Rue des Prébendiers;30;
2766601.0;236318,336;147947,075;Rue des Prébendiers;32;
2766602.0;236315,058;147943,788;Rue des Prébendiers;34;
2766604.0;236310,62;147940,829;Rue des Prébendiers;36;
2766606.0;236305,9;147941,106;Rue des Prébendiers;38;
5197614.0;236280,906;147917,366;Rue des Prébendiers;46;
2766611.0;236276,378;147913,004;Rue des Prébendiers;50;
2766612.0;236270,122;147911,711;Rue des Prébendiers;52;
5197616.0;236264,396;147908,985;Rue des Prébendiers;54;
1515719.0;236259,786;147904,876;Rue des Prébendiers;56;
2766616.0;236254,914;147900,858;Rue des Prébendiers;58;
2766618.0;236252,245;147894,252;Rue des Prébendiers;60;
2766619.0;236248,269;147890,465;Rue des Prébendiers;62;
2766624.0;235974,405;147362,35;Rue Pré-Binet;16;
681425.0;235997,492;147241,431;Rue Pré-Binet;22;
3978498.0;235859,045;147441,645;Rue du Nord-Belge;1;
3978499.0;235868,707;147467,791;Rue du Nord-Belge;2;
5201553.0;235857,279;147447,161;Rue du Nord-Belge;3;
3978500.0;235864,272;147474,952;Rue du Nord-Belge;4;
4099467.0;235853,766;147451,741;Rue du Nord-Belge;5;
3978501.0;235849,026;147457,513;Rue du Nord-Belge;7;
3978502.0;235812,522;147475,223;Rue du Nord-Belge;9;
4126152.0;235806,059;147565,064;Rue du Nord-Belge;6;
680319.0;235941,006;147827,679;Rue Edouard Remouchamps;1;
17.0;235904,422;147828,01;Rue Edouard Remouchamps;2;
2771487.0;235936,122;147817,781;Rue Edouard Remouchamps;3;
2771488.0;235930,231;147813,973;Rue Edouard Remouchamps;5;
2771496.0;235924,495;147810,571;Rue Edouard Remouchamps;7;
2771504.0;235920,118;147806,624;Rue Edouard Remouchamps;9;
2771508.0;235860,258;147795,209;Rue Edouard Remouchamps;18;
2771512.0;235894,589;147787,479;Rue Edouard Remouchamps;19;
2771514.0;235854,029;147790,507;Rue Edouard Remouchamps;20;
2771517.0;235887,086;147785,751;Rue Edouard Remouchamps;21;
680316.0;235847,656;147785,292;Rue Edouard Remouchamps;22;
681121.0;235883,166;147778,904;Rue Edouard Remouchamps;23;
2771532.0;235874,899;147777,708;Rue Edouard Remouchamps;25;
2771535.0;235871,185;147770,107;Rue Edouard Remouchamps;29;
2771539.0;235862,761;147769,823;Rue Edouard Remouchamps;31;
5208306.0;236111,877;147406,901;Impasse Renard;1;
681476.0;236113,539;147411,734;Impasse Renard;2;
2772060.0;236116,738;147408,02;Impasse Renard;3;
2772065.0;236138,435;147397,348;Impasse Renard;4;
5334212.0;236127,121;147410,316;Impasse Renard;5;
5322668.0;236118,687;147415,258;Impasse Renard;6;
2772068.0;236122,15;147420,434;Impasse Renard;8;
5341262.0;236125,807;147415,736;Impasse Renard;9;
4168225.0;236130,163;147412,946;Impasse Renard;10;
2772071.0;236132,228;147407,342;Impasse Renard;11;
5359008.0;236136,245;147402,763;Impasse Renard;12;
2772074.0;236141,605;147399,838;Impasse Renard;13;
2775397.0;236011,832;148049,003;Rue Robertson;1;
3942108.0;236008,081;148045,434;Rue Robertson;3;
2775402.0;236003,536;148041,875;Rue Robertson;5;
680343.0;235965,14;148035,697;Rue Robertson;6;
2775405.0;235998,883;148038,004;Rue Robertson;7;
2775407.0;235960,618;148032,337;Rue Robertson;8;
2775413.0;236010,429;148022,206;Rue Robertson;9;
2775416.0;235956,376;148030,156;Rue Robertson;10;
2775417.0;235988,736;148023,715;Rue Robertson;11;
2775426.0;235953,214;148026,25;Rue Robertson;12;
2775430.0;235947,093;148023,366;Rue Robertson;14;
2775431.0;235942,086;148017,066;Rue Robertson;16;
5211771.0;235935,242;148013,688;Rue Robertson;18;
2775433.0;235974,226;148012,997;Rue Robertson;19;
2775437.0;235931,296;148010,214;Rue Robertson;20;
2775440.0;235967,475;148010,338;Rue Robertson;21;
2775443.0;235924,781;148005,806;Rue Robertson;22;
2775444.0;235962,202;148005,013;Rue Robertson;23;
2775451.0;235924,067;147999,792;Rue Robertson;24;
2775455.0;235957,778;147999,879;Rue Robertson;25;
2775460.0;235916,023;147999,919;Rue Robertson;26;
2775472.0;235952,915;147998,083;Rue Robertson;27;
2775475.0;235912,732;147994,517;Rue Robertson;28;
2775478.0;235948,648;147995,805;Rue Robertson;29;
2775479.0;235907,886;147990,439;Rue Robertson;30;
2775481.0;235944,04;147993,302;Rue Robertson;31;
2775483.0;235902,571;147986,526;Rue Robertson;32;
2775484.0;235940,005;147989,775;Rue Robertson;33;
2775486.0;235898,194;147982,46;Rue Robertson;34;
2775489.0;235934,888;147986,785;Rue Robertson;35;
2775492.0;235893,421;147978,677;Rue Robertson;36;
2775496.0;235889,875;147973,302;Rue Robertson;38;
680342.0;235882,994;147972,965;Rue Robertson;40;
2775502.0;235872,286;147969,29;Rue Robertson;42;
2775505.0;235885,641;147941,553;Rue Robertson;51;
2775508.0;235878,476;147939,887;Rue Robertson;53;
2775509.0;235875,051;147934,733;Rue Robertson;55;
2775511.0;235878,261;147925,204;Rue Robertson;57;
2775512.0;235866,944;147927,034;Rue Robertson;59;
5211688.0;235863,935;147923,314;Rue Robertson;61;
680344.0;235861,653;147919,512;Rue Robertson;63;
2775516.0;235841,843;147911,759;Rue Robertson;65;
681133.0;235668,285;147677,157;Rue de Seraing;1;
681132.0;235651,976;147735,183;Rue de Seraing;2;
2778554.0;235658,667;147690,626;Rue de Seraing;3;
2778559.0;235644,765;147709,256;Rue de Seraing;7;
1288173.0;235631,132;147732,751;Rue de Seraing;8;
2778574.0;235625,189;147735,189;Rue de Seraing;10;
681146.0;235617,663;147704,5;Rue de Seraing;11;
2778579.0;235618,617;147737,083;Rue de Seraing;12;
5200148.0;235617,261;147699,518;Rue de Seraing;13;
4000289.0;235616,877;147694,891;Rue de Seraing;15;
681148.0;235616,493;147690,2;Rue de Seraing;17;
5200153.0;235616,006;147684,524;Rue de Seraing;19;
2778580.0;235615,56;147678,954;Rue de Seraing;21;
681147.0;235615,084;147673,028;Rue de Seraing;23;
681135.0;235626,941;147711,075;Rue de Seraing;25;
5200192.0;235619,861;147713,69;Rue de Seraing;27;
2778585.0;235608,613;147691,33;Rue de Seraing;29;
681136.0;235569,208;147742,418;Rue de Seraing;30;
1304073.0;235605,954;147715,006;Rue de Seraing;31;
2778613.0;235563,097;147743,549;Rue de Seraing;32;
670885.0;236313,536;148094,971;Rue Saint Remacle;2;
5335466.0;236348,805;148051,54;Rue Saint Remacle;3;
2796112.0;236308,063;148087,935;Rue Saint Remacle;4;
670884.0;236339,4;148036,511;Rue Saint Remacle;5;
2796118.0;236301,154;148086,211;Rue Saint Remacle;6;
5197661.0;236316,995;148057,305;Rue Saint Remacle;7;
5197675.0;236313,468;148052,546;Rue Saint Remacle;9;
4276468.0;236291,441;148071,43;Rue Saint Remacle;10;
2796120.0;236312,163;148046,319;Rue Saint Remacle;11;
2796123.0;236303,968;148045,553;Rue Saint Remacle;13;
2796124.0;236289,603;148063,049;Rue Saint Remacle;14;
2796125.0;236299,198;148040,818;Rue Saint Remacle;15;
2796126.0;236284,591;148059,752;Rue Saint Remacle;16;
5197694.0;236292,759;148037,058;Rue Saint Remacle;17;
2796127.0;236280,636;148057,116;Rue Saint Remacle;18;
670893.0;236282,991;148032,671;Rue Saint Remacle;19;
4269273.0;236275,874;148052,52;Rue Saint Remacle;20;
2796128.0;236273,481;148026,598;Rue Saint Remacle;21;
5197712.0;236256,792;148067,13;Rue Saint Remacle;22;
2796129.0;236293,693;148019,216;Rue Saint Remacle;23;
2796131.0;236262,321;147993,505;Rue Saint Remacle;27;
3942179.0;236252,066;148002,747;Rue Saint Remacle;29;
2796133.0;236249,747;148036,795;Rue Saint Remacle;30;
2796134.0;236258,881;148016,074;Rue Saint Remacle;31;
11314.0;236248,832;148010,587;Rue Saint Remacle;33;
670891.0;236236,137;148007,389;Rue Saint Remacle;35;
1184425.0;235650,251;147623,227;Rue Armand Stouls;8;
2797912.0;235642,094;147624,701;Rue Armand Stouls;12;
2797913.0;235634,964;147624,619;Rue Armand Stouls;14;
2797916.0;235630,483;147641,627;Rue Armand Stouls;16;
2797924.0;235620,715;147625,003;Rue Armand Stouls;20;
2797926.0;235614,454;147623,791;Rue Armand Stouls;22;
1236981.0;235608,213;147626,62;Rue Armand Stouls;24;
2797931.0;235602,83;147626,724;Rue Armand Stouls;26;
2797933.0;235598,082;147628,02;Rue Armand Stouls;28;
1357455.0;235574,725;147625,485;Rue Armand Stouls;36;
5200104.0;235568,585;147625,342;Rue Armand Stouls;38;
681137.0;235562,313;147625,457;Rue Armand Stouls;40;
664111.0;236093,976;147517,209;Rue de l'Usine;1;
5346389.0;236101,797;147501,609;Rue de l'Usine;1;B
664107.0;236145,913;147506,219;Rue de l'Usine;2;
2803336.0;236086,965;147515,397;Rue de l'Usine;3;
2803337.0;236082,189;147512,045;Rue de l'Usine;5;
5202984.0;236139,856;147509,471;Rue de l'Usine;6;
2803340.0;236079,207;147505,937;Rue de l'Usine;7;
5202986.0;236136,192;147511,423;Rue de l'Usine;8;
2803343.0;236073,7;147503,818;Rue de l'Usine;9;
2803346.0;236132,372;147513,52;Rue de l'Usine;10;
2803348.0;236066,199;147502,665;Rue de l'Usine;11;
5202987.0;236128,139;147515,9;Rue de l'Usine;12;
2803349.0;236064,18;147497,135;Rue de l'Usine;13;
2803351.0;236120,359;147524,263;Rue de l'Usine;14;
2803353.0;236059,585;147494,682;Rue de l'Usine;15;
2803356.0;236120,71;147529,754;Rue de l'Usine;16;
2803358.0;236055,532;147491,927;Rue de l'Usine;17;
5206814.0;236123,843;147536,958;Rue de l'Usine;18;
2803360.0;236050,32;147488,73;Rue de l'Usine;19;
2803366.0;236118,714;147519,663;Rue de l'Usine;22;
2803368.0;236104,295;147533,635;Rue de l'Usine;28;
664108.0;236099,439;147536,82;Rue de l'Usine;30;
664109.0;236095,361;147539,819;Rue de l'Usine;32;
2803641.0;236165,773;148070,976;Rue Valdor;2;
2803644.0;236137,308;148038,051;Rue Valdor;4;
680334.0;236170,601;148090,993;Rue Valdor;5;
2803649.0;236175,49;148087,767;Rue Valdor;7;
2803651.0;236174,189;148054,892;Rue Valdor;8;
2803654.0;236181,607;148085,259;Rue Valdor;9;
2803656.0;236189,969;148061,47;Rue Valdor;10;
2803657.0;236186,505;148079,737;Rue Valdor;11;
2803659.0;236183,331;148057,741;Rue Valdor;12;
680333.0;236191,808;148076,699;Rue Valdor;13;
680301.0;235893,359;148044,761;Rue Villette;1;
680300.0;235871,918;148048,733;Rue Villette;2;
2807674.0;235894,624;148038,134;Rue Villette;3;A
2807675.0;235893,656;148032,352;Rue Villette;3;B
2807679.0;235871,064;148043,531;Rue Villette;4;
2807681.0;235889,073;148028,218;Rue Villette;5;
2807683.0;235865,119;148039,41;Rue Villette;6;
2807685.0;235908,091;148017,337;Rue Villette;7;
2807686.0;235861,794;148034,312;Rue Villette;8;
2807688.0;235886,204;148015,62;Rue Villette;9;
2807690.0;235857,489;148016,552;Rue Villette;10;
2807696.0;235881,465;148010,869;Rue Villette;11;
2807704.0;235879,168;148004,858;Rue Villette;13;
2807706.0;235848,645;147998,287;Rue Villette;14;
2807709.0;235878,974;147998,148;Rue Villette;15;
2807712.0;235847,338;147991,493;Rue Villette;16;
2807715.0;235876,686;147992,721;Rue Villette;17;
2807717.0;235846,994;147985,346;Rue Villette;18;
680302.0;235874,224;147987,143;Rue Villette;19;
680299.0;235843,006;147979,662;Rue Villette;20;
680298.0;235836,838;147960,39;Rue Villette;22;
2807728.0;235835,432;147953,095;Rue Villette;24;
680304.0;235840,819;147905,345;Rue Villette;25;
2807730.0;235831,476;147947,459;Rue Villette;26;
2807733.0;235843,641;147896,179;Rue Villette;29;
2807735.0;235815,791;147898,553;Rue Villette;30;
2807739.0;235873,377;147874,266;Rue Villette;31;
2807741.0;235810,012;147893,558;Rue Villette;32;
5198718.0;235834,572;147890,734;Rue Villette;33;
2807744.0;235808,335;147886,305;Rue Villette;34;
5198722.0;235868,498;147861,477;Rue Villette;35;
2807747.0;235805,911;147881,1;Rue Villette;36;
2807752.0;235827,406;147876,046;Rue Villette;37;
2807755.0;235792,908;147876,12;Rue Villette;38;
2807757.0;235826,291;147867,863;Rue Villette;39;
2807759.0;235803,709;147858,352;Rue Villette;40;
2807760.0;235826,769;147857,425;Rue Villette;41;
4199559.0;235800,924;147852,408;Rue Villette;42;
2807765.0;235823,679;147851,636;Rue Villette;43;
2807767.0;235820,113;147845,515;Rue Villette;45;
2807769.0;235815,508;147839,559;Rue Villette;47;
2807773.0;235814,644;147832,735;Rue Villette;49;
2807776.0;235813,27;147825,611;Rue Villette;51;
680371.0;236024,646;147696,083;Rue Waleffe;1;
680533.0;235997,296;147686,295;Rue Waleffe;4;
2810735.0;235995,614;147681,772;Rue Waleffe;6;
5207052.0;235993,865;147677,156;Rue Waleffe;8;
2810737.0;235992,58;147672,332;Rue Waleffe;10;
3958300.0;235990,174;147667,43;Rue Waleffe;12;
680534.0;235988,293;147662,4;Rue Waleffe;14;
670895.0;236245,314;148131,792;Rue Basse Wez;5;
5197468.0;236242,378;148125,974;Rue Basse Wez;7;
5197470.0;236237,873;148126,011;Rue Basse Wez;9;
2811593.0;236239,446;148120,3;Rue Basse Wez;13;
4274080.0;236235,964;148116,995;Rue Basse Wez;15;
5197473.0;236235,36;148113,329;Rue Basse Wez;17;
2811594.0;236235,902;148109,831;Rue Basse Wez;19;
2811595.0;236237,117;148104,596;Rue Basse Wez;21;
680338.0;236209,692;148111,457;Rue Basse Wez;22;
5197475.0;236236,267;148100,016;Rue Basse Wez;23;
2811597.0;236208,055;148104,729;Rue Basse Wez;24;
5197482.0;236234,039;148096,244;Rue Basse Wez;25;
2811599.0;236197,865;148096,057;Rue Basse Wez;26;
2811601.0;236231,822;148092,044;Rue Basse Wez;27;
2811603.0;236199,324;148088,623;Rue Basse Wez;28;
5197497.0;236228,44;148087,262;Rue Basse Wez;29;
2811605.0;236203,635;148078,823;Rue Basse Wez;30;
2811607.0;236230,321;148082,294;Rue Basse Wez;31;
680337.0;236205,087;148069,426;Rue Basse Wez;32;
2811612.0;236230,182;148077,974;Rue Basse Wez;33;
2811613.0;236179,941;148047,69;Rue Basse Wez;34;
2811615.0;236229,876;148073,967;Rue Basse Wez;35;
2811616.0;236202,064;148044,503;Rue Basse Wez;36;
2811617.0;236228,82;148070,52;Rue Basse Wez;37;
2811618.0;236203,34;148039,841;Rue Basse Wez;38;
2811620.0;236229,528;148067,028;Rue Basse Wez;39;
3990396.0;236207,836;148039,902;Rue Basse Wez;40;
670894.0;236225,052;148064,164;Rue Basse Wez;41;
2811622.0;236208,455;148010,637;Rue Basse Wez;42;
670896.0;236228,986;148058,444;Rue Basse Wez;43;
2811625.0;236231,74;148049,707;Rue Basse Wez;47;
670900.0;236213,757;148000,834;Rue Basse Wez;48;
2811628.0;236211,324;147994,737;Rue Basse Wez;50;
5197514.0;236236,23;148043,62;Rue Basse Wez;51;
2811629.0;236210,616;147987,536;Rue Basse Wez;52;
2811631.0;236233,936;148038,823;Rue Basse Wez;53;
2811632.0;236198,458;147982,508;Rue Basse Wez;54;
5197526.0;236234,522;148035,04;Rue Basse Wez;55;
2811634.0;236235,068;148031,277;Rue Basse Wez;57;
2811636.0;236239,068;148028,42;Rue Basse Wez;59;
664091.0;236233,055;148022,848;Rue Basse Wez;61;
670898.0;236244,359;147999,167;Rue Basse Wez;63;
4081636.0;236212,218;147942,279;Rue Basse Wez;64;
2811639.0;236237,234;147996,72;Rue Basse Wez;65;
2811644.0;236236,801;147991,809;Rue Basse Wez;67;
2811647.0;236212,188;147930,825;Rue Basse Wez;68;
2811648.0;236254,124;147988,211;Rue Basse Wez;69;
2811649.0;236212,178;147924,505;Rue Basse Wez;70;
2811651.0;236236,516;147978,3;Rue Basse Wez;71;
2811652.0;236234,876;147971,221;Rue Basse Wez;73;
2811653.0;236234,606;147965,631;Rue Basse Wez;75;
2811655.0;236216,002;147912,989;Rue Basse Wez;76;
5197577.0;236233,244;147959,832;Rue Basse Wez;77;
2811656.0;236208,005;147908,709;Rue Basse Wez;78;
2811657.0;236232,797;147954,89;Rue Basse Wez;79;
2811658.0;236211,396;147899,597;Rue Basse Wez;80;
664088.0;236232,732;147948,4;Rue Basse Wez;81;
2811660.0;236214,291;147893,882;Rue Basse Wez;82;
2811661.0;236304,055;147982,818;Rue Basse Wez;83;
2811663.0;236214,254;147889,185;Rue Basse Wez;84;
2811668.0;236263,759;147931,024;Rue Basse Wez;85;
5197448.0;236212,845;147883,436;Rue Basse Wez;86;
2811669.0;236237,279;147906,11;Rue Basse Wez;87;
2811670.0;236214,397;147877,988;Rue Basse Wez;88;
2811671.0;236239,503;147900,409;Rue Basse Wez;89;
670899.0;236213,683;147872,922;Rue Basse Wez;90;
4261315.0;236236,28;147893,597;Rue Basse Wez;91;
2811676.0;236221,833;147841,594;Rue Basse Wez;92;
2811686.0;236238,052;147888,804;Rue Basse Wez;93;
670897.0;236239,091;147882,845;Rue Basse Wez;95;
680580.0;236225,766;147831,549;Rue Basse Wez;96;
680581.0;236240,549;147861,985;Rue Basse Wez;97;
2811689.0;236223,158;147822,837;Rue Basse Wez;98;
2811692.0;236243,951;147856,005;Rue Basse Wez;99;
2811696.0;236222,399;147816,783;Rue Basse Wez;100;
2811698.0;236244,068;147851,147;Rue Basse Wez;101;
2811700.0;236226,236;147811,604;Rue Basse Wez;102;
2811703.0;236245,331;147846,161;Rue Basse Wez;103;
5322525.0;236214,491;147808,689;Rue Basse Wez;104;
2811704.0;236245,096;147840,573;Rue Basse Wez;105;
2811706.0;236244,323;147834,982;Rue Basse Wez;107;
5321314.0;236205,464;147804,274;Rue Basse Wez;108;
5207063.0;236226,532;147803,445;Rue Basse Wez;114;
2811714.0;236229,628;147793,63;Rue Basse Wez;118;
2811716.0;236229,068;147789,137;Rue Basse Wez;120;
2811718.0;236230,661;147784,937;Rue Basse Wez;122;
5207068.0;236230,406;147780,489;Rue Basse Wez;124;
2811719.0;236233,37;147777,285;Rue Basse Wez;126;
2811722.0;236228,013;147772,034;Rue Basse Wez;128;
2811724.0;236232,262;147767,539;Rue Basse Wez;132;
2811727.0;236233,692;147764,453;Rue Basse Wez;134;
2811728.0;236233,322;147761,348;Rue Basse Wez;136;
2811731.0;236233,665;147757,854;Rue Basse Wez;138;
2811732.0;236234,151;147753,864;Rue Basse Wez;140;
664090.0;236235,653;147748,041;Rue Basse Wez;142;
2811735.0;236234,537;147738,136;Rue Basse Wez;144;
5335860.0;236357,175;147752,788;Rue Basse Wez;145;
2811741.0;236236,907;147725,667;Rue Basse Wez;146;
2811742.0;236215,365;147712,534;Rue Basse Wez;168;
2811745.0;236237,215;147697,45;Rue Basse Wez;172;
2811747.0;236237,659;147689,578;Rue Basse Wez;174;
2811750.0;236232,199;147682,103;Rue Basse Wez;176;
4059602.0;236234,793;147675,234;Rue Basse Wez;178;
2811752.0;236240,513;147669,609;Rue Basse Wez;180;
2811755.0;236237,949;147664,504;Rue Basse Wez;182;
2811756.0;236235,771;147658,067;Rue Basse Wez;184;
5326469.0;236257,419;147711,516;Rue Basse Wez;187;
5352502.0;236256,876;147705,928;Rue Basse Wez;189;
5355443.0;236260,466;147700,857;Rue Basse Wez;191;
5340637.0;236259,818;147695,381;Rue Basse Wez;193;
2811759.0;236260,894;147690,063;Rue Basse Wez;195;
2811761.0;236264,344;147685,242;Rue Basse Wez;197;
680582.0;236260,588;147678,911;Rue Basse Wez;199;
680498.0;236277,805;147664,215;Rue Basse Wez;201;
4086821.0;236281,479;147667,715;Rue Basse Wez;203;
2811765.0;236240,373;147592,765;Rue Basse Wez;204;
1446426.0;236284,398;147671,561;Rue Basse Wez;205;
5206942.0;236245,181;147588,242;Rue Basse Wez;206;
680499.0;236287,355;147675,348;Rue Basse Wez;207;
2811770.0;236245,548;147583,91;Rue Basse Wez;208;
664083.0;236246,706;147578,719;Rue Basse Wez;210;
664084.0;236250,25;147554,633;Rue Basse Wez;212;A
5331557.0;236250,399;147550,702;Rue Basse Wez;212;B
2811773.0;236248,671;147545,756;Rue Basse Wez;212;C
2811775.0;236248,898;147540,037;Rue Basse Wez;214;
2811776.0;236248,544;147534,074;Rue Basse Wez;216;
2811781.0;236251,189;147528,923;Rue Basse Wez;218;
2811783.0;236252,691;147519,842;Rue Basse Wez;220;
2811785.0;236252,689;147514,995;Rue Basse Wez;222;
2811787.0;236253,637;147509,52;Rue Basse Wez;224;
5206960.0;236255,114;147503,87;Rue Basse Wez;226;
664085.0;236259,593;147477,649;Rue Basse Wez;228;
5360655.0;236251,466;147485,196;Rue Basse Wez;228;A
664086.0;236261,726;147422,948;Rue Basse Wez;246;
1360059.0;236262,418;147414,902;Rue Basse Wez;248;
1440574.0;236263,738;147410,073;Rue Basse Wez;250;
2811789.0;236263,315;147403,945;Rue Basse Wez;252;
2811791.0;236263,796;147398,412;Rue Basse Wez;254;
2811792.0;236264,325;147392,896;Rue Basse Wez;256;
2811795.0;236265,802;147386,695;Rue Basse Wez;258;
3961841.0;236266,222;147381,603;Rue Basse Wez;260;
2811796.0;236266,924;147375,507;Rue Basse Wez;262;
2811797.0;236267,134;147370,254;Rue Basse Wez;264;
2811799.0;236267,928;147364,011;Rue Basse Wez;266;
2811801.0;236271,743;147359,244;Rue Basse Wez;268;
664087.0;236272,417;147353,843;Rue Basse Wez;270;
2811803.0;236258,582;147666,415;Rue Basse Wez;277;
2811805.0;236262,153;147658,212;Rue Basse Wez;281;
2811807.0;236262,455;147653,371;Rue Basse Wez;283;
5326994.0;236265,367;147648,997;Rue Basse Wez;285;
2811809.0;236263,716;147641,265;Rue Basse Wez;287;
2811813.0;236273,355;147632,033;Rue Basse Wez;289;
2811815.0;236266,003;147621,08;Rue Basse Wez;291;
664082.0;236271,605;147614,09;Rue Basse Wez;295;
1482672.0;236365,691;147605,347;Rue Basse Wez;301;
664081.0;236267,193;147591,032;Rue Basse Wez;303;
1482663.0;236272,75;147584,994;Rue Basse Wez;305;
2811820.0;236273,142;147580,972;Rue Basse Wez;307;
2811823.0;236273,867;147573,275;Rue Basse Wez;309;
2811824.0;236271,946;147566,865;Rue Basse Wez;311;
2811825.0;236271,35;147561,639;Rue Basse Wez;313;
2811826.0;236274,198;147552,192;Rue Basse Wez;315;
2811828.0;236292,817;147544,411;Rue Basse Wez;319;
2811830.0;236272,765;147524,976;Rue Basse Wez;325;
2811831.0;236277,051;147519,617;Rue Basse Wez;327;
2811832.0;236275,396;147513,814;Rue Basse Wez;329;
2811834.0;236275,824;147508,414;Rue Basse Wez;331;
2811836.0;236312,564;147557,482;Rue Basse Wez;333;
2811837.0;236360,878;147527,181;Rue Basse Wez;335;
2811840.0;236359,336;147516,489;Rue Basse Wez;337;
2811845.0;236285,723;147448,666;Rue Basse Wez;341;
1303438.0;236285,807;147439,627;Rue Basse Wez;343;
2811849.0;236325,112;147444,122;Rue Basse Wez;347;
2811851.0;236287,244;147429,37;Rue Basse Wez;349;
3942237.0;236339,186;147431,995;Rue Basse Wez;351;
5206889.0;236288,418;147410,243;Rue Basse Wez;353;
2811854.0;236289,497;147404,646;Rue Basse Wez;355;
664089.0;236287,544;147397,866;Rue Basse Wez;357;
680375.0;236120,296;147905,944;Rue Bouille;1;
680377.0;236126,216;147852,953;Rue Bouille;2;
3118852.0;236122,513;147902,526;Rue Bouille;3;
3118856.0;236126,591;147897,848;Rue Bouille;5;
3118862.0;236136,567;147902,048;Rue Bouille;7;
4064671.0;236135,969;147891,756;Rue Bouille;9;
3118865.0;236142,322;147898,69;Rue Bouille;11;
5190421.0;236146,686;147904,007;Rue Bouille;13;
3118875.0;236139,881;147857,386;Rue Bouille;16;
3118879.0;236159,085;147877,084;Rue Bouille;17;
3118883.0;236179,224;147883,954;Rue Bouille;19;
3118888.0;236161,538;147863,284;Rue Bouille;21;
3118891.0;236169,338;147861,253;Rue Bouille;23;
4254358.0;236160,81;147838,035;Rue Bouille;24;
3118895.0;236176,432;147859,515;Rue Bouille;25;
3118904.0;236167,098;147833,099;Rue Bouille;26;
3118907.0;236180,782;147856,096;Rue Bouille;27;
3118911.0;236171,501;147829,099;Rue Bouille;28;
680376.0;236186,109;147849,606;Rue Bouille;29;
680378.0;236176,101;147824,983;Rue Bouille;30;
679713.0;236260,081;148142,534;Rue d'Amercoeur;6;
3090112.0;236266,766;148143,631;Rue d'Amercoeur;8;
3090115.0;236273,697;148131,329;Rue d'Amercoeur;10;
5198344.0;236282,728;148130,719;Rue d'Amercoeur;12;
3090137.0;236292,602;148106,642;Rue d'Amercoeur;14;
3090157.0;236305,398;148122,941;Rue d'Amercoeur;16;
679712.0;236324,997;148112,23;Rue d'Amercoeur;20;
3090189.0;236354,509;148083,591;Rue d'Amercoeur;24;
3090197.0;236374,388;148043,965;Rue d'Amercoeur;26;
3090212.0;236373,697;148056,324;Rue d'Amercoeur;28;
3090223.0;236370,76;148028,475;Rue d'Amercoeur;32;
3090227.0;236380,754;148037,01;Rue d'Amercoeur;34;
5198360.0;236386,914;148028,289;Rue d'Amercoeur;38;
3090235.0;236385,431;148020,309;Rue d'Amercoeur;40;
3090243.0;236391,27;148014,885;Rue d'Amercoeur;42;
5356817.0;236382,931;148005,71;Rue d'Amercoeur;42;A
3090249.0;236390,018;148003,477;Rue d'Amercoeur;44;
3090256.0;236394,898;148001,876;Rue d'Amercoeur;46;
670801.0;236408,458;147965,258;Rue d'Amercoeur;52;
3090311.0;236435,141;147905,703;Rue d'Amercoeur;60;
3090320.0;236446,039;147874,258;Rue d'Amercoeur;62;
670802.0;236461,29;147921,088;Rue d'Amercoeur;64;
670800.0;236428,725;147937,266;Cour des Prébendiers;1;
5206227.0;236425,272;147933,489;Cour des Prébendiers;2;
4254531.0;236421,871;147929,739;Cour des Prébendiers;3;
5206233.0;236418,533;147926,176;Cour des Prébendiers;4;
5206236.0;236415,364;147922,716;Cour des Prébendiers;5;
5206238.0;236406,369;147914,994;Cour des Prébendiers;6;
5206249.0;236397,599;147922,559;Cour des Prébendiers;11;
5206252.0;236393,338;147925,603;Cour des Prébendiers;12;
5206255.0;236394,112;147930,867;Cour des Prébendiers;13;
5206258.0;236389,806;147935,378;Cour des Prébendiers;14;
670759.0;236387,724;147931,535;Cour des Prébendiers;15;
681408.0;235895,789;147284,956;Impasse Pérard;1;
681410.0;235902,094;147279,697;Impasse Pérard;3;
681407.0;235892,286;147287,205;Impasse Pérard;4;
681411.0;235905,111;147309,994;Impasse Pérard;8;
2841671.0;235910,683;147304,62;Impasse Pérard;10;
5324097.0;235917,68;147297,823;Impasse Pérard;12;
681412.0;235922,129;147293,888;Impasse Pérard;13;
664096.0;236300,465;147400,845;Impasse Chéra;1;
664099.0;236314,433;147395,16;Impasse Chéra;2;
5206829.0;236304,051;147404,173;Impasse Chéra;3;
5206830.0;236309,369;147403,876;Impasse Chéra;5;
5206831.0;236313,68;147406,155;Impasse Chéra;7;
680381.0;236217,785;147865,434;Rue des Champs;2;
3126210.0;236216,94;147835,405;Rue des Champs;3;
3126211.0;236210,965;147862,573;Rue des Champs;4;
3126214.0;236209,85;147828,419;Rue des Champs;5;
3126215.0;236207,334;147857,732;Rue des Champs;6;
3126216.0;236202,873;147816,964;Rue des Champs;7;
4243071.0;236200,313;147856,805;Rue des Champs;8;
3126219.0;236193,008;147808,315;Rue des Champs;9;
3126222.0;236200,432;147849,753;Rue des Champs;10;
1360340.0;236191,651;147801,291;Rue des Champs;11;
3126232.0;236197,322;147845,927;Rue des Champs;12;
3126239.0;236185,115;147798,996;Rue des Champs;13;
3126240.0;236193,581;147841,202;Rue des Champs;14;
3126244.0;236182,894;147789,887;Rue des Champs;15;
680380.0;236188,994;147838,364;Rue des Champs;16;
3126251.0;236174,485;147778,507;Rue des Champs;17;
5330841.0;236180,458;147820,175;Rue des Champs;18;
1474968.0;236167,081;147776,096;Rue des Champs;19;
680382.0;236171,361;147815,905;Rue des Champs;20;
1365271.0;236164,887;147770,977;Rue des Champs;21;
3126266.0;236167,031;147812,112;Rue des Champs;22;
1485735.0;236162,647;147764,918;Rue des Champs;23;
3126273.0;236164,476;147807,863;Rue des Champs;24;
3126275.0;236157,658;147760,129;Rue des Champs;25;
3126278.0;236164,008;147800,025;Rue des Champs;26;
3126281.0;236157,396;147753,605;Rue des Champs;27;
3126285.0;236158,151;147798,469;Rue des Champs;28;
3126288.0;236152,061;147749,205;Rue des Champs;29;
3126292.0;236153,758;147795,268;Rue des Champs;30;
3126295.0;236143,827;147748,711;Rue des Champs;31;
3126302.0;236149,866;147789,577;Rue des Champs;32;
680383.0;236148,095;147783,513;Rue des Champs;34;
680384.0;236137,79;147772,402;Rue des Champs;36;
3126312.0;236133,342;147768,459;Rue des Champs;38;
3126313.0;236143,76;147741,274;Rue des Champs;39;
3126314.0;236128,374;147766,781;Rue des Champs;40;
3126315.0;236139,521;147735,209;Rue des Champs;41;
3126318.0;236126,212;147761,091;Rue des Champs;42;
3126326.0;236137,204;147729,718;Rue des Champs;43;
3126331.0;236119,248;147758,755;Rue des Champs;44;
3126333.0;236131,588;147728,289;Rue des Champs;45;
3126336.0;236119,086;147753,128;Rue des Champs;46;
3126339.0;236127,286;147724,073;Rue des Champs;47;
3126346.0;236114,902;147748,944;Rue des Champs;48;
3126352.0;236109,239;147746,033;Rue des Champs;50;
3126356.0;236123,642;147713,331;Rue des Champs;51;
3126365.0;236092,294;147755,785;Rue des Champs;52;
3126368.0;236116,78;147711,243;Rue des Champs;53;
3126370.0;236103,77;147734,304;Rue des Champs;54;
3126371.0;236099,441;147730,951;Rue des Champs;56;
3126372.0;236111,914;147703,133;Rue des Champs;57;
1129313.0;236085,629;147712,019;Rue des Champs;58;
3126375.0;236107,005;147698,28;Rue des Champs;59;
3126379.0;236100,744;147693,761;Rue des Champs;61;
3126384.0;236078,379;147703,51;Rue des Champs;62;
4253816.0;236098,212;147690,89;Rue des Champs;63;
3126386.0;236073,833;147698,719;Rue des Champs;64;
3126388.0;236094,2;147682,204;Rue des Champs;65;
3955558.0;236065,995;147695,498;Rue des Champs;66;
3126389.0;236064,688;147689,18;Rue des Champs;68;
3126391.0;236089,135;147674,76;Rue des Champs;69;
3126393.0;236062,024;147683,027;Rue des Champs;70;
1483963.0;236084,77;147669,908;Rue des Champs;71;
680385.0;236057,523;147677,109;Rue des Champs;72;
680557.0;236046,737;147666,086;Rue des Champs;74;
3126401.0;236042,124;147661,397;Rue des Champs;76;
3126402.0;236069,659;147641,507;Rue des Champs;77;
4011085.0;236040,133;147656,883;Rue des Champs;78;
680555.0;236065,497;147652,959;Rue des Champs;79;
3126404.0;236036,422;147651,598;Rue des Champs;80;
3126405.0;236073,805;147656,298;Rue des Champs;81;
3126407.0;236033,076;147646,945;Rue des Champs;82;
3126408.0;236064,734;147637,392;Rue des Champs;83;
3126409.0;236027,019;147644,228;Rue des Champs;84;
3126410.0;236056,539;147635,248;Rue des Champs;85;
5207008.0;236024,253;147639,089;Rue des Champs;86;
3126411.0;236050,733;147628,801;Rue des Champs;87;
3126414.0;236018,741;147635,815;Rue des Champs;88;
3126417.0;236042,707;147626,689;Rue des Champs;89;
3126420.0;236015,534;147631,475;Rue des Champs;90;
3126424.0;236038,742;147621,375;Rue des Champs;91;
3126426.0;236011,948;147627,674;Rue des Champs;92;
3126431.0;236036,736;147615,006;Rue des Champs;93;
3126432.0;236008,88;147622,417;Rue des Champs;94;
680556.0;236032,698;147610,362;Rue des Champs;95;
3126435.0;236005,666;147617,797;Rue des Champs;96;
3126437.0;236029,561;147606,006;Rue des Champs;97;
3126439.0;236002,207;147613,446;Rue des Champs;98;
5207217.0;236024,358;147602,781;Rue des Champs;99;
3941897.0;235998,906;147608,127;Rue des Champs;100;
3126441.0;236011,263;147585,698;Rue des Champs;101;
3126442.0;235993,637;147604,484;Rue des Champs;102;
3126443.0;236008,325;147580,105;Rue des Champs;103;
3126446.0;235986,709;147602,102;Rue des Champs;104;
3126447.0;235985,288;147594,852;Rue des Champs;106;
3126448.0;235984,248;147586,192;Rue des Champs;108;
664105.0;236241,245;147542,556;Rue Ansiaux;1;
664103.0;236224,016;147544,705;Rue Ansiaux;2;
3091858.0;236238,087;147538,324;Rue Ansiaux;3;
3091863.0;236220,103;147541,39;Rue Ansiaux;4;
5202904.0;236237,416;147531,369;Rue Ansiaux;5;
3091867.0;236214,822;147539,749;Rue Ansiaux;6;
3091874.0;236231,313;147528,629;Rue Ansiaux;7;
3091878.0;236211,916;147535,469;Rue Ansiaux;8;
3091882.0;236229,308;147523,216;Rue Ansiaux;9;
3091888.0;236206,94;147533,196;Rue Ansiaux;10;
3091892.0;236226,153;147518,941;Rue Ansiaux;11;
3091895.0;236205,077;147527,36;Rue Ansiaux;12;
3091900.0;236220,416;147516,248;Rue Ansiaux;13;
3091904.0;236201,269;147523,135;Rue Ansiaux;14;
3091907.0;236216,373;147511,771;Rue Ansiaux;15;
3091909.0;236214,253;147506,305;Rue Ansiaux;17;
5202911.0;236208,641;147503,094;Rue Ansiaux;19;
3091911.0;236207,146;147496,852;Rue Ansiaux;21;
3091916.0;236201,663;147495,222;Rue Ansiaux;23;
3091922.0;236186,563;147500,896;Rue Ansiaux;24;A
4006585.0;236179,186;147504,98;Rue Ansiaux;24;B
3091923.0;236169,938;147508,657;Rue Ansiaux;24;C
3091936.0;236160,827;147512,332;Rue Ansiaux;24;D
3091926.0;236151,729;147516,055;Rue Ansiaux;24;E
3091930.0;236137,811;147521,835;Rue Ansiaux;24;F
3091941.0;236198,094;147491,302;Rue Ansiaux;25;
3091942.0;236173,412;147492,876;Rue Ansiaux;26;
3091946.0;236194,594;147487,402;Rue Ansiaux;27;
3091948.0;236170,695;147489,426;Rue Ansiaux;28;
3091952.0;236188,425;147483,263;Rue Ansiaux;29;
664104.0;236167,815;147484,796;Rue Ansiaux;30;
3091956.0;236160,227;147473,882;Rue Ansiaux;32;
664106.0;236181,303;147473,828;Rue Ansiaux;33;
680577.0;236153,794;147484,604;Rue Ansiaux;34;
681477.0;236152,87;147455,935;Rue Ansiaux;35;
3091967.0;236127,86;147454,74;Rue Ansiaux;37;
3091970.0;236144,013;147476,696;Rue Ansiaux;38;
3091976.0;236138,438;147477,01;Rue Ansiaux;40;
3091980.0;236135,602;147493,852;Rue Ansiaux;42;
3091984.0;236127,893;147476,529;Rue Ansiaux;44;
3091991.0;236100,134;147476,779;Rue Ansiaux;48;
4060075.0;236091,979;147480,642;Rue Ansiaux;50;
3091999.0;236089,12;147492,456;Rue Ansiaux;54;
3092001.0;236075,115;147479,329;Rue Ansiaux;56;
5202933.0;236068,838;147479,763;Rue Ansiaux;58;
3092004.0;236062,64;147480,931;Rue Ansiaux;60;
3092006.0;236056,643;147479,927;Rue Ansiaux;62;
5202935.0;236051,686;147479,514;Rue Ansiaux;64;
680578.0;236013,471;147678,99;Rue Coclers;2;
3129843.0;236011,674;147673,869;Rue Coclers;4;
3129845.0;236009,908;147669,15;Rue Coclers;6;
3129847.0;236007,937;147663,982;Rue Coclers;8;
4213265.0;236006,043;147658,698;Rue Coclers;10;
5207035.0;236003,913;147653,595;Rue Coclers;12;
3129848.0;236000,875;147649,199;Rue Coclers;14;
3129850.0;235999,123;147644,508;Rue Coclers;16;
4032602.0;235998,49;147639,542;Rue Coclers;18;
5207040.0;235995,142;147630,232;Rue Coclers;22;
680579.0;235994,042;147625,064;Rue Coclers;24;
3955825.0;235992,237;147620,003;Rue Coclers;26;
3129853.0;235984,469;147622,331;Rue Coclers;28;
5327026.0;235981,608;147629,374;Rue Coclers;30;
680312.0;235877,519;147916,015;Rue Deveux;1;
680309.0;235852,68;147903,407;Rue Deveux;2;
680313.0;235880,991;147914,029;Rue Deveux;3;
3138550.0;235876,396;147885,421;Rue Deveux;4;
680314.0;235886,722;147908,656;Rue Deveux;5;
3138551.0;235890,163;147906,977;Rue Deveux;7;
3138552.0;235895,91;147901,852;Rue Deveux;9;
3138553.0;235900,553;147900,702;Rue Deveux;11;
3138554.0;235901,832;147892,778;Rue Deveux;13;
3138555.0;235905,927;147888,255;Rue Deveux;15;
5211614.0;235915,303;147889,251;Rue Deveux;23;
3138557.0;235910,683;147877,402;Rue Deveux;27;
5211622.0;235936,669;147903,714;Rue Deveux;31;
3138558.0;235921,874;147875,867;Rue Deveux;33;
680308.0;235949,133;147826,494;Rue Deveux;34;
5211626.0;235940,094;147900,709;Rue Deveux;35;
3138559.0;235950,815;147814,024;Rue Deveux;36;
680307.0;235959,789;147816,692;Rue Deveux;38;
5211645.0;235954,298;147897,1;Rue Deveux;47;
5211825.0;235972,232;147851,245;Rue Deveux;53;
5211628.0;235946,954;147900,134;Rue Deveux;37;
680315.0;235949,034;147851,66;Rue Deveux;51;
681080.0;235875,295;147485,687;Rue Dothée;1;
3139027.0;235869,728;147481,572;Rue Dothée;3;
3139028.0;235815,258;147457,49;Rue Dothée;6;
681129.0;235843,358;147452,073;Rue Dothée;7;
1327285.0;235849,061;147437,987;Rue Dothée;9;
3139029.0;235818,01;147451,159;Rue Dothée;10;
3139030.0;235836,706;147441,237;Rue Dothée;11;
3139031.0;235811,304;147446,855;Rue Dothée;12;
3139032.0;235832,439;147436,893;Rue Dothée;13;
3139033.0;235807,207;147443,223;Rue Dothée;14;
3139034.0;235830,026;147432,541;Rue Dothée;15;
3139035.0;235802,968;147439,712;Rue Dothée;16;
3139036.0;235824,403;147428,104;Rue Dothée;17;
3139037.0;235798,62;147434,504;Rue Dothée;18;
3139038.0;235822,463;147422,804;Rue Dothée;19;
3139039.0;235793,245;147432,072;Rue Dothée;20;
3139040.0;235818,191;147418,897;Rue Dothée;21;
3139041.0;235794,874;147423,667;Rue Dothée;22;
3139042.0;235815,801;147416,037;Rue Dothée;23;
3139043.0;235787,943;147423,113;Rue Dothée;24;
1160561.0;235813,805;147401,227;Rue Dothée;25;
3139045.0;235778,627;147419,236;Rue Dothée;26;
3139047.0;235779,246;147412,664;Rue Dothée;28;
3139048.0;235801,849;147404,47;Rue Dothée;29;
3139049.0;235775,871;147406,134;Rue Dothée;30;
3139050.0;235798,627;147401,251;Rue Dothée;31;
3139051.0;235772,11;147402,506;Rue Dothée;32;
3139052.0;235795,51;147397,643;Rue Dothée;33;
3139053.0;235768,673;147398,739;Rue Dothée;34;
3139054.0;235792,288;147393,982;Rue Dothée;35;
3139055.0;235766,353;147394,993;Rue Dothée;36;
3139056.0;235789,832;147389,253;Rue Dothée;37;
1327284.0;235763,455;147392,687;Rue Dothée;38;
3139057.0;235786,218;147384,353;Rue Dothée;39;
3139058.0;235759,132;147390,405;Rue Dothée;40;
681124.0;235781,468;147380,313;Rue Dothée;41;
5201396.0;235757,521;147384,586;Rue Dothée;42;
681127.0;235752,595;147380,691;Rue Dothée;44;
681126.0;235742,322;147368,641;Rue Dothée;46;
3139059.0;235738,908;147365,216;Rue Dothée;48;
3139060.0;235735,498;147362,486;Rue Dothée;50;
3139061.0;235732,481;147359,275;Rue Dothée;52;
680346.0;236032,174;148029,92;Rue Douffet;4;
1495848.0;236030,623;148024,319;Rue Douffet;6;
3139115.0;236044,696;148000,198;Rue Douffet;7;A
3139114.0;236050,866;147998,79;Rue Douffet;7;B
3139116.0;236028,816;148018,78;Rue Douffet;8;
4016886.0;236057,308;147997,659;Rue Douffet;9;A
5361923.0;236063,862;147996,252;Rue Douffet;9;B
3139117.0;236027,018;148012,723;Rue Douffet;10;
3139118.0;236074,767;147993,371;Rue Douffet;11;
3139119.0;236026,153;148006,157;Rue Douffet;12;
3139120.0;236025,39;147999,899;Rue Douffet;14;
5349435.0;236067;147976,52;Rue Douffet;15;B
3139123.0;236059,9;147978,098;Rue Douffet;17;A
4030453.0;236053,245;147979,228;Rue Douffet;17;B
3139124.0;236020,366;147987,111;Rue Douffet;18;
3139125.0;236046,995;147980,5;Rue Douffet;19;A
3139126.0;236040,746;147981,866;Rue Douffet;19;B
3139127.0;236018,453;147981,492;Rue Douffet;20;
3139128.0;236043,081;147968,768;Rue Douffet;21;
3139129.0;236018,404;147973,969;Rue Douffet;22;
3139130.0;236043,031;147962,984;Rue Douffet;23;
1461189.0;236015,602;147968,282;Rue Douffet;24;
3139131.0;236038,029;147958,287;Rue Douffet;25;
3139132.0;236004,346;147964,313;Rue Douffet;26;
3139133.0;236037,13;147952,786;Rue Douffet;27;
3139135.0;236037,302;147947,009;Rue Douffet;29;
3139136.0;236036,562;147941,752;Rue Douffet;31;
5212057.0;236031,346;147937,405;Rue Douffet;33;
3139137.0;236029,613;147931,535;Rue Douffet;35;
3139138.0;235970,673;147947,725;Rue Douffet;36;
3139139.0;236030,553;147923,37;Rue Douffet;37;
3139140.0;236007,057;147921,074;Rue Douffet;38;
3139141.0;236029,46;147916,196;Rue Douffet;39;
3139142.0;236001,467;147903,77;Rue Douffet;40;
3139144.0;236029,177;147910,23;Rue Douffet;41;
3139145.0;236001,373;147897,34;Rue Douffet;42;
3139146.0;236030,605;147903,843;Rue Douffet;43;
3139147.0;236000,158;147891,003;Rue Douffet;44;
5212063.0;236025,346;147898,954;Rue Douffet;45;
3139148.0;236026,48;147894,874;Rue Douffet;47;
3139149.0;236028,086;147888,33;Rue Douffet;49;
4155844.0;236022,186;147883,106;Rue Douffet;51;
3139150.0;236020,709;147878,614;Rue Douffet;53;
5212071.0;236019,566;147871,723;Rue Douffet;57;
3139152.0;236018,832;147863,724;Rue Douffet;61;
5212075.0;236014,143;147860,405;Rue Douffet;63;
3139153.0;236012,666;147855,824;Rue Douffet;65;
3139154.0;236012,031;147849,974;Rue Douffet;67;
5212083.0;236011,126;147844,099;Rue Douffet;69;
1461209.0;236007,761;147833,873;Rue Douffet;73;
3139157.0;235976,296;147891,02;Rue Douffet;82;
4194784.0;235995,999;147877,379;Rue Douffet;84;
3139159.0;235988,894;147862,123;Rue Douffet;88;
3139160.0;235993,263;147850,933;Rue Douffet;90;
1474029.0;235987,159;147832,489;Rue Douffet;94;
680345.0;235982,816;147824,614;Rue Douffet;98;
3139122.0;236008,007;148002,245;Rue Douffet;16;
3139158.0;235972,595;147871,157;Rue Douffet;86;
