OpdrachtID,Projectnummer,Straat,Huisnummer,"Huisnummer Toevoeging",Postcode,Plaats,xPos,yPos,Opdrachtnummer,"LAM MK",Opdrachttemplate
774400,"ANTWERPEN-WEST - FH09",Schermersstraat,39,,2000,Antwerpen,,,NB-Antw3926a921,NB-Antw3926a921,"BUILDING template"
774145,"ANTWERPEN-WEST - FH09",Frankrijklei,96,B,2000,Antwerpen,,,NB-Antw96Bd263,NB-Antw96Bd263,"BUILDING template"
774402,"ANTWERPEN-WEST - FH09",Schuttershofstraat,2,,2000,Antwerpen,,,NB-Antw23beb36,NB-Antw23beb36,"BUILDING template"
774147,"ANTWERPEN-WEST - FH09",Frankrijklei,96,,2000,Antwerpen,,,NB-Antw965f9386,NB-Antw965f9386,"BUILDING template"
774149,"ANTWERPEN-WEST - FH09",Frankrijklei,104,A,2000,Antwerpen,,,NB-Antw104A6700,NB-Antw104A6700,"BUILDING template"
774151,"ANTWERPEN-WEST - FH09",Frankrijklei,118,,2000,Antwerpen,,,NB-Antw118894927,NB-Antw118894927,"BUILDING template"
774407,"ANTWERPEN-WEST - FH09",Schuttershofstraat,12,,2000,Antwerpen,,,NB-Antw12510361,NB-Antw12510361,"BUILDING template"
774153,"ANTWERPEN-WEST - FH09",Frankrijklei,120,A,2000,Antwerpen,,,NB-Antw120A1043,NB-Antw120A1043,"BUILDING template"
774409,"ANTWERPEN-WEST - FH09",Schuttershofstraat,24,,2000,Antwerpen,,,NB-Antw246a1074,NB-Antw246a1074,"BUILDING template"
774155,"ANTWERPEN-WEST - FH09",Frankrijklei,122,A,2000,Antwerpen,,,NB-Antw122A5266,NB-Antw122A5266,"BUILDING template"
774411,"ANTWERPEN-WEST - FH09",Schuttershofstraat,34,,2000,Antwerpen,,,NB-Antw347e0292,NB-Antw347e0292,"BUILDING template"
774157,"ANTWERPEN-WEST - FH09",Frankrijklei,128,A,2000,Antwerpen,,,NB-Antw128Af482,NB-Antw128Af482,"BUILDING template"
774413,"ANTWERPEN-WEST - FH09",Schuttershofstraat,48,A,2000,Antwerpen,,,NB-Antw48Aff13,NB-Antw48Aff13,"BUILDING template"
774159,"ANTWERPEN-WEST - FH09",Frankrijklei,158,,2000,Antwerpen,,,NB-Antw158ebb206,NB-Antw158ebb206,"BUILDING template"
774415,"ANTWERPEN-WEST - FH09",Sint-Jorispoort,6,,2000,Antwerpen,,,NB-Antw6ac2735,NB-Antw6ac2735,"BUILDING template"
774161,"ANTWERPEN-WEST - FH09",Frankrijklei,162,,2000,Antwerpen,,,NB-Antw162001820,NB-Antw162001820,"BUILDING template"
774417,"ANTWERPEN-WEST - FH09",Sint-Jorispoort,37,A,2000,Antwerpen,,,NB-Antw37Aa552,NB-Antw37Aa552,"BUILDING template"
774163,"ANTWERPEN-WEST - FH09",Graanmarkt,6,,2000,Antwerpen,,,NB-Antw618e543,NB-Antw618e543,"BUILDING template"
774419,"ANTWERPEN-WEST - FH09",Sint-Jorispoort,39,A,2000,Antwerpen,,,NB-Antw39Ae776,NB-Antw39Ae776,"BUILDING template"
774165,"ANTWERPEN-WEST - FH09",Graanmarkt,11,,2000,Antwerpen,,,NB-Antw112ec163,NB-Antw112ec163,"BUILDING template"
774421,"ANTWERPEN-WEST - FH09",Sint-Maartenstraat,1,,2000,Antwerpen,,,NB-Antw1f01d87,NB-Antw1f01d87,"BUILDING template"
774167,"ANTWERPEN-WEST - FH09","Henri Van Heurckstraat",1,,2000,Antwerpen,,,NB-Antw1493f05,NB-Antw1493f05,"BUILDING template"
774423,"ANTWERPEN-WEST - FH09",Tabakvest,13,,2000,Antwerpen,,,NB-Antw1302a014,NB-Antw1302a014,"BUILDING template"
774169,"ANTWERPEN-WEST - FH09","Henri Van Heurckstraat",2,,2000,Antwerpen,,,NB-Antw2f03754,NB-Antw2f03754,"BUILDING template"
774425,"ANTWERPEN-WEST - FH09",Tabakvest,19,,2000,Antwerpen,,,NB-Antw191cdf33,NB-Antw191cdf33,"BUILDING template"
774171,"ANTWERPEN-WEST - FH09","Henri Van Heurckstraat",4,,2000,Antwerpen,,,NB-Antw4081955,NB-Antw4081955,"BUILDING template"
774173,"ANTWERPEN-WEST - FH09","Henri Van Heurckstraat",6,,2000,Antwerpen,,,NB-Antw61cbb95,NB-Antw61cbb95,"BUILDING template"
774175,"ANTWERPEN-WEST - FH09","Henri Van Heurckstraat",8,,2000,Antwerpen,,,NB-Antw834ef96,NB-Antw834ef96,"BUILDING template"
774432,"ANTWERPEN-WEST - FH09",Tabakvest,21,,2000,Antwerpen,,,NB-Antw2139f955,NB-Antw2139f955,"BUILDING template"
774434,"ANTWERPEN-WEST - FH09",Tabakvest,23,,2000,Antwerpen,,,NB-Antw234d9068,NB-Antw234d9068,"BUILDING template"
774436,"ANTWERPEN-WEST - FH09",Tabakvest,25,,2000,Antwerpen,,,NB-Antw2561eb85,NB-Antw2561eb85,"BUILDING template"
774438,"ANTWERPEN-WEST - FH09",Tabakvest,30,A,2000,Antwerpen,,,NB-Antw30A7705,NB-Antw30A7705,"BUILDING template"
774184,"ANTWERPEN-WEST - FH09","Henri Van Heurckstraat",12,,2000,Antwerpen,,,NB-Antw124b0506,NB-Antw124b0506,"BUILDING template"
774440,"ANTWERPEN-WEST - FH09",Tabakvest,30,E,2000,Antwerpen,,,NB-Antw30E5929,NB-Antw30E5929,"BUILDING template"
774186,"ANTWERPEN-WEST - FH09","Henri Van Heurckstraat",14,,2000,Antwerpen,,,NB-Antw14659025,NB-Antw14659025,"BUILDING template"
774442,"ANTWERPEN-WEST - FH09",Tabakvest,31,,2000,Antwerpen,,,NB-Antw31a4da41,NB-Antw31a4da41,"BUILDING template"
774188,"ANTWERPEN-WEST - FH09","Henri Van Heurckstraat",16,,2000,Antwerpen,,,NB-Antw167d8049,NB-Antw167d8049,"BUILDING template"
774444,"ANTWERPEN-WEST - FH09",Tabakvest,32,,2000,Antwerpen,,,NB-Antw32b83b65,NB-Antw32b83b65,"BUILDING template"
774190,"ANTWERPEN-WEST - FH09","Henri Van Heurckstraat",18,,2000,Antwerpen,,,NB-Antw18937e61,NB-Antw18937e61,"BUILDING template"
774446,"ANTWERPEN-WEST - FH09",Tabakvest,35,,2000,Antwerpen,,,NB-Antw35cec680,NB-Antw35cec680,"BUILDING template"
774192,"ANTWERPEN-WEST - FH09",Hopland,6,,2000,Antwerpen,,,NB-Antw6a84d83,NB-Antw6a84d83,"BUILDING template"
774448,"ANTWERPEN-WEST - FH09",Tabakvest,41,,2000,Antwerpen,,,NB-Antw41e59405,NB-Antw41e59405,"BUILDING template"
774194,"ANTWERPEN-WEST - FH09",Hopland,18,,2000,Antwerpen,,,NB-Antw18bc6d00,NB-Antw18bc6d00,"BUILDING template"
774450,"ANTWERPEN-WEST - FH09",Tabakvest,43,,2000,Antwerpen,,,NB-Antw43facb20,NB-Antw43facb20,"BUILDING template"
774196,"ANTWERPEN-WEST - FH09",Hopland,30,,2000,Antwerpen,,,NB-Antw30f1ae43,NB-Antw30f1ae43,"BUILDING template"
774198,"ANTWERPEN-WEST - FH09",Hopland,40,,2000,Antwerpen,,,NB-Antw40061b67,NB-Antw40061b67,"BUILDING template"
774455,"ANTWERPEN-WEST - FH09",Tabakvest,47,,2000,Antwerpen,,,NB-Antw47134138,NB-Antw47134138,"BUILDING template"
774200,"ANTWERPEN-WEST - FH09",Huidevettersstraat,53,A,2000,Antwerpen,,,NB-Antw53A9084,NB-Antw53A9084,"BUILDING template"
774457,"ANTWERPEN-WEST - FH09",Tabakvest,47,A,2000,Antwerpen,,,NB-Antw47Aa455,NB-Antw47Aa455,"BUILDING template"
774202,"ANTWERPEN-WEST - FH09",Huidevettersstraat,57,,2000,Antwerpen,,,NB-Antw5736f706,NB-Antw5736f706,"BUILDING template"
774459,"ANTWERPEN-WEST - FH09",Tabakvest,49,,2000,Antwerpen,,,NB-Antw493f7579,NB-Antw493f7579,"BUILDING template"
774204,"ANTWERPEN-WEST - FH09",Huidevettersstraat,59,,2000,Antwerpen,,,NB-Antw594c2d20,NB-Antw594c2d20,"BUILDING template"
774461,"ANTWERPEN-WEST - FH09",Tabakvest,50,,2000,Antwerpen,,,NB-Antw50532113,NB-Antw50532113,"BUILDING template"
774206,"ANTWERPEN-WEST - FH09",Kelderstraat,8,,2000,Antwerpen,,,NB-Antw8604a42,NB-Antw8604a42,"BUILDING template"
774463,"ANTWERPEN-WEST - FH09",Tabakvest,50,A,2000,Antwerpen,,,NB-Antw50A8935,NB-Antw50A8935,"BUILDING template"
774465,"ANTWERPEN-WEST - FH09",Tabakvest,50,C,2000,Antwerpen,,,NB-Antw50C1458,NB-Antw50C1458,"BUILDING template"
774210,"ANTWERPEN-WEST - FH09",Kelderstraat,11,,2000,Antwerpen,,,NB-Antw11794562,NB-Antw11794562,"BUILDING template"
774467,"ANTWERPEN-WEST - FH09",Tabakvest,52,,2000,Antwerpen,,,NB-Antw52b4e776,NB-Antw52b4e776,"BUILDING template"
774213,"ANTWERPEN-WEST - FH09",Komedieplaats,8,,2000,Antwerpen,,,NB-Antw894a784,NB-Antw894a784,"BUILDING template"
774469,"ANTWERPEN-WEST - FH09",Tabakvest,54,,2000,Antwerpen,,,NB-Antw54c8e390,NB-Antw54c8e390,"BUILDING template"
774215,"ANTWERPEN-WEST - FH09",Komedieplaats,11,,2000,Antwerpen,,,NB-Antw11aa8c04,NB-Antw11aa8c04,"BUILDING template"
774471,"ANTWERPEN-WEST - FH09",Tabakvest,54,A,2000,Antwerpen,,,NB-Antw54A2f14,NB-Antw54A2f14,"BUILDING template"
774217,"ANTWERPEN-WEST - FH09",Komedieplaats,15,,2000,Antwerpen,,,NB-Antw15c36330,NB-Antw15c36330,"BUILDING template"
774473,"ANTWERPEN-WEST - FH09",Tabakvest,54,C,2000,Antwerpen,,,NB-Antw54Cee26,NB-Antw54Cee26,"BUILDING template"
774219,"ANTWERPEN-WEST - FH09",Komedieplaats,16,,2000,Antwerpen,,,NB-Antw16dc1b43,NB-Antw16dc1b43,"BUILDING template"
774475,"ANTWERPEN-WEST - FH09",Tabakvest,54,D,2000,Antwerpen,,,NB-Antw54D6748,NB-Antw54D6748,"BUILDING template"
774221,"ANTWERPEN-WEST - FH09","Lange Gasthuisstraat",3,,2000,Antwerpen,,,NB-Antw3f19966,NB-Antw3f19966,"BUILDING template"
774477,"ANTWERPEN-WEST - FH09",Tabakvest,59,A,2000,Antwerpen,,,NB-Antw59A1f63,NB-Antw59A1f63,"BUILDING template"
774223,"ANTWERPEN-WEST - FH09","Lange Gasthuisstraat",11,,2000,Antwerpen,,,NB-Antw1109e182,NB-Antw1109e182,"BUILDING template"
774225,"ANTWERPEN-WEST - FH09","Lange Gasthuisstraat",15,A,2000,Antwerpen,,,NB-Antw15A9b99,NB-Antw15A9b99,"BUILDING template"
774481,"ANTWERPEN-WEST - FH09",Tabakvest,63,,2000,Antwerpen,,,NB-Antw63313687,NB-Antw63313687,"BUILDING template"
774227,"ANTWERPEN-WEST - FH09","Lange Gasthuisstraat",15,B,2000,Antwerpen,,,NB-Antw15B9617,NB-Antw15B9617,"BUILDING template"
774483,"ANTWERPEN-WEST - FH09",Tabakvest,67,,2000,Antwerpen,,,NB-Antw67435700,NB-Antw67435700,"BUILDING template"
774229,"ANTWERPEN-WEST - FH09","Lange Gasthuisstraat",17,,2000,Antwerpen,,,NB-Antw17470a38,NB-Antw17470a38,"BUILDING template"
774485,"ANTWERPEN-WEST - FH09",Tabakvest,71,A,2000,Antwerpen,,,NB-Antw71A5a22,NB-Antw71A5a22,"BUILDING template"
774231,"ANTWERPEN-WEST - FH09","Lange Gasthuisstraat",21,,2000,Antwerpen,,,NB-Antw215b6556,NB-Antw215b6556,"BUILDING template"
774487,"ANTWERPEN-WEST - FH09",Tabakvest,75,,2000,Antwerpen,,,NB-Antw7570a933,NB-Antw7570a933,"BUILDING template"
774233,"ANTWERPEN-WEST - FH09","Lange Gasthuisstraat",25,,2000,Antwerpen,,,NB-Antw25750678,NB-Antw25750678,"BUILDING template"
774489,"ANTWERPEN-WEST - FH09",Tabakvest,77,,2000,Antwerpen,,,NB-Antw7781cb56,NB-Antw7781cb56,"BUILDING template"
774235,"ANTWERPEN-WEST - FH09","Lange Gasthuisstraat",31,,2000,Antwerpen,,,NB-Antw318b4094,NB-Antw318b4094,"BUILDING template"
774492,"ANTWERPEN-WEST - FH09",Tabakvest,94,,2000,Antwerpen,,,NB-Antw9497fb70,NB-Antw9497fb70,"BUILDING template"
774237,"ANTWERPEN-WEST - FH09","Lange Gasthuisstraat",37,,2000,Antwerpen,,,NB-Antw37a2a813,NB-Antw37a2a813,"BUILDING template"
774239,"ANTWERPEN-WEST - FH09","Lange Gasthuisstraat",41,,2000,Antwerpen,,,NB-Antw41b7a535,NB-Antw41b7a535,"BUILDING template"
774241,"ANTWERPEN-WEST - FH09","Lange Gasthuisstraat",45,,2000,Antwerpen,,,NB-Antw45d26957,NB-Antw45d26957,"BUILDING template"
774243,"ANTWERPEN-WEST - FH09","Lange Gasthuisstraat",51,,2000,Antwerpen,,,NB-Antw51e89473,NB-Antw51e89473,"BUILDING template"
774500,"ANTWERPEN-WEST - FH09",Tabakvest,98,,2000,Antwerpen,,,NB-Antw98ad1c86,NB-Antw98ad1c86,"BUILDING template"
774245,"ANTWERPEN-WEST - FH09",Langegang,3,,2000,Antwerpen,,,NB-Antw300c096,NB-Antw300c096,"BUILDING template"
774502,"ANTWERPEN-WEST - FH09",Tabakvest,102,,2000,Antwerpen,,,NB-Antw102be7200,NB-Antw102be7200,"BUILDING template"
774504,"ANTWERPEN-WEST - FH09",Tabakvest,106,,2000,Antwerpen,,,NB-Antw106d2dc19,NB-Antw106d2dc19,"BUILDING template"
774249,"ANTWERPEN-WEST - FH09",Langegang,27,,2000,Antwerpen,,,NB-Antw27180a12,NB-Antw27180a12,"BUILDING template"
774251,"ANTWERPEN-WEST - FH09",Leopoldplaats,6,A,2000,Antwerpen,,,NB-Antw6Ad034,NB-Antw6Ad034,"BUILDING template"
774508,"ANTWERPEN-WEST - FH09",Tabakvest,108,,2000,Antwerpen,,,NB-Antw108e68734,NB-Antw108e68734,"BUILDING template"
774253,"ANTWERPEN-WEST - FH09",Leopoldplaats,7,,2000,Antwerpen,,,NB-Antw744e857,NB-Antw744e857,"BUILDING template"
774510,"ANTWERPEN-WEST - FH09",Tabakvest,112,B,2000,Antwerpen,,,NB-Antw112Bc858,NB-Antw112Bc858,"BUILDING template"
774255,"ANTWERPEN-WEST - FH09",Leopoldstraat,1,,2000,Antwerpen,,,NB-Antw1603281,NB-Antw1603281,"BUILDING template"
774512,"ANTWERPEN-WEST - FH09",Tabakvest,112,C,2000,Antwerpen,,,NB-Antw112C8767,NB-Antw112C8767,"BUILDING template"
774257,"ANTWERPEN-WEST - FH09",Leopoldstraat,3,,2000,Antwerpen,,,NB-Antw378f299,NB-Antw378f299,"BUILDING template"
774514,"ANTWERPEN-WEST - FH09",Tabakvest,112,D,2000,Antwerpen,,,NB-Antw112D9690,NB-Antw112D9690,"BUILDING template"
774259,"ANTWERPEN-WEST - FH09",Leopoldstraat,4,,2000,Antwerpen,,,NB-Antw4911822,NB-Antw4911822,"BUILDING template"
774516,"ANTWERPEN-WEST - FH09",Tabakvest,114,,2000,Antwerpen,,,NB-Antw11433a701,NB-Antw11433a701,"BUILDING template"
774518,"ANTWERPEN-WEST - FH09",Tabakvest,122,,2000,Antwerpen,,,NB-Antw122460f23,NB-Antw122460f23,"BUILDING template"
774264,"ANTWERPEN-WEST - FH09",Leopoldstraat,11,,2000,Antwerpen,,,NB-Antw11a98335,NB-Antw11a98335,"BUILDING template"
774520,"ANTWERPEN-WEST - FH09","Willem Tellstraat",1,,2000,Antwerpen,,,NB-Antw15bf237,NB-Antw15bf237,"BUILDING template"
774266,"ANTWERPEN-WEST - FH09",Leopoldstraat,28,,2000,Antwerpen,,,NB-Antw28bcd557,NB-Antw28bcd557,"BUILDING template"
774268,"ANTWERPEN-WEST - FH09",Leopoldstraat,31,A,2000,Antwerpen,,,NB-Antw31Aa873,NB-Antw31Aa873,"BUILDING template"
774270,"ANTWERPEN-WEST - FH09",Leopoldstraat,34,,2000,Antwerpen,,,NB-Antw34e89994,NB-Antw34e89994,"BUILDING template"
774272,"ANTWERPEN-WEST - FH09",Leopoldstraat,41,,2000,Antwerpen,,,NB-Antw41fecd08,NB-Antw41fecd08,"BUILDING template"
774274,"ANTWERPEN-WEST - FH09",Leopoldstraat,43,A,2000,Antwerpen,,,NB-Antw43A9433,NB-Antw43A9433,"BUILDING template"
774276,"ANTWERPEN-WEST - FH09",Leopoldstraat,45,,2000,Antwerpen,,,NB-Antw45286255,NB-Antw45286255,"BUILDING template"
774278,"ANTWERPEN-WEST - FH09",Leopoldstraat,49,,2000,Antwerpen,,,NB-Antw49497378,NB-Antw49497378,"BUILDING template"
774280,"ANTWERPEN-WEST - FH09",Leopoldstraat,51,A,2000,Antwerpen,,,NB-Antw51Ac196,NB-Antw51Ac196,"BUILDING template"
774282,"ANTWERPEN-WEST - FH09",Leopoldstraat,73,,2000,Antwerpen,,,NB-Antw73790e17,NB-Antw73790e17,"BUILDING template"
774295,"ANTWERPEN-WEST - FH09","Maria Pijpelincxstraat",1,,2000,Antwerpen,,,NB-Antw191fe35,NB-Antw191fe35,"BUILDING template"
774297,"ANTWERPEN-WEST - FH09","Maria Pijpelincxstraat",6,,2000,Antwerpen,,,NB-Antw6a72758,NB-Antw6a72758,"BUILDING template"
774299,"ANTWERPEN-WEST - FH09","Maria Pijpelincxstraat",8,,2000,Antwerpen,,,NB-Antw8bd8a75,NB-Antw8bd8a75,"BUILDING template"
774303,"ANTWERPEN-WEST - FH09",Mechelseplein,3,,2000,Antwerpen,,,NB-Antw307ab36,NB-Antw307ab36,"BUILDING template"
774305,"ANTWERPEN-WEST - FH09",Mechelseplein,5,,2000,Antwerpen,,,NB-Antw51d7c57,NB-Antw51d7c57,"BUILDING template"
774307,"ANTWERPEN-WEST - FH09",Mechelseplein,11,,2000,Antwerpen,,,NB-Antw11355d74,NB-Antw11355d74,"BUILDING template"
774309,"ANTWERPEN-WEST - FH09",Mechelseplein,27,,2000,Antwerpen,,,NB-Antw2748da93,NB-Antw2748da93,"BUILDING template"
774311,"ANTWERPEN-WEST - FH09",Meistraat,2,,2000,Antwerpen,,,NB-Antw27a7739,NB-Antw27a7739,"BUILDING template"
774313,"ANTWERPEN-WEST - FH09",Meistraat,5,,2000,Antwerpen,,,NB-Antw5970060,NB-Antw5970060,"BUILDING template"
774315,"ANTWERPEN-WEST - FH09",Meistraat,5,A,2000,Antwerpen,,,NB-Antw5A9074,NB-Antw5A9074,"BUILDING template"
774317,"ANTWERPEN-WEST - FH09",Meistraat,7,,2000,Antwerpen,,,NB-Antw7be9397,NB-Antw7be9397,"BUILDING template"
774319,"ANTWERPEN-WEST - FH09",Meistraat,35,,2000,Antwerpen,,,NB-Antw35d28d08,NB-Antw35d28d08,"BUILDING template"
774321,"ANTWERPEN-WEST - FH09",Meistraat,39,A,2000,Antwerpen,,,NB-Antw39A2829,NB-Antw39A2829,"BUILDING template"
774323,"ANTWERPEN-WEST - FH09",Nieuwstad,2,A,2000,Antwerpen,,,NB-Antw2A8451,NB-Antw2A8451,"BUILDING template"
774325,"ANTWERPEN-WEST - FH09",Nieuwstad,4,A,2000,Antwerpen,,,NB-Antw4A0373,NB-Antw4A0373,"BUILDING template"
774327,"ANTWERPEN-WEST - FH09",Nieuwstad,20,A,2000,Antwerpen,,,NB-Antw20Ab891,NB-Antw20Ab891,"BUILDING template"
774073,"ANTWERPEN-WEST - FH09",Arenbergstraat,2,,2000,Antwerpen,,,NB-Antw20c9036,NB-Antw20c9036,"BUILDING template"
774329,"ANTWERPEN-WEST - FH09",Orgelstraat,2,A,2000,Antwerpen,,,NB-Antw2A4d17,NB-Antw2A4d17,"BUILDING template"
774331,"ANTWERPEN-WEST - FH09",Orgelstraat,3,A,2000,Antwerpen,,,NB-Antw3A3631,NB-Antw3A3631,"BUILDING template"
774333,"ANTWERPEN-WEST - FH09",Oudevaartplaats,2,,2000,Antwerpen,,,NB-Antw2777855,NB-Antw2777855,"BUILDING template"
774079,"ANTWERPEN-WEST - FH09",Arenbergstraat,2,A,2000,Antwerpen,,,NB-Antw2A8357,NB-Antw2A8357,"BUILDING template"
774335,"ANTWERPEN-WEST - FH09",Oudevaartplaats,16,,2000,Antwerpen,,,NB-Antw168ad967,NB-Antw168ad967,"BUILDING template"
774081,"ANTWERPEN-WEST - FH09",Arenbergstraat,5,,2000,Antwerpen,,,NB-Antw57e2677,NB-Antw57e2677,"BUILDING template"
774083,"ANTWERPEN-WEST - FH09",Arenbergstraat,7,,2000,Antwerpen,,,NB-Antw79bf703,NB-Antw79bf703,"BUILDING template"
774085,"ANTWERPEN-WEST - FH09",Arenbergstraat,8,,2000,Antwerpen,,,NB-Antw8b51b59,NB-Antw8b51b59,"BUILDING template"
774091,"ANTWERPEN-WEST - FH09",Arenbergstraat,14,,2000,Antwerpen,,,NB-Antw14ce8060,NB-Antw14ce8060,"BUILDING template"
774348,"ANTWERPEN-WEST - FH09",Oudevaartplaats,32,,2000,Antwerpen,,,NB-Antw32a01588,NB-Antw32a01588,"BUILDING template"
774093,"ANTWERPEN-WEST - FH09",Arenbergstraat,16,A,2000,Antwerpen,,,NB-Antw16A3a66,NB-Antw16A3a66,"BUILDING template"
774350,"ANTWERPEN-WEST - FH09",Oudevaartplaats,34,,2000,Antwerpen,,,NB-Antw34b4fa02,NB-Antw34b4fa02,"BUILDING template"
774095,"ANTWERPEN-WEST - FH09",Arenbergstraat,28,,2000,Antwerpen,,,NB-Antw2804f690,NB-Antw2804f690,"BUILDING template"
774352,"ANTWERPEN-WEST - FH09",Oudevaartplaats,37,,2000,Antwerpen,,,NB-Antw37c93426,NB-Antw37c93426,"BUILDING template"
774097,"ANTWERPEN-WEST - FH09",Arenbergstraat,32,,2000,Antwerpen,,,NB-Antw321a7205,NB-Antw321a7205,"BUILDING template"
774099,"ANTWERPEN-WEST - FH09",Arenbergstraat,34,,2000,Antwerpen,,,NB-Antw344bad50,NB-Antw344bad50,"BUILDING template"
774101,"ANTWERPEN-WEST - FH09",Arenbergstraat,38,,2000,Antwerpen,,,NB-Antw38651275,NB-Antw38651275,"BUILDING template"
774357,"ANTWERPEN-WEST - FH09",Oudevaartplaats,40,,2000,Antwerpen,,,NB-Antw40df4e38,NB-Antw40df4e38,"BUILDING template"
774103,"ANTWERPEN-WEST - FH09",Bourlastraat,1,A,2000,Antwerpen,,,NB-Antw1A9f90,NB-Antw1A9f90,"BUILDING template"
774105,"ANTWERPEN-WEST - FH09",Bourlastraat,11,,2000,Antwerpen,,,NB-Antw11967411,NB-Antw11967411,"BUILDING template"
774107,"ANTWERPEN-WEST - FH09",Bourlastraat,15,,2000,Antwerpen,,,NB-Antw15acb331,NB-Antw15acb331,"BUILDING template"
774368,"ANTWERPEN-WEST - FH09",Oudevaartplaats,42,,2000,Antwerpen,,,NB-Antw42f68c62,NB-Antw42f68c62,"BUILDING template"
774370,"ANTWERPEN-WEST - FH09",Oudevaartplaats,45,,2000,Antwerpen,,,NB-Antw450a9795,NB-Antw450a9795,"BUILDING template"
774372,"ANTWERPEN-WEST - FH09",Oudevaartplaats,46,,2000,Antwerpen,,,NB-Antw463ba421,NB-Antw463ba421,"BUILDING template"
774374,"ANTWERPEN-WEST - FH09",Oudevaartplaats,50,,2000,Antwerpen,,,NB-Antw50522645,NB-Antw50522645,"BUILDING template"
774376,"ANTWERPEN-WEST - FH09",Oudevaartplaats,51,,2000,Antwerpen,,,NB-Antw516a2a55,NB-Antw516a2a55,"BUILDING template"
774378,"ANTWERPEN-WEST - FH09",Oudevaartplaats,52,,2000,Antwerpen,,,NB-Antw527d2b77,NB-Antw527d2b77,"BUILDING template"
774380,"ANTWERPEN-WEST - FH09",Oudevaartplaats,54,,2000,Antwerpen,,,NB-Antw5499cd95,NB-Antw5499cd95,"BUILDING template"
774382,"ANTWERPEN-WEST - FH09",Oudevaartplaats,57,,2000,Antwerpen,,,NB-Antw57adf614,NB-Antw57adf614,"BUILDING template"
774384,"ANTWERPEN-WEST - FH09",Oudevaartplaats,62,A,2000,Antwerpen,,,NB-Antw62A0631,NB-Antw62A0631,"BUILDING template"
774135,"ANTWERPEN-WEST - FH09",Frankrijklei,76,,2000,Antwerpen,,,NB-Antw76c55957,NB-Antw76c55957,"BUILDING template"
774392,"ANTWERPEN-WEST - FH09",Oudevaartplaats,72,,2000,Antwerpen,,,NB-Antw72d62e51,NB-Antw72d62e51,"BUILDING template"
774137,"ANTWERPEN-WEST - FH09",Frankrijklei,82,A,2000,Antwerpen,,,NB-Antw82A9c71,NB-Antw82A9c71,"BUILDING template"
774394,"ANTWERPEN-WEST - FH09",Schermersstraat,19,,2000,Antwerpen,,,NB-Antw19ec3967,NB-Antw19ec3967,"BUILDING template"
774139,"ANTWERPEN-WEST - FH09",Frankrijklei,86,B,2000,Antwerpen,,,NB-Antw86Bd895,NB-Antw86Bd895,"BUILDING template"
774396,"ANTWERPEN-WEST - FH09",Schermersstraat,35,,2000,Antwerpen,,,NB-Antw35ffc383,NB-Antw35ffc383,"BUILDING template"
774141,"ANTWERPEN-WEST - FH09",Frankrijklei,86,C,2000,Antwerpen,,,NB-Antw86Ce022,NB-Antw86Ce022,"BUILDING template"
774398,"ANTWERPEN-WEST - FH09",Schermersstraat,37,,2000,Antwerpen,,,NB-Antw3711d799,NB-Antw3711d799,"BUILDING template"
774143,"ANTWERPEN-WEST - FH09",Frankrijklei,94,,2000,Antwerpen,,,NB-Antw942ede42,NB-Antw942ede42,"BUILDING template"
